mass element = 1.6314814814814815 M_sun
   t [s]      T [K]      rho [g/cm^3]      r [cm]      Ye   Entropy: S =    4.239435596318174     k  
  0.0000000000E+00	  1.4566254595E+09	  2.5222497486E+05	  5.3437500000E+08	  4.9903645566E-01
  1.0000615727E-02	  1.4565874791E+09	  2.5220344066E+05	  5.3437500000E+08	  4.9903642663E-01
  2.0001675152E-02	  1.4565295318E+09	  2.5217103159E+05	  5.3437500000E+08	  4.9903638996E-01
  3.0000780099E-02	  1.4564018821E+09	  2.5210643843E+05	  5.3437500000E+08	  4.9903634537E-01
  4.0001839524E-02	  1.4561589933E+09	  2.5199468660E+05	  5.3437500000E+08	  4.9903629259E-01
  5.0000944471E-02	  1.4558261858E+09	  2.5184027899E+05	  5.3437500000E+08	  4.9903623140E-01
  6.0000049419E-02	  1.4554589610E+09	  2.5166928372E+05	  5.3437500000E+08	  4.9903616136E-01
  7.0001108844E-02	  1.4551394526E+09	  2.5152041580E+05	  5.3437500000E+08	  4.9903608174E-01
  8.0000213791E-02	  1.4549360880E+09	  2.5142599717E+05	  5.3437500000E+08	  4.9903599162E-01
  9.0001273216E-02	  1.4548671173E+09	  2.5139464570E+05	  5.3437500000E+08	  4.9903588986E-01
  1.0000037816E-01	  1.4548944725E+09	  2.5140828878E+05	  5.3437500000E+08	  4.9903577541E-01
  1.1000143759E-01	  1.4549481894E+09	  2.5143368129E+05	  5.2812500000E+08	  4.9903580735E-01
  1.2000054254E-01	  1.4549401811E+09	  2.5142959501E+05	  5.2812500000E+08	  4.9903591314E-01
  1.3000160196E-01	  1.4548373903E+09	  2.5138023710E+05	  5.2812500000E+08	  4.9903601474E-01
  1.4000070691E-01	  1.4546635548E+09	  2.5129662021E+05	  5.2812500000E+08	  4.9903611110E-01
  1.5000176633E-01	  1.4544739943E+09	  2.5120491140E+05	  5.2812500000E+08	  4.9903620126E-01
  1.6000087128E-01	  1.4543240856E+09	  2.5113151343E+05	  5.2812500000E+08	  4.9903628414E-01
  1.7000095347E-01	  1.4542422429E+09	  2.5109009303E+05	  5.2812500000E+08	  4.9903635856E-01
  1.8000005841E-01	  1.4542204371E+09	  2.5107687360E+05	  5.2812500000E+08	  4.9903642310E-01
  1.9000014060E-01	  1.4542226807E+09	  2.5107451177E+05	  5.2812500000E+08	  4.9903647612E-01
  2.0000022278E-01	  1.4542057152E+09	  2.5106192300E+05	  5.2812500000E+08	  4.9903651578E-01
  2.1000030497E-01	  1.4541404071E+09	  2.5102459055E+05	  5.2812500000E+08	  4.9903654012E-01
  2.2000038716E-01	  1.4540158941E+09	  2.5096013697E+05	  5.2812500000E+08	  4.9903654720E-01
  2.3000046934E-01	  1.4538328870E+09	  2.5087721943E+05	  5.2812500000E+08	  4.9903653513E-01
  2.4000006291E-01	  1.4536391074E+09	  2.5078977946E+05	  5.2812500000E+08	  4.9903650213E-01
  2.5000014509E-01	  1.4534595464E+09	  2.5070950923E+05	  5.2812500000E+08	  4.9903644639E-01
  2.6000022728E-01	  1.4533048194E+09	  2.5064119081E+05	  5.2812500000E+08	  4.9903636611E-01
  2.7000030947E-01	  1.4531702965E+09	  2.5058227770E+05	  5.2812500000E+08	  4.9903625947E-01
  2.8000039165E-01	  1.4530419040E+09	  2.5052567539E+05	  5.2812500000E+08	  4.9903612466E-01
  2.9000047384E-01	  1.4529023853E+09	  2.5046274647E+05	  5.2812500000E+08	  4.9903596005E-01
  3.0000006741E-01	  1.4527608723E+09	  2.5039388507E+05	  5.2187500000E+08	  4.9903601091E-01
  3.1000014959E-01	  1.4526121240E+09	  2.5031839480E+05	  5.2187500000E+08	  4.9903615375E-01
  3.2000023178E-01	  1.4524524396E+09	  2.5023593777E+05	  5.2187500000E+08	  4.9903627823E-01
  3.3000031397E-01	  1.4522816599E+09	  2.5014603990E+05	  5.2187500000E+08	  4.9903638130E-01
  3.4000039615E-01	  1.4520979174E+09	  2.5004724293E+05	  5.2187500000E+08	  4.9903645978E-01
  3.5000047834E-01	  1.4518856852E+09	  2.4993901950E+05	  5.2187500000E+08	  4.9903651044E-01
  3.6000007191E-01	  1.4516412692E+09	  2.4982332449E+05	  5.2187500000E+08	  4.9903652999E-01
  3.7000015409E-01	  1.4513861239E+09	  2.4970428747E+05	  5.2187500000E+08	  4.9903651514E-01
  3.8000023628E-01	  1.4511296826E+09	  2.4958594391E+05	  5.2187500000E+08	  4.9903646258E-01
  3.9000031846E-01	  1.4508761465E+09	  2.4946975846E+05	  5.2187500000E+08	  4.9903636911E-01
  4.0000028199E-01	  1.4506188531E+09	  2.4935193761E+05	  5.2187500000E+08	  4.9903623176E-01
  4.1000037133E-01	  1.4503476563E+09	  2.4922694263E+05	  5.2187500000E+08	  4.9903604800E-01
  4.2000028086E-01	  1.4500624077E+09	  2.4909201040E+05	  5.1562500000E+08	  4.9903591814E-01
  4.3000005580E-01	  1.4497870216E+09	  2.4895122430E+05	  5.1562500000E+08	  4.9903612149E-01
  4.4000033296E-01	  1.4494878758E+09	  2.4879758733E+05	  5.1562500000E+08	  4.9903628618E-01
  4.5000035246E-01	  1.4491531935E+09	  2.4863337271E+05	  5.1562500000E+08	  4.9903640713E-01
  4.6000002996E-01	  1.4487961411E+09	  2.4846156211E+05	  5.1562500000E+08	  4.9903647921E-01
  4.7000002504E-01	  1.4484215640E+09	  2.4828407073E+05	  5.1562500000E+08	  4.9903649735E-01
  4.8000026749E-01	  1.4480279473E+09	  2.4809955996E+05	  5.1562500000E+08	  4.9903645672E-01
  4.9000010819E-01	  1.4476088133E+09	  2.4790408221E+05	  5.1562500000E+08	  4.9903635296E-01
  5.0000002879E-01	  1.4471620152E+09	  2.4769555269E+05	  5.1562500000E+08	  4.9903618240E-01
  5.1000016235E-01	  1.4466904515E+09	  2.4747414768E+05	  5.1562500000E+08	  4.9903594250E-01
  5.2000034769E-01	  1.4462462663E+09	  2.4725319188E+05	  5.0937500000E+08	  4.9903606394E-01
  5.3000022949E-01	  1.4457955153E+09	  2.4702928274E+05	  5.0937500000E+08	  4.9903626700E-01
  5.4000031482E-01	  1.4453227334E+09	  2.4679912129E+05	  5.0937500000E+08	  4.9903640268E-01
  5.5000017386E-01	  1.4448219506E+09	  2.4655929979E+05	  5.0937500000E+08	  4.9903646318E-01
  5.6000008950E-01	  1.4442864325E+09	  2.4630571638E+05	  5.0937500000E+08	  4.9903644127E-01
  5.7000033035E-01	  1.4437126350E+09	  2.4603547392E+05	  5.0937500000E+08	  4.9903633082E-01
  5.8000001179E-01	  1.4430975516E+09	  2.4574559979E+05	  5.0937500000E+08	  4.9903612739E-01
  5.9000032777E-01	  1.4424488495E+09	  2.4543568250E+05	  5.0312500000E+08	  4.9903591733E-01
  6.0000020793E-01	  1.4418114247E+09	  2.4511896451E+05	  5.0312500000E+08	  4.9903618256E-01
  6.1000023161E-01	  1.4411253414E+09	  2.4478460867E+05	  5.0312500000E+08	  4.9903635656E-01
  6.2000008696E-01	  1.4403977904E+09	  2.4443513688E+05	  5.0312500000E+08	  4.9903642888E-01
  6.3000016914E-01	  1.4396418505E+09	  2.4407537403E+05	  5.0312500000E+08	  4.9903639024E-01
  6.4000025133E-01	  1.4388700544E+09	  2.4370942817E+05	  5.0312500000E+08	  4.9903623337E-01
  6.5000033351E-01	  1.4380841416E+09	  2.4333582457E+05	  5.0312500000E+08	  4.9903595419E-01
  6.6000041570E-01	  1.4373272067E+09	  2.4296219677E+05	  4.9687500000E+08	  4.9903611721E-01
  6.7000000927E-01	  1.4365301301E+09	  2.4257204101E+05	  4.9687500000E+08	  4.9903632147E-01
  6.8000009145E-01	  1.4356755377E+09	  2.4215999497E+05	  4.9687500000E+08	  4.9903639417E-01
  6.9000017364E-01	  1.4347730755E+09	  2.4172861587E+05	  4.9687500000E+08	  4.9903632391E-01
  7.0000025582E-01	  1.4338301060E+09	  2.4127866225E+05	  4.9687500000E+08	  4.9903610321E-01
  7.1000033801E-01	  1.4328762137E+09	  2.4081542391E+05	  4.9062500000E+08	  4.9903599735E-01
  7.2000042019E-01	  1.4319277295E+09	  2.4034818756E+05	  4.9062500000E+08	  4.9903625731E-01
  7.3000001376E-01	  1.4309314281E+09	  2.3986501464E+05	  4.9062500000E+08	  4.9903635701E-01
  7.4000009594E-01	  1.4298907695E+09	  2.3936496089E+05	  4.9062500000E+08	  4.9903628266E-01
  7.5000017813E-01	  1.4288111746E+09	  2.3884693637E+05	  4.9062500000E+08	  4.9903602628E-01
  7.6000026031E-01	  1.4277507280E+09	  2.3832614020E+05	  4.8437500000E+08	  4.9903608446E-01
  7.7000034250E-01	  1.4266895708E+09	  2.3780550716E+05	  4.8437500000E+08	  4.9903629188E-01
  7.8000042468E-01	  1.4256001047E+09	  2.3727801333E+05	  4.8437500000E+08	  4.9903629966E-01
  7.9000001825E-01	  1.4244914069E+09	  2.3674398725E+05	  4.8437500000E+08	  4.9903609574E-01
  8.0000010044E-01	  1.4234074458E+09	  2.3621336596E+05	  4.7812500000E+08	  4.9903602115E-01
  8.0848644009E-01	  1.4225180910E+09	  2.3577408771E+05	  4.7812500000E+08	  4.9903623497E-01
  8.1000018262E-01	  1.4223574833E+09	  2.3569548262E+05	  4.7812500000E+08	  4.9903625614E-01
  8.2000026481E-01	  1.4212824273E+09	  2.3517321682E+05	  4.7812500000E+08	  4.9903625986E-01
  8.3000034699E-01	  1.4201830142E+09	  2.3464192920E+05	  4.7812500000E+08	  4.9903601965E-01
  8.4000042918E-01	  1.4191079302E+09	  2.3411961344E+05	  4.7343750000E+08	  4.9903577720E-01
  8.5000002274E-01	  1.4179990168E+09	  2.3357532618E+05	  4.7031250000E+08	  4.9903582469E-01
  8.6000010493E-01	  1.4168582500E+09	  2.3301848701E+05	  4.6718750000E+08	  4.9903573376E-01
  8.7000018711E-01	  1.4157094629E+09	  2.3245382578E+05	  4.6718750000E+08	  4.9903581657E-01
  8.8000026930E-01	  1.4145439647E+09	  2.3188208322E+05	  4.6406250000E+08	  4.9903579473E-01
  8.9000035148E-01	  1.4133893913E+09	  2.3131627981E+05	  4.6406250000E+08	  4.9903576298E-01
  9.0000043367E-01	  1.4122899932E+09	  2.3077445430E+05	  4.6093750000E+08	  4.9903581363E-01
  9.1000002723E-01	  1.4112355936E+09	  2.3025619176E+05	  4.5781250000E+08	  4.9903578287E-01
  9.2000010942E-01	  1.4102460509E+09	  2.2977008201E+05	  4.5781250000E+08	  4.9903575233E-01
  9.3000019160E-01	  1.7467349904E+09	  3.4091075195E+05	  4.5468750000E+08	  4.9903504734E-01
  9.4000027379E-01	  2.5767567833E+09	  8.2807796341E+05	  4.6093750000E+08	  4.9903605203E-01
  9.5000035598E-01	  2.7360410287E+09	  9.6820845366E+05	  4.7031250000E+08	  4.9904842478E-01
  9.6000043816E-01	  2.7150806601E+09	  9.1323326084E+05	  4.7656250000E+08	  4.9906331545E-01
  9.7000003173E-01	  2.6596666972E+09	  8.3939620121E+05	  4.8593750000E+08	  4.9907520865E-01
  9.8000011391E-01	  2.6154016597E+09	  7.9250376193E+05	  4.9531250000E+08	  4.9908590891E-01
  9.9000019610E-01	  2.5792610720E+09	  7.5648972114E+05	  5.0156250000E+08	  4.9909542307E-01
  1.0000002783E+00	  2.5426785035E+09	  7.2095086649E+05	  5.1093750000E+08	  4.9910374964E-01
  1.0100003605E+00	  2.5075083781E+09	  6.8755795238E+05	  5.1718750000E+08	  4.9911086051E-01
  1.0200004427E+00	  2.4738074685E+09	  6.5744778200E+05	  5.2656250000E+08	  4.9911711559E-01
  1.0300000362E+00	  2.4412110503E+09	  6.2895100865E+05	  5.3281250000E+08	  4.9912284736E-01
  1.0400001184E+00	  2.4102864873E+09	  6.0179232168E+05	  5.3906250000E+08	  4.9912806983E-01
  1.0500002006E+00	  2.3803591715E+09	  5.7646153178E+05	  5.4843750000E+08	  4.9913304713E-01
  1.0600002828E+00	  2.3501131448E+09	  5.5271055811E+05	  5.5468750000E+08	  4.9913773001E-01
  1.0700003650E+00	  2.3218079077E+09	  5.3043430096E+05	  5.6093750000E+08	  4.9914215635E-01
  1.0800004472E+00	  2.2953355440E+09	  5.0959070203E+05	  5.7031250000E+08	  4.9914648333E-01
  1.0900000407E+00	  2.2694046892E+09	  4.8994763403E+05	  5.7656250000E+08	  4.9915063125E-01
  1.1000001229E+00	  2.2431433134E+09	  4.7133102772E+05	  5.8281250000E+08	  4.9915462778E-01
  1.1100002051E+00	  2.2181134002E+09	  4.5368262001E+05	  5.9062500000E+08	  4.9915864875E-01
  1.1200002873E+00	  2.1942482177E+09	  4.3701600516E+05	  5.9687500000E+08	  4.9916239828E-01
  1.1300003695E+00	  2.1710526075E+09	  4.2127513981E+05	  6.0468750000E+08	  4.9916605148E-01
  1.1400004517E+00	  2.1492282259E+09	  4.0647246345E+05	  6.1093750000E+08	  4.9916968006E-01
  1.1500000452E+00	  2.1271881254E+09	  3.9251968061E+05	  6.1718750000E+08	  4.9917323100E-01
  1.1600001274E+00	  2.1057470492E+09	  3.7928345318E+05	  6.2343750000E+08	  4.9917671550E-01
  1.1700002096E+00	  2.0849094604E+09	  3.6668184800E+05	  6.3281250000E+08	  4.9918016015E-01
  1.1800002918E+00	  2.0651355522E+09	  3.5467366223E+05	  6.3906250000E+08	  4.9918356180E-01
  1.1900003740E+00	  2.0463560429E+09	  3.4323062689E+05	  6.4531250000E+08	  4.9918690661E-01
  1.2000004562E+00	  2.0278557111E+09	  3.3233610350E+05	  6.5156250000E+08	  4.9919019865E-01
  1.2100000497E+00	  2.0086493694E+09	  3.2201967570E+05	  6.5937500000E+08	  4.9919354729E-01
  1.2200001319E+00	  1.9905022441E+09	  3.1224401710E+05	  6.6562500000E+08	  4.9919673471E-01
  1.2300002141E+00	  1.9733108938E+09	  3.0295131879E+05	  6.7187500000E+08	  4.9919987889E-01
  1.2400002963E+00	  1.9569555859E+09	  2.9407828649E+05	  6.7812500000E+08	  4.9920298083E-01
  1.2500003785E+00	  1.9408076629E+09	  2.8558325706E+05	  6.8437500000E+08	  4.9920604086E-01
  1.2600004607E+00	  1.9250639088E+09	  2.7744154155E+05	  6.9062500000E+08	  4.9920905840E-01
  1.2700000542E+00	  1.9087105610E+09	  2.6964594165E+05	  6.9687500000E+08	  4.9921203062E-01
  1.2800001364E+00	  1.8931338290E+09	  2.6218660468E+05	  7.0156250000E+08	  4.9921489594E-01
  1.2900002186E+00	  1.8782935928E+09	  2.5504493291E+05	  7.0781250000E+08	  4.9921774609E-01
  1.3000003008E+00	  1.8635886992E+09	  2.4822682568E+05	  7.1406250000E+08	  4.9922058702E-01
  1.3100003830E+00	  1.8494871723E+09	  2.4171992825E+05	  7.2031250000E+08	  4.9922338702E-01
  1.3200004652E+00	  1.8359893115E+09	  2.3548241812E+05	  7.2656250000E+08	  4.9922614374E-01
  1.3300000588E+00	  1.8228083311E+09	  2.2947405311E+05	  7.3281250000E+08	  4.9922886019E-01
  1.3400001409E+00	  1.8090589435E+09	  2.2367430087E+05	  7.3906250000E+08	  4.9923153104E-01
  1.3500002231E+00	  1.7954938877E+09	  2.1807655275E+05	  7.4218750000E+08	  4.9923416067E-01
  1.3600003053E+00	  1.7821965724E+09	  2.1267494589E+05	  7.4843750000E+08	  4.9923675509E-01
  1.3700003875E+00	  1.7694315073E+09	  2.0747409937E+05	  7.5468750000E+08	  4.9923930953E-01
  1.3800004697E+00	  1.7571798379E+09	  2.0246838225E+05	  7.6093750000E+08	  4.9924181420E-01
  1.3900000633E+00	  1.7454087997E+09	  1.9764851865E+05	  7.6718750000E+08	  4.9924427338E-01
  1.4000001454E+00	  1.7341057262E+09	  1.9300484482E+05	  7.7343750000E+08	  4.9924676375E-01
  1.4100002276E+00	  1.7220695548E+09	  1.8853175819E+05	  7.7968750000E+08	  4.9924937761E-01
  1.4200003098E+00	  1.7100746853E+09	  1.8431393183E+05	  7.8593750000E+08	  4.9925223179E-01
  1.4300003920E+00	  1.6979545704E+09	  1.7997673687E+05	  7.8906250000E+08	  4.9925516808E-01
  1.4400004742E+00	  1.6866075893E+09	  1.7593066563E+05	  7.9531250000E+08	  4.9925818084E-01
  1.4500000678E+00	  1.6764478358E+09	  1.7238312233E+05	  8.0312500000E+08	  4.9925964303E-01
  1.4600001500E+00	  1.6656768134E+09	  1.6841755296E+05	  8.0937500000E+08	  4.9925937809E-01
  1.4700002321E+00	  1.6564256334E+09	  1.6535427618E+05	  8.1562500000E+08	  4.9926153573E-01
  1.4800003143E+00	  1.6460059305E+09	  1.6177203205E+05	  8.2187500000E+08	  4.9926378032E-01
  1.4900003965E+00	  1.6346933194E+09	  1.5784390119E+05	  8.2812500000E+08	  4.9926597598E-01
  1.5000004787E+00	  1.6229664630E+09	  1.5404031077E+05	  8.3437500000E+08	  4.9926824681E-01
  1.5100000723E+00	  1.6118991820E+09	  1.5044486810E+05	  8.3437500000E+08	  4.9927058306E-01
  1.5200001545E+00	  1.6008395550E+09	  1.4676654982E+05	  8.4062500000E+08	  4.9927266878E-01
  1.5300002366E+00	  1.5897168349E+09	  1.4316947146E+05	  8.4687500000E+08	  4.9927454773E-01
  1.5400003188E+00	  1.5794574284E+09	  1.3990039571E+05	  8.5312500000E+08	  4.9927649208E-01
  1.5500004010E+00	  1.5702933657E+09	  1.3703923712E+05	  8.5937500000E+08	  4.9927832398E-01
  1.5600004832E+00	  1.5620670847E+09	  1.3454516012E+05	  8.6562500000E+08	  4.9928009459E-01
  1.5700000768E+00	  1.5543563850E+09	  1.3223790306E+05	  8.7187500000E+08	  4.9928184327E-01
  1.5800001590E+00	  1.5463309659E+09	  1.3001915428E+05	  8.7812500000E+08	  4.9928364634E-01
  1.5900002412E+00	  1.5381189763E+09	  1.2781044489E+05	  8.8437500000E+08	  4.9928546778E-01
  1.6000003233E+00	  1.5295701720E+09	  1.2555279265E+05	  8.8437500000E+08	  4.9928731540E-01
  1.6100004055E+00	  1.5209295899E+09	  1.2326772792E+05	  8.9062500000E+08	  4.9928914697E-01
  1.6200004877E+00	  1.5123653670E+09	  1.2097971888E+05	  8.9687500000E+08	  4.9929097068E-01
  1.6300000813E+00	  1.5039317987E+09	  1.1870819205E+05	  9.0312500000E+08	  4.9929276863E-01
  1.6400001635E+00	  1.4956764865E+09	  1.1646972928E+05	  9.0937500000E+08	  4.9929452699E-01
  1.6500002457E+00	  1.4876246967E+09	  1.1427682413E+05	  9.1562500000E+08	  4.9929624155E-01
  1.6600003278E+00	  1.4798298473E+09	  1.1214867199E+05	  9.2187500000E+08	  4.9929791375E-01
  1.6700004100E+00	  1.4721812377E+09	  1.1008991176E+05	  9.2187500000E+08	  4.9929958020E-01
  1.6800000036E+00	  1.4639100270E+09	  1.0809998542E+05	  9.2812500000E+08	  4.9930123856E-01
  1.6900000858E+00	  1.4557139284E+09	  1.0617407677E+05	  9.3437500000E+08	  4.9930286082E-01
  1.7000001680E+00	  1.4477838686E+09	  1.0430693759E+05	  9.4062500000E+08	  4.9930444850E-01
  1.7100002502E+00	  1.4400981238E+09	  1.0249392645E+05	  9.4687500000E+08	  4.9930600452E-01
  1.7200003324E+00	  1.4326392803E+09	  1.0073072360E+05	  9.5312500000E+08	  4.9930753110E-01
  1.7300004145E+00	  1.4253908343E+09	  9.9013869333E+04	  9.5937500000E+08	  4.9930902934E-01
  1.7400000081E+00	  1.4183451664E+09	  9.7338858715E+04	  9.5937500000E+08	  4.9931055171E-01
  1.7500000903E+00	  1.4113321820E+09	  9.5703757920E+04	  9.6562500000E+08	  4.9931204977E-01
  1.7600001725E+00	  1.4043340124E+09	  9.4106581717E+04	  9.7187500000E+08	  4.9931351961E-01
  1.7700002547E+00	  1.3975115109E+09	  9.2545772328E+04	  9.7812500000E+08	  4.9931496229E-01
  1.7800003369E+00	  1.3906130991E+09	  9.1019834013E+04	  9.8437500000E+08	  4.9931637910E-01
  1.7900004190E+00	  1.3833911858E+09	  8.9527867954E+04	  9.9062500000E+08	  4.9931777009E-01
  1.8000000126E+00	  1.3763624136E+09	  8.8069166240E+04	  9.9062500000E+08	  4.9931917445E-01
  1.8100000948E+00	  1.3695230796E+09	  8.6645422694E+04	  9.9687500000E+08	  4.9932056873E-01
  1.8200001770E+00	  1.3628656246E+09	  8.5256590605E+04	  1.0031250000E+09	  4.9932193779E-01
  1.8300002592E+00	  1.3563388137E+09	  8.3901410196E+04	  1.0093750000E+09	  4.9932328210E-01
  1.8400003414E+00	  1.3497511603E+09	  8.2578017187E+04	  1.0156250000E+09	  4.9932460258E-01
  1.8500004236E+00	  1.3433115460E+09	  8.1285322031E+04	  1.0218750000E+09	  4.9932589995E-01
  1.8600000171E+00	  1.3370352050E+09	  8.0020224874E+04	  1.0218750000E+09	  4.9932721831E-01
  1.8700000993E+00	  1.3309093997E+09	  7.8782473125E+04	  1.0281250000E+09	  4.9932852055E-01
  1.8800001815E+00	  1.3249283697E+09	  7.7571821236E+04	  1.0343750000E+09	  4.9932979653E-01
  1.8900002637E+00	  1.3190150632E+09	  7.6387810717E+04	  1.0406250000E+09	  4.9933104660E-01
  1.9000003459E+00	  1.3126856259E+09	  7.5229937305E+04	  1.0468750000E+09	  4.9933227442E-01
  1.9100004281E+00	  1.3065142189E+09	  7.4098433847E+04	  1.0468750000E+09	  4.9933348727E-01
  1.9200000216E+00	  1.3004674178E+09	  7.2993581442E+04	  1.0531250000E+09	  4.9933471761E-01
  1.9300001038E+00	  1.2943452845E+09	  7.1915225907E+04	  1.0593750000E+09	  4.9933592196E-01
  1.9356930070E+00	  1.2909228980E+09	  7.1313044997E+04	  1.0656250000E+09	  4.9933657032E-01
  1.9356934957E+00	  1.2909226080E+09	  7.1312993660E+04	  1.0656250000E+09	  4.9933657038E-01
  1.9356939843E+00	  1.2909223181E+09	  7.1312942323E+04	  1.0656250000E+09	  4.9933657044E-01
