mass element = 1.6496296296296296 M_sun
   t [s]      T [K]      rho [g/cm^3]      r [cm]      Ye   Entropy: S =    4.206138790276836     k  
  0.0000000000E+00	  1.3580929111E+09	  2.0986433413E+05	  5.7187500000E+08	  4.9913875653E-01
  1.0000615727E-02	  1.3580053583E+09	  2.0982703784E+05	  5.7187500000E+08	  4.9913875653E-01
  2.0001675152E-02	  1.3578655597E+09	  2.0976665874E+05	  5.7187500000E+08	  4.9913875653E-01
  3.0000780099E-02	  1.3577338474E+09	  2.0970966637E+05	  5.7187500000E+08	  4.9913875653E-01
  4.0001839524E-02	  1.3576852390E+09	  2.0968904079E+05	  5.7187500000E+08	  4.9913875652E-01
  5.0000944471E-02	  1.3577664466E+09	  2.0972536744E+05	  5.7187500000E+08	  4.9913875652E-01
  6.0000049419E-02	  1.3579744110E+09	  2.0981732408E+05	  5.7187500000E+08	  4.9913875652E-01
  7.0001108844E-02	  1.3582567777E+09	  2.0994187212E+05	  5.7187500000E+08	  4.9913875652E-01
  8.0000213791E-02	  1.3585591865E+09	  2.1007511416E+05	  5.7187500000E+08	  4.9913875652E-01
  9.0001273216E-02	  1.3588342891E+09	  2.1019624042E+05	  5.7187500000E+08	  4.9913875652E-01
  1.0000037816E-01	  1.3590433369E+09	  2.1028816592E+05	  5.7187500000E+08	  4.9913875651E-01
  1.1000143759E-01	  1.3591828696E+09	  2.1034934520E+05	  5.7187500000E+08	  4.9913875651E-01
  1.2000054254E-01	  1.3592756521E+09	  2.1038981141E+05	  5.7187500000E+08	  4.9913875651E-01
  1.3000160196E-01	  1.3593477381E+09	  2.1042107180E+05	  5.7187500000E+08	  4.9913875651E-01
  1.4000070691E-01	  1.3594136862E+09	  2.1044958059E+05	  5.7187500000E+08	  4.9913875651E-01
  1.5000176633E-01	  1.3594696019E+09	  2.1047362125E+05	  5.7187500000E+08	  4.9913875651E-01
  1.6000087128E-01	  1.3595015281E+09	  2.1048698645E+05	  5.7187500000E+08	  4.9913875651E-01
  1.7000095347E-01	  1.3594984224E+09	  2.1048471240E+05	  5.7187500000E+08	  4.9913875651E-01
  1.8000005841E-01	  1.3594602709E+09	  2.1046668600E+05	  5.7187500000E+08	  4.9913875651E-01
  1.9000014060E-01	  1.3593977000E+09	  2.1043750627E+05	  5.7187500000E+08	  4.9913875652E-01
  2.0000022278E-01	  1.3593230433E+09	  2.1040257923E+05	  5.7187500000E+08	  4.9913875652E-01
  2.1000030497E-01	  1.3592407884E+09	  2.1036391330E+05	  5.7187500000E+08	  4.9913875652E-01
  2.2000038716E-01	  1.3591449424E+09	  2.1031892708E+05	  5.7187500000E+08	  4.9913875652E-01
  2.3000046934E-01	  1.3590238826E+09	  2.1026253469E+05	  5.7187500000E+08	  4.9913875653E-01
  2.4000006291E-01	  1.3588710963E+09	  2.1019183791E+05	  5.7187500000E+08	  4.9913875653E-01
  2.5000014509E-01	  1.3586929361E+09	  2.1010954406E+05	  5.7187500000E+08	  4.9913875653E-01
  2.6000022728E-01	  1.3585173058E+09	  2.1003231275E+05	  5.6562500000E+08	  4.9913873821E-01
  2.7000030947E-01	  1.3583699634E+09	  2.0997138814E+05	  5.6562500000E+08	  4.9913870930E-01
  2.8000039165E-01	  1.3582543723E+09	  2.0992427694E+05	  5.6562500000E+08	  4.9913868718E-01
  2.9000047384E-01	  1.3581627696E+09	  2.0988748210E+05	  5.6562500000E+08	  4.9913867081E-01
  3.0000006741E-01	  1.3580747523E+09	  2.0985195969E+05	  5.6562500000E+08	  4.9913865925E-01
  3.1000014959E-01	  1.3579665829E+09	  2.0980718980E+05	  5.6562500000E+08	  4.9913865169E-01
  3.2000023178E-01	  1.3578217977E+09	  2.0974582903E+05	  5.6562500000E+08	  4.9913864745E-01
  3.3000031397E-01	  1.3576380008E+09	  2.0966670561E+05	  5.6562500000E+08	  4.9913864591E-01
  3.4000039615E-01	  1.3574250723E+09	  2.0957404804E+05	  5.6562500000E+08	  4.9913864657E-01
  3.5000047834E-01	  1.3571997446E+09	  2.0947510464E+05	  5.6562500000E+08	  4.9913864896E-01
  3.6000007191E-01	  1.3569781085E+09	  2.0937685309E+05	  5.6562500000E+08	  4.9913865271E-01
  3.7000015409E-01	  1.3567689682E+09	  2.0928307835E+05	  5.6562500000E+08	  4.9913865748E-01
  3.8000023628E-01	  1.3565714331E+09	  2.0919330918E+05	  5.6562500000E+08	  4.9913866301E-01
  3.9000031846E-01	  1.3563772395E+09	  2.0910383667E+05	  5.6562500000E+08	  4.9913866905E-01
  4.0000028199E-01	  1.3561760637E+09	  2.0901005489E+05	  5.6562500000E+08	  4.9913867540E-01
  4.1000037133E-01	  1.3559602277E+09	  2.0890854227E+05	  5.6562500000E+08	  4.9913868189E-01
  4.2000028086E-01	  1.3557355501E+09	  2.0880941623E+05	  5.5937500000E+08	  4.9913866159E-01
  4.3000005580E-01	  1.3555031697E+09	  2.0871308384E+05	  5.5937500000E+08	  4.9913862884E-01
  4.4000033296E-01	  1.3552591112E+09	  2.0861139600E+05	  5.5937500000E+08	  4.9913860728E-01
  4.5000035246E-01	  1.3550015722E+09	  2.0850323911E+05	  5.5937500000E+08	  4.9913859465E-01
  4.6000002996E-01	  1.3547250014E+09	  2.0838586499E+05	  5.5937500000E+08	  4.9913858905E-01
  4.7000002504E-01	  1.3544255809E+09	  2.0825729077E+05	  5.5937500000E+08	  4.9913858888E-01
  4.8000026749E-01	  1.3541043334E+09	  2.0811766778E+05	  5.5937500000E+08	  4.9913859284E-01
  4.9000010819E-01	  1.3537665437E+09	  2.0796904187E+05	  5.5937500000E+08	  4.9913859985E-01
  5.0000002879E-01	  1.3534187858E+09	  2.0781406423E+05	  5.5937500000E+08	  4.9913860899E-01
  5.1000016235E-01	  1.3530655373E+09	  2.0765451709E+05	  5.5937500000E+08	  4.9913861956E-01
  5.2000034769E-01	  1.3527079225E+09	  2.0749076836E+05	  5.5937500000E+08	  4.9913863095E-01
  5.3000022949E-01	  1.3523454525E+09	  2.0732275956E+05	  5.5312500000E+08	  4.9913864177E-01
  5.4000031482E-01	  1.3519931004E+09	  2.0717325523E+05	  5.5312500000E+08	  4.9913859912E-01
  5.5000017386E-01	  1.3516178189E+09	  2.0701367790E+05	  5.5312500000E+08	  4.9913857365E-01
  5.6000008950E-01	  1.3512179003E+09	  2.0684256833E+05	  5.5312500000E+08	  4.9913856127E-01
  5.7000033035E-01	  1.3507965360E+09	  2.0666067971E+05	  5.5312500000E+08	  4.9913855866E-01
  5.8000001179E-01	  1.3503576437E+09	  2.0646915313E+05	  5.5312500000E+08	  4.9913856319E-01
  5.9000032777E-01	  1.3499025835E+09	  2.0626808392E+05	  5.5312500000E+08	  4.9913857270E-01
  6.0000020793E-01	  1.3494305261E+09	  2.0605668477E+05	  5.5312500000E+08	  4.9913858553E-01
  6.1000023161E-01	  1.3489373596E+09	  2.0583282207E+05	  5.5312500000E+08	  4.9913860033E-01
  6.2000008696E-01	  1.3484165930E+09	  2.0559343927E+05	  5.5312500000E+08	  4.9913861609E-01
  6.3000016914E-01	  1.3478781797E+09	  2.0536109571E+05	  5.4687500000E+08	  4.9913857247E-01
  6.4000025133E-01	  1.3473077013E+09	  2.0511491993E+05	  5.4687500000E+08	  4.9913854856E-01
  6.5000033351E-01	  1.3467174596E+09	  2.0485862950E+05	  5.4687500000E+08	  4.9913854079E-01
  6.6000041570E-01	  1.3461194314E+09	  2.0459651911E+05	  5.4687500000E+08	  4.9913854433E-01
  6.7000000927E-01	  1.3455187939E+09	  2.0433003337E+05	  5.4687500000E+08	  4.9913855548E-01
  6.8000009145E-01	  1.3449122927E+09	  2.0405707689E+05	  5.4687500000E+08	  4.9913857139E-01
  6.9000017364E-01	  1.3442920043E+09	  2.0377372894E+05	  5.4687500000E+08	  4.9913858992E-01
  7.0000025582E-01	  1.3436551913E+09	  2.0348973620E+05	  5.4062500000E+08	  4.9913857080E-01
  7.1000033801E-01	  1.3429880557E+09	  2.0320079641E+05	  5.4062500000E+08	  4.9913854003E-01
  7.2000042019E-01	  1.3422848287E+09	  2.0289401863E+05	  5.4062500000E+08	  4.9913853091E-01
  7.3000001376E-01	  1.3415457983E+09	  2.0256802492E+05	  5.4062500000E+08	  4.9913853628E-01
  7.4000009594E-01	  1.3407731164E+09	  2.0222257631E+05	  5.4062500000E+08	  4.9913855080E-01
  7.5000017813E-01	  1.3399722176E+09	  2.0185927548E+05	  5.4062500000E+08	  4.9913857058E-01
  7.6000026031E-01	  1.3391551034E+09	  2.0148855414E+05	  5.3437500000E+08	  4.9913857304E-01
  7.7000034250E-01	  1.3383342320E+09	  2.0113102306E+05	  5.3437500000E+08	  4.9913853594E-01
  7.8000042468E-01	  1.3374903158E+09	  2.0076085388E+05	  5.3437500000E+08	  4.9913852610E-01
  7.9000001825E-01	  1.3366260534E+09	  2.0037722752E+05	  5.3437500000E+08	  4.9913853361E-01
  8.0000010044E-01	  1.3357444589E+09	  1.9997997782E+05	  5.3437500000E+08	  4.9913855143E-01
  8.0848644009E-01	  1.3349828997E+09	  1.9963155239E+05	  5.3437500000E+08	  4.9913857091E-01
  8.1000018262E-01	  1.3348454400E+09	  1.9956814398E+05	  5.3437500000E+08	  4.9913857461E-01
  8.2000026481E-01	  1.3339372952E+09	  1.9916657338E+05	  5.2812500000E+08	  4.9913854117E-01
  8.3000034699E-01	  1.3330087419E+09	  1.9875854411E+05	  5.2812500000E+08	  4.9913852460E-01
  8.4000042918E-01	  1.3320640351E+09	  1.9833829427E+05	  5.2812500000E+08	  4.9913853057E-01
  8.5000002274E-01	  1.3311044533E+09	  1.9790430979E+05	  5.2812500000E+08	  4.9913854944E-01
  8.6000010493E-01	  1.3301245354E+09	  1.9745303499E+05	  5.2187500000E+08	  4.9913857447E-01
  8.7000018711E-01	  1.3291451889E+09	  1.9702320221E+05	  5.2187500000E+08	  4.9913853186E-01
  8.8000026930E-01	  1.3281480293E+09	  1.9658156276E+05	  5.2187500000E+08	  4.9913852527E-01
  8.9000035148E-01	  1.3271350649E+09	  1.9612576948E+05	  5.2187500000E+08	  4.9913853927E-01
  9.0000043367E-01	  1.3260853419E+09	  1.9565176685E+05	  5.2187500000E+08	  4.9913856387E-01
  9.1000002723E-01	  1.3250806853E+09	  1.9519519996E+05	  5.1562500000E+08	  4.9913853662E-01
  9.2000010942E-01	  1.3240649312E+09	  1.9474458591E+05	  5.1562500000E+08	  4.9913852420E-01
  9.3000019160E-01	  1.3229175924E+09	  1.9428155248E+05	  5.1562500000E+08	  4.9913853622E-01
  9.4000027379E-01	  1.3220232466E+09	  1.9381171644E+05	  5.1093750000E+08	  4.9913856065E-01
  9.5000035598E-01	  1.3209873704E+09	  1.9334591716E+05	  5.1093750000E+08	  4.9913856509E-01
  9.6000043816E-01	  1.3198706512E+09	  1.9290496134E+05	  5.0781250000E+08	  4.9913856465E-01
  9.7000003173E-01	  1.3214027537E+09	  1.9301170014E+05	  5.0468750000E+08	  4.9913856756E-01
  9.8000011391E-01	  2.2091767062E+09	  5.4223359530E+05	  5.0781250000E+08	  4.9913675949E-01
  9.9000019610E-01	  2.5303362613E+09	  7.9041985516E+05	  5.1718750000E+08	  4.9913169950E-01
  1.0000002783E+00	  2.5630268057E+09	  7.9735225603E+05	  5.2343750000E+08	  4.9912106783E-01
  1.0100003605E+00	  2.5228041327E+09	  7.3867084772E+05	  5.3281250000E+08	  4.9911532498E-01
  1.0200004427E+00	  2.4793721172E+09	  6.8930028687E+05	  5.3906250000E+08	  4.9911730776E-01
  1.0300000362E+00	  2.4467362462E+09	  6.5929200887E+05	  5.4843750000E+08	  4.9912097180E-01
  1.0400001184E+00	  2.4163702988E+09	  6.3226328046E+05	  5.5468750000E+08	  4.9912428906E-01
  1.0500002006E+00	  2.3862558277E+09	  6.0513723470E+05	  5.6406250000E+08	  4.9912749716E-01
  1.0600002828E+00	  2.3562185015E+09	  5.7988260845E+05	  5.7031250000E+08	  4.9913059331E-01
  1.0700003650E+00	  2.3275826153E+09	  5.5683849156E+05	  5.7968750000E+08	  4.9913362963E-01
  1.0800004472E+00	  2.3003612269E+09	  5.3479622947E+05	  5.8593750000E+08	  4.9913661194E-01
  1.0900000407E+00	  2.2744981755E+09	  5.1372286396E+05	  5.9218750000E+08	  4.9913950344E-01
  1.1000001229E+00	  2.2482990192E+09	  4.9406336842E+05	  6.0156250000E+08	  4.9914239302E-01
  1.1100002051E+00	  2.2228001772E+09	  4.7569033943E+05	  6.0781250000E+08	  4.9914522172E-01
  1.1200002873E+00	  2.1988058344E+09	  4.5833286485E+05	  6.1406250000E+08	  4.9914799119E-01
  1.1300003695E+00	  2.1760395139E+09	  4.4180540384E+05	  6.2343750000E+08	  4.9915074911E-01
  1.1400004517E+00	  2.1535887271E+09	  4.2614991787E+05	  6.2968750000E+08	  4.9915348826E-01
  1.1500000452E+00	  2.1310703348E+09	  4.1128500729E+05	  6.3593750000E+08	  4.9915618519E-01
  1.1600001274E+00	  2.1091814189E+09	  3.9714340988E+05	  6.4218750000E+08	  4.9915884331E-01
  1.1700002096E+00	  2.0884899688E+09	  3.8375862804E+05	  6.5156250000E+08	  4.9916148138E-01
  1.1800002918E+00	  2.0682019423E+09	  3.7114365743E+05	  6.5781250000E+08	  4.9916411677E-01
  1.1900003740E+00	  2.0490082691E+09	  3.5919089395E+05	  6.6406250000E+08	  4.9916672373E-01
  1.2000004562E+00	  2.0305318659E+09	  3.4780420347E+05	  6.7031250000E+08	  4.9916930582E-01
  1.2100000497E+00	  2.0115476705E+09	  3.3692275814E+05	  6.7812500000E+08	  4.9917195944E-01
  1.2200001319E+00	  1.9928967226E+09	  3.2653982236E+05	  6.8437500000E+08	  4.9917449282E-01
  1.2300002141E+00	  1.9750116434E+09	  3.1662420286E+05	  6.9062500000E+08	  4.9917700515E-01
  1.2400002963E+00	  1.9580378558E+09	  3.0717227461E+05	  6.9687500000E+08	  4.9917949485E-01
  1.2500003785E+00	  1.9419086744E+09	  2.9816674722E+05	  7.0468750000E+08	  4.9918188930E-01
  1.2600004607E+00	  1.9264138479E+09	  2.8959965313E+05	  7.1093750000E+08	  4.9918435368E-01
  1.2700000542E+00	  1.9096607996E+09	  2.8144877821E+05	  7.1718750000E+08	  4.9918679526E-01
  1.2800001364E+00	  1.8937164547E+09	  2.7364940862E+05	  7.2343750000E+08	  4.9918921735E-01
  1.2900002186E+00	  1.8784871859E+09	  2.6615434461E+05	  7.2968750000E+08	  4.9919161786E-01
  1.3000003008E+00	  1.8639266254E+09	  2.5894812827E+05	  7.3593750000E+08	  4.9919399554E-01
  1.3100003830E+00	  1.8497936823E+09	  2.5202264437E+05	  7.4218750000E+08	  4.9919635116E-01
  1.3200004652E+00	  1.8358129284E+09	  2.4537510752E+05	  7.4843750000E+08	  4.9919868062E-01
  1.3300000588E+00	  1.8221637299E+09	  2.3900565401E+05	  7.5468750000E+08	  4.9920098324E-01
  1.3400001409E+00	  1.8080212116E+09	  2.3289704458E+05	  7.6093750000E+08	  4.9920324989E-01
  1.3500002231E+00	  1.7944870945E+09	  2.2703816724E+05	  7.6718750000E+08	  4.9920547488E-01
  1.3600003053E+00	  1.7815165048E+09	  2.2141680637E+05	  7.7343750000E+08	  4.9920770898E-01
  1.3700003875E+00	  1.7684963571E+09	  2.1598470058E+05	  7.7968750000E+08	  4.9920989010E-01
  1.3800004697E+00	  1.7560318361E+09	  2.1079150680E+05	  7.8593750000E+08	  4.9921202123E-01
  1.3900000633E+00	  1.7442486669E+09	  2.0584245700E+05	  7.9218750000E+08	  4.9921436535E-01
  1.4000001454E+00	  1.7325917257E+09	  2.0090817331E+05	  7.9531250000E+08	  4.9921685615E-01
  1.4100002276E+00	  1.7201351334E+09	  1.9610100029E+05	  8.0312500000E+08	  4.9921861166E-01
  1.4200003098E+00	  1.7101258701E+09	  1.9272439433E+05	  8.0937500000E+08	  4.9921952707E-01
  1.4300003920E+00	  1.6982336776E+09	  1.8828596708E+05	  8.1562500000E+08	  4.9922166907E-01
  1.4400004742E+00	  1.6849689170E+09	  1.8316872874E+05	  8.2187500000E+08	  4.9922380581E-01
  1.4500000678E+00	  1.6726849248E+09	  1.7848504110E+05	  8.2812500000E+08	  4.9922586402E-01
  1.4600001500E+00	  1.6608370976E+09	  1.7390922897E+05	  8.3437500000E+08	  4.9922786083E-01
  1.4700002321E+00	  1.6493406943E+09	  1.6940125636E+05	  8.4062500000E+08	  4.9922979100E-01
  1.4800003143E+00	  1.6381630504E+09	  1.6514169743E+05	  8.4687500000E+08	  4.9923164932E-01
  1.4900003965E+00	  1.6268222665E+09	  1.6134799758E+05	  8.5312500000E+08	  4.9923344480E-01
  1.5000004787E+00	  1.6168798618E+09	  1.5815407071E+05	  8.5937500000E+08	  4.9923520427E-01
  1.5100000723E+00	  1.6077571486E+09	  1.5526927577E+05	  8.6562500000E+08	  4.9923700561E-01
  1.5200001545E+00	  1.5990244961E+09	  1.5253330162E+05	  8.7187500000E+08	  4.9923883375E-01
  1.5300002366E+00	  1.5903467610E+09	  1.4979504800E+05	  8.7187500000E+08	  4.9924064575E-01
  1.5400003188E+00	  1.5815633041E+09	  1.4697660737E+05	  8.7812500000E+08	  4.9924246996E-01
  1.5500004010E+00	  1.5724829253E+09	  1.4410838066E+05	  8.8437500000E+08	  4.9924429204E-01
  1.5600004832E+00	  1.5633295908E+09	  1.4122655536E+05	  8.9062500000E+08	  4.9924608661E-01
  1.5700000768E+00	  1.5543328182E+09	  1.3836750045E+05	  8.9687500000E+08	  4.9924784320E-01
  1.5800001590E+00	  1.5448303686E+09	  1.3556406825E+05	  9.0312500000E+08	  4.9924956798E-01
  1.5900002412E+00	  1.5353879621E+09	  1.3284281763E+05	  9.0937500000E+08	  4.9925127146E-01
  1.6000003233E+00	  1.5263091931E+09	  1.3021948146E+05	  9.1562500000E+08	  4.9925295264E-01
  1.6100004055E+00	  1.5175870561E+09	  1.2769618473E+05	  9.2187500000E+08	  4.9925460555E-01
  1.6200004877E+00	  1.5088619822E+09	  1.2526528917E+05	  9.2812500000E+08	  4.9925623371E-01
  1.6300000813E+00	  1.5003656553E+09	  1.2291563292E+05	  9.3437500000E+08	  4.9925784202E-01
  1.6400001635E+00	  1.4921410220E+09	  1.2063454940E+05	  9.3437500000E+08	  4.9925945636E-01
  1.6500002457E+00	  1.4841658115E+09	  1.1841581054E+05	  9.4062500000E+08	  4.9926106570E-01
  1.6600003278E+00	  1.4764276164E+09	  1.1625853723E+05	  9.4687500000E+08	  4.9926265314E-01
  1.6700004100E+00	  1.4687516607E+09	  1.1416093487E+05	  9.5312500000E+08	  4.9926421787E-01
  1.6800000036E+00	  1.4606162570E+09	  1.1212000751E+05	  9.5937500000E+08	  4.9926575873E-01
  1.6900000858E+00	  1.4525861194E+09	  1.1013113631E+05	  9.6562500000E+08	  4.9926727264E-01
  1.7000001680E+00	  1.4445284469E+09	  1.0818933509E+05	  9.7187500000E+08	  4.9926875998E-01
  1.7100002502E+00	  1.4366820161E+09	  1.0629080486E+05	  9.7812500000E+08	  4.9927022192E-01
  1.7200003324E+00	  1.4290352570E+09	  1.0443288300E+05	  9.8437500000E+08	  4.9927165953E-01
  1.7300004145E+00	  1.4215859015E+09	  1.0261260198E+05	  9.8437500000E+08	  4.9927311560E-01
  1.7400000081E+00	  1.4143394370E+09	  1.0083639031E+05	  9.9062500000E+08	  4.9927454813E-01
  1.7500000903E+00	  1.4072953040E+09	  9.9105570355E+04	  9.9687500000E+08	  4.9927595848E-01
  1.7600001725E+00	  1.4004498519E+09	  9.7420353863E+04	  1.0031250000E+09	  4.9927734736E-01
  1.7700002547E+00	  1.3936617363E+09	  9.5779421100E+04	  1.0093750000E+09	  4.9927871517E-01
  1.7800003369E+00	  1.3861875713E+09	  9.4180683566E+04	  1.0156250000E+09	  4.9928006469E-01
  1.7900004190E+00	  1.3788521039E+09	  9.2622391384E+04	  1.0218750000E+09	  4.9928139396E-01
  1.8000000126E+00	  1.3717197428E+09	  9.1101891479E+04	  1.0218750000E+09	  4.9928271739E-01
  1.8100000948E+00	  1.3647804091E+09	  8.9616648516E+04	  1.0281250000E+09	  4.9928404707E-01
  1.8200001770E+00	  1.3580219868E+09	  8.8166065527E+04	  1.0343750000E+09	  4.9928535622E-01
  1.8300002592E+00	  1.3514367546E+09	  8.6748869754E+04	  1.0406250000E+09	  4.9928664519E-01
  1.8400003414E+00	  1.3450185869E+09	  8.5364230087E+04	  1.0468750000E+09	  4.9928791418E-01
  1.8500004236E+00	  1.3387420820E+09	  8.4011590134E+04	  1.0531250000E+09	  4.9928916315E-01
  1.8600000171E+00	  1.3323816126E+09	  8.2690419520E+04	  1.0593750000E+09	  4.9929039246E-01
  1.8700000993E+00	  1.3261662933E+09	  8.1400416571E+04	  1.0593750000E+09	  4.9929161449E-01
  1.8800001815E+00	  1.3201145918E+09	  8.0140690946E+04	  1.0656250000E+09	  4.9929284609E-01
  1.8900002637E+00	  1.3136030103E+09	  7.8910168527E+04	  1.0718750000E+09	  4.9929406054E-01
  1.9000003459E+00	  1.3072160128E+09	  7.7707720789E+04	  1.0781250000E+09	  4.9929525500E-01
  1.9100004281E+00	  1.3009860183E+09	  7.6531906638E+04	  1.0843750000E+09	  4.9929642991E-01
  1.9200000216E+00	  1.2949058261E+09	  7.5381512712E+04	  1.0906250000E+09	  4.9929758594E-01
  1.9300001038E+00	  1.2889677175E+09	  7.4255284623E+04	  1.0968750000E+09	  4.9929872354E-01
  1.9356930070E+00	  1.2856521608E+09	  7.3623188494E+04	  1.0968750000E+09	  4.9929939734E-01
  1.9356934957E+00	  1.2856518779E+09	  7.3623134666E+04	  1.0968750000E+09	  4.9929939739E-01
  1.9356939843E+00	  1.2856515949E+09	  7.3623080837E+04	  1.0968750000E+09	  4.9929939745E-01
