mass element = 1.7267592592592593 M_sun
   t [s]      T [K]      rho [g/cm^3]      r [cm]      Ye   Entropy: S =    4.183243175430655     k  
  0.0000000000E+00	  1.0404015915E+09	  1.0044955085E+05	  7.6562500000E+08	  4.9913885929E-01
  1.0000615727E-02	  1.0403475716E+09	  1.0043524327E+05	  7.6562500000E+08	  4.9913885929E-01
  2.0001675152E-02	  1.0402734352E+09	  1.0041560425E+05	  7.6562500000E+08	  4.9913885929E-01
  3.0000780099E-02	  1.0401854387E+09	  1.0039228700E+05	  7.6562500000E+08	  4.9913885929E-01
  4.0001839524E-02	  1.0400924342E+09	  1.0036763375E+05	  7.6562500000E+08	  4.9913885929E-01
  5.0000944471E-02	  1.0400037329E+09	  1.0034411258E+05	  7.6562500000E+08	  4.9913885929E-01
  6.0000049419E-02	  1.0399269872E+09	  1.0032375626E+05	  7.6562500000E+08	  4.9913885929E-01
  7.0001108844E-02	  1.0398667149E+09	  1.0030776860E+05	  7.6562500000E+08	  4.9913885929E-01
  8.0000213791E-02	  1.0398235347E+09	  1.0029631868E+05	  7.6562500000E+08	  4.9913885929E-01
  9.0001273216E-02	  1.0397940282E+09	  1.0028850176E+05	  7.6562500000E+08	  4.9913885929E-01
  1.0000037816E-01	  1.0397715020E+09	  1.0028254083E+05	  7.6562500000E+08	  4.9913885929E-01
  1.1000143759E-01	  1.0397473389E+09	  1.0027614634E+05	  7.6562500000E+08	  4.9913885929E-01
  1.2000054254E-01	  1.0397129108E+09	  1.0026702485E+05	  7.6562500000E+08	  4.9913885929E-01
  1.3000160196E-01	  1.0396614967E+09	  1.0025338911E+05	  7.6562500000E+08	  4.9913885929E-01
  1.4000070691E-01	  1.0395899983E+09	  1.0023441283E+05	  7.6562500000E+08	  4.9913885929E-01
  1.5000176633E-01	  1.0394996836E+09	  1.0021043104E+05	  7.6562500000E+08	  4.9913885929E-01
  1.6000087128E-01	  1.0393960735E+09	  1.0018290659E+05	  7.6562500000E+08	  4.9913885929E-01
  1.7000095347E-01	  1.0392875072E+09	  1.0015405110E+05	  7.6562500000E+08	  4.9913885929E-01
  1.8000005841E-01	  1.0391831624E+09	  1.0012630211E+05	  7.6562500000E+08	  4.9913885929E-01
  1.9000014060E-01	  1.0390906016E+09	  1.0010167135E+05	  7.6562500000E+08	  4.9913885929E-01
  2.0000022278E-01	  1.0390138041E+09	  1.0008122072E+05	  7.6562500000E+08	  4.9913885929E-01
  2.1000030497E-01	  1.0389519602E+09	  1.0006474134E+05	  7.6562500000E+08	  4.9913885929E-01
  2.2000038716E-01	  1.0388998291E+09	  1.0005084633E+05	  7.6562500000E+08	  4.9913885929E-01
  2.3000046934E-01	  1.0388488747E+09	  1.0003727035E+05	  7.6562500000E+08	  4.9913885929E-01
  2.4000006291E-01	  1.0387896604E+09	  1.0002150474E+05	  7.6562500000E+08	  4.9913885929E-01
  2.5000014509E-01	  1.0387146166E+09	  1.0000153292E+05	  7.6562500000E+08	  4.9913885929E-01
  2.6000022728E-01	  1.0386202541E+09	  9.9976420048E+04	  7.6562500000E+08	  4.9913885929E-01
  2.7000030947E-01	  1.0385081494E+09	  9.9946577609E+04	  7.6562500000E+08	  4.9913885929E-01
  2.8000039165E-01	  1.0383845077E+09	  9.9913650242E+04	  7.6562500000E+08	  4.9913885929E-01
  2.9000047384E-01	  1.0382583616E+09	  9.9880039034E+04	  7.6562500000E+08	  4.9913885929E-01
  3.0000006741E-01	  1.0381387711E+09	  9.9848157750E+04	  7.6562500000E+08	  4.9913885929E-01
  3.1000014959E-01	  1.0380319479E+09	  9.9819666619E+04	  7.6562500000E+08	  4.9913885929E-01
  3.2000023178E-01	  1.0379392426E+09	  9.9794934634E+04	  7.6562500000E+08	  4.9913885929E-01
  3.3000031397E-01	  1.0378565985E+09	  9.9772890948E+04	  7.6562500000E+08	  4.9913885929E-01
  3.4000039615E-01	  1.0377758257E+09	  9.9751361422E+04	  7.6562500000E+08	  4.9913885929E-01
  3.5000047834E-01	  1.0376873196E+09	  9.9727790588E+04	  7.6562500000E+08	  4.9913885929E-01
  3.6000007191E-01	  1.0375830613E+09	  9.9700040892E+04	  7.6562500000E+08	  4.9913885929E-01
  3.7000015409E-01	  1.0374612544E+09	  9.9667806182E+04	  7.5937500000E+08	  4.9913885929E-01
  3.8000023628E-01	  1.0373233792E+09	  9.9631296490E+04	  7.5937500000E+08	  4.9913885929E-01
  3.9000031846E-01	  1.0371766915E+09	  9.9592351807E+04	  7.5937500000E+08	  4.9913885929E-01
  4.0000028199E-01	  1.0370314857E+09	  9.9553705013E+04	  7.5937500000E+08	  4.9913885929E-01
  4.1000037133E-01	  1.0368966679E+09	  9.9517726603E+04	  7.5937500000E+08	  4.9913885929E-01
  4.2000028086E-01	  1.0367766212E+09	  9.9485589437E+04	  7.5937500000E+08	  4.9913885929E-01
  4.3000005580E-01	  1.0366696665E+09	  9.9456855762E+04	  7.5937500000E+08	  4.9913885929E-01
  4.4000033296E-01	  1.0365687283E+09	  9.9429650052E+04	  7.5937500000E+08	  4.9913885929E-01
  4.5000035246E-01	  1.0364639233E+09	  9.9401344436E+04	  7.5937500000E+08	  4.9913885929E-01
  4.6000002996E-01	  1.0363460618E+09	  9.9369489689E+04	  7.5937500000E+08	  4.9913885929E-01
  4.7000002504E-01	  1.0362097933E+09	  9.9332653911E+04	  7.5937500000E+08	  4.9913885929E-01
  4.8000026749E-01	  1.0360553099E+09	  9.9290879936E+04	  7.5937500000E+08	  4.9913885929E-01
  4.9000010819E-01	  1.0358879241E+09	  9.9245577455E+04	  7.5937500000E+08	  4.9913885929E-01
  5.0000002879E-01	  1.0357158739E+09	  9.9198942107E+04	  7.5937500000E+08	  4.9913885929E-01
  5.1000016235E-01	  1.0355472349E+09	  9.9153133863E+04	  7.5937500000E+08	  4.9913885929E-01
  5.2000034769E-01	  1.0353869546E+09	  9.9109485106E+04	  7.5937500000E+08	  4.9913885929E-01
  5.3000022949E-01	  1.0352353887E+09	  9.9068106450E+04	  7.5937500000E+08	  4.9913885929E-01
  5.4000031482E-01	  1.0350885469E+09	  9.9027948126E+04	  7.5937500000E+08	  4.9913885929E-01
  5.5000017386E-01	  1.0349400164E+09	  9.8987310404E+04	  7.5937500000E+08	  4.9913885929E-01
  5.6000008950E-01	  1.0347845516E+09	  9.8944799660E+04	  7.5937500000E+08	  4.9913885929E-01
  5.7000033035E-01	  1.0346215291E+09	  9.8900251922E+04	  7.5937500000E+08	  4.9913885929E-01
  5.8000001179E-01	  1.0344569363E+09	  9.8855268506E+04	  7.5937500000E+08	  4.9913885929E-01
  5.9000032777E-01	  1.0343030174E+09	  9.8813126693E+04	  7.5937500000E+08	  4.9913885929E-01
  6.0000020793E-01	  1.0341756964E+09	  9.8778095699E+04	  7.5937500000E+08	  4.9913885929E-01
  6.1000023161E-01	  1.0340902211E+09	  9.8754272766E+04	  7.5937500000E+08	  4.9913885929E-01
  6.2000008696E-01	  1.0340702567E+09	  9.8750713978E+04	  7.5312500000E+08	  4.9913885929E-01
  6.3000016914E-01	  1.0341031295E+09	  9.8761243184E+04	  7.5312500000E+08	  4.9913885929E-01
  6.4000025133E-01	  1.0341756249E+09	  9.8782100825E+04	  7.5312500000E+08	  4.9913885929E-01
  6.5000033351E-01	  1.0342696426E+09	  9.8808463937E+04	  7.5312500000E+08	  4.9913885929E-01
  6.6000041570E-01	  1.0343658657E+09	  9.8835181845E+04	  7.5312500000E+08	  4.9913885929E-01
  6.7000000927E-01	  1.0344474585E+09	  9.8857762500E+04	  7.5312500000E+08	  4.9913885929E-01
  6.8000009145E-01	  1.0345022549E+09	  9.8872957806E+04	  7.5312500000E+08	  4.9913885929E-01
  6.9000017364E-01	  1.0345236658E+09	  9.8879008286E+04	  7.5312500000E+08	  4.9913885929E-01
  7.0000025582E-01	  1.0345100105E+09	  9.8875467852E+04	  7.5312500000E+08	  4.9913885929E-01
  7.1000033801E-01	  1.0344626180E+09	  9.8862697663E+04	  7.5312500000E+08	  4.9913885929E-01
  7.2000042019E-01	  1.0343833673E+09	  9.8841209272E+04	  7.5312500000E+08	  4.9913885929E-01
  7.3000001376E-01	  1.0342731949E+09	  9.8811266037E+04	  7.5312500000E+08	  4.9913885929E-01
  7.4000009594E-01	  1.0341321946E+09	  9.8772908130E+04	  7.5312500000E+08	  4.9913885929E-01
  7.5000017813E-01	  1.0339607005E+09	  9.8726239991E+04	  7.5312500000E+08	  4.9913885929E-01
  7.6000026031E-01	  1.0337604824E+09	  9.8671749789E+04	  7.5312500000E+08	  4.9913885929E-01
  7.7000034250E-01	  1.0335353540E+09	  9.8610473570E+04	  7.5312500000E+08	  4.9913885929E-01
  7.8000042468E-01	  1.0332907961E+09	  9.8543897237E+04	  7.5312500000E+08	  4.9913885929E-01
  7.9000001825E-01	  1.0330334668E+09	  9.8474434616E+04	  7.4687500000E+08	  4.9913885929E-01
  8.0000010044E-01	  1.0327717878E+09	  9.8406422973E+04	  7.4687500000E+08	  4.9913885929E-01
  8.0848644009E-01	  1.0325459809E+09	  9.8347478273E+04	  7.4687500000E+08	  4.9913885929E-01
  8.1000018262E-01	  1.0325053685E+09	  9.8336851344E+04	  7.4687500000E+08	  4.9913885929E-01
  8.2000026481E-01	  1.0322342683E+09	  9.8265711367E+04	  7.4687500000E+08	  4.9913885929E-01
  8.3000034699E-01	  1.0319570389E+09	  9.8192597295E+04	  7.4687500000E+08	  4.9913885929E-01
  8.4000042918E-01	  1.0316714212E+09	  9.8116890522E+04	  7.4687500000E+08	  4.9913885929E-01
  8.5000002274E-01	  1.0313754837E+09	  9.8038064478E+04	  7.4687500000E+08	  4.9913885929E-01
  8.6000010493E-01	  1.0310686200E+09	  9.7955952469E+04	  7.4687500000E+08	  4.9913885929E-01
  8.7000018711E-01	  1.0307515122E+09	  9.7870738627E+04	  7.4687500000E+08	  4.9913885929E-01
  8.8000026930E-01	  1.0304256966E+09	  9.7782844115E+04	  7.4687500000E+08	  4.9913885929E-01
  8.9000035148E-01	  1.0300869885E+09	  9.7692788926E+04	  7.4687500000E+08	  4.9913885929E-01
  9.0000043367E-01	  1.0297416685E+09	  9.7601025885E+04	  7.4687500000E+08	  4.9913885929E-01
  9.1000002723E-01	  1.0293990630E+09	  9.7507807120E+04	  7.4687500000E+08	  4.9913885929E-01
  9.2000010942E-01	  1.0290588812E+09	  9.7413031270E+04	  7.4687500000E+08	  4.9913885929E-01
  9.3000019160E-01	  1.0287138694E+09	  9.7319034991E+04	  7.4062500000E+08	  4.9913885929E-01
  9.4000027379E-01	  1.0283556627E+09	  9.7224944075E+04	  7.4062500000E+08	  4.9913885929E-01
  9.5000035598E-01	  1.0279861657E+09	  9.7127390611E+04	  7.4062500000E+08	  4.9913885929E-01
  9.6000043816E-01	  1.0276042260E+09	  9.7026017798E+04	  7.4062500000E+08	  4.9913885929E-01
  9.7000003173E-01	  1.0271802962E+09	  9.6920933730E+04	  7.4062500000E+08	  4.9913885929E-01
  9.8000011391E-01	  1.0267538505E+09	  9.6812696510E+04	  7.4062500000E+08	  4.9913885929E-01
  9.9000019610E-01	  1.0263292907E+09	  9.6701878998E+04	  7.4062500000E+08	  4.9913885929E-01
  1.0000002783E+00	  1.0259080924E+09	  9.6588777128E+04	  7.4062500000E+08	  4.9913885929E-01
  1.0100003605E+00	  1.0254903253E+09	  9.6473340693E+04	  7.4062500000E+08	  4.9913885929E-01
  1.0200004427E+00	  1.0250751867E+09	  9.6355311052E+04	  7.4062500000E+08	  4.9913885929E-01
  1.0300000362E+00	  1.0246303394E+09	  9.6234406586E+04	  7.4062500000E+08	  4.9913885929E-01
  1.0400001184E+00	  1.0241429829E+09	  9.6113998020E+04	  7.3437500000E+08	  4.9913885929E-01
  1.0500002006E+00	  1.0236461183E+09	  9.5992957483E+04	  7.3437500000E+08	  4.9913885929E-01
  1.0600002828E+00	  1.0231514421E+09	  9.5868602614E+04	  7.3437500000E+08	  4.9913885929E-01
  1.0700003650E+00	  1.0226598495E+09	  9.5740987228E+04	  7.3437500000E+08	  4.9913885929E-01
  1.0800004472E+00	  1.0221714042E+09	  9.5609970876E+04	  7.3437500000E+08	  4.9913885929E-01
  1.0900000407E+00	  1.0216474755E+09	  9.5475197672E+04	  7.3437500000E+08	  4.9913885929E-01
  1.1000001229E+00	  1.0211111532E+09	  9.5336788844E+04	  7.3437500000E+08	  4.9913885929E-01
  1.1100002051E+00	  1.0205644370E+09	  9.5195124634E+04	  7.3437500000E+08	  4.9913885929E-01
  1.1200002873E+00	  1.0200085373E+09	  9.5050577255E+04	  7.3437500000E+08	  4.9913885929E-01
  1.1300003695E+00	  1.0194614109E+09	  9.4909028482E+04	  7.2968750000E+08	  4.9913885928E-01
  1.1400004517E+00	  1.0188885393E+09	  9.4760977171E+04	  7.2968750000E+08	  4.9913885928E-01
  1.1500000452E+00	  1.0183051992E+09	  9.4610691280E+04	  7.2656250000E+08	  4.9913885928E-01
  1.1600001274E+00	  1.0177134123E+09	  9.4459151074E+04	  7.2656250000E+08	  4.9913885928E-01
  1.1700002096E+00	  1.0171190761E+09	  9.4306120860E+04	  7.2656250000E+08	  4.9913885928E-01
  1.1800002918E+00	  1.0381306636E+09	  9.6998027447E+04	  7.2656250000E+08	  4.9913885928E-01
  1.1900003740E+00	  1.7226047608E+09	  2.6598017556E+05	  7.2968750000E+08	  4.9913886835E-01
  1.2000004562E+00	  1.9595855853E+09	  3.7142700944E+05	  7.3593750000E+08	  4.9913904607E-01
  1.2100000497E+00	  2.0158343514E+09	  3.9677597825E+05	  7.4218750000E+08	  4.9913956138E-01
  1.2200001319E+00	  2.0009053021E+09	  3.8321905150E+05	  7.5156250000E+08	  4.9914089723E-01
  1.2300002141E+00	  1.9821671264E+09	  3.6925213334E+05	  7.5781250000E+08	  4.9914186974E-01
  1.2400002963E+00	  1.9623639447E+09	  3.5577028208E+05	  7.6718750000E+08	  4.9914236984E-01
  1.2500003785E+00	  1.9455485943E+09	  3.4487426450E+05	  7.7343750000E+08	  4.9914288055E-01
  1.2600004607E+00	  1.9298931852E+09	  3.3482281955E+05	  7.7968750000E+08	  4.9914342113E-01
  1.2700000542E+00	  1.9130658743E+09	  3.2517740044E+05	  7.8906250000E+08	  4.9914404404E-01
  1.2800001364E+00	  1.8961759420E+09	  3.1566912884E+05	  7.9531250000E+08	  4.9914473865E-01
  1.2900002186E+00	  1.8768481291E+09	  3.0459051893E+05	  8.0312500000E+08	  4.9914557802E-01
  1.3000003008E+00	  1.8560006979E+09	  2.9157904155E+05	  8.0937500000E+08	  4.9914638808E-01
  1.3100003830E+00	  1.8394027595E+09	  2.8158194841E+05	  8.1562500000E+08	  4.9914713547E-01
  1.3200004652E+00	  1.8272232748E+09	  2.7433990432E+05	  8.2187500000E+08	  4.9914779713E-01
  1.3300000588E+00	  1.8164909444E+09	  2.6878867624E+05	  8.3437500000E+08	  4.9914848432E-01
  1.3400001409E+00	  1.8051970329E+09	  2.6338814544E+05	  8.4062500000E+08	  4.9914920297E-01
  1.3500002231E+00	  1.7929798482E+09	  2.5749843161E+05	  8.4687500000E+08	  4.9914994633E-01
  1.3600003053E+00	  1.7798504004E+09	  2.5117755859E+05	  8.5312500000E+08	  4.9915070152E-01
  1.3700003875E+00	  1.7661563174E+09	  2.4463419088E+05	  8.5937500000E+08	  4.9915147424E-01
  1.3800004697E+00	  1.7527725606E+09	  2.3817247021E+05	  8.6562500000E+08	  4.9915227161E-01
  1.3900000633E+00	  1.7400962343E+09	  2.3200404032E+05	  8.7187500000E+08	  4.9915308837E-01
  1.4000001454E+00	  1.7281174461E+09	  2.2622577184E+05	  8.7812500000E+08	  4.9915391898E-01
  1.4100002276E+00	  1.7155820908E+09	  2.2081029834E+05	  8.8437500000E+08	  4.9915475814E-01
  1.4200003098E+00	  1.7031036692E+09	  2.1566695211E+05	  8.9062500000E+08	  4.9915560373E-01
  1.4300003920E+00	  1.6911207754E+09	  2.1070476770E+05	  9.0312500000E+08	  4.9915646380E-01
  1.4400004742E+00	  1.6795256095E+09	  2.0586870279E+05	  9.0937500000E+08	  4.9915734522E-01
  1.4500000678E+00	  1.6683078460E+09	  2.0115814388E+05	  9.1562500000E+08	  4.9915823294E-01
  1.4600001500E+00	  1.6574771994E+09	  1.9658306548E+05	  9.2187500000E+08	  4.9915912741E-01
  1.4700002321E+00	  1.6469448328E+09	  1.9214611533E+05	  9.2812500000E+08	  4.9916002962E-01
  1.4800003143E+00	  1.6361542365E+09	  1.8784843921E+05	  9.3437500000E+08	  4.9916093926E-01
  1.4900003965E+00	  1.6247534945E+09	  1.8369387247E+05	  9.4062500000E+08	  4.9916185506E-01
  1.5000004787E+00	  1.6138126389E+09	  1.7968390847E+05	  9.4687500000E+08	  4.9916277592E-01
  1.5100000723E+00	  1.6033095218E+09	  1.7581593334E+05	  9.5312500000E+08	  4.9916370115E-01
  1.5200001545E+00	  1.5932108920E+09	  1.7208153007E+05	  9.5937500000E+08	  4.9916462992E-01
  1.5300002366E+00	  1.5834803310E+09	  1.6846944573E+05	  9.6562500000E+08	  4.9916556142E-01
  1.5400003188E+00	  1.5736900757E+09	  1.6496752578E+05	  9.7187500000E+08	  4.9916649533E-01
  1.5500004010E+00	  1.5641299755E+09	  1.6156442519E+05	  9.7812500000E+08	  4.9916743184E-01
  1.5600004832E+00	  1.5548733566E+09	  1.5825316419E+05	  9.8437500000E+08	  4.9916837065E-01
  1.5700000768E+00	  1.5451933484E+09	  1.5503382441E+05	  9.9062500000E+08	  4.9916931116E-01
  1.5800001590E+00	  1.5355064827E+09	  1.5190709282E+05	  9.9687500000E+08	  4.9917025232E-01
  1.5900002412E+00	  1.5261493370E+09	  1.4887161460E+05	  1.0031250000E+09	  4.9917119334E-01
  1.6000003233E+00	  1.5170630029E+09	  1.4592439868E+05	  1.0093750000E+09	  4.9917213358E-01
  1.6100004055E+00	  1.5078853172E+09	  1.4306334352E+05	  1.0156250000E+09	  4.9917307235E-01
  1.6200004877E+00	  1.4990058533E+09	  1.4028784852E+05	  1.0218750000E+09	  4.9917400948E-01
  1.6300000813E+00	  1.4904210123E+09	  1.3759449233E+05	  1.0281250000E+09	  4.9917494495E-01
  1.6400001635E+00	  1.4821083858E+09	  1.3497689124E+05	  1.0343750000E+09	  4.9917587904E-01
  1.6500002457E+00	  1.4740472627E+09	  1.3242854577E+05	  1.0406250000E+09	  4.9917681172E-01
  1.6600003278E+00	  1.4657357293E+09	  1.2994533997E+05	  1.0468750000E+09	  4.9917774301E-01
  1.6700004100E+00	  1.4572361640E+09	  1.2752535554E+05	  1.0531250000E+09	  4.9917867202E-01
  1.6800000036E+00	  1.4486532724E+09	  1.2516733152E+05	  1.0593750000E+09	  4.9917959769E-01
  1.6900000858E+00	  1.4402737263E+09	  1.2287074132E+05	  1.0656250000E+09	  4.9918051983E-01
  1.7000001680E+00	  1.4321570390E+09	  1.2063642092E+05	  1.0718750000E+09	  4.9918143809E-01
  1.7100002502E+00	  1.4242967182E+09	  1.1846467248E+05	  1.0781250000E+09	  4.9918235231E-01
  1.7200003324E+00	  1.4166824204E+09	  1.1635419452E+05	  1.0843750000E+09	  4.9918326261E-01
  1.7300004145E+00	  1.4092995593E+09	  1.1430176215E+05	  1.0906250000E+09	  4.9918416928E-01
  1.7400000081E+00	  1.4021324305E+09	  1.1230331087E+05	  1.0968750000E+09	  4.9918507246E-01
  1.7500000903E+00	  1.3950880026E+09	  1.1035472346E+05	  1.1031250000E+09	  4.9918597211E-01
  1.7600001725E+00	  1.3873924716E+09	  1.0845306645E+05	  1.1093750000E+09	  4.9918686843E-01
  1.7700002547E+00	  1.3796830751E+09	  1.0659736454E+05	  1.1156250000E+09	  4.9918776070E-01
  1.7800003369E+00	  1.3721952589E+09	  1.0478714555E+05	  1.1218750000E+09	  4.9918864841E-01
  1.7900004190E+00	  1.3649232304E+09	  1.0302210610E+05	  1.1281250000E+09	  4.9918953122E-01
  1.8000000126E+00	  1.3578605944E+09	  1.0130167275E+05	  1.1343750000E+09	  4.9919040866E-01
  1.8100000948E+00	  1.3509979349E+09	  9.9624184617E+04	  1.1406250000E+09	  4.9919128053E-01
  1.8200001770E+00	  1.3443274331E+09	  9.7988226095E+04	  1.1468750000E+09	  4.9919214684E-01
  1.8300002592E+00	  1.3378092082E+09	  9.6392702342E+04	  1.1531250000E+09	  4.9919300755E-01
  1.8400003414E+00	  1.3312081747E+09	  9.4835469208E+04	  1.1593750000E+09	  4.9919386210E-01
  1.8500004236E+00	  1.3247703035E+09	  9.3315029002E+04	  1.1656250000E+09	  4.9919471022E-01
  1.8600000171E+00	  1.3183679869E+09	  9.1830643251E+04	  1.1718750000E+09	  4.9919555178E-01
  1.8700000993E+00	  1.3115965267E+09	  9.0382216212E+04	  1.1781250000E+09	  4.9919638669E-01
  1.8800001815E+00	  1.3050200553E+09	  8.8970609643E+04	  1.1843750000E+09	  4.9919721438E-01
  1.8900002637E+00	  1.2986360163E+09	  8.7596353334E+04	  1.1906250000E+09	  4.9919803555E-01
  1.9000003459E+00	  1.2924392655E+09	  8.6259394830E+04	  1.1968750000E+09	  4.9919885002E-01
  1.9100004281E+00	  1.2864238290E+09	  8.4958968867E+04	  1.1968750000E+09	  4.9919966237E-01
  1.9200000216E+00	  1.2805096307E+09	  8.3693504776E+04	  1.2031250000E+09	  4.9920047223E-01
  1.9300001038E+00	  1.2745528433E+09	  8.2460908998E+04	  1.2093750000E+09	  4.9920127673E-01
  1.9356930070E+00	  1.2712367026E+09	  8.1773212665E+04	  1.2156250000E+09	  4.9920174152E-01
  1.9356934957E+00	  1.2712364201E+09	  8.1773154072E+04	  1.2156250000E+09	  4.9920174156E-01
  1.9356939843E+00	  1.2712361376E+09	  8.1773095479E+04	  1.2156250000E+09	  4.9920174159E-01
