n 1.5766435630782421e-25
h1 1.4024749302941492e-20
he4 1.7533784819062496e-15
h2 3.1876105335289096e-35
h3 3.0208057550815724e-23
he3 2.6458137529236812e-23
li6 2.5918906727071723e-41
li7 2.641108300332064e-28
li8 1.2628025342489943e-45
li9 1.5484841838521332e-62
be7 2.7739370098652682e-33
be9 1.0414922165953994e-43
be10 1.8450300012351513e-36
be11 3.424920216688762e-63
be12 3.2186856409115277e-82
b8 1.5299299415544944e-57
b10 7.420174603686344e-26
b11 2.4669361750588555e-16
b12 2.0088207540100174e-34
b13 1.421458965902119e-52
b14 1.493864906786768e-76
c10 0.0
c11 2.0303792545171534e-23
c12 0.0009828231250572968
c13 5.2935305004907564e-15
c14 5.665448096788062e-10
c15 3.0412469914511857e-32
c16 1.5708371485790717e-49
c17 2.598580776266999e-74
c18 0.0
n11 0.0
n12 5.271267171054636e-45
n13 1.747174208434361e-16
n14 2.9149282052643816e-09
n15 2.98042394482784e-10
n16 2.2371358797376223e-25
n17 9.921357887365912e-41
n18 3.458202653581143e-58
n19 6.916483017377816e-76
n20 3.557921636466048e-94
n21 0.0
o13 9.057642356362502e-61
o14 2.695048149251841e-23
o15 4.641578938226278e-16
o16 0.04164538872795448
o17 1.7192221337771732e-09
o18 8.36182907706774e-11
o19 1.4098719519065372e-22
o20 8.775538292056264e-32
o21 1.1092654230583468e-45
o22 1.8122621121105999e-59
f16 4.476612432486553e-44
f17 8.099615479182747e-23
f18 7.797717657329984e-12
f19 3.903463066935565e-10
f20 3.351115277159929e-31
f21 3.7944477701303627e-41
f22 4.3692041877193686e-47
f23 4.607140482662035e-54
f24 1.0842345140668522e-70
f25 1.1753505461436138e-88
f26 0.0
ne16 6.383868020093274e-88
ne17 2.7626156225748472e-86
ne18 1.3644962948092195e-37
ne19 8.668202006092208e-23
ne20 0.011983141271611967
ne21 2.1801819367997513e-05
ne22 2.9523412799444673e-05
ne23 9.008571223537301e-16
ne24 7.05071953430255e-18
ne25 1.1266215605250414e-33
ne26 4.363318594853522e-50
ne27 1.04575882892614e-70
ne28 0.0
ne29 0.0
na19 3.9408143437403683e-64
na20 4.195460016157261e-38
na21 1.7483898559110083e-15
na22 8.815578134317969e-08
na23 0.00026091303336914543
na24 1.9687344178776473e-07
na25 1.5099627717818215e-15
na26 2.4761435984075376e-30
na27 1.3418967051193646e-45
na28 4.4871287150301396e-63
na29 1.2763305363347404e-79
na30 2.7109489756785424e-97
na31 0.0
na32 0.0
mg20 1.0226420129889223e-82
mg21 2.1985834498057204e-53
mg22 1.0769730897624345e-26
mg23 2.5393317639223245e-16
mg24 0.0018965482943413415
mg25 0.00044732451776806744
mg26 0.00029121008975143683
mg27 2.7097042833621693e-10
mg28 4.1439465823889406e-11
mg29 2.966192432697874e-26
mg30 8.84546721878555e-42
mg31 2.0686805373556975e-58
mg32 1.7001893979438258e-74
mg33 1.1343722579209358e-91
mg34 0.0
mg35 0.0
al22 1.7005179907606007e-79
al23 2.4764718405107943e-50
al24 5.364661207223059e-30
al25 5.0102995284145894e-15
al26 5.764577196837275e-08
al27 0.000145953774465041
al28 1.263018879594883e-10
al29 2.658805394524365e-13
al30 4.538761918953267e-27
al31 1.2107634960033596e-41
al32 1.9366152878931562e-58
al33 6.576607648598719e-75
al34 4.889321649127873e-92
al35 0.0
al36 0.0
al37 0.0
al38 0.0
si23 0.0
si24 6.785627455494339e-67
si25 7.238536070907982e-45
si26 7.505934641422776e-28
si27 4.2368421879345077e-19
si28 0.00013247790258339435
si29 2.298008169122875e-05
si30 1.0421554365253e-05
si31 2.5272991002868697e-08
si32 3.459807949826706e-09
si33 5.613627001862283e-23
si34 2.9763868372247616e-35
si35 7.732872977835413e-51
si36 8.294863421354853e-66
si37 6.400823837345565e-83
si38 4.9259321184769065e-90
si39 0.0
si40 0.0
si41 0.0
p25 0.0
p26 4.08898943533023e-69
p27 4.0767026279621224e-47
p28 8.442082873468855e-34
p29 3.624299201766916e-18
p30 2.1636419757381464e-11
p31 4.561765540060389e-06
p32 6.189039464273532e-08
p33 1.2020496789984612e-08
p34 1.277202572998023e-20
p35 1.9793581636654582e-22
p36 7.439333322884436e-36
p37 7.739666822251724e-48
p38 1.5611058727796198e-62
p39 1.0011479847503976e-77
p40 9.928003088782276e-90
p41 0.0
p42 0.0
p43 0.0
p44 0.0
s27 4.775859950186102e-90
s28 4.0834398979201814e-66
s29 2.0309943223612877e-48
s30 1.308916170788999e-32
s31 4.927903310651786e-24
s32 8.344055754790862e-06
s33 1.0802353371896169e-07
s34 1.0432270856878618e-06
s35 2.5666545405132154e-08
s36 9.019711108677825e-08
s37 3.656659491209305e-15
s38 2.7815810791268445e-17
s39 3.7086953137324246e-30
s40 5.811363831518949e-38
s41 2.410183785125507e-50
s42 3.601871191233112e-65
s43 2.158096285775216e-81
s44 4.85188345008473e-98
s45 0.0
s46 0.0
s47 0.0
cl29 0.0
cl30 8.383650436773588e-76
cl31 2.2090507532184503e-55
cl32 6.6104925235391946e-40
cl33 4.276573880053882e-19
cl34 3.747529757027877e-21
cl35 1.1411210126892954e-07
cl36 5.731496621590927e-09
cl37 9.215176209264781e-07
cl38 6.196949525339385e-11
cl39 9.978110703669272e-14
cl40 6.5880178391823355e-21
cl41 8.324281169491996e-27
cl42 1.1664837264816413e-37
cl43 2.332016098277371e-40
cl44 3.4182344171696096e-55
cl45 5.550340684652379e-69
cl46 6.162505722471463e-85
cl47 0.0
cl48 0.0
cl49 0.0
cl50 0.0
ar31 2.1909058542943726e-98
ar32 4.758356433307994e-75
ar33 4.976244767876229e-56
ar34 2.614454516394594e-33
ar35 1.4366267625427205e-33
ar36 9.334992195287201e-07
ar37 7.920461222127965e-09
ar38 1.1851057540119618e-06
ar39 1.2212650250984307e-07
ar40 5.366685341375953e-08
ar41 2.5466604856421878e-11
ar42 1.66537188647747e-11
ar43 1.0975801629624504e-16
ar44 7.156112469163276e-20
ar45 4.3643600456507846e-30
ar46 6.28022693632872e-39
ar47 5.802774415783363e-54
ar48 6.458238887383919e-70
ar49 1.2186544977359537e-87
ar50 0.0
ar51 0.0
ar52 0.0
k32 0.0
k33 0.0
k34 0.0
k35 2.0819703442078402e-57
k36 3.307343459224249e-50
k37 2.7223619056162257e-21
k38 1.4661228387121998e-19
k39 1.576983230281113e-07
k40 1.5603508629513732e-08
k41 3.9256610840173814e-08
k42 1.968072871042878e-09
k43 8.875522240960176e-11
k44 7.710448344534701e-15
k45 1.0429328475777536e-17
k46 1.918966863997161e-24
k47 1.3903747482536105e-33
k48 4.668789060177883e-45
k49 4.738657970259056e-57
k50 5.497064312287198e-72
k51 2.2964774790189845e-84
k52 0.0
k53 0.0
k54 0.0
k55 0.0
ca35 0.0
ca36 1.163103186061632e-74
ca37 1.322097450814501e-65
ca38 2.164023229364621e-36
ca39 7.008988021087265e-34
ca40 8.161787954721946e-07
ca41 1.674006013102639e-08
ca42 6.91463120687229e-08
ca43 2.8857849656599656e-08
ca44 6.745029332935528e-08
ca45 1.5369278718449716e-08
ca46 4.907450827722751e-09
ca47 2.051526453527388e-10
ca48 2.8322089744185555e-09
ca49 1.321615350191789e-14
ca50 3.726999635539876e-26
ca51 4.141867004380231e-34
ca52 7.963785458949653e-45
ca53 7.894186450336117e-62
ca54 2.423480346933187e-78
ca55 1.1457015095614262e-96
ca56 0.0
ca57 0.0
sc36 0.0
sc37 0.0
sc38 0.0
sc39 9.954029800070879e-65
sc40 2.347087638506606e-55
sc41 2.1125071974197165e-24
sc42 4.926927521325509e-24
sc43 7.0842482583966365e-12
sc44 6.228273052699864e-12
sc45 4.81499724982743e-09
sc46 2.2893529880684924e-09
sc47 6.091028491404541e-10
sc48 7.97958939467662e-11
sc49 3.9191445069906974e-13
sc50 5.0197204569845053e-20
sc51 3.620686382776705e-30
sc52 1.910827231458644e-37
sc53 1.585381534487965e-52
sc54 2.273832465540312e-68
sc55 7.454672900994881e-85
sc56 0.0
sc57 0.0
sc58 0.0
sc59 0.0
ti39 0.0
ti40 4.998730567563076e-82
ti41 7.049501524920579e-72
ti42 1.7117720836666931e-40
ti43 5.6209362815375116e-39
ti44 4.5613915666427196e-14
ti45 2.3050564036813787e-15
ti46 7.121206363378144e-09
ti47 7.57387469094057e-09
ti48 1.0190098595411492e-08
ti49 2.416121480471328e-08
ti50 4.831081027287947e-08
ti51 5.317554250422834e-13
ti52 1.529479087508963e-18
ti53 1.9309725159074832e-25
ti54 1.1197354982636969e-30
ti55 3.989720318691365e-46
ti56 7.148571493335387e-62
ti57 1.7605438317603005e-78
ti58 2.5534146650116774e-93
ti59 0.0
ti60 0.0
ti61 0.0
ti62 0.0
v41 0.0
v42 2.1170272705444452e-98
v43 3.418609298987593e-64
v44 1.2463927921060696e-55
v45 3.0395251886410746e-31
v46 6.285389846259e-31
v47 1.0112563361044554e-13
v48 1.0176135514892934e-12
v49 1.437703606750915e-10
v50 2.764741164939661e-10
v51 6.6487729568251906e-09
v52 1.682345448035318e-13
v53 1.1587561238616847e-18
v54 3.7906485127597914e-25
v55 9.739105849736301e-36
v56 1.4106703833231156e-50
v57 1.76715702792242e-64
v58 4.7190137478902445e-79
v59 2.3195205418818544e-85
v60 3.443345910348418e-92
v61 0.0
v62 0.0
v63 0.0
v64 0.0
v65 0.0
cr43 0.0
cr44 2.496263013061706e-81
cr45 2.9142818861615843e-72
cr46 4.1513027052836695e-47
cr47 3.3972753640444678e-46
cr48 1.28874067147808e-16
cr49 9.075566609626391e-18
cr50 1.3539463308730833e-10
cr51 6.26597993045337e-11
cr52 1.2810055320279116e-07
cr53 2.9429793428728247e-08
cr54 1.4668592449134437e-07
cr55 7.535239933624108e-13
cr56 9.032314465140126e-16
cr57 1.4975004922513782e-25
cr58 4.988197174568766e-35
cr59 1.6942353721610697e-49
cr60 3.488370708217241e-62
cr61 4.519878759617679e-76
cr62 1.4923673075078552e-87
cr63 0.0
cr64 0.0
cr65 0.0
cr66 0.0
cr67 0.0
cr68 0.0
mn45 0.0
mn46 6.8176375252932355e-93
mn47 5.192928400764256e-71
mn48 2.0595805880072284e-63
mn49 1.8746843343286385e-33
mn50 1.08887332815815e-33
mn51 1.074382520962976e-15
mn52 6.300212536686325e-15
mn53 7.729224898976335e-11
mn54 7.209631744926309e-11
mn55 1.548913265125979e-07
mn56 3.562767925885635e-11
mn57 1.2621486151060791e-16
mn58 1.213468276466409e-28
mn59 2.360972548009357e-34
mn60 6.23500158125762e-39
mn61 1.7291810791865442e-52
mn62 7.480277112280318e-65
mn63 1.0520967440454722e-77
mn64 2.243297100572493e-92
mn65 0.0
mn66 0.0
mn67 0.0
mn68 0.0
mn69 0.0
mn70 0.0
mn71 0.0
fe47 0.0
fe48 2.2580238423159423e-88
fe49 2.3288875323242334e-81
fe50 8.112708576401195e-55
fe51 2.866642718382956e-50
fe52 8.112311565971629e-20
fe53 2.888466518754629e-21
fe54 7.104027833178308e-08
fe55 3.92742825714045e-08
fe56 6.5113545587801094e-06
fe57 3.2653249954700237e-06
fe58 6.981949382077069e-06
fe59 1.1922086402830848e-06
fe60 4.61016867748205e-07
fe61 7.114751372342835e-12
fe62 6.380329568669432e-18
fe63 4.429534137341634e-30
fe64 1.605918318831343e-41
fe65 4.907362659038313e-56
fe66 1.1026242622981922e-65
fe67 9.405555809150793e-73
fe68 9.075975992331918e-88
fe69 1.2386328292942307e-99
fe70 0.0
fe71 0.0
fe72 0.0
fe73 0.0
fe74 0.0
co48 0.0
co49 0.0
co50 0.0
co51 1.5351979489105943e-78
co52 1.384390977119145e-69
co53 5.612604283578463e-37
co54 3.020493217543627e-38
co55 1.4161321845352982e-12
co56 8.783667268693026e-13
co57 1.71214942777299e-09
co58 1.2624420683985169e-09
co59 1.4346460128079634e-06
co60 2.7161649936885765e-07
co61 3.1673034324922193e-09
co62 7.193617369558885e-14
co63 5.488694243358429e-21
co64 3.8345480074145566e-35
co65 1.103321685286689e-45
co66 8.132926474542974e-60
co67 7.218978988633516e-66
co68 1.3256160059490622e-79
co69 9.54668207971143e-83
co70 1.9888455464503336e-96
co71 0.0
co72 0.0
co73 0.0
co74 0.0
co75 0.0
co76 0.0
co77 0.0
ni51 0.0
ni52 7.323495275618998e-97
ni53 1.3689479263414388e-87
ni54 1.4933438274745808e-54
ni55 2.0952733863144585e-55
ni56 9.447210470259771e-17
ni57 4.879187112352491e-18
ni58 1.3094750993162187e-08
ni59 8.80826290541696e-09
ni60 9.44868543422131e-07
ni61 9.74931481503483e-07
ni62 9.951499059557756e-07
ni63 1.1295459407883263e-06
ni64 1.036181784545448e-06
ni65 4.1814839599158184e-09
ni66 1.1457989361275814e-09
ni67 5.371314160128837e-20
ni68 7.522889564560667e-24
ni69 1.8351828055074592e-32
ni70 1.01098774673014e-40
ni71 2.3437375635390056e-51
ni72 1.0943209898203737e-60
ni73 8.173460580008991e-72
ni74 1.3271721429302194e-78
ni75 1.1507620751151032e-89
ni76 0.0
ni77 0.0
ni78 0.0
ni79 0.0
cu52 0.0
cu53 0.0
cu54 0.0
cu55 2.8193714792219043e-81
cu56 3.966280347363309e-77
cu57 4.868910592923083e-37
cu58 3.1740378543658157e-34
cu59 1.9151737652917082e-18
cu60 5.654560303656654e-16
cu61 2.876481117412631e-12
cu62 3.439606528875646e-13
cu63 2.2882387876246164e-08
cu64 3.493768343006383e-09
cu65 2.1622653481682243e-07
cu66 1.9063400415717002e-11
cu67 1.2925947361519301e-09
cu68 5.565983206545025e-18
cu69 5.059536880250268e-18
cu70 5.9305501002174215e-30
cu71 5.999870495951253e-31
cu72 8.358099139979217e-40
cu73 8.002782396187133e-47
cu74 4.686803330224278e-57
cu75 3.607477364170367e-64
cu76 1.2718883008285373e-74
cu77 2.1057095817571884e-83
cu78 3.227172220774586e-93
cu79 0.0
cu80 0.0
cu81 0.0
cu82 0.0
zn55 0.0
zn56 0.0
zn57 7.429516981427741e-96
zn58 2.578416801235753e-55
zn59 5.934946688143857e-52
zn60 1.85668694924555e-24
zn61 5.031395675357864e-25
zn62 8.334043468485665e-17
zn63 2.0534936317933336e-18
zn64 1.555182888131976e-08
zn65 4.754016891471982e-09
zn66 1.6349514227401996e-07
zn67 5.587858566953987e-08
zn68 1.7403686458777167e-07
zn69 2.2336836471227492e-10
zn70 4.966461272358064e-09
zn71 1.7268370429947994e-13
zn72 4.058036135421154e-12
zn73 9.496018469617798e-22
zn74 1.178305101200705e-22
zn75 1.493803971003293e-33
zn76 2.4640974880226735e-41
zn77 2.0341327619275512e-52
zn78 3.990342563828951e-61
zn79 3.211341945586005e-70
zn80 4.474664542592949e-82
zn81 4.22159534203599e-98
zn82 0.0
zn83 0.0
zn84 0.0
ga57 0.0
ga58 0.0
ga59 9.80539883297409e-86
ga60 5.844881201582042e-77
ga61 6.901734991861294e-48
ga62 3.5481125940576094e-43
ga63 1.547928655090082e-29
ga64 1.5417340921894651e-26
ga65 2.1193606980898937e-15
ga66 3.064522181543063e-14
ga67 1.1125782495413647e-11
ga68 2.8316577183618075e-13
ga69 3.1284518227593985e-08
ga70 8.478438579464504e-11
ga71 7.668639658989585e-09
ga72 1.5259639574246896e-09
ga73 3.6526157660201194e-10
ga74 7.92238107285955e-15
ga75 3.377115428662061e-18
ga76 4.281827517632129e-25
ga77 1.3427490329566123e-31
ga78 6.805392376239187e-41
ga79 8.12315206403969e-49
ga80 6.845625303163084e-58
ga81 3.442759286403562e-65
ga82 8.534755870206163e-79
ga83 5.867895031312389e-92
ga84 0.0
ga85 0.0
ga86 0.0
ge59 0.0
ge60 0.0
ge61 5.636234688006224e-96
ge62 2.5933697968045644e-65
ge63 1.7844138447064595e-61
ge64 1.7018660584023021e-37
ge65 3.810794079196615e-37
ge66 1.0898390168470992e-20
ge67 8.823355839045489e-21
ge68 6.618260898903335e-16
ge69 9.337100744985408e-16
ge70 2.4082011408084374e-08
ge71 7.901677481398108e-09
ge72 2.4824868671479592e-08
ge73 1.4680835133827858e-08
ge74 3.0354564327325946e-08
ge75 2.0008924513141587e-10
ge76 1.7496312424532126e-09
ge77 1.7077483386241555e-12
ge78 1.274024153043367e-13
ge79 2.3360902795273547e-23
ge80 4.8720985090995874e-27
ge81 7.1943043424409035e-37
ge82 8.654325241238222e-45
ge83 3.738000998108811e-57
ge84 3.0901988796662037e-69
ge85 3.344095937073662e-83
ge86 6.885754482350467e-98
ge87 0.0
ge88 0.0
ge89 0.0
as61 0.0
as62 0.0
as63 7.21154286691941e-97
as64 5.406776855486753e-87
as65 1.4203116083452821e-62
as66 2.261819500264109e-56
as67 2.981243256946617e-34
as68 2.2623543451811633e-29
as69 2.1763261494503028e-23
as70 4.286772045599442e-22
as71 2.851332864736762e-13
as72 1.0190255217168749e-13
as73 2.0393534196145398e-12
as74 9.3187063928686e-13
as75 6.192626617379407e-09
as76 2.7283465777203358e-09
as77 2.283194940758455e-09
as78 2.1706759782203673e-11
as79 8.462791728779334e-14
as80 2.0254373126185748e-23
as81 1.4333255646013366e-24
as82 1.8289226174813163e-30
as83 1.6972240169905982e-35
as84 1.7578919041110414e-47
as85 2.196547901226974e-56
as86 5.008243195880652e-68
as87 1.1532395834541075e-79
as88 2.4097015345602388e-95
as89 0.0
as90 0.0
as91 0.0
se64 0.0
se65 0.0
se66 3.0491015559227495e-82
se67 8.133103495891244e-76
se68 7.252349357106823e-44
se69 3.0264447999601153e-40
se70 1.6826454883228867e-29
se71 1.5008640629967075e-29
se72 7.246737159972675e-18
se73 8.56317214985267e-19
se74 1.7936711739964762e-14
se75 5.454184784871656e-14
se76 3.3351542338644e-09
se77 4.110345841514674e-09
se78 9.941859525733887e-09
se79 6.338753320892102e-09
se80 1.638173885682243e-08
se81 1.6012731583153027e-11
se82 6.068844000825372e-10
se83 1.0112290537940398e-13
se84 4.265205838689571e-18
se85 1.8851756361833306e-26
se86 4.955634767538047e-34
se87 2.191731179443055e-44
se88 9.747795524102615e-57
se89 1.358902990026276e-71
se90 2.0323129513574145e-86
se91 0.0
se92 0.0
se93 0.0
br66 0.0
br67 0.0
br68 0.0
br69 7.174025756101498e-71
br70 4.297349672178653e-60
br71 6.621297582577741e-44
br72 3.0479833930233775e-39
br73 2.4811321397188344e-27
br74 1.968183461991238e-25
br75 6.366650154980826e-21
br76 1.220271360888636e-19
br77 4.7299805268195556e-14
br78 1.7560794352406418e-16
br79 2.391292468114e-13
br80 2.4841429179591975e-15
br81 3.140373433138457e-09
br82 9.455851061618956e-10
br83 1.4458000930815678e-10
br84 3.989490725111663e-13
br85 7.577795056045579e-17
br86 7.057134297438169e-23
br87 4.763641999893896e-27
br88 5.392288470244329e-35
br89 1.244353090233235e-44
br90 5.511478036077133e-55
br91 5.701854314658251e-68
br92 4.053016861556319e-81
br93 3.557222102446666e-95
br94 0.0
br95 0.0
kr69 0.0
kr70 6.191917855292419e-91
kr71 1.390892980039537e-79
kr72 9.680480605690439e-55
kr73 7.931930841212364e-49
kr74 2.4049425759732786e-33
kr75 1.1071303876132214e-31
kr76 5.105532340486902e-24
kr77 1.7332317066530343e-23
kr78 1.0286509728862188e-18
kr79 3.082428065549499e-19
kr80 2.406545804921638e-13
kr81 1.1133148031311636e-13
kr82 2.5032294035970756e-09
kr83 3.2900404283778823e-09
kr84 1.0447902496998447e-08
kr85 5.713221710701958e-09
kr86 7.188562680526893e-09
kr87 1.6336696956517897e-12
kr88 1.1616584475911526e-13
kr89 3.3474165177177075e-19
kr90 1.238510000977247e-26
kr91 1.63032298200616e-36
kr92 5.887499100262797e-49
kr93 3.0139941430855094e-60
kr94 1.7391110496232202e-74
kr95 2.4867799468794487e-88
kr96 0.0
kr97 0.0
rb72 0.0
rb73 5.882332778680598e-83
rb74 7.868461363773341e-69
rb75 4.486223934644835e-48
rb76 1.0290530746864002e-41
rb77 1.1816147592370303e-32
rb78 2.2368685936254626e-31
rb79 1.1144339472255004e-25
rb80 5.568463475510635e-29
rb81 2.0255318914005412e-19
rb82 3.5349757872645873e-22
rb83 1.585858492697002e-14
rb84 1.0004662464954577e-14
rb85 2.0271155866257764e-10
rb86 1.8647044291166547e-10
rb87 2.187579561302222e-09
rb88 5.785494195898101e-13
rb89 2.437213345958581e-15
rb90 4.156104262189068e-19
rb91 3.6765017954304105e-24
rb92 7.101540915196003e-36
rb93 7.515893991549386e-41
rb94 5.792806351524939e-51
rb95 3.580215235853137e-64
rb96 1.0367112561963942e-78
rb97 2.725424312950564e-92
rb98 0.0
rb99 0.0
sr75 1.2636781700201317e-88
sr76 2.480442475095894e-66
sr77 2.626558598154528e-56
sr78 3.036095629713986e-37
sr79 2.2545929598234893e-34
sr80 2.5783708272140423e-27
sr81 2.176785745223766e-26
sr82 1.1148245431165756e-21
sr83 2.0740657790044599e-22
sr84 9.79621958366525e-18
sr85 1.0153556726859333e-16
sr86 2.4211014238304485e-10
sr87 3.633276771603735e-10
sr88 6.211841119386771e-09
sr89 9.08229134810848e-10
sr90 2.556782598876919e-10
sr91 3.5849073405838885e-12
sr92 9.167867379540917e-14
sr93 5.4095803866454214e-18
sr94 1.4008774245934425e-23
sr95 4.796401197774554e-32
sr96 1.5744983831962723e-45
sr97 5.849516434757653e-60
sr98 3.936604634821445e-72
sr99 8.971125790925884e-87
sr100 0.0
sr101 0.0
y77 5.029436085858731e-91
y78 5.4974657348381884e-77
y79 3.7921100098344245e-54
y80 4.805681106861378e-45
y81 1.8082079622227665e-37
y82 1.5125046268644229e-41
y83 3.50719678711772e-29
y84 6.028811334553265e-34
y85 2.944860736773565e-24
y86 4.3968058716620707e-23
y87 2.6062121170395165e-16
y88 6.837517281215115e-16
y89 5.555080601819838e-10
y90 3.191151251046247e-11
y91 8.893099231153466e-11
y92 4.236334636397837e-12
y93 7.055432632519192e-12
y94 2.155793695143657e-14
y95 1.228864993427297e-16
y96 2.0538953696055317e-28
y97 5.229825178005578e-37
y98 1.9150164696391645e-50
y99 4.262674275430681e-55
y100 5.526537159127815e-67
y101 1.167315238483913e-79
y102 2.883917142422697e-93
y103 0.0
zr80 1.6858962745313756e-75
zr81 2.313418417533166e-64
zr82 2.1593195986843725e-54
zr83 1.4247803860269163e-39
zr84 2.030646692700277e-31
zr85 1.0759052018658005e-30
zr86 1.727544010802675e-25
zr87 6.900958168696925e-25
zr88 3.0156762691526e-21
zr89 6.116728897500795e-20
zr90 2.7963865542182973e-10
zr91 1.5079281671411224e-10
zr92 3.063845914846322e-10
zr93 1.3995985226225277e-10
zr94 2.453250194634368e-10
zr95 7.344470610910517e-11
zr96 1.182127001847191e-10
zr97 2.3583177299104636e-13
zr98 6.552865779398653e-22
zr99 1.0807092947204958e-34
zr100 1.844064194369362e-42
zr101 1.7490333594259126e-52
zr102 4.456334940045426e-65
zr103 4.728856397561559e-79
zr104 2.4605218021424103e-93
zr105 0.0
nb83 5.446576934578658e-75
nb84 1.226157058886644e-52
nb85 7.371465722404579e-44
nb86 5.670588688386964e-39
nb87 1.94615589492099e-33
nb88 5.362134432894854e-32
nb89 8.696040460325305e-27
nb90 9.850570907469551e-26
nb91 3.495314833733501e-16
nb92 2.9213797868691526e-16
nb93 1.5539836307391236e-15
nb94 1.4738477493668842e-15
nb95 8.711434134686013e-13
nb96 8.240012741748656e-13
nb97 5.530608455150457e-14
nb98 1.6367344861866057e-22
nb99 5.045462975196946e-27
nb100 6.386781417020067e-39
nb101 7.222285476901507e-38
nb102 2.7765688071971376e-49
nb103 1.6638422381082607e-54
nb104 2.667212145048372e-67
nb105 5.623861248007064e-80
nb106 3.192677637660117e-94
nb107 0.0
mo85 2.199649105646974e-74
mo86 2.2110629891726694e-64
mo87 6.712118606822033e-50
mo88 1.1192832926890833e-36
mo89 6.22065713834931e-35
mo90 1.5606278750110808e-28
mo91 6.224140624110881e-27
mo92 1.5483243457949164e-14
mo93 4.406083599652697e-15
mo94 4.0888044317679444e-14
mo95 5.385570628207685e-13
mo96 3.940394623068941e-12
mo97 4.849875917087194e-12
mo98 2.4319205392581166e-11
mo99 1.5347110647930741e-12
mo100 1.4834873267185662e-11
mo101 1.214078157198713e-14
mo102 5.1485028987269775e-17
mo103 7.521185820894298e-23
mo104 3.213285520643281e-26
mo105 3.7572756596167007e-39
mo106 2.681480792119835e-52
mo107 1.5365451873092204e-66
mo108 4.631400262612556e-81
mo109 1.421373021031158e-96
tc88 2.80240822120237e-71
tc89 6.639663286366418e-57
tc90 7.911036741465082e-50
tc91 7.309652712138679e-38
tc92 2.2741061008185812e-34
tc93 5.719389320169609e-22
tc94 5.392491611770671e-22
tc95 1.3673403444648916e-20
tc96 9.245863712355005e-20
tc97 1.353039324942198e-18
tc98 1.0384859949656921e-18
tc99 9.422577176823903e-13
tc100 9.375836626256632e-22
tc101 1.6358946243085235e-14
tc102 4.040923590237322e-19
tc103 2.227748847360598e-22
tc104 8.652829662091502e-22
tc105 9.009522253797571e-24
tc106 1.3333085580143652e-30
tc107 4.899480397046732e-35
tc108 2.362728157011327e-44
tc109 4.0655465284914265e-57
tc110 7.106720146568906e-71
ru91 6.399049463826772e-71
ru92 1.4890963512425695e-56
ru93 7.510544824733416e-36
ru94 4.9244181552080105e-25
ru95 2.773295431802623e-24
ru96 1.2515633764983743e-20
ru97 5.309516697750009e-21
ru98 6.006360312505016e-19
ru99 1.2141328104157717e-16
ru100 4.4409241212811284e-12
ru101 2.039730217649668e-12
ru102 1.0707900030056296e-11
ru103 5.64693121451581e-12
ru104 1.6495131964912943e-11
ru105 6.70751671816315e-13
ru106 6.432659980974511e-12
ru107 3.0712652567272875e-16
ru108 3.995121804984479e-18
ru109 4.151764836625695e-25
ru110 4.700318266786712e-31
ru111 2.0243958032040495e-45
ru112 1.194429899425586e-59
rh93 2.226465461160762e-78
rh94 3.3377633559352316e-47
rh95 1.725686394764323e-34
rh96 8.615035540922902e-33
rh97 7.274679319814563e-29
rh98 7.743974073805258e-27
rh99 4.366400121579184e-25
rh100 4.782736241729101e-24
rh101 2.326235538293944e-19
rh102 1.4508992256460065e-19
rh103 1.0707162851126043e-13
rh104 7.659828596695053e-20
rh105 1.2962122764674736e-12
rh106 1.2668632163426772e-17
rh107 1.008524689712568e-14
rh108 2.6199851723590294e-19
rh109 7.8294901446647685e-22
rh110 1.4000216753761544e-31
rh111 9.105853378423625e-34
rh112 1.4118453074967938e-42
rh113 1.5413435940561924e-47
rh114 2.273512309216524e-54
pd96 2.1583636271476142e-36
pd97 1.7857473207236553e-32
pd98 3.2541386626152345e-26
pd99 4.91735377105112e-25
pd100 2.12200076647531e-22
pd101 4.206207308432384e-24
pd102 5.10269386150543e-22
pd103 2.2358066393917493e-21
pd104 5.52600475827115e-13
pd105 4.491128931375842e-13
pd106 4.6113946754427546e-12
pd107 1.5533347268396789e-12
pd108 1.0622099495461215e-11
pd109 2.2161957493445512e-12
pd110 9.67692210080397e-12
pd111 4.314860935508764e-14
pd112 2.5796252336597204e-13
pd113 6.622884284181103e-19
pd114 1.0194390920206301e-20
pd115 2.9055165224354427e-27
ag98 2.639542850648865e-44
ag99 7.27925012000013e-37
ag100 4.101296562213557e-35
ag101 8.18358195687771e-31
ag102 8.090128532119903e-29
ag103 3.8822719467783004e-26
ag104 1.7026032631153378e-24
ag105 7.08159971036919e-21
ag106 4.608988009197124e-22
ag107 1.1555442731695382e-18
ag108 2.276631738583004e-22
ag109 1.1575207259761825e-12
ag110 2.802707540399913e-18
ag111 8.808357575486582e-13
ag112 1.2980324147213747e-13
ag113 2.544625125509222e-16
ag114 3.3353259766058416e-22
ag115 1.178564293986161e-25
ag116 2.185232287007299e-30
cd101 5.0667733494056095e-37
cd102 6.394302460886698e-29
cd103 1.8544216008084302e-27
cd104 1.775310601819597e-23
cd105 1.3161324389674242e-24
cd106 4.762516915009933e-22
cd107 5.842295653524032e-24
cd108 9.147694438800525e-18
cd109 1.900331119983683e-18
cd110 2.339292901675775e-12
cd111 7.239265578043814e-13
cd112 5.076488128621007e-12
cd113 2.1214238355969723e-12
cd114 1.717569038134874e-11
cd115 3.278535689677859e-12
cd116 2.4816982300203332e-11
cd117 2.317467474836801e-13
in102 6.509536560967896e-51
in103 3.82266163303229e-41
in104 1.0721625437515756e-38
in105 1.0585354188933177e-33
in106 5.922776494076313e-33
in107 6.390836584208778e-29
in108 1.4287138831686524e-26
in109 3.908392581873639e-25
in110 2.2804484510050807e-24
in111 7.5882195360565e-21
in112 2.0691001030824615e-22
in113 3.1278523611841797e-16
in114 3.993385708602437e-21
in115 4.707059155823044e-13
in116 1.9216004709273407e-20
in117 5.486275601021526e-14
in118 1.8806326220934312e-17
