n 7.585877328087435e-30
h1 3.3498479651551404e-18
he4 0.24636412135690197
h2 1.8638115475633487e-36
h3 1.9701517969256622e-47
he3 2.779424987855555e-37
li6 5.832170170035712e-29
li7 4.984074129757855e-30
li8 9.44537898340114e-49
li9 2.6720225142970938e-73
be7 2.2398853869092274e-32
be9 1.954237791621069e-30
be10 9.293428911156322e-46
be11 3.231977950808388e-69
be12 1.0590271809302426e-95
b8 1.2409885438345798e-52
b10 1.9455397788599714e-24
b11 8.731806298628022e-28
b12 4.92922939462233e-53
b13 6.125272723496647e-79
b14 0.0
c10 0.0
c11 4.9520258725751275e-43
c12 1.5011002186357041e-05
c13 8.764641224960285e-10
c14 1.2538384261098579e-08
c15 6.317016409409343e-34
c16 7.029776915885432e-60
c17 1.4770482507169688e-86
c18 0.0
n11 0.0
n12 4.800523366545569e-68
n13 1.2647688284723787e-24
n14 0.0006462511518937588
n15 1.080941197066209e-07
n16 9.298294619431027e-32
n17 2.28782293902293e-56
n18 1.2267849900635623e-82
n19 0.0
n20 0.0
n21 0.0
o13 4.9753290755123224e-92
o14 5.5766834720377726e-46
o15 4.3335705413386675e-25
o16 1.6163956142305434e-05
o17 1.5188163416914834e-08
o18 3.068894400927304e-07
o19 1.3122137413434715e-30
o20 1.8764069486821614e-52
o21 2.298852166457312e-77
o22 0.0
f16 0.0
f17 4.754242754009753e-28
f18 1.0539866471774966e-23
f19 2.1158793787872656e-09
f20 1.5545527534452586e-52
f21 1.3343742072870448e-73
f22 2.2743949183420297e-99
f23 0.0
f24 0.0
f25 0.0
f26 0.0
ne16 0.0
ne17 0.0
ne18 4.677905622181419e-54
ne19 1.8921489459055882e-48
ne20 5.694256936594269e-05
ne21 3.2537856663578876e-07
ne22 1.6799362790636479e-07
ne23 2.5171739432248873e-29
ne24 5.443583005286695e-49
ne25 5.293310521060098e-72
ne26 1.6916499956881905e-95
ne27 0.0
ne28 0.0
ne29 0.0
na19 0.0
na20 9.497492470706913e-78
na21 6.581460922088763e-30
na22 1.998880495844848e-21
na23 7.138235661695305e-06
na24 6.610053320837289e-23
na25 8.5593849797241e-43
na26 9.171112644681656e-65
na27 3.638630696985172e-87
na28 0.0
na29 0.0
na30 0.0
na31 0.0
na32 0.0
mg20 0.0
mg21 0.0
mg22 1.4103362903736741e-55
mg23 5.5793586083911866e-45
mg24 2.3346417555154874e-05
mg25 3.114390746763632e-07
mg26 5.724036163486567e-06
mg27 3.7663523764794757e-26
mg28 4.044942837594135e-43
mg29 1.2663615437271552e-65
mg30 3.246191894202657e-88
mg31 0.0
mg32 0.0
mg33 0.0
mg34 0.0
mg35 0.0
al22 0.0
al23 1.2585861589323427e-86
al24 6.4163166584820144e-74
al25 3.601512411801828e-30
al26 5.293274471500066e-08
al27 2.841251673878941e-06
al28 1.3321128240327417e-25
al29 5.091410214545822e-44
al30 2.3922805348205437e-65
al31 3.2261983148457698e-87
al32 0.0
al33 0.0
al34 0.0
al35 0.0
al36 0.0
al37 0.0
al38 0.0
si23 0.0
si24 0.0
si25 0.0
si26 2.8756744483199397e-60
si27 7.106778854137336e-32
si28 2.6793075104742943e-05
si29 1.5409286533638324e-06
si30 9.731560048166902e-07
si31 4.870334748584889e-24
si32 1.8420279839582377e-36
si33 3.935255065139698e-58
si34 6.5952249291361784e-80
si35 0.0
si36 0.0
si37 0.0
si38 0.0
si39 0.0
si40 0.0
si41 0.0
p25 0.0
p26 0.0
p27 1.6037773607253678e-92
p28 2.985910550849745e-59
p29 3.103912990871171e-36
p30 4.2266564767535815e-32
p31 2.6125400818509054e-07
p32 4.983519067131643e-23
p33 7.02659141616422e-24
p34 2.1254549832678703e-44
p35 1.1562711059713863e-58
p36 1.3697346159328563e-80
p37 0.0
p38 0.0
p39 0.0
p40 0.0
p41 0.0
p42 0.0
p43 0.0
p44 0.0
s27 0.0
s28 0.0
s29 1.5887817010900727e-88
s30 1.2630260398389353e-68
s31 3.5335522772715324e-60
s32 1.2246124599889516e-05
s33 1.6932559006062624e-07
s34 5.49062744897489e-07
s35 1.2090773676019182e-22
s36 2.449257592040768e-09
s37 8.975642905003252e-30
s38 9.967381326809407e-48
s39 4.968289224772944e-69
s40 7.02425624904424e-90
s41 0.0
s42 0.0
s43 0.0
s44 0.0
s45 0.0
s46 0.0
s47 0.0
cl29 0.0
cl30 0.0
cl31 0.0
cl32 6.862032245955829e-91
cl33 2.443789072017145e-36
cl34 8.084212052810138e-37
cl35 1.135587884114734e-07
cl36 2.2926984054007988e-09
cl37 8.463775621890261e-08
cl38 3.851152926397479e-26
cl39 1.219230936999673e-43
cl40 3.2701692920863293e-63
cl41 1.3764998988853936e-82
cl42 0.0
cl43 0.0
cl44 0.0
cl45 0.0
cl46 0.0
cl47 0.0
cl48 0.0
cl49 0.0
cl50 0.0
ar31 0.0
ar32 0.0
ar33 0.0
ar34 5.3461081805647356e-67
ar35 1.2787305731190655e-66
ar36 2.488405673099682e-06
ar37 4.191808293066852e-21
ar38 4.641235680347062e-07
ar39 2.8131429432728215e-19
ar40 7.25735744531966e-10
ar41 8.158928481925565e-28
ar42 2.3575953892794415e-41
ar43 1.4373911314939214e-60
ar44 5.190478276394665e-79
ar45 1.3711994369969036e-99
ar46 0.0
ar47 0.0
ar48 0.0
ar49 0.0
ar50 0.0
ar51 0.0
ar52 0.0
k32 0.0
k33 0.0
k34 0.0
k35 0.0
k36 5.4682416822005256e-98
k37 4.97635656233965e-40
k38 1.0928955150564818e-49
k39 1.0103632384179447e-07
k40 2.9720732780030683e-09
k41 1.1504711460140335e-08
k42 7.551461543688377e-25
k43 1.7946289911898709e-40
k44 3.0813026026735327e-58
k45 8.773237886544914e-76
k46 2.9293312023537894e-95
k47 4.394384710400673e-98
k48 0.0
k49 0.0
k50 0.0
k51 0.0
k52 0.0
k53 0.0
k54 0.0
k55 0.0
ca35 0.0
ca36 0.0
ca37 0.0
ca38 8.137899011819167e-73
ca39 7.61108213206027e-82
ca40 1.7558037454209958e-06
ca41 1.4768141842107299e-08
ca42 1.2701501258454359e-08
ca43 2.5571552958737167e-09
ca44 3.7982826930300304e-08
ca45 2.261251916140941e-22
ca46 7.223160392284084e-11
ca47 7.591718656509597e-27
ca48 3.4517032057330314e-09
ca49 1.14014009082039e-28
ca50 1.853264761578029e-49
ca51 5.0917209681129405e-71
ca52 2.6901605558420075e-93
ca53 0.0
ca54 0.0
ca55 0.0
ca56 0.0
ca57 0.0
sc36 0.0
sc37 0.0
sc38 0.0
sc39 0.0
sc40 0.0
sc41 2.0574995358145203e-45
sc42 7.538646542827286e-42
sc43 3.666130829678035e-34
sc44 4.111913745831071e-38
sc45 1.5380601819726284e-09
sc46 5.751525961702535e-23
sc47 6.654221175280675e-27
sc48 2.021086174835465e-42
sc49 6.449628097047284e-28
sc50 1.9079366751815193e-47
sc51 7.524354770677278e-68
sc52 1.3313514283221725e-88
sc53 0.0
sc54 0.0
sc55 0.0
sc56 0.0
sc57 0.0
sc58 0.0
sc59 0.0
ti39 0.0
ti40 0.0
ti41 0.0
ti42 3.816118623001461e-80
ti43 6.42610364182634e-76
ti44 8.731478589573882e-61
ti45 5.925747143353559e-68
ti46 5.7564291149379015e-09
ti47 4.717108344929868e-09
ti48 4.987084952545252e-08
ti49 6.82359868812458e-09
ti50 3.958116264296352e-09
ti51 3.104054540220897e-28
ti52 1.5085843067115903e-47
ti53 7.896937977308105e-68
ti54 6.13452171702879e-88
ti55 0.0
ti56 0.0
ti57 0.0
ti58 0.0
ti59 0.0
ti60 0.0
ti61 0.0
ti62 0.0
v41 0.0
v42 0.0
v43 0.0
v44 0.0
v45 0.0
v46 0.0
v47 0.0
v48 4.250321817590957e-33
v49 1.4859750130516873e-30
v50 1.8439035881934187e-11
v51 9.125035244802877e-09
v52 6.695848986182204e-27
v53 2.020212417040493e-45
v54 7.70676069459111e-65
v55 8.610547025852263e-85
v56 0.0
v57 0.0
v58 0.0
v59 0.0
v60 0.0
v61 0.0
v62 0.0
v63 0.0
v64 0.0
v65 0.0
cr43 0.0
cr44 0.0
cr45 0.0
cr46 0.0
cr47 0.0
cr48 0.0
cr49 8.922022639172026e-66
cr50 1.4787005764995232e-08
cr51 1.178535591838399e-22
cr52 3.107960400280776e-07
cr53 3.580511599544657e-08
cr54 1.4057347118850619e-08
cr55 1.0474573909980193e-27
cr56 4.364875730189049e-46
cr57 2.1570661643267962e-66
cr58 7.837035320707709e-87
cr59 0.0
cr60 0.0
cr61 0.0
cr62 0.0
cr63 0.0
cr64 0.0
cr65 0.0
cr66 0.0
cr67 0.0
cr68 0.0
mn45 0.0
mn46 0.0
mn47 0.0
mn48 0.0
mn49 0.0
mn50 0.0
mn51 0.0
mn52 3.8890484505971844e-54
mn53 8.047663814590168e-21
mn54 8.184195708482503e-34
mn55 3.178824214607325e-07
mn56 7.903079220349805e-24
mn57 3.745518380959765e-42
mn58 1.5238619910565025e-62
mn59 1.9799849952713208e-82
mn60 0.0
mn61 0.0
mn62 0.0
mn63 0.0
mn64 0.0
mn65 0.0
mn66 0.0
mn67 0.0
mn68 0.0
mn69 0.0
mn70 0.0
mn71 0.0
fe47 0.0
fe48 0.0
fe49 0.0
fe50 0.0
fe51 0.0
fe52 0.0
fe53 0.0
fe54 1.3526260452680403e-06
fe55 6.976457839710485e-20
fe56 2.2048209079047623e-05
fe57 9.112654273916157e-07
fe58 1.5510917330648565e-07
fe59 3.886358729032526e-22
fe60 2.695715089376948e-15
fe61 2.9944922516497312e-34
fe62 1.8618940293406618e-53
fe63 2.032759313518413e-74
fe64 2.3244222848533747e-95
fe65 0.0
fe66 0.0
fe67 0.0
fe68 0.0
fe69 0.0
fe70 0.0
fe71 0.0
fe72 0.0
fe73 0.0
fe74 0.0
co48 0.0
co49 0.0
co50 0.0
co51 0.0
co52 0.0
co53 0.0
co54 0.0
co55 0.0
co56 0.0
co57 0.0
co58 2.302645216120692e-30
co59 8.402459077953543e-08
co60 2.0154863022065412e-20
co61 4.2423084946874854e-33
co62 8.413511501116368e-52
co63 4.0544419116007307e-66
co64 1.3558683242844237e-87
co65 0.0
co66 0.0
co67 0.0
co68 0.0
co69 0.0
co70 0.0
co71 0.0
co72 0.0
co73 0.0
co74 0.0
co75 0.0
co76 0.0
co77 0.0
ni51 0.0
ni52 0.0
ni53 0.0
ni54 0.0
ni55 0.0
ni56 0.0
ni57 0.0
ni58 8.779937537360587e-07
ni59 4.576007766112412e-08
ni60 3.599700610695828e-07
ni61 3.1232931350117284e-08
ni62 5.2499994503202526e-08
ni63 5.0588491717903424e-20
ni64 1.4236526590826e-08
ni65 6.181146582617803e-26
ni66 1.4518112594702816e-41
ni67 8.091245793108197e-62
ni68 1.6572702133482443e-62
ni69 1.4146482313478385e-83
ni70 0.0
ni71 0.0
ni72 0.0
ni73 0.0
ni74 0.0
ni75 0.0
ni76 0.0
ni77 0.0
ni78 0.0
ni79 0.0
cu52 0.0
cu53 0.0
cu54 0.0
cu55 0.0
cu56 0.0
cu57 0.0
cu58 0.0
cu59 0.0
cu60 0.0
cu61 9.185683965799094e-42
cu62 5.164087441544525e-46
cu63 1.16885681159443e-08
cu64 3.2430700654433803e-24
cu65 6.455020190141405e-09
cu66 5.763047707240078e-27
cu67 8.255656760463372e-42
cu68 1.4324888703538912e-53
cu69 1.0853053439646615e-52
cu70 6.010429457503707e-73
cu71 6.454723463834173e-92
cu72 0.0
cu73 0.0
cu74 0.0
cu75 0.0
cu76 0.0
cu77 0.0
cu78 0.0
cu79 0.0
cu80 0.0
cu81 0.0
cu82 0.0
zn55 0.0
zn56 0.0
zn57 0.0
zn58 0.0
zn59 0.0
zn60 0.0
zn61 0.0
zn62 9.786195694303383e-91
zn63 3.404543925754912e-84
zn64 1.6479488710742863e-08
zn65 7.519682704614964e-22
zn66 9.84747401862919e-09
zn67 1.6227127833655207e-09
zn68 7.000143343892646e-09
zn69 2.4884920022903415e-26
zn70 2.144889434637708e-10
zn71 3.9977833835739086e-29
zn72 1.514688339922e-44
zn73 2.2857676696836685e-64
zn74 4.413157519601873e-83
zn75 0.0
zn76 0.0
zn77 0.0
zn78 0.0
zn79 0.0
zn80 0.0
zn81 0.0
zn82 0.0
zn83 0.0
zn84 0.0
ga57 0.0
ga58 0.0
ga59 0.0
ga60 0.0
ga61 0.0
ga62 0.0
ga63 0.0
ga64 0.0
ga65 6.718747723955926e-48
ga66 1.7570848569927201e-59
ga67 1.3635238447561315e-45
ga68 7.102960323375346e-48
ga69 6.835604098713353e-10
ga70 8.372356615742007e-27
ga71 4.4664484352929096e-10
ga72 1.6545439109142006e-25
ga73 4.716658218759475e-41
ga74 1.1597344164957291e-58
ga75 1.7784159660429235e-76
ga76 1.0900482299996174e-95
ga77 0.0
ga78 0.0
ga79 0.0
ga80 0.0
ga81 0.0
ga82 0.0
ga83 0.0
ga84 0.0
ga85 0.0
ga86 0.0
ge59 0.0
ge60 0.0
ge61 0.0
ge62 0.0
ge63 0.0
ge64 0.0
ge65 0.0
ge66 3.573345789804833e-87
ge67 0.0
ge68 2.2410840031817965e-81
ge69 6.861264332127162e-86
ge70 8.13817115045206e-10
ge71 4.2254233308102634e-24
ge72 9.547775658077945e-10
ge73 2.620306848634715e-10
ge74 1.2786283657652765e-09
ge75 1.9347990429521383e-26
ge76 2.4588189532771293e-10
ge77 1.8772861145069177e-26
ge78 3.610117390593182e-43
ge79 3.603004267403574e-63
ge80 2.2353006667148393e-82
ge81 0.0
ge82 0.0
ge83 0.0
ge84 0.0
ge85 0.0
ge86 0.0
ge87 0.0
ge88 0.0
ge89 0.0
as61 0.0
as62 0.0
as63 0.0
as64 0.0
as65 0.0
as66 0.0
as67 0.0
as68 0.0
as69 0.0
as70 0.0
as71 2.466397322282399e-48
as72 8.459933026712831e-63
as73 1.5457171314836936e-46
as74 1.9177081528503747e-47
as75 1.424470224315171e-10
as76 3.615463280165591e-25
as77 4.657468358153866e-26
as78 2.6513570477554918e-42
as79 3.522591346652824e-59
as80 3.0544531813434744e-78
as81 1.270725140958681e-96
as82 0.0
as83 0.0
as84 0.0
as85 0.0
as86 0.0
as87 0.0
as88 0.0
as89 0.0
as90 0.0
as91 0.0
se64 0.0
se65 0.0
se66 0.0
se67 0.0
se68 0.0
se69 0.0
se70 0.0
se71 0.0
se72 1.506576617920998e-86
se73 0.0
se74 1.0181802404000209e-11
se75 1.2804183816191372e-24
se76 2.8375546852333185e-10
se77 1.3861471441032818e-10
se78 4.6070214274187857e-10
se79 7.614344696424574e-11
se80 9.034043024672694e-10
se81 3.007458758703389e-27
se82 1.6502362009043887e-10
se83 1.4267341975496855e-28
se84 6.242004958356936e-47
se85 3.5741188732710216e-67
se86 1.21316037723429e-87
se87 0.0
se88 0.0
se89 0.0
se90 0.0
se91 0.0
se92 0.0
se93 0.0
br66 0.0
br67 0.0
br68 0.0
br69 0.0
br70 0.0
br71 0.0
br72 0.0
br73 0.0
br74 0.0
br75 3.023480681806439e-53
br76 3.4262052709279e-65
br77 2.5046797903971506e-50
br78 4.915624948069407e-53
br79 6.014068763051246e-11
br80 2.1506098054219157e-27
br81 1.500405933487054e-10
br82 2.709295985852771e-25
br83 7.82108752602063e-28
br84 1.0883337297565639e-44
br85 2.654930873730422e-62
br86 1.7656414237827822e-81
br87 0.0
br88 0.0
br89 0.0
br90 0.0
br91 0.0
br92 0.0
br93 0.0
br94 0.0
br95 0.0
kr69 0.0
kr70 0.0
kr71 0.0
kr72 0.0
kr73 0.0
kr74 0.0
kr75 0.0
kr76 1.817956369260841e-94
kr77 0.0
kr78 3.442305549506181e-12
kr79 4.485530051189785e-27
kr80 9.980092048130417e-11
kr81 2.3537841443030548e-11
kr82 2.6239452283684624e-10
kr83 1.4338390597971238e-10
kr84 9.314582919961362e-10
kr85 1.5798656463624408e-22
kr86 2.7583900559758667e-10
kr87 2.6984154540749306e-28
kr88 3.800832909650307e-45
kr89 4.139543569272139e-64
kr90 1.542317218070339e-83
kr91 0.0
kr92 0.0
kr93 0.0
kr94 0.0
kr95 0.0
kr96 0.0
kr97 0.0
rb72 0.0
rb73 0.0
rb74 0.0
rb75 0.0
rb76 0.0
rb77 0.0
rb78 0.0
rb79 9.152998180609083e-56
rb80 2.415290367953971e-72
rb81 1.820034023536152e-53
rb82 1.7429023358010718e-56
rb83 2.245598897241779e-50
rb84 9.567980401467799e-51
rb85 1.5504906689406966e-10
rb86 2.7326423198397322e-24
rb87 5.6983263968565047e-11
rb88 7.123524814659729e-29
rb89 6.635581129627973e-46
rb90 4.9970914388841545e-64
rb91 2.0960664701036484e-82
rb92 0.0
rb93 0.0
rb94 0.0
rb95 0.0
rb96 0.0
rb97 0.0
rb98 0.0
rb99 0.0
sr75 0.0
sr76 0.0
sr77 0.0
sr78 0.0
sr79 0.0
sr80 0.0
sr81 0.0
sr82 1.538766411876116e-94
sr83 0.0
sr84 1.970708463473271e-12
sr85 1.989042041567537e-25
sr86 1.1570542650960549e-10
sr87 5.0821647888864685e-11
sr88 5.701837218330175e-10
sr89 1.169148069093687e-24
sr90 1.8401997376475121e-31
sr91 9.98063852566288e-47
sr92 1.434468225485991e-55
sr93 7.016989527335178e-74
sr94 1.797410321224376e-72
sr95 1.8516381217587945e-92
sr96 0.0
sr97 0.0
sr98 0.0
sr99 0.0
sr100 0.0
sr101 0.0
y77 0.0
y78 0.0
y79 0.0
y80 0.0
y81 0.0
y82 0.0
y83 0.0
y84 0.0
y85 6.45839293278519e-57
y86 2.8359918590539623e-69
y87 7.795586510935695e-54
y88 1.1499993297885729e-52
y89 1.3715621071714224e-10
y90 2.715961980323425e-26
y91 1.2335686545606766e-31
y92 7.127660206835177e-48
y93 8.78301015608583e-63
y94 6.009495734965412e-65
y95 2.5540085553165466e-77
y96 3.6949725397860435e-97
y97 0.0
y98 0.0
y99 0.0
y100 0.0
y101 0.0
y102 0.0
y103 0.0
zr80 0.0
zr81 0.0
zr82 0.0
zr83 0.0
zr84 0.0
zr85 0.0
zr86 0.0
zr87 0.0
zr88 5.8559969210059545e-96
zr89 2.728371301799714e-38
zr90 1.676920532678128e-10
zr91 3.9957868238365245e-11
zr92 5.80116639403528e-11
zr93 3.692242601614793e-12
zr94 5.468612442301216e-11
zr95 4.374271446895107e-25
zr96 9.052334013219463e-12
zr97 2.682901330830036e-28
zr98 7.063174827775454e-48
zr99 1.1445561604077377e-68
zr100 2.1505728244290194e-88
zr101 0.0
zr102 0.0
zr103 0.0
zr104 0.0
zr105 0.0
nb83 0.0
nb84 0.0
nb85 0.0
nb86 0.0
nb87 0.0
nb88 0.0
nb89 0.0
nb90 1.8199485544193842e-82
nb91 1.481339911784496e-45
nb92 2.26473379091955e-33
nb93 1.4858031916075508e-11
nb94 1.5707595744110834e-12
nb95 2.9760580310189333e-25
nb96 1.0055397380760931e-37
nb97 1.9073171512383148e-29
nb98 1.3026832293926338e-48
nb99 5.5252953670988615e-67
nb100 8.716744499427049e-87
nb101 0.0
nb102 0.0
nb103 0.0
nb104 0.0
nb105 0.0
nb106 0.0
nb107 0.0
mo85 0.0
mo86 0.0
mo87 0.0
mo88 0.0
mo89 0.0
mo90 0.0
mo91 0.0
mo92 9.953527082489506e-12
mo93 1.912280689892977e-15
mo94 1.0073473282144903e-11
mo95 1.2108154860632263e-11
mo96 1.6386639804526038e-11
mo97 6.210718266395911e-12
mo98 1.9056156456508783e-11
mo99 1.961660363416012e-26
mo100 5.757191830346917e-12
mo101 3.82403992199924e-29
mo102 3.459422208161731e-46
mo103 6.880038251632971e-65
mo104 4.36904703783639e-83
mo105 0.0
mo106 0.0
mo107 0.0
mo108 0.0
mo109 0.0
tc88 0.0
tc89 0.0
tc90 0.0
tc91 0.0
tc92 0.0
tc93 2.8270549416469365e-59
tc94 7.610127065904767e-63
tc95 1.187489762461491e-58
tc96 1.818690092211316e-42
tc97 5.289800911204973e-13
tc98 2.349460707612463e-13
tc99 2.061647301026346e-12
tc100 1.3044156190988877e-30
tc101 3.687379766679533e-29
tc102 7.617848201842062e-48
tc103 7.580420489705759e-65
tc104 2.875273404017954e-81
tc105 7.759033983848473e-98
tc106 0.0
tc107 0.0
tc108 0.0
tc109 0.0
tc110 0.0
ru91 0.0
ru92 0.0
ru93 0.0
ru94 0.0
ru95 0.0
ru96 2.0442814094537784e-12
ru97 3.769811940588655e-27
ru98 7.298375143325797e-13
ru99 2.98048635126645e-12
ru100 1.0114613495896102e-11
ru101 3.851923361173195e-12
ru102 2.076539290228375e-11
ru103 7.9107380553464775e-25
ru104 7.49287288873617e-12
ru105 1.1605869720260517e-27
ru106 3.329278340674809e-40
ru107 3.1066917230596648e-58
ru108 1.4176508943796064e-62
ru109 1.3270309323015867e-81
ru110 0.0
ru111 0.0
ru112 0.0
rh93 0.0
rh94 0.0
rh95 0.0
rh96 0.0
rh97 3.5044619691082045e-62
rh98 1.5322747285006612e-77
rh99 7.390159327228406e-60
rh100 4.7171377931128865e-67
rh101 9.090046111937242e-65
rh102 5.3583208739620795e-65
rh103 7.463145436512346e-12
rh104 8.943170821490367e-30
rh105 6.541021671541487e-27
rh106 7.827624612814248e-45
rh107 1.4239053820476166e-55
rh108 8.763234718959061e-64
rh109 1.6616906249244438e-72
rh110 1.547815032202126e-91
rh111 0.0
rh112 0.0
rh113 0.0
rh114 0.0
pd96 0.0
pd97 0.0
pd98 0.0
pd99 0.0
pd100 0.0
pd101 0.0
pd102 2.1302113003886416e-13
pd103 6.468254687788032e-27
pd104 1.1260075909583106e-11
pd105 5.296199894508721e-12
pd106 1.622032549763955e-11
pd107 2.7807609577044233e-12
pd108 1.1248516974815842e-11
pd109 5.056001964410577e-27
pd110 3.6862160301605526e-12
pd111 4.5067463830229145e-29
pd112 6.249908922825285e-44
pd113 2.373275693716516e-62
pd114 1.9522427479842736e-67
pd115 1.5774418390055844e-86
ag98 0.0
ag99 0.0
ag100 0.0
ag101 0.0
ag102 0.0
ag103 2.0388642031856695e-71
ag104 4.0768618547235865e-85
ag105 6.020099357605012e-67
ag106 6.360060221009037e-45
ag107 2.5709029792478253e-12
ag108 9.472234949131557e-30
ag109 4.7476482594233846e-12
ag110 3.98629512684515e-30
ag111 1.813638343232997e-26
ag112 5.790942657228444e-42
ag113 4.786132369986513e-57
ag114 6.190269145205036e-69
ag115 2.0396748969671088e-81
ag116 4.153631186449364e-99
cd101 0.0
cd102 0.0
cd103 0.0
cd104 0.0
cd105 0.0
cd106 3.6458064360765755e-13
cd107 9.416511866813027e-29
cd108 4.3299429910925594e-12
cd109 7.416829188824901e-25
cd110 9.615068640852256e-12
cd111 3.2677956849091332e-12
cd112 1.3246201004637e-11
cd113 4.628973482464861e-12
cd114 1.6208830699292426e-11
cd115 1.3327709341789416e-26
cd116 3.1204220916719324e-12
cd117 7.168909081897268e-29
in102 0.0
in103 0.0
in104 0.0
in105 0.0
in106 0.0
in107 2.804912955184594e-73
in108 7.70923341138297e-89
in109 1.1214957030832556e-71
in110 2.635764918707613e-84
in111 9.428092405407915e-71
in112 2.0611073664640874e-68
in113 2.485945826313094e-13
in114 3.817082135499638e-31
in115 3.6194286762923717e-12
in116 1.3481907503329492e-30
in117 2.022764896664847e-29
in118 8.762754868978837e-48
