n 6.35331833653816e-24
h1 2.0845635181896533e-19
he4 1.1787289214139933e-14
h2 6.75011456790488e-35
h3 3.0054547710114226e-23
he3 2.660659272112234e-23
li6 1.0961402667209349e-39
li7 1.4075892299817055e-28
li8 1.3329955285215613e-45
li9 9.233412792118575e-61
be7 1.8240304389939633e-33
be9 7.681526428270566e-45
be10 1.4682999000888536e-36
be11 5.747496920986604e-62
be12 2.9553176494034205e-79
b8 1.3872109821453524e-56
b10 6.876709660717458e-26
b11 2.576843632400109e-16
b12 1.0754914281908197e-32
b13 4.3175807198954004e-49
b14 4.701543669853848e-72
c10 0.0
c11 2.552509012940486e-23
c12 0.0009769885032255828
c13 4.038723751772202e-15
c14 5.656086784769251e-10
c15 2.131480543882618e-31
c16 6.486803208677282e-47
c17 1.603472705410339e-70
c18 0.0
n11 0.0
n12 4.434494809189052e-44
n13 1.4688072538365538e-16
n14 2.9249465520648455e-09
n15 2.873582975649113e-10
n16 1.4125559664687183e-24
n17 1.9718277957166228e-38
n18 3.71575243978925e-54
n19 4.125895091657065e-70
n20 6.634177084582987e-88
n21 0.0
o13 1.7789481758509894e-59
o14 1.137271020979812e-22
o15 1.2825761495337551e-15
o16 0.04164400587553795
o17 1.659401866358865e-09
o18 8.089562456585074e-11
o19 2.2209925225974534e-21
o20 4.302910057633658e-30
o21 2.369567504020815e-42
o22 6.2154613447932836e-55
f16 8.371731629302464e-44
f17 5.4365290099773e-22
f18 9.149755809934882e-12
f19 3.981439031523119e-10
f20 1.4099878118253966e-29
f21 4.906441192720675e-38
f22 5.133824304010515e-44
f23 4.727239297696149e-50
f24 5.966363819505133e-65
f25 3.6999517739321063e-81
f26 0.0
ne16 6.467257505397546e-80
ne17 5.214426024500207e-78
ne18 3.7389908966622433e-35
ne19 2.5155913937638632e-21
ne20 0.011986178149396204
ne21 2.17905911131356e-05
ne22 2.9417242453434428e-05
ne23 7.817617293999324e-15
ne24 1.26524977411082e-17
ne25 1.0473797741556722e-31
ne26 2.1015046392711105e-46
ne27 2.5907248805871925e-66
ne28 0.0
ne29 0.0
na19 3.038962644638518e-60
na20 5.77442386052006e-35
na21 3.231705736015492e-14
na22 8.951323602168018e-08
na23 0.0002609294538464142
na24 1.9190346283408616e-07
na25 7.345204938220158e-15
na26 5.986696986513852e-28
na27 1.6624072651685796e-41
na28 2.860375463881064e-57
na29 4.1566892129136126e-72
na30 3.8743084908789013e-88
na31 0.0
na32 0.0
mg20 3.370917447571642e-77
mg21 8.633980984297366e-49
mg22 4.0325085026505864e-24
mg23 1.87186842638942e-14
mg24 0.0018975558930270145
mg25 0.0004473887321346068
mg26 0.0002912998011897078
mg27 3.9506220552319745e-10
mg28 4.1121608680402906e-11
mg29 1.5037457211118886e-24
mg30 2.3035344287734935e-38
mg31 1.7914234277059838e-53
mg32 7.0045433801818e-68
mg33 1.3102333180869101e-83
mg34 1.7634405761115732e-99
mg35 0.0
al22 5.738306488115759e-73
al23 1.2615085757649911e-46
al24 1.1079747581264094e-27
al25 3.099911720836623e-14
al26 7.02013083285878e-08
al27 0.00014603026956613863
al28 3.2721428399219893e-10
al29 3.952541157061623e-13
al30 3.738536316088189e-25
al31 5.245784948568084e-38
al32 4.323563423271371e-53
al33 7.436212753575689e-68
al34 2.4453791566766037e-83
al35 3.030952179681768e-94
al36 0.0
al37 0.0
al38 0.0
si23 3.185590670719893e-94
si24 7.268290062922999e-62
si25 4.5044953278062476e-41
si26 9.306044359952726e-26
si27 3.276128964213899e-17
si28 0.00013256560349553243
si29 2.299727104041454e-05
si30 1.0426668607266894e-05
si31 2.6182483454545776e-08
si32 3.4572857078506534e-09
si33 3.9345272266648214e-21
si34 1.2032734748187716e-31
si35 4.832548543260979e-46
si36 8.169236356674168e-60
si37 9.041430243445428e-76
si38 5.650132496912805e-84
si39 0.0
si40 0.0
si41 0.0
p25 2.297419664382151e-96
p26 3.469421109825625e-64
p27 2.1509222211829648e-44
p28 1.8007521660809445e-30
p29 1.0526737214308818e-16
p30 5.2717386472021967e-11
p31 4.562507482097304e-06
p32 6.193506237978167e-08
p33 1.2024008854170833e-08
p34 7.0826282104134395e-19
p35 1.1254323111284897e-21
p36 1.961196534109964e-33
p37 3.9743837096866037e-44
p38 2.8375129343741516e-57
p39 8.635206491428099e-71
p40 8.950343257726162e-83
p41 7.614026407553548e-97
p42 0.0
p43 0.0
p44 0.0
s27 2.197816886859993e-84
s28 1.0284060469095003e-61
s29 1.5772657386147662e-43
s30 1.3521244330238264e-29
s31 5.082637854952301e-22
s32 8.34386631365419e-06
s33 1.0801921087677195e-07
s34 1.0434206099605302e-06
s35 2.567459677585807e-08
s36 9.020656824443829e-08
s37 6.806787584524333e-15
s38 2.8535885931770564e-17
s39 2.2007360108899594e-28
s40 7.974741459354431e-36
s41 1.2784577488165398e-46
s42 8.98717355215751e-60
s43 1.328895484328281e-74
s44 1.1669217314494408e-89
s45 0.0
s46 0.0
s47 0.0
cl29 1.1785664736044398e-97
cl30 1.7241264532905387e-69
cl31 2.4461957230568304e-51
cl32 5.406129383251519e-37
cl33 1.2724305966061311e-17
cl34 1.739329986450529e-19
cl35 1.1416009065201714e-07
cl36 5.731077684978807e-09
cl37 9.213491247185941e-07
cl38 7.980068555971027e-11
cl39 1.1125996256337702e-13
cl40 2.3003547741463063e-20
cl41 6.13479190651397e-26
cl42 3.1995004138541353e-35
cl43 4.047921541357045e-37
cl44 2.680584463821421e-50
cl45 6.743729517778402e-63
cl46 1.5349685378311054e-77
cl47 1.4865321952817857e-91
cl48 0.0
cl49 0.0
cl50 0.0
ar31 3.7779809875582206e-91
ar32 2.9105926216648465e-69
ar33 1.7746180509789656e-51
ar34 2.7297881537246407e-30
ar35 3.299354343266107e-30
ar36 9.333513814989435e-07
ar37 7.9196795316236e-09
ar38 1.185182738329591e-06
ar39 1.2214936178740916e-07
ar40 5.3676498774124325e-08
ar41 2.730859510800442e-11
ar42 1.6653274500213043e-11
ar43 1.8471933815380705e-16
ar44 9.901121723357849e-20
ar45 8.637043161850476e-29
ar46 9.50298093223695e-37
ar47 4.732500826239022e-50
ar48 2.7775372731918546e-64
ar49 2.6779188783637563e-80
ar50 4.327487300007268e-95
ar51 0.0
ar52 0.0
k32 0.0
k33 0.0
k34 1.233597597927917e-92
k35 3.165666464826943e-53
k36 2.0768328003454068e-45
k37 3.9608306903964035e-20
k38 1.3136571899085345e-18
k39 1.5773980378965666e-07
k40 1.560515190140702e-08
k41 3.9254620933173625e-08
k42 1.9838036894168036e-09
k43 8.709066304447244e-11
k44 9.380149704365815e-15
k45 1.3661870973327343e-17
k46 4.9037646641709785e-24
k47 3.595915134821455e-32
k48 1.1695473527200472e-42
k49 2.6503090976197397e-52
k50 6.646644802427273e-66
k51 8.2595280932373e-78
k52 2.254945233825382e-93
k53 0.0
k54 0.0
k55 0.0
ca35 0.0
ca36 8.200746732074946e-69
ca37 3.445299064884369e-59
ca38 1.282772300050533e-33
ca39 2.9918621852134643e-31
ca40 8.160759234456396e-07
ca41 1.6738040238223454e-08
ca42 6.912870675129532e-08
ca43 2.8861634600030258e-08
ca44 6.745535115591676e-08
ca45 1.5375931704628123e-08
ca46 4.910709903141942e-09
ca47 2.0567331545954645e-10
ca48 2.8319330086420276e-09
ca49 1.964756266525612e-14
ca50 1.744649166405705e-24
ca51 3.9949572149479117e-32
ca52 7.238794263339906e-42
ca53 3.7599227392629683e-57
ca54 5.934496741158552e-72
ca55 1.43633906834772e-88
ca56 0.0
ca57 0.0
sc36 0.0
sc37 0.0
sc38 0.0
sc39 2.3916600786955657e-60
sc40 7.452497371928449e-52
sc41 7.350372807233552e-24
sc42 2.1678420265563284e-22
sc43 7.592041127451367e-12
sc44 6.688287772029611e-12
sc45 4.815895353982128e-09
sc46 2.2887479601069243e-09
sc47 6.10564995229597e-10
sc48 7.997778108391965e-11
sc49 4.819929222933872e-13
sc50 1.5522578692102098e-19
sc51 2.095876417657997e-28
sc52 3.073281382371311e-35
sc53 1.321953122391447e-48
sc54 1.00038562471987e-62
sc55 1.6231133340707422e-77
sc56 5.0095874334778015e-92
sc57 0.0
sc58 0.0
sc59 0.0
ti39 0.0
ti40 5.249331345345689e-76
ti41 1.0708794876778833e-66
ti42 2.871061221417901e-38
ti43 1.3079860331294695e-35
ti44 4.563354482162029e-14
ti45 2.4330658705012768e-15
ti46 7.1197812569762055e-09
ti47 7.572264372491649e-09
ti48 1.0188822480051616e-08
ti49 2.415981944811848e-08
ti50 4.831519157684268e-08
ti51 8.61574403741621e-13
ti52 4.294697498297268e-18
ti53 1.8424793219768474e-24
ti54 9.702425817928834e-30
ti55 1.8530330243847872e-43
ti56 1.7657500446600478e-57
ti57 2.3202471087722714e-72
ti58 6.164346534739692e-85
ti59 0.0
ti60 0.0
ti61 0.0
ti62 0.0
v41 0.0
v42 7.756214584355515e-92
v43 7.256355180962112e-61
v44 1.3576531712695258e-50
v45 1.2895727109896096e-29
v46 4.124016033370366e-29
v47 1.3007038035333522e-13
v48 1.0134544501160996e-12
v49 1.4391884957849433e-10
v50 2.767226407019516e-10
v51 6.6489484566956265e-09
v52 3.216794630904368e-13
v53 3.260745359198494e-18
v54 1.6423195025432628e-24
v55 2.8706122102133954e-33
v56 2.1587698859090143e-46
v57 1.472935682557393e-58
v58 1.5827936347026985e-71
v59 3.4710005215808765e-76
v60 2.9333504872732156e-84
v61 9.392310501074772e-98
v62 0.0
v63 0.0
v64 0.0
v65 0.0
cr43 0.0
cr44 2.746111555806373e-76
cr45 1.7025539400204547e-65
cr46 9.412533622661774e-44
cr47 1.1336296790324623e-42
cr48 1.2794821703522706e-16
cr49 1.1740050153446089e-17
cr50 1.3532229218618234e-10
cr51 6.264360510172446e-11
cr52 1.280795849873671e-07
cr53 2.9427825470500714e-08
cr54 1.466934000579156e-07
cr55 1.4793755822880365e-12
cr56 1.372350746412922e-15
cr57 2.9170489582493867e-24
cr58 1.2680745494319098e-32
cr59 2.4204331160312587e-45
cr60 1.5709083510708354e-56
cr61 4.792387008661374e-69
cr62 5.301349851988147e-80
cr63 2.2373875173747887e-93
cr64 0.0
cr65 0.0
cr66 0.0
cr67 0.0
cr68 0.0
mn45 0.0
mn46 2.295866520908237e-85
mn47 1.7713422053130786e-66
mn48 5.7131357687305836e-58
mn49 9.650823896053499e-32
mn50 9.537338866790505e-32
mn51 1.3582663588002374e-15
mn52 6.2880593404965406e-15
mn53 7.737006638268437e-11
mn54 7.216403890982397e-11
mn55 1.5484322113048727e-07
mn56 3.812056300275437e-11
mn57 4.2435141080486347e-16
mn58 6.31271532820672e-26
mn59 1.997012077663381e-31
mn60 1.022098483053337e-38
mn61 1.4005678432096585e-50
mn62 4.0867862363419925e-59
mn63 1.4977333752456016e-70
mn64 1.5020200580397046e-83
mn65 1.7754426768545804e-95
mn66 0.0
mn67 0.0
mn68 0.0
mn69 0.0
mn70 0.0
mn71 0.0
fe47 0.0
fe48 4.0318184652257815e-82
fe49 4.3644604874528476e-74
fe50 3.75782358579865e-51
fe51 1.874293610082883e-46
fe52 8.218074656788089e-20
fe53 9.440645016077375e-21
fe54 7.09956639286552e-08
fe55 3.92696089310493e-08
fe56 6.509828348261603e-06
fe57 3.265153796130374e-06
fe58 6.982063478366738e-06
fe59 1.1920266321645673e-06
fe60 4.613309585832637e-07
fe61 1.144478280216553e-11
fe62 2.5410644510194616e-17
fe63 1.2172731819880314e-27
fe64 1.773129923709667e-37
fe65 2.663412227519508e-50
fe66 2.2211776601431223e-59
fe67 1.6203524506085794e-66
fe68 7.837224793547345e-80
fe69 8.97452069716825e-92
fe70 3.0209762423134227e-96
fe71 0.0
fe72 0.0
fe73 0.0
fe74 0.0
co48 0.0
co49 0.0
co50 1.713425055417135e-98
co51 1.0370991880838802e-73
co52 3.553160497509308e-65
co53 2.544822969673997e-35
co54 7.700239994728292e-36
co55 1.4378913763690021e-12
co56 8.813956553634573e-13
co57 1.7138654113649713e-09
co58 1.2640275418985654e-09
co59 1.4353138508777113e-06
co60 2.7077885650710266e-07
co61 3.4492063893791788e-09
co62 1.4347594334890496e-13
co63 7.067201866526062e-20
co64 2.6315129848869307e-32
co65 6.093790944157156e-41
co66 2.237383042472829e-53
co67 1.961756336268502e-59
co68 1.2942359012264973e-71
co69 1.565240621908916e-75
co70 5.246896023687472e-88
co71 5.337106733808189e-93
co72 0.0
co73 0.0
co74 0.0
co75 0.0
co76 0.0
co77 0.0
ni51 0.0
ni52 2.5955558670942856e-90
ni53 2.1093619883168487e-81
ni54 4.1417052485834043e-51
ni55 3.170239872812925e-51
ni56 9.464019660718152e-17
ni57 4.940159208963598e-18
ni58 1.3082260401590943e-08
ni59 8.800355322011596e-09
ni60 9.456226669969196e-07
ni61 9.747828901787082e-07
ni62 9.952801692951639e-07
ni63 1.1298920019346183e-06
ni64 1.036394853421375e-06
ni65 4.336267020907771e-09
ni66 1.1470710878878462e-09
ni67 1.1626778293236534e-18
ni68 8.719779438783831e-23
ni69 1.2549809691824333e-30
ni70 4.0705229348376327e-38
ni71 1.4448899654818817e-47
ni72 3.9387601320349563e-56
ni73 2.002673032133746e-66
ni74 3.154894513662943e-73
ni75 9.206007894465464e-84
ni76 4.6295131813785003e-97
ni77 0.0
ni78 0.0
ni79 0.0
cu52 0.0
cu53 0.0
cu54 0.0
cu55 2.0408787135236972e-76
cu56 4.390664637823862e-72
cu57 2.8501824470197416e-36
cu58 1.9282828329110813e-32
cu59 7.351265220433516e-18
cu60 6.747767657818852e-16
cu61 3.0813092734685097e-12
cu62 4.97314841591176e-13
cu63 2.2846407677723084e-08
cu64 3.5158249388068e-09
cu65 2.161102143240186e-07
cu66 3.083907108595075e-11
cu67 1.2926357977509117e-09
cu68 6.272910703300387e-17
cu69 9.824735598631167e-18
cu70 9.57526095632094e-28
cu71 1.2581145211603592e-29
cu72 2.4927236570956092e-37
cu73 1.2370163250822136e-43
cu74 1.5667542860211349e-52
cu75 3.494083905604015e-59
cu76 8.618347313286895e-69
cu77 4.3004959067023985e-77
cu78 2.2208536712754452e-86
cu79 2.7290997370647884e-98
cu80 0.0
cu81 0.0
cu82 0.0
zn55 0.0
zn56 4.471905499652719e-94
zn57 4.54020023200106e-89
zn58 1.0111329447896564e-52
zn59 2.6200568847399153e-48
zn60 4.6567023808398814e-24
zn61 1.5870799509332138e-24
zn62 8.331027935482942e-17
zn63 2.64449205243773e-18
zn64 1.5530728318819675e-08
zn65 4.754861927441609e-09
zn66 1.6351916703385609e-07
zn67 5.588947243865618e-08
zn68 1.740810458130038e-07
zn69 2.748860647205826e-10
zn70 4.964999074045522e-09
zn71 3.3927114096978606e-13
zn72 4.060300203483909e-12
zn73 1.6896654128459502e-20
zn74 3.421665674335442e-22
zn75 1.3825570359058552e-31
zn76 1.150033771818695e-38
zn77 2.5636391060476617e-48
zn78 2.0140265276437163e-56
zn79 5.630914582438001e-65
zn80 5.000327339879228e-76
zn81 3.228398332713038e-91
zn82 0.0
zn83 0.0
zn84 0.0
ga57 0.0
ga58 0.0
ga59 2.4997489074372907e-81
ga60 4.304218772962548e-72
ga61 2.176894665857967e-46
ga62 9.098325461406166e-41
ga63 2.0252092890085954e-28
ga64 3.4248604927093767e-26
ga65 2.893970497194398e-15
ga66 3.1262845879753714e-14
ga67 1.1153327670472315e-11
ga68 3.4468541730435966e-13
ga69 3.123906281880869e-08
ga70 1.127596711746375e-10
ga71 7.65705421763765e-09
ga72 1.535461728404639e-09
ga73 3.7008379553401367e-10
ga74 1.546411987057525e-14
ga75 8.027459712634325e-18
ga76 3.968166903335039e-24
ga77 6.290977011918884e-30
ga78 4.453241259352716e-38
ga79 3.695139601660368e-45
ga80 2.0123259721569148e-53
ga81 3.309024282448282e-60
ga82 6.459215273307209e-73
ga83 5.815295824439512e-85
ga84 2.8408848151834605e-99
ga85 0.0
ga86 0.0
ge59 0.0
ge60 0.0
ge61 2.2368734802530353e-90
ge62 6.6314161120475e-62
ge63 3.2611495476549154e-57
ge64 7.806564645363399e-37
ge65 3.955768029548787e-36
ge66 1.1612440954263025e-20
ge67 1.1808503531078703e-20
ge68 6.626884231459953e-16
ge69 9.25969536443738e-16
ge70 2.4072591169318444e-08
ge71 7.910092667216671e-09
ge72 2.4823117624338315e-08
ge73 1.4678456434946535e-08
ge74 3.0363921860200655e-08
ge75 2.2585107466861222e-10
ge76 1.7489041895696803e-09
ge77 2.1083923930096245e-12
ge78 1.298007209145691e-13
ge79 4.728820211500948e-22
ge80 5.458644683918623e-26
ge81 1.4619259942282422e-34
ge82 7.881737200083947e-42
ge83 4.3783558487528265e-53
ge84 3.694618612989042e-64
ge85 2.7785627670948195e-77
ge86 2.4091017331436256e-90
ge87 0.0
ge88 0.0
ge89 0.0
as61 0.0
as62 0.0
as63 1.741859040349428e-91
as64 1.9490649614233704e-81
as65 1.2723461226132303e-60
as66 2.1336436990387366e-53
as67 2.6362957559717345e-33
as68 5.379705561754762e-29
as69 3.0289565325448096e-23
as70 5.3720808069069e-22
as71 2.8589240295802284e-13
as72 1.0235877157316919e-13
as73 2.0407682154193e-12
as74 9.33467580126201e-13
as75 6.153840431599072e-09
as76 2.760136807937932e-09
as77 2.293442199346955e-09
as78 2.466788580519886e-11
as79 1.2459561735543919e-13
as80 7.851525789027243e-22
as81 1.2813393952635895e-23
as82 4.0669995173401904e-29
as83 7.484341785961694e-34
as84 3.668211981647732e-44
as85 3.0536170963193454e-52
as86 6.666242289871983e-63
as87 1.5090853580096163e-73
as88 1.5356613021326543e-87
as89 0.0
as90 0.0
as91 0.0
se64 0.0
se65 0.0
se66 2.6110948288101506e-78
se67 7.806757040605863e-71
se68 6.5066615180901e-43
se69 3.891859870940845e-39
se70 2.170670506985298e-29
se71 2.6458962501075045e-29
se72 7.258155915792986e-18
se73 8.87524928569947e-19
se74 1.7843947246749496e-14
se75 5.4745048117657514e-14
se76 3.3244425253238314e-09
se77 4.099372139754789e-09
se78 9.94240910480979e-09
se79 6.340778278896735e-09
se80 1.638797763585859e-08
se81 2.1522144745167626e-11
se82 6.068518974839195e-10
se83 1.3348413116958974e-13
se84 8.498386901322585e-18
se85 2.0004665633194411e-25
se86 1.75316847762188e-32
se87 1.3025524076113173e-41
se88 2.0959567979686495e-52
se89 1.3131594663008708e-65
se90 9.29788166942878e-79
se91 9.147513182440056e-93
se92 0.0
se93 0.0
br66 0.0
br67 0.0
br68 1.8611550127181468e-97
br69 2.198702874930012e-68
br70 4.9140115830056576e-57
br71 1.6697590196483174e-42
br72 1.2160799990056597e-38
br73 5.397715648765715e-27
br74 2.504983232894502e-25
br75 7.535079663249092e-21
br76 1.2298582238643156e-19
br77 4.730500455879083e-14
br78 2.7587452483223325e-16
br79 2.3885893499191083e-13
br80 3.3498176843073443e-15
br81 3.1340068469063137e-09
br82 9.527215220794604e-10
br83 1.5019242677327712e-10
br84 5.129245217648584e-13
br85 1.5770417735625257e-16
br86 3.51477166967027e-22
br87 2.1820317127024287e-26
br88 1.706896540265996e-33
br89 1.2313826661888142e-41
br90 7.417120840685041e-51
br91 2.5577338478987557e-62
br92 1.9683662155910394e-74
br93 7.4007683769724605e-87
br94 0.0
br95 0.0
kr69 0.0
kr70 1.940996666206697e-86
kr71 1.7460907981369667e-74
kr72 3.673271462178108e-53
kr73 1.3014095511201574e-47
kr74 3.9110183398380016e-33
kr75 6.513485578428598e-31
kr76 2.8101379837841113e-23
kr77 9.653184742655139e-23
kr78 2.3777322130877154e-18
kr79 3.3849287970277564e-19
kr80 2.4063605724049044e-13
kr81 1.1180809214191251e-13
kr82 2.499836197315988e-09
kr83 3.2841064005734196e-09
kr84 1.045132309145843e-08
kr85 5.715301079065412e-09
kr86 7.193305646191589e-09
kr87 1.98268448687868e-12
kr88 1.168620256417383e-13
kr89 7.15684000498376e-19
kr90 1.2525216820864927e-25
kr91 2.5042983488751767e-34
kr92 5.2895046738563473e-45
kr93 1.134759520623802e-55
kr94 3.2086987418407617e-68
kr95 1.8402197749519643e-80
kr96 2.5225169151127972e-93
kr97 0.0
rb72 0.0
rb73 9.813651462457076e-80
rb74 1.3060246537161983e-65
rb75 1.5628917838793436e-46
rb76 1.3187473070233245e-40
rb77 8.621727728702185e-32
rb78 1.4954436571037617e-30
rb79 4.934491316042072e-25
rb80 4.649053894352788e-28
rb81 2.0979251054968228e-19
rb82 7.75977257220919e-22
rb83 1.5850745299970476e-14
rb84 1.0023836506118167e-14
rb85 2.0282945896349698e-10
rb86 1.8653783648684428e-10
rb87 2.1878924250699227e-09
rb88 7.754843328411527e-13
rb89 3.359053961718915e-15
rb90 8.038140391911709e-19
rb91 1.650429137999558e-23
rb92 2.3293064543049815e-33
rb93 3.204908359337247e-38
rb94 2.594556674395371e-47
rb95 6.855726678653131e-59
rb96 9.190780195328674e-72
rb97 1.0316330859731056e-83
rb98 2.409386325097455e-96
rb99 0.0
sr75 2.3269896352228654e-83
sr76 8.847975151609031e-63
sr77 3.497095140454163e-53
sr78 2.0728769405010875e-36
sr79 1.4780199364294806e-33
sr80 1.538532892341423e-26
sr81 1.26652476266742e-25
sr82 6.557507675903649e-21
sr83 9.958887998689813e-22
sr84 1.0469295237310414e-17
sr85 1.0102271809410165e-16
sr86 2.417965673790172e-10
sr87 3.6303705550414506e-10
sr88 6.2120090371083315e-09
sr89 9.087341386873793e-10
sr90 2.55850691923017e-10
sr91 3.667650816931796e-12
sr92 9.36586169553422e-14
sr93 8.451100042052823e-18
sr94 5.1910840899704905e-23
sr95 8.43756790888302e-31
sr96 1.508084390944456e-42
sr97 3.2171547482621312e-55
sr98 1.259492579025181e-65
sr99 1.4189427567950733e-78
sr100 2.03664715821377e-91
sr101 0.0
y77 3.0874845231202495e-86
y78 6.829523357433725e-72
y79 2.7175262652778734e-51
y80 7.257912389998907e-44
y81 1.746849252586274e-36
y82 2.7823692605209663e-39
y83 2.236075109276475e-28
y84 3.9166791584840725e-33
y85 1.0021111654523114e-23
y86 5.020201356492564e-23
y87 2.6028400826344734e-16
y88 6.819039679173932e-16
y89 5.553099015041517e-10
y90 3.198467171147196e-11
y91 8.890720923341342e-11
y92 4.346602298481527e-12
y93 7.063142073483606e-12
y94 2.887952758360034e-14
y95 1.758193013564344e-16
y96 1.9098808601436205e-26
y97 9.20936610857883e-34
y98 1.9455790784169595e-45
y99 1.6655538631158647e-49
y100 5.565109355202199e-60
y101 5.276548660427231e-71
y102 5.913485082864613e-83
y103 2.481161657361629e-95
zr80 1.2692549898747486e-70
zr81 4.127623563532704e-61
zr82 2.695669480494859e-51
zr83 1.5081444761228134e-38
zr84 1.3185838565403562e-30
zr85 6.581642421057694e-30
zr86 1.0566125567959898e-24
zr87 4.164263999027992e-24
zr88 1.5712818087747142e-20
zr89 6.693802312863372e-20
zr90 2.795228261696098e-10
zr91 1.5077290192903969e-10
zr92 3.063385142676982e-10
zr93 1.3996210866956075e-10
zr94 2.453976563821859e-10
zr95 7.3487772495235e-11
zr96 1.1829017845038728e-10
zr97 2.48865289889733e-13
zr98 7.513783625389649e-21
zr99 8.197848166171086e-32
zr100 6.902034285215062e-38
zr101 9.242446018649183e-47
zr102 8.800902704135883e-58
zr103 4.3763462488655054e-70
zr104 1.0391354810054326e-82
zr105 1.67804525703353e-96
nb83 8.799749987650465e-70
nb84 9.992808668828473e-51
nb85 2.068369997548722e-42
nb86 4.398420101900231e-38
nb87 1.356517992248101e-32
nb88 3.4712885107981043e-31
nb89 5.694808146434681e-26
nb90 5.549857374178391e-25
nb91 3.4948021845015024e-16
nb92 2.9238041769728376e-16
nb93 1.5521459884584221e-15
nb94 1.4730054154973414e-15
nb95 8.630318542655895e-13
nb96 8.24042611869987e-13
nb97 6.146657437859023e-14
nb98 2.086170290819714e-21
nb99 1.8517531949840416e-25
nb100 1.505822897050068e-35
nb101 1.7241433337395537e-35
nb102 4.350429341093805e-45
nb103 8.401795958646937e-50
nb104 6.462019535454284e-61
nb105 6.435931902830272e-72
nb106 1.7981830152710178e-84
nb107 7.826028936779743e-97
mo85 2.442946571614987e-70
mo86 8.992216572962488e-61
mo87 2.0186561831041443e-47
mo88 7.898799135405571e-36
mo89 4.715405091761437e-34
mo90 9.418938358741322e-28
mo91 3.391776031403173e-26
mo92 1.546192248614664e-14
mo93 4.4002024296859485e-15
mo94 4.083731633582421e-14
mo95 5.365389057022524e-13
mo96 3.9343417391788105e-12
mo97 4.835157846460829e-12
mo98 2.4311105364195732e-11
mo99 1.5631780714475785e-12
mo100 1.4823918087161753e-11
mo101 1.697147514945761e-14
mo102 7.269460402525499e-17
mo103 3.081690927386785e-22
mo104 1.3686697338846778e-25
mo105 8.132923597207437e-37
mo106 3.031566226538478e-48
mo107 9.382818495949378e-61
mo108 1.4368059622546655e-73
mo109 2.272661671333545e-87
tc88 1.1727139702990105e-66
tc89 6.594624915494035e-54
tc90 1.3992214043937618e-47
tc91 5.3612340187322e-37
tc92 1.420928345523772e-33
tc93 5.988088613214624e-22
tc94 5.461934117693668e-22
tc95 1.3639471500019843e-20
tc96 9.238087223509219e-20
tc97 1.3507201132677728e-18
tc98 1.0364241636334052e-18
tc99 9.330133503941526e-13
tc100 3.424601678331549e-20
tc101 2.068540901551721e-14
tc102 5.7057197052702545e-19
tc103 8.2165452039420075e-22
tc104 1.1388767477868906e-21
tc105 1.351935127567442e-23
tc106 1.1428691949057853e-29
tc107 9.16509587743304e-34
tc108 1.4321070826515524e-41
tc109 1.1873651036996785e-52
tc110 1.0203705595452706e-64
ru91 1.7383903178774565e-66
ru92 1.4933385391713062e-53
ru93 4.8096208834700287e-35
ru94 2.6323982771106678e-24
ru95 1.4738589733712475e-23
ru96 1.358665490095784e-20
ru97 5.3086751628936356e-21
ru98 5.993204863829274e-19
ru99 1.2043209100587712e-16
ru100 4.4333038878870025e-12
ru101 2.03845715095514e-12
ru102 1.0698584650202358e-11
ru103 5.653958212577274e-12
ru104 1.647945776911876e-11
ru105 7.077143514816304e-13
ru106 6.428895769000791e-12
ru107 5.865216339537584e-16
ru108 6.4981865333697726e-18
ru109 3.633822116571438e-24
ru110 1.7770557074167597e-29
ru111 4.158425211380367e-42
ru112 1.2702395799617644e-54
rh93 3.1211773969835543e-73
rh94 4.330945870481017e-46
rh95 1.0762250819414927e-33
rh96 5.115812754019551e-32
rh97 3.2863985525838737e-28
rh98 4.039020138439088e-26
rh99 1.9624215835216377e-24
rh100 5.610194409186813e-24
rh101 2.3148610972204906e-19
rh102 1.4489681556435798e-19
rh103 1.0546575430577461e-13
rh104 5.5801844753698505e-19
rh105 1.2862578013321525e-12
rh106 2.948428299448388e-17
rh107 1.3183793713095044e-14
rh108 4.268709266229945e-19
rh109 2.5803753068151863e-21
rh110 6.638254404530821e-30
rh111 6.367666787618923e-32
rh112 3.1653600989817856e-39
rh113 7.638422439844088e-44
rh114 5.104265619964649e-50
pd96 1.2997445383543915e-35
pd97 1.0105228600851215e-31
pd98 1.7490411439550187e-25
pd99 2.6252313665741937e-24
pd100 1.1239060597369662e-21
pd101 2.4293530110736366e-23
pd102 2.328636549680783e-21
pd103 2.2343604218147482e-21
pd104 5.509146577459456e-13
pd105 4.438896520543462e-13
pd106 4.608950366581698e-12
pd107 1.5484096501134292e-12
pd108 1.0613235537353222e-11
pd109 2.2402749032487164e-12
pd110 9.668314904866722e-12
pd111 5.6839076133652434e-14
pd112 2.5833617176440655e-13
pd113 2.174329739729448e-18
pd114 2.2426018821228698e-20
pd115 3.034947049894548e-26
ag98 2.472288233323319e-43
ag99 4.9795281109484956e-36
ag100 2.5955852305056344e-34
ag101 4.853649377010325e-30
ag102 4.324885389385505e-28
ag103 2.0668637770949803e-25
ag104 8.803743421992933e-24
ag105 7.030110978622341e-21
ag106 5.830871711845316e-22
ag107 1.135121528600662e-18
ag108 5.48473563787547e-22
ag109 1.1397744899947873e-12
ag110 1.924860095919618e-17
ag111 8.810266018806997e-13
ag112 1.3686384110533239e-13
ag113 4.394294424676781e-16
ag114 7.340814587862248e-22
ag115 1.0338207125430502e-24
ag116 4.209334744805689e-29
cd101 3.30932318059205e-36
cd102 3.5781067599983572e-28
cd103 1.016459553417029e-26
cd104 9.476152732456587e-23
cd105 7.285579963607402e-24
cd106 2.444828954962031e-21
cd107 2.0009704848862933e-23
cd108 9.128796644393582e-18
cd109 1.898275324607282e-18
cd110 2.3443017389794903e-12
cd111 7.213694637793827e-13
cd112 5.066577727501577e-12
cd113 2.1176374404245847e-12
cd114 1.7165835491384278e-11
cd115 3.3036585715585462e-12
cd116 2.4806485067973576e-11
cd117 2.571660965800114e-13
in102 1.1370918214283086e-49
in103 3.268905033333964e-40
in104 7.559530912795146e-38
in105 6.377308609230869e-33
in106 3.67443652150184e-32
in107 3.7024600118277155e-28
in108 7.629305182202322e-26
in109 2.0466160384469675e-24
in110 1.1762956511600807e-23
in111 7.512163663379407e-21
in112 2.8235306719213737e-22
in113 3.072452974563007e-16
in114 1.61412498566408e-20
in115 4.619485262880672e-13
in116 3.5540279939120235e-19
in117 5.646953537616681e-14
in118 2.4532388935813992e-17
