n 1.4007348014530629e-18
h1 8.51685068711222e-13
he4 5.6637083832575304e-11
h2 1.10287768329169e-29
h3 2.9314273065533517e-27
he3 1.0597194463151473e-24
li6 2.0636544472929028e-34
li7 4.63002334785325e-34
li8 3.906218524955448e-50
li9 4.575664712671141e-59
be7 7.509606528877213e-33
be9 3.378584859835118e-36
be10 6.020720876664412e-32
be11 4.175199045371081e-53
be12 1.2100386946133194e-68
b8 7.130523655282585e-49
b10 7.252914105622528e-30
b11 3.270702849827031e-20
b12 3.7357517576744173e-35
b13 2.4352554304166378e-46
b14 1.1713107256295299e-66
c10 0.0
c11 2.981391108177947e-20
c12 2.1709650597263105e-07
c13 1.3264530174160074e-15
c14 1.8660967369130826e-15
c15 4.834744524234098e-35
c16 4.2576723162341585e-48
c17 2.754373184841725e-68
c18 0.0
n11 0.0
n12 7.286836975010195e-36
n13 1.8931468876247715e-19
n14 1.3587935167798568e-12
n15 1.4985618226890563e-15
n16 4.3740810358795337e-32
n17 2.2259257627438358e-41
n18 4.280832585871482e-57
n19 9.161895236147414e-68
n20 9.371208530164497e-86
n21 0.0
o13 4.6585927476202254e-49
o14 8.364601518216052e-26
o15 5.60120951484272e-13
o16 0.018031712586405235
o17 8.294892327740671e-14
o18 2.5362310470132545e-18
o19 6.819847376134142e-31
o20 9.958682509557342e-35
o21 6.310448389380948e-48
o22 3.772026629392816e-54
f16 7.674268160550316e-29
f17 3.317811431552741e-17
f18 8.272095230839708e-18
f19 9.031189905190183e-20
f20 1.0087531378836299e-24
f21 6.73752873113473e-27
f22 2.011661938659078e-37
f23 3.5963381028901226e-41
f24 2.1561102381944446e-57
f25 3.798203082713182e-70
f26 1.8600701670351276e-91
ne16 3.888223875329129e-46
ne17 1.0245493020406524e-42
ne18 1.063400380978624e-25
ne19 2.8947484000418613e-20
ne20 7.406560627345605e-07
ne21 2.0788038491328334e-10
ne22 1.4702722167084001e-10
ne23 2.4333875039656404e-20
ne24 5.149273114743987e-24
ne25 1.4873892541828219e-36
ne26 1.2021957092694356e-46
ne27 1.968000432649962e-65
ne28 1.679452341776571e-83
ne29 0.0
na19 1.7251813680505198e-42
na20 1.217469087073406e-31
na21 2.1437060174866907e-17
na22 8.770437899775217e-12
na23 4.78778706446069e-09
na24 8.580456587664366e-14
na25 6.4973550302300175e-18
na26 1.6512007678387883e-27
na27 2.1081411024911207e-35
na28 4.575168661771726e-50
na29 2.3992415537979332e-62
na30 2.373917108756945e-79
na31 3.705914332644191e-93
na32 0.0
mg20 5.582821118689292e-54
mg21 4.2465612139282565e-41
mg22 4.0470032431163877e-22
mg23 5.2402276396183037e-11
mg24 2.369374498528538e-05
mg25 5.4930873212199686e-08
mg26 7.98086608084043e-08
mg27 5.876822847368528e-15
mg28 1.759740939593969e-15
mg29 6.849557213790588e-29
mg30 1.43952763379116e-37
mg31 4.182309348808547e-54
mg32 7.310899928341935e-64
mg33 1.3191067676616335e-80
mg34 2.330205652683117e-94
mg35 0.0
al22 1.1299483482141208e-57
al23 6.199451785413136e-38
al24 3.213062980802946e-23
al25 3.637561072161722e-16
al26 7.343956277980465e-10
al27 4.79421542747784e-07
al28 3.1163634913042344e-11
al29 2.6781894896995164e-13
al30 1.70390572273658e-22
al31 1.052684304598771e-27
al32 1.0635084531005773e-40
al33 1.9925375800951195e-50
al34 3.7361292055089476e-67
al35 1.4516792342444503e-77
al36 4.1050080739492776e-95
al37 0.0
al38 0.0
si23 1.1927131880586188e-70
si24 7.109147540664637e-48
si25 2.6553284450334886e-32
si26 1.2970558102380714e-19
si27 1.724036671051814e-08
si28 0.01366594100496908
si29 1.917127735346287e-05
si30 1.0874093449830393e-05
si31 2.365045402574384e-12
si32 1.4774639476932738e-13
si33 3.41311446650575e-25
si34 4.994153014549039e-32
si35 3.4642302796609206e-48
si36 4.1432195157270204e-57
si37 3.801977748880074e-74
si38 4.181973324670682e-82
si39 2.209947739149076e-99
si40 0.0
si41 0.0
p25 2.6318991264375444e-66
p26 9.238402470490908e-49
p27 5.8715856908090484e-34
p28 2.3428634865735416e-20
p29 8.927494257115389e-13
p30 4.791268149126624e-09
p31 1.6221773411141214e-05
p32 1.2636965359442946e-09
p33 4.461556139124243e-10
p34 7.765192273144181e-18
p35 2.5120573988845604e-22
p36 1.8926982353915844e-36
p37 9.103048219127552e-44
p38 5.074943792022666e-57
p39 6.87790851472271e-65
p40 2.3044201823952202e-79
p41 6.00363930681512e-90
p42 0.0
p43 0.0
p44 0.0
s27 3.299539200024521e-64
s28 1.563219062448098e-45
s29 9.307316263501692e-30
s30 8.408304737130096e-19
s31 8.515313147662655e-10
s32 0.007875014725330707
s33 2.6449008547130215e-05
s34 0.00046822502046610045
s35 1.1032386009328817e-09
s36 6.611141370783745e-11
s37 1.1754188412595908e-22
s38 4.086501820505518e-22
s39 5.42847643074098e-34
s40 2.000662376762058e-39
s41 1.8498626873555107e-51
s42 1.9763944183259574e-57
s43 8.586207926726166e-74
s44 3.335967384458661e-85
s45 0.0
s46 0.0
s47 0.0
cl29 7.506599215849622e-66
cl30 1.4189709078114977e-47
cl31 2.259280457267456e-34
cl32 1.2922867423626474e-22
cl33 8.18862139832525e-14
cl34 3.907665620870284e-10
cl35 1.9039419169520788e-05
cl36 1.2983797952087542e-08
cl37 1.1857063601755056e-08
cl38 6.010252919001212e-17
cl39 1.005701532207395e-18
cl40 1.2470600761552394e-27
cl41 2.559817897812306e-32
cl42 1.9954208761629866e-41
cl43 1.966452569826809e-42
cl44 9.574061757869528e-55
cl45 5.541107578940963e-63
cl46 1.444393756121208e-75
cl47 2.7829493512033893e-89
cl48 0.0
cl49 0.0
cl50 0.0
ar31 1.4917573863953454e-63
ar32 2.9620215882642635e-46
ar33 5.703159947280912e-32
ar34 2.1092557533362972e-20
ar35 2.4804304552070567e-13
ar36 0.0007316983578828213
ar37 4.2317697628330816e-06
ar38 0.00040710516360321106
ar39 1.9628128133299e-10
ar40 1.7179148117049616e-11
ar41 1.6199026025576495e-18
ar42 1.940435423079857e-15
ar43 2.9042198955759136e-24
ar44 3.717002437028834e-25
ar45 1.8609404592723471e-35
ar46 4.09995598048069e-40
ar47 2.8562280876258444e-52
ar48 1.2160557378938865e-61
ar49 4.2983141606507367e-78
ar50 5.986210289756242e-91
ar51 0.0
ar52 0.0
k32 1.8920749407954626e-84
k33 1.1364526638127157e-66
k34 1.566262819410742e-49
k35 1.791852185945939e-36
k36 3.7685550023065135e-26
k37 7.945253177739197e-16
k38 1.0865013992089546e-10
k39 1.752929473857043e-05
k40 1.507453319558133e-09
k41 1.1481026197444094e-10
k42 1.9964352690546028e-13
k43 3.8937694887459126e-15
k44 6.286665349809344e-20
k45 8.484891720707746e-23
k46 2.4243340890638177e-29
k47 2.911855949827917e-32
k48 3.1031437073845775e-43
k49 1.9036196575706815e-51
k50 4.8634234461209895e-67
k51 1.0782318225048787e-78
k52 1.1784103330310238e-95
k53 0.0
k54 0.0
k55 0.0
ca35 8.110379568102169e-64
ca36 5.75707139048648e-48
ca37 4.129982702049591e-36
ca38 1.113444439900038e-22
ca39 1.7380895833296425e-14
ca40 0.00030300489424812336
ca41 6.656513710283369e-07
ca42 7.80876889686516e-06
ca43 3.5728832018534172e-09
ca44 7.005885856258238e-10
ca45 1.0742942895581693e-12
ca46 9.515226825592824e-13
ca47 1.4050544302764396e-14
ca48 4.798069504120491e-13
ca49 3.9344953987472476e-23
ca50 1.8314190551353391e-31
ca51 2.0864859572841253e-43
ca52 1.0442651777699154e-55
ca53 9.733149196083443e-70
ca54 1.4644833888663716e-83
ca55 0.0
ca56 0.0
ca57 0.0
sc36 1.2156646361072825e-84
sc37 1.682152134098726e-68
sc38 1.397446353290297e-51
sc39 2.5714647935022704e-40
sc40 1.0368371805081124e-29
sc41 1.026756464899366e-17
sc42 1.6950169287976757e-14
sc43 3.404813669377286e-10
sc44 3.007589950365992e-10
sc45 9.266446654839106e-10
sc46 1.3722448354407294e-12
sc47 7.262785174991667e-13
sc48 2.5338988904043485e-13
sc49 3.328039664610769e-14
sc50 1.580848639157617e-22
sc51 1.2168290793646441e-29
sc52 4.0854964898407594e-40
sc53 2.0320284372978187e-50
sc54 3.154667576803304e-62
sc55 8.136073426075984e-77
sc56 1.35514882722025e-90
sc57 0.0
sc58 0.0
sc59 0.0
ti39 6.633433566580322e-67
ti40 3.3941874728262783e-53
ti41 3.4214948386692125e-41
ti42 1.0886090454831684e-26
ti43 3.33703213355848e-20
ti44 5.624025743617355e-08
ti45 8.827491771850122e-09
ti46 2.691828531582102e-06
ti47 3.80404971210952e-08
ti48 8.431080456014746e-09
ti49 1.1193990493677702e-11
ti50 2.8071512830724888e-11
ti51 1.9369130004549954e-18
ti52 5.566721763209453e-22
ti53 2.201732637419629e-31
ti54 4.1368590972410215e-37
ti55 7.458609569423803e-50
ti56 1.9992995474285447e-60
ti57 2.6922543269859914e-76
ti58 3.0600132665790934e-84
ti59 0.0
ti60 0.0
ti61 0.0
ti62 0.0
v41 1.0533461780454598e-72
v42 2.1686947110739466e-58
v43 1.0744548760552035e-42
v44 3.721337999586965e-32
v45 6.77412294953757e-20
v46 2.6295327059508156e-14
v47 5.074815563350521e-10
v48 4.745945520362222e-09
v49 7.074303652864504e-09
v50 5.838364093162476e-11
v51 5.090942253588847e-10
v52 3.530585936463212e-15
v53 3.837177473193951e-19
v54 1.2314411088772269e-27
v55 2.325417522625526e-33
v56 1.905837698132663e-44
v57 7.622294394015251e-53
v58 7.13609931443338e-66
v59 7.814665518744619e-77
v60 9.365307552785295e-91
v61 0.0
v62 0.0
v63 0.0
v64 0.0
v65 0.0
cr43 1.7236527976019818e-72
cr44 1.3978504821952031e-53
cr45 3.5971727262440184e-44
cr46 1.445358779080287e-26
cr47 2.225290646378104e-19
cr48 4.9369294806713414e-09
cr49 1.0138127145414957e-08
cr50 2.6978959698927775e-06
cr51 1.6630625645571123e-07
cr52 9.286716257120025e-07
cr53 1.7009187904318173e-10
cr54 6.05407574096506e-11
cr55 2.3325907275048086e-18
cr56 1.629735510208895e-20
cr57 4.141161955308276e-30
cr58 1.2425626214809725e-35
cr59 6.024517497871773e-48
cr60 2.2973678913591563e-54
cr61 1.3381798577749528e-67
cr62 1.7790377110415052e-71
cr63 6.459295267732425e-86
cr64 1.0703576161662972e-92
cr65 0.0
cr66 0.0
cr67 0.0
cr68 0.0
mn45 4.670915480342595e-72
mn46 3.6417204017410752e-59
mn47 2.1513558854512977e-42
mn48 3.433057684720727e-31
mn49 3.417273321536723e-20
mn50 4.033749285436848e-15
mn51 6.222561088813245e-10
mn52 7.551467380479804e-09
mn53 2.3741761314325727e-07
mn54 1.3969261192356195e-09
mn55 6.474448600553086e-10
mn56 2.9235352631617764e-15
mn57 4.84214049842816e-18
mn58 1.4542358522627104e-25
mn59 9.233492052472475e-29
mn60 1.3594583143629751e-37
mn61 5.1300010639502214e-45
mn62 6.525820031856011e-57
mn63 3.831060168134584e-64
mn64 1.825131940970834e-76
mn65 2.9599188405433482e-80
mn66 2.752087289876248e-94
mn67 0.0
mn68 0.0
mn69 0.0
mn70 0.0
mn71 0.0
fe47 1.343551533487672e-72
fe48 1.179700379012055e-52
fe49 3.991395438145739e-42
fe50 2.6492120705477197e-28
fe51 2.2937194948544634e-20
fe52 2.9241972937860775e-10
fe53 2.2374423108933094e-09
fe54 1.5174506583090367e-05
fe55 8.869642266342281e-07
fe56 9.978497697611456e-06
fe57 1.8348555355818613e-09
fe58 4.3231816382955474e-09
fe59 1.556445296676283e-13
fe60 7.489081676625349e-11
fe61 6.968400866811067e-20
fe62 2.265675149903734e-24
fe63 3.34782083490785e-35
fe64 8.385460906874132e-38
fe65 2.368267337275472e-50
fe66 9.227269548245743e-55
fe67 3.149554368476762e-67
fe68 1.5241633248363771e-77
fe69 7.413733844246947e-92
fe70 7.909497070575529e-93
fe71 0.0
fe72 0.0
fe73 0.0
fe74 0.0
co48 1.407372722060471e-91
co49 1.5676106131894116e-64
co50 3.647852126159342e-59
co51 4.74604817345348e-44
co52 3.9862452484574085e-35
co53 1.5634143648915474e-22
co54 3.2847996450825406e-16
co55 1.1560652753560893e-09
co56 2.080569488743312e-09
co57 1.667796692771543e-07
co58 7.11500718185955e-10
co59 4.3156644663664965e-09
co60 7.904767200678017e-12
co61 1.6316224798147232e-12
co62 1.8096298753568606e-19
co63 7.782271047354213e-23
co64 1.572337326234425e-31
co65 8.486962763538647e-34
co66 1.6678307319640612e-44
co67 4.930776235123745e-49
co68 3.8891370557490544e-61
co69 9.963651228439395e-68
co70 9.849809079461198e-82
co71 5.248476216430197e-84
co72 1.8067678218657223e-98
co73 0.0
co74 0.0
co75 0.0
co76 0.0
co77 0.0
ni51 1.0022867000838217e-72
ni52 1.4493462214793114e-55
ni53 2.3261606369055265e-45
ni54 2.6846837160476626e-31
ni55 2.959543905232742e-22
ni56 2.685631215579752e-10
ni57 1.0687524342123876e-09
ni58 1.034769831577065e-06
ni59 4.0667856530178976e-08
ni60 6.963426440450581e-06
ni61 2.712202959274806e-09
ni62 2.2698244460329181e-07
ni63 1.706086694298208e-12
ni64 6.26120838295498e-10
ni65 3.208686289167996e-17
ni66 7.230537435349372e-13
ni67 1.128710884656007e-21
ni68 1.1088764386541533e-26
ni69 1.0973218740577026e-37
ni70 5.028410408212007e-41
ni71 1.6458899292058094e-53
ni72 7.104874192261531e-56
ni73 1.57906917186733e-68
ni74 2.8965586194075685e-71
ni75 9.485938052609764e-85
ni76 9.49332355304006e-93
ni77 0.0
ni78 0.0
ni79 0.0
cu52 4.5073773959739264e-93
cu53 1.6742340207041185e-76
cu54 4.862931506562895e-63
cu55 1.6377027379285635e-48
cu56 1.0589145453718166e-37
cu57 5.741310534130896e-25
cu58 6.782613503886457e-20
cu59 5.4434416936102e-15
cu60 3.0427373084351056e-14
cu61 6.020029313011813e-11
cu62 2.8554838412703204e-12
cu63 2.8499328009870527e-09
cu64 1.9155197324034246e-12
cu65 2.2565394355013123e-10
cu66 5.279851952192609e-16
cu67 8.224080737065543e-13
cu68 1.6205744046905204e-20
cu69 1.7011964954823371e-22
cu70 2.802693267030474e-32
cu71 2.1779819336711204e-33
cu72 7.854044333992831e-44
cu73 1.0574543801951526e-45
cu74 4.149186835738952e-56
cu75 9.671946626429588e-64
cu76 2.375633877991613e-74
cu77 3.734030185699602e-80
cu78 1.6641028743962626e-92
cu79 5.659318621795489e-93
cu80 0.0
cu81 0.0
cu82 0.0
zn55 9.539408774317316e-79
zn56 2.0223666445008e-62
zn57 3.694952711935376e-51
zn58 4.123996790317046e-37
zn59 5.508667840740705e-30
zn60 1.8751684450812504e-20
zn61 1.2116509813880558e-18
zn62 6.761486027768427e-13
zn63 3.183698743387479e-13
zn64 1.7823261012369233e-09
zn65 7.345324979009494e-12
zn66 7.592421092585874e-09
zn67 5.51087628906015e-13
zn68 2.89433796270882e-10
zn69 5.38300028142039e-17
zn70 2.3386227822934615e-12
zn71 1.9026030005195028e-20
zn72 7.328372003772803e-16
zn73 2.401859946663406e-25
zn74 3.4038058024879094e-28
zn75 9.359554285325958e-39
zn76 4.36432462069062e-41
zn77 4.169228390447844e-52
zn78 6.751318042478703e-56
zn79 6.061248569908365e-68
zn80 1.838346446523734e-71
zn81 2.0848825852642089e-88
zn82 0.0
zn83 0.0
zn84 0.0
ga57 1.3567774923694642e-84
ga58 1.9641126161858536e-71
ga59 1.0562349731037884e-55
ga60 1.5461912853479212e-46
ga61 2.739451852810103e-36
ga62 8.202840856190665e-29
ga63 8.316464768269194e-23
ga64 9.9328773369651e-21
ga65 2.854013798209151e-16
ga66 1.0232015525867485e-16
ga67 1.3131704047450656e-12
ga68 1.679489254247829e-14
ga69 4.4966456035053514e-11
ga70 3.7528983564276625e-15
ga71 6.509967132457411e-12
ga72 4.8330045653960365e-18
ga73 2.9311667134664824e-13
ga74 1.853465749605148e-20
ga75 1.8623330761314683e-22
ga76 1.9072171834896618e-31
ga77 1.5636415021251058e-34
ga78 8.183688999180994e-44
ga79 2.2098421297949084e-46
ga80 3.1260371843549123e-58
ga81 1.2180094502798048e-58
ga82 4.212317398518942e-74
ga83 1.0730163857447479e-86
ga84 0.0
ga85 0.0
ga86 0.0
ge59 1.2693474678097553e-87
ge60 1.1911022420203014e-70
ge61 3.328326387503739e-61
ge62 4.952082113164903e-48
ge63 9.952690207135636e-41
ge64 3.413181933064081e-28
ge65 1.98289478373425e-26
ge66 5.856865060927917e-19
ge67 1.2035140008191016e-18
ge68 1.7696020806706923e-12
ge69 9.862069617480018e-14
ge70 1.4581982301275924e-09
ge71 3.177180408368016e-13
ge72 2.3395924382020252e-09
ge73 2.9075279992616235e-14
ge74 2.3436706065758956e-11
ge75 2.4018093449796334e-17
ge76 9.094766456240256e-13
ge77 3.03345990440198e-20
ge78 2.826076460121594e-17
ge79 6.660224600405757e-26
ge80 8.240572789410264e-31
ge81 3.1738018295132897e-41
ge82 8.600447491490581e-44
ge83 6.930246041294779e-58
ge84 8.682597970258833e-69
ge85 4.144897066880463e-84
ge86 3.781834249497936e-96
ge87 0.0
ge88 0.0
ge89 0.0
as61 1.479986853320519e-92
as62 3.6652462063484523e-81
as63 1.0552662781334381e-66
as64 1.9847328407249732e-57
as65 1.6805790521693716e-44
as66 1.5720934260394001e-37
as67 1.1463666447254094e-29
as68 3.5989703325939664e-27
as69 2.1914591674629354e-20
as70 8.738381498052815e-20
as71 1.1009701288083154e-14
as72 1.9636637888673495e-16
as73 8.895923095989997e-12
as74 5.744177282167125e-15
as75 1.0755421780555842e-11
as76 2.2816769940465774e-15
as77 1.7502395644878608e-12
as78 5.760904064994077e-19
as79 7.424130836189897e-18
as80 4.880579714730034e-25
as81 1.1170095313393168e-28
as82 1.4500394899230793e-37
as83 1.4901819163785185e-38
as84 2.476329876868552e-51
as85 1.1366335683071277e-61
as86 6.46220122874062e-75
as87 2.1892024898991238e-86
as88 0.0
as89 0.0
as90 0.0
as91 0.0
se64 1.8581271824794594e-81
se65 6.03967683498216e-73
se66 2.195917982295235e-57
se67 2.5319627879752175e-49
se68 6.791236689951263e-36
se69 2.990579169694119e-33
se70 4.905972221219694e-23
se71 1.10195865367178e-21
se72 3.804257788105302e-13
se73 9.463563336940308e-14
se74 2.933633031737894e-09
se75 7.197869722672335e-12
se76 6.308595502158977e-09
se77 6.188357380791816e-13
se78 5.657072364230684e-11
se79 1.1946758288485081e-14
se80 1.0333796638766709e-11
se81 2.742505954379874e-17
se82 2.5852094384967055e-13
se83 2.0198273984478114e-21
se84 3.564587158748522e-24
se85 2.1579959164547693e-35
se86 5.981830906046353e-44
se87 3.8124924828705353e-56
se88 1.6724486842694082e-66
se89 1.7941843998495262e-80
se90 6.530453190261646e-93
se91 0.0
se92 0.0
se93 0.0
br66 3.588207314957696e-93
br67 7.203464545440952e-77
br68 5.7374126521305066e-67
br69 1.0647978482590953e-52
br70 4.281153058756658e-44
br71 1.5857318288744118e-33
br72 5.810066256347945e-31
br73 7.638175875007471e-22
br74 2.9031442938665305e-20
br75 4.579798614788714e-15
br76 7.707978161069309e-16
br77 4.540915076981306e-12
br78 5.052853602480463e-15
br79 6.058630788343694e-12
br80 2.405250123388421e-15
br81 4.128956689339801e-12
br82 1.3572958394191516e-14
br83 1.2061232424251045e-13
br84 5.1713994900434327e-20
br85 3.814934745442169e-21
br86 1.3995479845968105e-31
br87 2.061131591386952e-39
br88 2.3838150614375706e-50
br89 1.365642121066662e-54
br90 2.766167404832117e-67
br91 1.1516807453200047e-78
br92 5.748853553794547e-94
br93 0.0
br94 0.0
br95 0.0
kr69 1.0407645817882009e-81
kr70 1.0709757257421153e-64
kr71 1.2981270376384912e-54
kr72 1.2647218266225305e-41
kr73 1.110648824443173e-36
kr74 4.237334175761534e-25
kr75 1.309009727024338e-21
kr76 2.851489018556497e-14
kr77 9.423106267372942e-14
kr78 9.321771648313268e-10
kr79 7.88558398350903e-12
kr80 7.163882205889547e-09
kr81 8.966640143860066e-12
kr82 2.9691971007655747e-10
kr83 2.659269587299859e-13
kr84 1.8428348418939306e-11
kr85 5.90005502155307e-14
kr86 4.17833271434844e-12
kr87 3.831785446633576e-21
kr88 1.211005800519415e-21
kr89 1.2869393452651362e-31
kr90 1.3186687965945636e-39
kr91 2.4091646489856788e-51
kr92 6.658708010898836e-59
kr93 4.995025199300625e-73
kr94 1.2467011314367998e-81
kr95 0.0
kr96 0.0
kr97 0.0
rb72 6.7075375255215995e-68
rb73 6.664347887807187e-59
rb74 2.9575505911328094e-47
rb75 3.874398394846575e-36
rb76 1.3532613091102577e-30
rb77 6.049090602125762e-23
rb78 1.6292521071939037e-21
rb79 3.160855349605324e-16
rb80 3.3476522729983616e-17
rb81 3.849307206493142e-13
rb82 6.9411528679700675e-15
rb83 4.078181118331755e-12
rb84 1.6383905045775755e-14
rb85 6.685158707479748e-12
rb86 1.064434945634549e-13
rb87 2.9062992490214334e-12
rb88 3.468160469670124e-20
rb89 1.0183645290740621e-23
rb90 6.98994293304632e-33
rb91 1.3488877587240766e-37
rb92 1.302674687142521e-48
rb93 1.0560443146651913e-50
rb94 9.881292045706019e-64
rb95 2.8974316902615686e-71
rb96 6.3294738036129044e-86
rb97 4.260528052069045e-90
rb98 0.0
rb99 0.0
sr75 1.142485663817598e-59
sr76 2.151710943061171e-43
sr77 1.2343548972012154e-36
sr78 4.656747629618686e-27
sr79 9.158761434644021e-24
sr80 4.19662811455113e-17
sr81 6.350818729828916e-16
sr82 1.967208729515141e-11
sr83 1.3847869985384513e-12
sr84 1.5819593688370032e-09
sr85 1.9730337672783584e-11
sr86 1.5738058009668359e-09
sr87 1.162216851952593e-11
sr88 9.084341179426294e-10
sr89 2.5556598821133167e-16
sr90 5.126958480700032e-15
sr91 5.910507213415814e-23
sr92 1.6339361694017572e-21
sr93 4.466130525848003e-31
sr94 1.0129386437075823e-34
sr95 5.849296519215296e-47
sr96 3.0963256943177635e-54
sr97 4.4196732744536936e-67
sr98 1.1719643302283774e-65
sr99 1.4088615073202517e-79
sr100 4.1701787557624534e-88
sr101 0.0
y77 8.01077574258416e-60
y78 1.5689777955009673e-48
y79 1.5779147249935366e-37
y80 2.4870018021440303e-33
y81 4.143538061350132e-26
y82 9.160985251480466e-24
y83 1.5123896550462744e-18
y84 5.125463846618453e-19
y85 9.266458577261924e-15
y86 4.801193996125579e-15
y87 3.946252159634733e-12
y88 1.2373122997203875e-12
y89 3.888995905556541e-10
y90 7.047946134951859e-16
y91 8.98139072797502e-16
y92 6.344929166224381e-20
y93 4.801573204002511e-19
y94 1.0335290644864488e-26
y95 7.548043020201828e-30
y96 1.2533520908907025e-39
y97 1.0282118098662602e-48
y98 2.4056506020192262e-60
y99 5.820332465542052e-60
y100 1.2401199994150128e-70
y101 2.919527605803783e-71
y102 6.195473134380812e-82
y103 5.789193521463079e-93
zr80 2.6792856139984567e-45
zr81 1.5865426932195978e-40
zr82 7.613043009329466e-31
zr83 6.300265074250412e-27
zr84 8.479598838089971e-21
zr85 1.0011213456674819e-19
zr86 1.595386906831447e-14
zr87 7.21806159948901e-14
zr88 1.0747278084260221e-10
zr89 2.3072602564499907e-11
zr90 5.318415444955139e-09
zr91 6.291158849491163e-14
zr92 1.2040810399436993e-13
zr93 4.366348304373529e-16
zr94 1.5583934917683646e-14
zr95 2.8004380513889477e-17
zr96 7.184517261362884e-16
zr97 2.9367736191527807e-25
zr98 4.365356620307202e-33
zr99 6.413417638636093e-44
zr100 6.813915580184658e-40
zr101 1.806183464176639e-50
zr102 5.8594226923608725e-56
zr103 3.2396242808868904e-67
zr104 3.402720256514962e-76
zr105 7.211373325790662e-89
nb83 6.099041811647634e-42
nb84 4.902837240199289e-37
nb85 8.209585079044087e-30
nb86 5.510456152853665e-27
nb87 9.120832636960544e-22
nb88 6.934460865220198e-21
nb89 2.4487346397090096e-16
nb90 1.3832067647194744e-15
nb91 1.7592376123926694e-12
nb92 2.7096663477277937e-16
nb93 9.811951069385059e-17
nb94 6.44885165931793e-19
nb95 3.799245565094309e-17
nb96 2.7008130357102966e-21
nb97 1.8245919551096657e-19
nb98 5.478088778439581e-28
nb99 1.6262377082852134e-34
nb100 3.719980862148666e-43
nb101 3.5530286941871187e-40
nb102 1.1171897067161723e-49
nb103 3.3056420611848046e-50
nb104 4.116954920510483e-61
nb105 1.5277817075969047e-66
nb106 9.129951461002805e-79
nb107 3.830364702554096e-88
mo85 2.2288286684035185e-44
mo86 8.985274338198266e-37
mo87 6.445740910225722e-32
mo88 1.2924989413551874e-25
mo89 1.0444802754618241e-22
mo90 1.2602905381893268e-17
mo91 1.082602117641491e-16
mo92 1.866122571990166e-12
mo93 3.521451823192998e-15
mo94 2.6671724577999948e-14
mo95 9.647905958549332e-17
mo96 1.4362145231471877e-14
mo97 1.9917530096005487e-17
mo98 4.593875161200127e-15
mo99 6.52310188072931e-20
mo100 3.0663230988377746e-16
mo101 4.684548851524474e-25
mo102 1.1500417428586778e-23
mo103 4.566134605362123e-33
mo104 8.45176875033351e-34
mo105 6.19722585619503e-44
mo106 8.135361235867387e-50
mo107 8.331453373017872e-61
mo108 3.635654128978188e-69
mo109 4.6457912302245097e-82
tc88 4.4954729639548326e-43
tc89 5.29266305631549e-36
tc90 6.021078361480182e-32
tc91 3.4246896919442865e-26
tc92 9.537141545371455e-24
tc93 1.4109980497108652e-18
tc94 4.943692464073291e-18
tc95 1.778285774703212e-16
tc96 2.5029260555706407e-19
tc97 2.177316221622911e-17
tc98 1.397101760393545e-20
tc99 8.951453407364059e-18
tc100 3.1908538915676075e-23
tc101 6.813270353907857e-20
tc102 5.103612497357728e-28
tc103 2.0114616154930877e-29
tc104 2.0610181261244952e-36
tc105 4.549545833062611e-33
tc106 1.8737973344265494e-42
tc107 1.2805264522525353e-41
tc108 3.963705086411821e-52
tc109 1.362708789784464e-59
tc110 1.9814873338532784e-71
ru91 1.0877275971509738e-37
ru92 6.20770989651696e-30
ru93 4.426454089413627e-25
ru94 5.563792232429095e-16
ru95 2.917589067380782e-15
ru96 2.362071500529964e-13
ru97 1.2438822609582333e-15
ru98 1.1499623379118592e-13
ru99 3.588770918903656e-17
ru100 1.2151582499498647e-14
ru101 3.201882613929923e-18
ru102 6.1443250517505844e-15
ru103 3.599970565138064e-19
ru104 2.7287492129776353e-15
ru105 1.8857387920593355e-20
ru106 1.2907928840482311e-16
ru107 2.995709666069231e-25
ru108 7.135177780625152e-26
ru109 1.5728773672634178e-35
ru110 1.0945612729430277e-37
ru111 1.822110624962676e-48
ru112 7.741668189455221e-56
rh93 3.8076520084191636e-41
rh94 8.467472271216129e-35
rh95 1.0841638717911856e-24
rh96 3.0091339376246955e-23
rh97 6.975143723806372e-20
rh98 1.250737619154529e-19
rh99 2.0399756587975832e-16
rh100 1.438855527026693e-17
rh101 1.7793512323761564e-16
rh102 1.5344708723791574e-20
rh103 4.05665737546347e-17
rh104 6.797937085856224e-21
rh105 3.023969457004009e-17
rh106 2.3153958387120175e-23
rh107 7.630638960307374e-20
rh108 1.8560357245750737e-27
rh109 1.4217167485543858e-29
rh110 4.4960184132761405e-38
rh111 1.152738439459965e-36
rh112 4.295589758987785e-46
rh113 1.6402272066522634e-48
rh114 2.253482538225196e-59
pd96 7.93708821061456e-27
pd97 6.111210770634686e-23
pd98 4.605796848978059e-17
pd99 6.575997981236066e-16
pd100 1.9132901283165895e-13
pd101 2.5483551127810585e-15
pd102 3.666459757708922e-13
pd103 1.3979907901760602e-16
pd104 1.093284435367338e-14
pd105 2.0166876699878406e-18
pd106 4.337424942799833e-15
pd107 6.247894761826383e-19
pd108 2.9805576397267876e-15
pd109 1.2566650459432545e-19
pd110 7.179928007642058e-16
pd111 1.8473635756425222e-22
pd112 1.4843827147932874e-18
pd113 1.704704913141446e-27
pd114 4.255441998539616e-29
pd115 4.733404554241288e-39
ag98 2.3782817131223505e-33
ag99 1.8846611250318742e-26
ag100 8.968438603160707e-25
ag101 1.7926672363585056e-21
ag102 1.2236893834295617e-20
ag103 4.924250450645796e-17
ag104 1.9482557743081849e-16
ag105 7.327784037403926e-16
ag106 2.960571930754705e-19
ag107 1.0232095901527942e-16
ag108 4.270469233771729e-20
ag109 9.065335345582444e-17
ag110 3.789115939251151e-21
ag111 2.0532288509341786e-17
ag112 2.8101320619070808e-24
ag113 1.2076874312860454e-22
ag114 7.418506644473052e-31
ag115 2.9533909883176453e-31
ag116 1.7619248370047133e-40
cd101 4.9496102189983776e-27
cd102 1.9256655395518684e-19
cd103 4.4095134862807196e-18
cd104 2.0817533780113014e-14
cd105 1.254093562455637e-15
cd106 4.415501518512677e-13
cd107 7.11073389702729e-16
cd108 6.84459723190403e-14
cd109 1.0251564573255788e-17
cd110 1.1207167831028382e-14
cd111 2.1862152316876374e-18
cd112 7.048463170974277e-15
cd113 9.326055149962781e-19
cd114 4.8777191894735955e-15
cd115 2.439208468134504e-19
cd116 1.3590257776984343e-15
cd117 1.5122157041290605e-23
in102 1.9819967018516613e-38
in103 3.9753521839951456e-30
in104 5.368292768248171e-28
in105 8.844823601884826e-24
in106 9.322434583201257e-24
in107 1.10203152769966e-19
in108 2.1787955591663003e-18
in109 5.641032597603049e-16
in110 1.3449305449922973e-16
in111 3.148690285653215e-16
in112 1.8877883838418216e-20
in113 1.190083165338301e-17
in114 3.802298792909208e-21
in115 9.309056212276229e-18
in116 1.3113727343633105e-22
in117 4.0638422861048727e-19
in118 2.803682461140056e-26
