mass element = 2.4777137479955464 M_sun
   t [s]      T [K]      rho [g/cm^3]      r [cm]      Ye   enue [MeV]   enua [MeV]   fnue [erg/cm^2/s/1e-51]    fnua [erg/cm^2/s/1e-51]    Entropy: S =    10.923130502636583     k  
  0.0000000000E+00	  8.8177325713E+07	  5.6634596123E+01	  1.0838053867E+10	  4.9993127895E-01	  0.0000000000E+00	  0.0000000000E+00	  0.0000000000E+00	  0.0000000000E+00
  1.0000615727E-02	  8.8177325713E+07	  5.6634596123E+01	  1.0838053867E+10	  4.9993127895E-01	  0.0000000000E+00	  0.0000000000E+00	  0.0000000000E+00	  0.0000000000E+00
  2.0001675152E-02	  8.8177325713E+07	  5.6634596123E+01	  1.0838053867E+10	  4.9993127895E-01	  0.0000000000E+00	  0.0000000000E+00	  0.0000000000E+00	  0.0000000000E+00
  3.0000780099E-02	  8.8177325713E+07	  5.6634596123E+01	  1.0838053867E+10	  4.9993127895E-01	  0.0000000000E+00	  0.0000000000E+00	  0.0000000000E+00	  0.0000000000E+00
  4.0001839524E-02	  8.8177325713E+07	  5.6634596123E+01	  1.0838053867E+10	  4.9993127895E-01	  0.0000000000E+00	  0.0000000000E+00	  0.0000000000E+00	  0.0000000000E+00
  5.0000944471E-02	  8.8177325713E+07	  5.6634596123E+01	  1.0838053867E+10	  4.9993127895E-01	  0.0000000000E+00	  0.0000000000E+00	  0.0000000000E+00	  0.0000000000E+00
  6.0000049419E-02	  8.8177325713E+07	  5.6634596123E+01	  1.0838053867E+10	  4.9993127895E-01	  0.0000000000E+00	  0.0000000000E+00	  0.0000000000E+00	  0.0000000000E+00
  7.0001108844E-02	  8.8177325713E+07	  5.6634596123E+01	  1.0838053867E+10	  4.9993127895E-01	  0.0000000000E+00	  0.0000000000E+00	  0.0000000000E+00	  0.0000000000E+00
  8.0000213791E-02	  8.8177325713E+07	  5.6634596123E+01	  1.0838053867E+10	  4.9993127895E-01	  0.0000000000E+00	  0.0000000000E+00	  0.0000000000E+00	  0.0000000000E+00
  9.0001273216E-02	  8.8177325713E+07	  5.6634596123E+01	  1.0838053867E+10	  4.9993127895E-01	  0.0000000000E+00	  0.0000000000E+00	  0.0000000000E+00	  0.0000000000E+00
  1.0000037816E-01	  8.8177325713E+07	  5.6634596123E+01	  1.0838053867E+10	  4.9993127895E-01	  0.0000000000E+00	  0.0000000000E+00	  0.0000000000E+00	  0.0000000000E+00
  1.1000143759E-01	  8.8177325713E+07	  5.6634596123E+01	  1.0838053867E+10	  4.9993127895E-01	  0.0000000000E+00	  0.0000000000E+00	  0.0000000000E+00	  0.0000000000E+00
  1.2000054254E-01	  8.8177325713E+07	  5.6634596123E+01	  1.0838053867E+10	  4.9993127895E-01	  0.0000000000E+00	  0.0000000000E+00	  0.0000000000E+00	  0.0000000000E+00
  1.3000160196E-01	  8.8177325713E+07	  5.6634596123E+01	  1.0838053867E+10	  4.9993127895E-01	  0.0000000000E+00	  0.0000000000E+00	  0.0000000000E+00	  0.0000000000E+00
  1.4000070691E-01	  8.8177325713E+07	  5.6634596123E+01	  1.0838053867E+10	  4.9993127895E-01	  0.0000000000E+00	  0.0000000000E+00	  0.0000000000E+00	  0.0000000000E+00
  1.5000176633E-01	  8.8177325713E+07	  5.6634596123E+01	  1.0838053867E+10	  4.9993127895E-01	  0.0000000000E+00	  0.0000000000E+00	  0.0000000000E+00	  0.0000000000E+00
  1.6000087128E-01	  8.8177325713E+07	  5.6634596123E+01	  1.0838053867E+10	  4.9993127895E-01	  0.0000000000E+00	  0.0000000000E+00	  0.0000000000E+00	  0.0000000000E+00
  1.7000095347E-01	  8.8177325713E+07	  5.6634596123E+01	  1.0838053867E+10	  4.9993127895E-01	  0.0000000000E+00	  0.0000000000E+00	  0.0000000000E+00	  0.0000000000E+00
  1.8000005841E-01	  8.8177325713E+07	  5.6634596123E+01	  1.0838053867E+10	  4.9993127895E-01	  0.0000000000E+00	  0.0000000000E+00	  0.0000000000E+00	  0.0000000000E+00
  1.9000014060E-01	  8.8177325713E+07	  5.6634596123E+01	  1.0838053867E+10	  4.9993127895E-01	  0.0000000000E+00	  0.0000000000E+00	  0.0000000000E+00	  0.0000000000E+00
  2.0000022278E-01	  8.8177325713E+07	  5.6634596123E+01	  1.0838053867E+10	  4.9993127895E-01	  0.0000000000E+00	  0.0000000000E+00	  0.0000000000E+00	  0.0000000000E+00
  2.1000030497E-01	  8.8177325713E+07	  5.6634596123E+01	  1.0838053867E+10	  4.9993127895E-01	  0.0000000000E+00	  0.0000000000E+00	  0.0000000000E+00	  0.0000000000E+00
  2.2000038716E-01	  8.8177325713E+07	  5.6634596123E+01	  1.0838053867E+10	  4.9993127895E-01	  0.0000000000E+00	  0.0000000000E+00	  0.0000000000E+00	  0.0000000000E+00
  2.3000046934E-01	  8.8177325713E+07	  5.6634596123E+01	  1.0838053867E+10	  4.9993127895E-01	  0.0000000000E+00	  0.0000000000E+00	  0.0000000000E+00	  0.0000000000E+00
  2.4000006291E-01	  8.8177325713E+07	  5.6634596123E+01	  1.0838053867E+10	  4.9993127895E-01	  0.0000000000E+00	  0.0000000000E+00	  0.0000000000E+00	  0.0000000000E+00
  2.5000014509E-01	  8.8177325713E+07	  5.6634596123E+01	  1.0838053867E+10	  4.9993127895E-01	  0.0000000000E+00	  0.0000000000E+00	  0.0000000000E+00	  0.0000000000E+00
  2.6000022728E-01	  8.8177325713E+07	  5.6634596123E+01	  1.0838053867E+10	  4.9993127895E-01	  0.0000000000E+00	  0.0000000000E+00	  0.0000000000E+00	  0.0000000000E+00
  2.7000030947E-01	  8.8177325713E+07	  5.6634596123E+01	  1.0838053867E+10	  4.9993127895E-01	  0.0000000000E+00	  0.0000000000E+00	  0.0000000000E+00	  0.0000000000E+00
  2.8000039165E-01	  8.8177325713E+07	  5.6634596123E+01	  1.0838053867E+10	  4.9993127895E-01	  0.0000000000E+00	  0.0000000000E+00	  0.0000000000E+00	  0.0000000000E+00
  2.9000047384E-01	  8.8177325713E+07	  5.6634596123E+01	  1.0838053867E+10	  4.9993127895E-01	  0.0000000000E+00	  0.0000000000E+00	  0.0000000000E+00	  0.0000000000E+00
  3.0000006741E-01	  8.8177325713E+07	  5.6634596123E+01	  1.0838053867E+10	  4.9993127895E-01	  0.0000000000E+00	  0.0000000000E+00	  0.0000000000E+00	  0.0000000000E+00
  3.1000014959E-01	  8.8177325713E+07	  5.6634596123E+01	  1.0838053867E+10	  4.9993127895E-01	  0.0000000000E+00	  0.0000000000E+00	  0.0000000000E+00	  0.0000000000E+00
  3.2000023178E-01	  8.8177325713E+07	  5.6634596123E+01	  1.0838053867E+10	  4.9993127895E-01	  0.0000000000E+00	  0.0000000000E+00	  0.0000000000E+00	  0.0000000000E+00
  3.3000031397E-01	  8.8177325713E+07	  5.6634596123E+01	  1.0838053867E+10	  4.9993127895E-01	  0.0000000000E+00	  0.0000000000E+00	  0.0000000000E+00	  0.0000000000E+00
  3.4000039615E-01	  8.8177325713E+07	  5.6634596123E+01	  1.0838053867E+10	  4.9993127895E-01	  0.0000000000E+00	  0.0000000000E+00	  0.0000000000E+00	  0.0000000000E+00
  3.5000047834E-01	  8.8177325713E+07	  5.6634596123E+01	  1.0838053867E+10	  4.9993127895E-01	  0.0000000000E+00	  0.0000000000E+00	  0.0000000000E+00	  0.0000000000E+00
  3.6000007191E-01	  8.8177325713E+07	  5.6634596123E+01	  1.0838053867E+10	  4.9993127895E-01	  0.0000000000E+00	  0.0000000000E+00	  0.0000000000E+00	  0.0000000000E+00
  3.7000015409E-01	  8.8177325713E+07	  5.6634596123E+01	  1.0838053867E+10	  4.9993127895E-01	  0.0000000000E+00	  0.0000000000E+00	  0.0000000000E+00	  0.0000000000E+00
  3.8000023628E-01	  8.8177325713E+07	  5.6634596123E+01	  1.0838053867E+10	  4.9993127895E-01	  0.0000000000E+00	  0.0000000000E+00	  0.0000000000E+00	  0.0000000000E+00
  3.9000031846E-01	  8.8177325713E+07	  5.6634596123E+01	  1.0838053867E+10	  4.9993127895E-01	  0.0000000000E+00	  0.0000000000E+00	  0.0000000000E+00	  0.0000000000E+00
  4.0000028199E-01	  8.8177325713E+07	  5.6634596123E+01	  1.0838053867E+10	  4.9993127895E-01	  0.0000000000E+00	  0.0000000000E+00	  0.0000000000E+00	  0.0000000000E+00
  4.1000037133E-01	  8.8177325713E+07	  5.6634596123E+01	  1.0838053867E+10	  4.9993127895E-01	  0.0000000000E+00	  0.0000000000E+00	  0.0000000000E+00	  0.0000000000E+00
  4.2000028086E-01	  8.8177325713E+07	  5.6634596123E+01	  1.0838053867E+10	  4.9993127895E-01	  0.0000000000E+00	  0.0000000000E+00	  0.0000000000E+00	  0.0000000000E+00
  4.3000005580E-01	  8.8177325713E+07	  5.6634596123E+01	  1.0838053867E+10	  4.9993127895E-01	  0.0000000000E+00	  0.0000000000E+00	  0.0000000000E+00	  0.0000000000E+00
  4.4000033296E-01	  8.8177325713E+07	  5.6634596123E+01	  1.0838053867E+10	  4.9993127895E-01	  0.0000000000E+00	  0.0000000000E+00	  0.0000000000E+00	  0.0000000000E+00
  4.5000035246E-01	  8.8177325713E+07	  5.6634596123E+01	  1.0838053867E+10	  4.9993127895E-01	  0.0000000000E+00	  0.0000000000E+00	  0.0000000000E+00	  0.0000000000E+00
  4.6000002996E-01	  8.8177325713E+07	  5.6634596123E+01	  1.0838053867E+10	  4.9993127895E-01	  0.0000000000E+00	  0.0000000000E+00	  0.0000000000E+00	  0.0000000000E+00
  4.7000002504E-01	  8.8177325713E+07	  5.6634596123E+01	  1.0838053867E+10	  4.9993127895E-01	  0.0000000000E+00	  0.0000000000E+00	  0.0000000000E+00	  0.0000000000E+00
  4.8000026749E-01	  8.8177325713E+07	  5.6634596123E+01	  1.0838053867E+10	  4.9993127895E-01	  0.0000000000E+00	  0.0000000000E+00	  0.0000000000E+00	  0.0000000000E+00
  4.9000010819E-01	  8.8177325713E+07	  5.6634596123E+01	  1.0838053867E+10	  4.9993127895E-01	  0.0000000000E+00	  0.0000000000E+00	  0.0000000000E+00	  0.0000000000E+00
  5.0000002879E-01	  8.8177325713E+07	  5.6634596123E+01	  1.0838053867E+10	  4.9993127895E-01	  0.0000000000E+00	  0.0000000000E+00	  0.0000000000E+00	  0.0000000000E+00
  5.1000016235E-01	  8.8177325713E+07	  5.6634596123E+01	  1.0838053867E+10	  4.9993127895E-01	  0.0000000000E+00	  0.0000000000E+00	  0.0000000000E+00	  0.0000000000E+00
  5.2000034769E-01	  8.8177325713E+07	  5.6634596123E+01	  1.0838053867E+10	  4.9993127895E-01	  0.0000000000E+00	  0.0000000000E+00	  0.0000000000E+00	  0.0000000000E+00
  5.3000022949E-01	  8.8177325713E+07	  5.6634596123E+01	  1.0838053867E+10	  4.9993127895E-01	  0.0000000000E+00	  0.0000000000E+00	  0.0000000000E+00	  0.0000000000E+00
  5.4000031482E-01	  8.8177325713E+07	  5.6634596123E+01	  1.0838053867E+10	  4.9993127895E-01	  0.0000000000E+00	  0.0000000000E+00	  0.0000000000E+00	  0.0000000000E+00
  5.5000017386E-01	  8.8177325713E+07	  5.6634596123E+01	  1.0838053867E+10	  4.9993127895E-01	  0.0000000000E+00	  0.0000000000E+00	  0.0000000000E+00	  0.0000000000E+00
  5.6000008950E-01	  8.8177325713E+07	  5.6634596123E+01	  1.0838053867E+10	  4.9993127895E-01	  0.0000000000E+00	  0.0000000000E+00	  0.0000000000E+00	  0.0000000000E+00
  5.7000033035E-01	  8.8177325713E+07	  5.6634596123E+01	  1.0838053867E+10	  4.9993127895E-01	  0.0000000000E+00	  0.0000000000E+00	  0.0000000000E+00	  0.0000000000E+00
  5.8000001179E-01	  8.8177325713E+07	  5.6634596123E+01	  1.0838053867E+10	  4.9993127895E-01	  0.0000000000E+00	  0.0000000000E+00	  0.0000000000E+00	  0.0000000000E+00
  5.9000032777E-01	  8.8177325713E+07	  5.6634596123E+01	  1.0838053867E+10	  4.9993127895E-01	  0.0000000000E+00	  0.0000000000E+00	  0.0000000000E+00	  0.0000000000E+00
  6.0000020793E-01	  8.8177325713E+07	  5.6634596123E+01	  1.0838053867E+10	  4.9993127895E-01	  0.0000000000E+00	  0.0000000000E+00	  0.0000000000E+00	  0.0000000000E+00
  6.1000023161E-01	  8.8177325713E+07	  5.6634596123E+01	  1.0838053867E+10	  4.9993127895E-01	  0.0000000000E+00	  0.0000000000E+00	  0.0000000000E+00	  0.0000000000E+00
  6.2000008696E-01	  8.8177325713E+07	  5.6634596123E+01	  1.0838053867E+10	  4.9993127895E-01	  0.0000000000E+00	  0.0000000000E+00	  0.0000000000E+00	  0.0000000000E+00
  6.3000016914E-01	  8.8177325713E+07	  5.6634596123E+01	  1.0838053867E+10	  4.9993127895E-01	  0.0000000000E+00	  0.0000000000E+00	  0.0000000000E+00	  0.0000000000E+00
  6.4000025133E-01	  8.8177325713E+07	  5.6634596123E+01	  1.0838053867E+10	  4.9993127895E-01	  0.0000000000E+00	  0.0000000000E+00	  0.0000000000E+00	  0.0000000000E+00
  6.5000033351E-01	  8.8177325713E+07	  5.6634596123E+01	  1.0838053867E+10	  4.9993127895E-01	  0.0000000000E+00	  0.0000000000E+00	  0.0000000000E+00	  0.0000000000E+00
  6.6000041570E-01	  8.8177325713E+07	  5.6634596123E+01	  1.0838053867E+10	  4.9993127895E-01	  0.0000000000E+00	  0.0000000000E+00	  0.0000000000E+00	  0.0000000000E+00
  6.7000000927E-01	  8.8177325713E+07	  5.6634596123E+01	  1.0838053867E+10	  4.9993127895E-01	  0.0000000000E+00	  0.0000000000E+00	  0.0000000000E+00	  0.0000000000E+00
  6.8000009145E-01	  8.8177325713E+07	  5.6634596123E+01	  1.0838053867E+10	  4.9993127895E-01	  0.0000000000E+00	  0.0000000000E+00	  0.0000000000E+00	  0.0000000000E+00
  6.9000017364E-01	  8.8177325713E+07	  5.6634596123E+01	  1.0838053867E+10	  4.9993127895E-01	  0.0000000000E+00	  0.0000000000E+00	  0.0000000000E+00	  0.0000000000E+00
  7.0000025582E-01	  8.8177325713E+07	  5.6634596123E+01	  1.0838053867E+10	  4.9993127895E-01	  0.0000000000E+00	  0.0000000000E+00	  0.0000000000E+00	  0.0000000000E+00
  7.1000033801E-01	  8.8177325713E+07	  5.6634596123E+01	  1.0838053867E+10	  4.9993127895E-01	  0.0000000000E+00	  0.0000000000E+00	  0.0000000000E+00	  0.0000000000E+00
  7.2000042019E-01	  8.8177325713E+07	  5.6634596123E+01	  1.0838053867E+10	  4.9993127895E-01	  0.0000000000E+00	  0.0000000000E+00	  0.0000000000E+00	  0.0000000000E+00
  7.3000001376E-01	  8.8177325713E+07	  5.6634596123E+01	  1.0838053867E+10	  4.9993127895E-01	  0.0000000000E+00	  0.0000000000E+00	  0.0000000000E+00	  0.0000000000E+00
  7.4000009594E-01	  8.8177325713E+07	  5.6634596123E+01	  1.0838053867E+10	  4.9993127895E-01	  0.0000000000E+00	  0.0000000000E+00	  0.0000000000E+00	  0.0000000000E+00
  7.5000017813E-01	  8.8177325713E+07	  5.6634596123E+01	  1.0838053867E+10	  4.9993127895E-01	  0.0000000000E+00	  0.0000000000E+00	  0.0000000000E+00	  0.0000000000E+00
  7.6000026031E-01	  8.8177325713E+07	  5.6634596123E+01	  1.0838053867E+10	  4.9993127895E-01	  0.0000000000E+00	  0.0000000000E+00	  0.0000000000E+00	  0.0000000000E+00
  7.7000034250E-01	  8.8177325713E+07	  5.6634596123E+01	  1.0838053867E+10	  4.9993127895E-01	  0.0000000000E+00	  0.0000000000E+00	  0.0000000000E+00	  0.0000000000E+00
  7.8000042468E-01	  8.8177325713E+07	  5.6634596123E+01	  1.0838053867E+10	  4.9993127895E-01	  0.0000000000E+00	  0.0000000000E+00	  0.0000000000E+00	  0.0000000000E+00
  7.9000001825E-01	  8.8177325713E+07	  5.6634596123E+01	  1.0838053867E+10	  4.9993127895E-01	  0.0000000000E+00	  0.0000000000E+00	  0.0000000000E+00	  0.0000000000E+00
  8.0000010044E-01	  8.8177325713E+07	  5.6634596123E+01	  1.0838053867E+10	  4.9993127895E-01	  0.0000000000E+00	  0.0000000000E+00	  0.0000000000E+00	  0.0000000000E+00
  8.0848644009E-01	  8.8177325713E+07	  5.6634596123E+01	  1.0838053867E+10	  4.9993127895E-01	  0.0000000000E+00	  0.0000000000E+00	  0.0000000000E+00	  0.0000000000E+00
  8.1000018262E-01	  8.8177325713E+07	  5.6634596123E+01	  1.0838053867E+10	  4.9993127895E-01	  0.0000000000E+00	  0.0000000000E+00	  0.0000000000E+00	  0.0000000000E+00
  8.2000026481E-01	  8.8177325713E+07	  5.6634596123E+01	  1.0838053867E+10	  4.9993127895E-01	  0.0000000000E+00	  0.0000000000E+00	  0.0000000000E+00	  0.0000000000E+00
  8.3000034699E-01	  8.8177325713E+07	  5.6634596123E+01	  1.0838053867E+10	  4.9993127895E-01	  0.0000000000E+00	  0.0000000000E+00	  0.0000000000E+00	  0.0000000000E+00
  8.4000042918E-01	  8.8177325713E+07	  5.6634596123E+01	  1.0838053867E+10	  4.9993127895E-01	  0.0000000000E+00	  0.0000000000E+00	  0.0000000000E+00	  0.0000000000E+00
  8.5000002274E-01	  8.8177325713E+07	  5.6634596123E+01	  1.0838053867E+10	  4.9993127895E-01	  0.0000000000E+00	  0.0000000000E+00	  0.0000000000E+00	  0.0000000000E+00
  8.6000010493E-01	  8.8177325713E+07	  5.6634596123E+01	  1.0838053867E+10	  4.9993127895E-01	  0.0000000000E+00	  0.0000000000E+00	  0.0000000000E+00	  0.0000000000E+00
  8.7000018711E-01	  8.8177325713E+07	  5.6634596123E+01	  1.0838053867E+10	  4.9993127895E-01	  0.0000000000E+00	  0.0000000000E+00	  0.0000000000E+00	  0.0000000000E+00
  8.8000026930E-01	  8.8177325713E+07	  5.6634596123E+01	  1.0838053867E+10	  4.9993127895E-01	  0.0000000000E+00	  0.0000000000E+00	  0.0000000000E+00	  0.0000000000E+00
  8.9000035148E-01	  8.8177325713E+07	  5.6634596123E+01	  1.0838053867E+10	  4.9993127895E-01	  0.0000000000E+00	  0.0000000000E+00	  0.0000000000E+00	  0.0000000000E+00
  9.0000043367E-01	  8.8177325713E+07	  5.6634596123E+01	  1.0838053867E+10	  4.9993127895E-01	  0.0000000000E+00	  0.0000000000E+00	  0.0000000000E+00	  0.0000000000E+00
  9.1000002723E-01	  8.8177325713E+07	  5.6634596123E+01	  1.0838053867E+10	  4.9993127895E-01	  0.0000000000E+00	  0.0000000000E+00	  0.0000000000E+00	  0.0000000000E+00
  9.2000010942E-01	  8.8177325713E+07	  5.6634596123E+01	  1.0838053867E+10	  4.9993127895E-01	  0.0000000000E+00	  0.0000000000E+00	  0.0000000000E+00	  0.0000000000E+00
  9.3000019160E-01	  8.8177325713E+07	  5.6634596123E+01	  1.0838053867E+10	  4.9993127895E-01	  0.0000000000E+00	  0.0000000000E+00	  0.0000000000E+00	  0.0000000000E+00
  9.4000027379E-01	  8.8177325713E+07	  5.6634596123E+01	  1.0838053867E+10	  4.9993127895E-01	  0.0000000000E+00	  0.0000000000E+00	  0.0000000000E+00	  0.0000000000E+00
  9.5000035598E-01	  8.8177325713E+07	  5.6634596123E+01	  1.0838053867E+10	  4.9993127895E-01	  0.0000000000E+00	  0.0000000000E+00	  0.0000000000E+00	  0.0000000000E+00
  9.6000043816E-01	  8.8177325713E+07	  5.6634596123E+01	  1.0838053867E+10	  4.9993127895E-01	  0.0000000000E+00	  0.0000000000E+00	  0.0000000000E+00	  0.0000000000E+00
  9.7000003173E-01	  8.8177325713E+07	  5.6634596123E+01	  1.0838053867E+10	  4.9993127895E-01	  0.0000000000E+00	  0.0000000000E+00	  0.0000000000E+00	  0.0000000000E+00
  9.8000011391E-01	  8.8177325713E+07	  5.6634596123E+01	  1.0838053867E+10	  4.9993127895E-01	  0.0000000000E+00	  0.0000000000E+00	  0.0000000000E+00	  0.0000000000E+00
  9.9000019610E-01	  8.8177325713E+07	  5.6634596123E+01	  1.0838053867E+10	  4.9993127895E-01	  0.0000000000E+00	  0.0000000000E+00	  0.0000000000E+00	  0.0000000000E+00
  1.0000002783E+00	  8.8177325713E+07	  5.6634596123E+01	  1.0838053867E+10	  4.9993127895E-01	  0.0000000000E+00	  0.0000000000E+00	  0.0000000000E+00	  0.0000000000E+00
  1.0100003605E+00	  8.8177325713E+07	  5.6634596123E+01	  1.0838053867E+10	  4.9993127895E-01	  0.0000000000E+00	  0.0000000000E+00	  0.0000000000E+00	  0.0000000000E+00
  1.0200004427E+00	  8.8177325713E+07	  5.6634596123E+01	  1.0838053867E+10	  4.9993127895E-01	  0.0000000000E+00	  0.0000000000E+00	  0.0000000000E+00	  0.0000000000E+00
  1.0300000362E+00	  8.8177325713E+07	  5.6634596123E+01	  1.0838053867E+10	  4.9993127895E-01	  0.0000000000E+00	  0.0000000000E+00	  0.0000000000E+00	  0.0000000000E+00
  1.0400001184E+00	  8.8177325713E+07	  5.6634596123E+01	  1.0838053867E+10	  4.9993127895E-01	  0.0000000000E+00	  0.0000000000E+00	  0.0000000000E+00	  0.0000000000E+00
  1.0500002006E+00	  8.8177325713E+07	  5.6634596123E+01	  1.0838053867E+10	  4.9993127895E-01	  0.0000000000E+00	  0.0000000000E+00	  0.0000000000E+00	  0.0000000000E+00
  1.0600002828E+00	  8.8177325713E+07	  5.6634596123E+01	  1.0838053867E+10	  4.9993127895E-01	  0.0000000000E+00	  0.0000000000E+00	  0.0000000000E+00	  0.0000000000E+00
  1.0700003650E+00	  8.8177325713E+07	  5.6634596123E+01	  1.0838053867E+10	  4.9993127895E-01	  0.0000000000E+00	  0.0000000000E+00	  0.0000000000E+00	  0.0000000000E+00
  1.0800004472E+00	  8.8177325713E+07	  5.6634596123E+01	  1.0838053867E+10	  4.9993127895E-01	  0.0000000000E+00	  0.0000000000E+00	  0.0000000000E+00	  0.0000000000E+00
  1.0900000407E+00	  8.8177325713E+07	  5.6634596123E+01	  1.0838053867E+10	  4.9993127895E-01	  0.0000000000E+00	  0.0000000000E+00	  0.0000000000E+00	  0.0000000000E+00
  1.1000001229E+00	  8.8177325713E+07	  5.6634596123E+01	  1.0838053867E+10	  4.9993127895E-01	  0.0000000000E+00	  0.0000000000E+00	  0.0000000000E+00	  0.0000000000E+00
  1.1100002051E+00	  8.8177325713E+07	  5.6634596123E+01	  1.0838053867E+10	  4.9993127895E-01	  0.0000000000E+00	  0.0000000000E+00	  0.0000000000E+00	  0.0000000000E+00
  1.1200002873E+00	  8.8177325713E+07	  5.6634596123E+01	  1.0838053867E+10	  4.9993127895E-01	  0.0000000000E+00	  0.0000000000E+00	  0.0000000000E+00	  0.0000000000E+00
  1.1300003695E+00	  8.8177325713E+07	  5.6634596123E+01	  1.0838053867E+10	  4.9993127895E-01	  0.0000000000E+00	  0.0000000000E+00	  0.0000000000E+00	  0.0000000000E+00
  1.1400004517E+00	  8.8177325713E+07	  5.6634596123E+01	  1.0838053867E+10	  4.9993127895E-01	  0.0000000000E+00	  0.0000000000E+00	  0.0000000000E+00	  0.0000000000E+00
  1.1500000452E+00	  8.8177325713E+07	  5.6634596123E+01	  1.0838053867E+10	  4.9993127895E-01	  0.0000000000E+00	  0.0000000000E+00	  0.0000000000E+00	  0.0000000000E+00
  1.1600001274E+00	  8.8177325713E+07	  5.6634596123E+01	  1.0838053867E+10	  4.9993127895E-01	  0.0000000000E+00	  0.0000000000E+00	  0.0000000000E+00	  0.0000000000E+00
  1.1700002096E+00	  8.8177325713E+07	  5.6634596123E+01	  1.0838053867E+10	  4.9993127895E-01	  0.0000000000E+00	  0.0000000000E+00	  0.0000000000E+00	  0.0000000000E+00
  1.1800002918E+00	  8.8177325713E+07	  5.6634596123E+01	  1.0838053867E+10	  4.9993127895E-01	  0.0000000000E+00	  0.0000000000E+00	  0.0000000000E+00	  0.0000000000E+00
  1.1900003740E+00	  8.8177325713E+07	  5.6634596123E+01	  1.0838053867E+10	  4.9993127895E-01	  0.0000000000E+00	  0.0000000000E+00	  0.0000000000E+00	  0.0000000000E+00
  1.2000004562E+00	  8.8177325713E+07	  5.6634596123E+01	  1.0838053867E+10	  4.9993127895E-01	  0.0000000000E+00	  0.0000000000E+00	  0.0000000000E+00	  0.0000000000E+00
  1.2100000497E+00	  8.8177325713E+07	  5.6634596123E+01	  1.0838053867E+10	  4.9993127895E-01	  0.0000000000E+00	  0.0000000000E+00	  0.0000000000E+00	  0.0000000000E+00
  1.2200001319E+00	  8.8177325713E+07	  5.6634596123E+01	  1.0838053867E+10	  4.9993127895E-01	  0.0000000000E+00	  0.0000000000E+00	  0.0000000000E+00	  0.0000000000E+00
  1.2300002141E+00	  8.8177325713E+07	  5.6634596123E+01	  1.0838053867E+10	  4.9993127895E-01	  0.0000000000E+00	  0.0000000000E+00	  0.0000000000E+00	  0.0000000000E+00
  1.2400002963E+00	  8.8177325713E+07	  5.6634596123E+01	  1.0838053867E+10	  4.9993127895E-01	  0.0000000000E+00	  0.0000000000E+00	  0.0000000000E+00	  0.0000000000E+00
  1.2500003785E+00	  8.8177325713E+07	  5.6634596123E+01	  1.0838053867E+10	  4.9993127895E-01	  0.0000000000E+00	  0.0000000000E+00	  0.0000000000E+00	  0.0000000000E+00
  1.2600004607E+00	  8.8177325713E+07	  5.6634596123E+01	  1.0838053867E+10	  4.9993127895E-01	  0.0000000000E+00	  0.0000000000E+00	  0.0000000000E+00	  0.0000000000E+00
  1.2700000542E+00	  8.8177325713E+07	  5.6634596123E+01	  1.0838053867E+10	  4.9993127895E-01	  0.0000000000E+00	  0.0000000000E+00	  0.0000000000E+00	  0.0000000000E+00
  1.2800001364E+00	  8.8177325713E+07	  5.6634596123E+01	  1.0838053867E+10	  4.9993127895E-01	  0.0000000000E+00	  0.0000000000E+00	  0.0000000000E+00	  0.0000000000E+00
  1.2900002186E+00	  8.8177325713E+07	  5.6634596123E+01	  1.0838053867E+10	  4.9993127895E-01	  0.0000000000E+00	  0.0000000000E+00	  0.0000000000E+00	  0.0000000000E+00
  1.3000003008E+00	  8.8177325713E+07	  5.6634596123E+01	  1.0838053867E+10	  4.9993127895E-01	  0.0000000000E+00	  0.0000000000E+00	  0.0000000000E+00	  0.0000000000E+00
  1.3100003830E+00	  8.8177325713E+07	  5.6634596123E+01	  1.0838053867E+10	  4.9993127895E-01	  0.0000000000E+00	  0.0000000000E+00	  0.0000000000E+00	  0.0000000000E+00
  1.3200004652E+00	  8.8177325713E+07	  5.6634596123E+01	  1.0838053867E+10	  4.9993127895E-01	  0.0000000000E+00	  0.0000000000E+00	  0.0000000000E+00	  0.0000000000E+00
  1.3300000588E+00	  8.8177325713E+07	  5.6634596123E+01	  1.0838053867E+10	  4.9993127895E-01	  0.0000000000E+00	  0.0000000000E+00	  0.0000000000E+00	  0.0000000000E+00
  1.3400001409E+00	  8.8177325713E+07	  5.6634596123E+01	  1.0838053867E+10	  4.9993127895E-01	  0.0000000000E+00	  0.0000000000E+00	  0.0000000000E+00	  0.0000000000E+00
  1.3500002231E+00	  8.8177325713E+07	  5.6634596123E+01	  1.0838053867E+10	  4.9993127895E-01	  0.0000000000E+00	  0.0000000000E+00	  0.0000000000E+00	  0.0000000000E+00
  1.3600003053E+00	  8.8177325713E+07	  5.6634596123E+01	  1.0838053867E+10	  4.9993127895E-01	  0.0000000000E+00	  0.0000000000E+00	  0.0000000000E+00	  0.0000000000E+00
  1.3700003875E+00	  8.8177325713E+07	  5.6634596123E+01	  1.0838053867E+10	  4.9993127895E-01	  0.0000000000E+00	  0.0000000000E+00	  0.0000000000E+00	  0.0000000000E+00
  1.3800004697E+00	  8.8177325713E+07	  5.6634596123E+01	  1.0838053867E+10	  4.9993127895E-01	  0.0000000000E+00	  0.0000000000E+00	  0.0000000000E+00	  0.0000000000E+00
  1.3900000633E+00	  8.8177325713E+07	  5.6634596123E+01	  1.0838053867E+10	  4.9993127895E-01	  0.0000000000E+00	  0.0000000000E+00	  0.0000000000E+00	  0.0000000000E+00
  1.4000001454E+00	  8.8177325713E+07	  5.6634596123E+01	  1.0838053867E+10	  4.9993127895E-01	  0.0000000000E+00	  0.0000000000E+00	  0.0000000000E+00	  0.0000000000E+00
  1.4100002276E+00	  8.8177325713E+07	  5.6634596123E+01	  1.0838053867E+10	  4.9993127895E-01	  0.0000000000E+00	  0.0000000000E+00	  0.0000000000E+00	  0.0000000000E+00
  1.4200003098E+00	  8.8177325713E+07	  5.6634596123E+01	  1.0838053867E+10	  4.9993127895E-01	  0.0000000000E+00	  0.0000000000E+00	  0.0000000000E+00	  0.0000000000E+00
  1.4300003920E+00	  8.8177325713E+07	  5.6634596123E+01	  1.0838053867E+10	  4.9993127895E-01	  0.0000000000E+00	  0.0000000000E+00	  0.0000000000E+00	  0.0000000000E+00
  1.4400004742E+00	  8.8177325713E+07	  5.6634596123E+01	  1.0838053867E+10	  4.9993127895E-01	  0.0000000000E+00	  0.0000000000E+00	  0.0000000000E+00	  0.0000000000E+00
  1.4500000678E+00	  8.8177325713E+07	  5.6634596123E+01	  1.0838053867E+10	  4.9993127895E-01	  0.0000000000E+00	  0.0000000000E+00	  0.0000000000E+00	  0.0000000000E+00
  1.4600001500E+00	  8.8177325713E+07	  5.6634596123E+01	  1.0838053867E+10	  4.9993127895E-01	  0.0000000000E+00	  0.0000000000E+00	  0.0000000000E+00	  0.0000000000E+00
  1.4700002321E+00	  8.8177325713E+07	  5.6634596123E+01	  1.0838053867E+10	  4.9993127895E-01	  0.0000000000E+00	  0.0000000000E+00	  0.0000000000E+00	  0.0000000000E+00
  1.4800003143E+00	  8.8177325713E+07	  5.6634596123E+01	  1.0838053867E+10	  4.9993127895E-01	  0.0000000000E+00	  0.0000000000E+00	  0.0000000000E+00	  0.0000000000E+00
  1.4900003965E+00	  8.8177325713E+07	  5.6634596123E+01	  1.0838053867E+10	  4.9993127895E-01	  0.0000000000E+00	  0.0000000000E+00	  0.0000000000E+00	  0.0000000000E+00
  1.5000004787E+00	  8.8177325713E+07	  5.6634596123E+01	  1.0838053867E+10	  4.9993127895E-01	  0.0000000000E+00	  0.0000000000E+00	  0.0000000000E+00	  0.0000000000E+00
  1.5100000723E+00	  8.8177325713E+07	  5.6634596123E+01	  1.0838053867E+10	  4.9993127895E-01	  0.0000000000E+00	  0.0000000000E+00	  0.0000000000E+00	  0.0000000000E+00
  1.5200001545E+00	  8.8177325713E+07	  5.6634596123E+01	  1.0838053867E+10	  4.9993127895E-01	  0.0000000000E+00	  0.0000000000E+00	  0.0000000000E+00	  0.0000000000E+00
  1.5300002366E+00	  8.8177325713E+07	  5.6634596123E+01	  1.0838053867E+10	  4.9993127895E-01	  0.0000000000E+00	  0.0000000000E+00	  0.0000000000E+00	  0.0000000000E+00
  1.5400003188E+00	  8.8177325713E+07	  5.6634596123E+01	  1.0838053867E+10	  4.9993127895E-01	  0.0000000000E+00	  0.0000000000E+00	  0.0000000000E+00	  0.0000000000E+00
  1.5500004010E+00	  8.8177325713E+07	  5.6634596123E+01	  1.0838053867E+10	  4.9993127895E-01	  0.0000000000E+00	  0.0000000000E+00	  0.0000000000E+00	  0.0000000000E+00
  1.5600004832E+00	  8.8177325713E+07	  5.6634596123E+01	  1.0838053867E+10	  4.9993127895E-01	  0.0000000000E+00	  0.0000000000E+00	  0.0000000000E+00	  0.0000000000E+00
  1.5700000768E+00	  8.8177325713E+07	  5.6634596123E+01	  1.0838053867E+10	  4.9993127895E-01	  0.0000000000E+00	  0.0000000000E+00	  0.0000000000E+00	  0.0000000000E+00
  1.5800001590E+00	  8.8177325713E+07	  5.6634596123E+01	  1.0838053867E+10	  4.9993127895E-01	  0.0000000000E+00	  0.0000000000E+00	  0.0000000000E+00	  0.0000000000E+00
  1.5900002412E+00	  8.8177325713E+07	  5.6634596123E+01	  1.0838053867E+10	  4.9993127895E-01	  0.0000000000E+00	  0.0000000000E+00	  0.0000000000E+00	  0.0000000000E+00
  1.6000003233E+00	  8.8177325713E+07	  5.6634596123E+01	  1.0838053867E+10	  4.9993127895E-01	  0.0000000000E+00	  0.0000000000E+00	  0.0000000000E+00	  0.0000000000E+00
  1.6100004055E+00	  8.8177325713E+07	  5.6634596123E+01	  1.0838053867E+10	  4.9993127895E-01	  0.0000000000E+00	  0.0000000000E+00	  0.0000000000E+00	  0.0000000000E+00
  1.6200004877E+00	  8.8177325713E+07	  5.6634596123E+01	  1.0838053867E+10	  4.9993127895E-01	  0.0000000000E+00	  0.0000000000E+00	  0.0000000000E+00	  0.0000000000E+00
  1.6300000813E+00	  8.8177325713E+07	  5.6634596123E+01	  1.0838053867E+10	  4.9993127895E-01	  0.0000000000E+00	  0.0000000000E+00	  0.0000000000E+00	  0.0000000000E+00
  1.6400001635E+00	  8.8177325713E+07	  5.6634596123E+01	  1.0838053867E+10	  4.9993127895E-01	  0.0000000000E+00	  0.0000000000E+00	  0.0000000000E+00	  0.0000000000E+00
  1.6500002457E+00	  8.8177325713E+07	  5.6634596123E+01	  1.0838053867E+10	  4.9993127895E-01	  0.0000000000E+00	  0.0000000000E+00	  0.0000000000E+00	  0.0000000000E+00
  1.6600003278E+00	  8.8177325713E+07	  5.6634596123E+01	  1.0838053867E+10	  4.9993127895E-01	  0.0000000000E+00	  0.0000000000E+00	  0.0000000000E+00	  0.0000000000E+00
  1.6700004100E+00	  8.8177325713E+07	  5.6634596123E+01	  1.0838053867E+10	  4.9993127895E-01	  0.0000000000E+00	  0.0000000000E+00	  0.0000000000E+00	  0.0000000000E+00
  1.6800000036E+00	  8.8177325713E+07	  5.6634596123E+01	  1.0838053867E+10	  4.9993127895E-01	  0.0000000000E+00	  0.0000000000E+00	  0.0000000000E+00	  0.0000000000E+00
  1.6900000858E+00	  8.8177325713E+07	  5.6634596123E+01	  1.0838053867E+10	  4.9993127895E-01	  0.0000000000E+00	  0.0000000000E+00	  0.0000000000E+00	  0.0000000000E+00
  1.7000001680E+00	  8.8177325713E+07	  5.6634596123E+01	  1.0838053867E+10	  4.9993127895E-01	  0.0000000000E+00	  0.0000000000E+00	  0.0000000000E+00	  0.0000000000E+00
  1.7100002502E+00	  8.8177325713E+07	  5.6634596123E+01	  1.0838053867E+10	  4.9993127895E-01	  0.0000000000E+00	  0.0000000000E+00	  0.0000000000E+00	  0.0000000000E+00
  1.7200003324E+00	  8.8177325713E+07	  5.6634596123E+01	  1.0838053867E+10	  4.9993127895E-01	  0.0000000000E+00	  0.0000000000E+00	  0.0000000000E+00	  0.0000000000E+00
  1.7300004145E+00	  8.8177325713E+07	  5.6634596123E+01	  1.0838053867E+10	  4.9993127895E-01	  0.0000000000E+00	  0.0000000000E+00	  0.0000000000E+00	  0.0000000000E+00
  1.7400000081E+00	  8.8177325713E+07	  5.6634596123E+01	  1.0838053867E+10	  4.9993127895E-01	  0.0000000000E+00	  0.0000000000E+00	  0.0000000000E+00	  0.0000000000E+00
  1.7500000903E+00	  8.8177325713E+07	  5.6634596123E+01	  1.0838053867E+10	  4.9993127895E-01	  0.0000000000E+00	  0.0000000000E+00	  0.0000000000E+00	  0.0000000000E+00
  1.7600001725E+00	  8.8177325713E+07	  5.6634596123E+01	  1.0838053867E+10	  4.9993127895E-01	  0.0000000000E+00	  0.0000000000E+00	  0.0000000000E+00	  0.0000000000E+00
  1.7700002547E+00	  8.8177325713E+07	  5.6634596123E+01	  1.0838053867E+10	  4.9993127895E-01	  0.0000000000E+00	  0.0000000000E+00	  0.0000000000E+00	  0.0000000000E+00
  1.7800003369E+00	  8.8177325713E+07	  5.6634596123E+01	  1.0838053867E+10	  4.9993127895E-01	  0.0000000000E+00	  0.0000000000E+00	  0.0000000000E+00	  0.0000000000E+00
  1.7900004190E+00	  8.8177325713E+07	  5.6634596123E+01	  1.0838053867E+10	  4.9993127895E-01	  0.0000000000E+00	  0.0000000000E+00	  0.0000000000E+00	  0.0000000000E+00
  1.8000000126E+00	  8.8177325713E+07	  5.6634596123E+01	  1.0838053867E+10	  4.9993127895E-01	  0.0000000000E+00	  0.0000000000E+00	  0.0000000000E+00	  0.0000000000E+00
  1.8100000948E+00	  8.8177325713E+07	  5.6634596123E+01	  1.0838053867E+10	  4.9993127895E-01	  0.0000000000E+00	  0.0000000000E+00	  0.0000000000E+00	  0.0000000000E+00
  1.8200001770E+00	  8.8177325713E+07	  5.6634596123E+01	  1.0838053867E+10	  4.9993127895E-01	  0.0000000000E+00	  0.0000000000E+00	  0.0000000000E+00	  0.0000000000E+00
  1.8300002592E+00	  8.8177325713E+07	  5.6634596123E+01	  1.0838053867E+10	  4.9993127895E-01	  0.0000000000E+00	  0.0000000000E+00	  0.0000000000E+00	  0.0000000000E+00
  1.8400003414E+00	  8.8177325713E+07	  5.6634596123E+01	  1.0838053867E+10	  4.9993127895E-01	  0.0000000000E+00	  0.0000000000E+00	  0.0000000000E+00	  0.0000000000E+00
  1.8500004236E+00	  8.8177325713E+07	  5.6634596123E+01	  1.0838053867E+10	  4.9993127895E-01	  0.0000000000E+00	  0.0000000000E+00	  0.0000000000E+00	  0.0000000000E+00
  1.8600000171E+00	  8.8177325713E+07	  5.6634596123E+01	  1.0838053867E+10	  4.9993127895E-01	  0.0000000000E+00	  0.0000000000E+00	  0.0000000000E+00	  0.0000000000E+00
  1.8700000993E+00	  8.8177325713E+07	  5.6634596123E+01	  1.0838053867E+10	  4.9993127895E-01	  0.0000000000E+00	  0.0000000000E+00	  0.0000000000E+00	  0.0000000000E+00
  1.8800001815E+00	  8.8177325713E+07	  5.6634596123E+01	  1.0838053867E+10	  4.9993127895E-01	  0.0000000000E+00	  0.0000000000E+00	  0.0000000000E+00	  0.0000000000E+00
  1.8900002637E+00	  8.8177325713E+07	  5.6634596123E+01	  1.0838053867E+10	  4.9993127895E-01	  0.0000000000E+00	  0.0000000000E+00	  0.0000000000E+00	  0.0000000000E+00
  1.9000003459E+00	  8.8177325713E+07	  5.6634596123E+01	  1.0838053867E+10	  4.9993127895E-01	  0.0000000000E+00	  0.0000000000E+00	  0.0000000000E+00	  0.0000000000E+00
  1.9100004281E+00	  8.8177325713E+07	  5.6634596123E+01	  1.0838053867E+10	  4.9993127895E-01	  0.0000000000E+00	  0.0000000000E+00	  0.0000000000E+00	  0.0000000000E+00
  1.9200000216E+00	  8.8177325713E+07	  5.6634596123E+01	  1.0838053867E+10	  4.9993127895E-01	  0.0000000000E+00	  0.0000000000E+00	  0.0000000000E+00	  0.0000000000E+00
  1.9300001038E+00	  8.8177325713E+07	  5.6634596123E+01	  1.0838053867E+10	  4.9993127895E-01	  0.0000000000E+00	  0.0000000000E+00	  0.0000000000E+00	  0.0000000000E+00
  1.9356930070E+00	  8.8177325713E+07	  5.6634596123E+01	  1.0838053867E+10	  4.9993127895E-01	  0.0000000000E+00	  0.0000000000E+00	  0.0000000000E+00	  0.0000000000E+00
  1.9356934957E+00	  8.8177325713E+07	  5.6634596123E+01	  1.0838053867E+10	  4.9993127895E-01	  0.0000000000E+00	  0.0000000000E+00	  0.0000000000E+00	  0.0000000000E+00
  1.9356939843E+00	  8.8177325713E+07	  5.6634596123E+01	  1.0838053867E+10	  4.9993127895E-01	  0.0000000000E+00	  0.0000000000E+00	  0.0000000000E+00	  0.0000000000E+00
