n 1.3907585287591566e-29
h1 6.3616279789808425e-24
he4 2.3748022947007205e-17
h2 1.3421509399314458e-32
h3 3.064949415007091e-23
he3 2.6030751769073607e-23
li6 2.2109032004216727e-39
li7 3.3014146929811643e-28
li8 1.4423549679612452e-44
li9 5.766824682173394e-66
be7 2.2045352847333464e-32
be9 9.813612546427478e-41
be10 2.744757344211556e-36
be11 4.015475405439696e-66
be12 1.5270988589157217e-89
b8 7.830895938710545e-60
b10 8.966855606522862e-26
b11 1.8553931154076696e-16
b12 7.36354946077408e-39
b13 1.8933480258206328e-61
b14 1.509630120126399e-87
c10 0.0
c11 5.026650461143165e-24
c12 0.0009993459129073
c13 9.248466323199492e-15
c14 5.690045344489635e-10
c15 8.608498948149059e-34
c16 1.0824799891773588e-55
c17 4.333714118337944e-83
c18 0.0
n11 0.0
n12 8.657840556432491e-48
n13 1.2172099210187485e-16
n14 2.8853186431709703e-09
n15 3.2740445194830823e-10
n16 6.1872791876826066e-30
n17 4.0876824723023907e-50
n18 4.13087284812724e-72
n19 2.2906485428098718e-94
n20 0.0
n21 0.0
o13 2.4526641037053967e-67
o14 1.3010790706000802e-25
o15 9.519664663399087e-18
o16 0.04164930296649193
o17 1.89296927816232e-09
o18 9.029131301587712e-11
o19 1.4530120434254496e-26
o20 1.994168188644819e-37
o21 9.817727071554236e-57
o22 1.0329205581969554e-75
f16 3.8093823313001674e-44
f17 5.291658046968916e-25
f18 4.082323540815134e-12
f19 3.6754794556422593e-10
f20 9.010622252665723e-37
f21 3.4364494344439503e-51
f22 9.079480216629747e-57
f23 3.064546732279989e-67
f24 2.0937075651321657e-88
f25 0.0
f26 0.0
ne16 0.0
ne17 0.0
ne18 2.581126395990442e-44
ne19 9.617954484501287e-28
ne20 0.011974543829600786
ne21 2.1833337099269135e-05
ne22 2.982497271124089e-05
ne23 5.234242160062542e-19
ne24 5.635521492619199e-19
ne25 3.9893099376248547e-39
ne26 7.17666089208249e-60
ne27 1.246342987950758e-82
ne28 0.0
ne29 0.0
na19 4.943608562825551e-75
na20 6.411433430897536e-48
na21 5.023724090633855e-20
na22 8.425507664753024e-08
na23 0.0002608667682411371
na24 2.1182678949228484e-07
na25 4.582796342707461e-18
na26 3.332416405636707e-37
na27 8.229668978500224e-57
na28 1.2089964799697023e-78
na29 1.3429350360119033e-99
na30 0.0
na31 0.0
na32 0.0
mg20 3.225033183191206e-98
mg21 1.3447167613481593e-67
mg22 1.3250629874625586e-35
mg23 1.5808612320991247e-22
mg24 0.001893694184167684
mg25 0.0004471417124657627
mg26 0.0002909563983191599
mg27 4.3567396981229696e-11
mg28 4.234750604481362e-11
mg29 1.1483675142450762e-30
mg30 1.5425228702699234e-50
mg31 1.340674304843252e-71
mg32 4.2242051464946855e-92
mg33 0.0
mg34 0.0
mg35 0.0
al22 1.0426182345835174e-99
al23 1.9975521298298814e-62
al24 4.257194224709503e-40
al25 6.41829169879058e-19
al26 2.127231754816872e-08
al27 0.00014573690203898513
al28 3.512243238419306e-12
al29 3.6084232600674215e-14
al30 1.6320679583118433e-32
al31 1.6508191244874044e-51
al32 1.1540425947094595e-72
al33 1.6314746711250102e-93
al34 0.0
al35 0.0
al36 0.0
al37 0.0
al38 0.0
si23 0.0
si24 9.375908587936058e-83
si25 3.2372171016057954e-59
si26 4.458947747697063e-36
si27 3.0342068507440996e-24
si28 0.0001322290259417646
si29 2.2931329310215586e-05
si30 1.0406978118380749e-05
si31 2.2760584315272486e-08
si32 3.4669152034473827e-09
si33 9.989938723339905e-28
si34 2.605053542151249e-46
si35 1.3150005192478156e-66
si36 2.099672218788641e-85
si37 0.0
si38 0.0
si39 0.0
si40 0.0
si41 0.0
p25 0.0
p26 4.7963551925337834e-88
p27 6.857720579887454e-57
p28 3.2956730893239006e-43
p29 2.240347704508798e-22
p30 6.845380660941588e-13
p31 4.559597268848192e-06
p32 6.176305798241613e-08
p33 1.2010392010172448e-08
p34 6.326570654757578e-26
p35 3.626159742241233e-25
p36 1.2142484071431128e-43
p37 8.074387202516614e-61
p38 5.3104750986265474e-80
p39 1.4311201811228637e-99
p40 0.0
p41 0.0
p42 0.0
p43 0.0
p44 0.0
s27 0.0
s28 1.1129694133550207e-80
s29 2.6770150690684894e-62
s30 3.1138135733058346e-41
s31 4.4795225736306756e-30
s32 8.344599609258146e-06
s33 1.0803618504743337e-07
s34 1.0426787411372107e-06
s35 2.5643447408509654e-08
s36 9.017014401423046e-08
s37 2.9140695896306057e-16
s38 2.5818654817729585e-17
s39 2.3721896684054297e-35
s40 6.875173392122566e-45
s41 1.0936214947211081e-62
s42 5.048810332637223e-82
s43 0.0
s44 0.0
s45 0.0
s46 0.0
s47 0.0
cl29 0.0
cl30 7.707777721003028e-94
cl31 7.653409814095153e-67
cl32 1.2702424153716054e-50
cl33 1.0570699207442605e-23
cl34 8.203147093213334e-26
cl35 1.1397662960021421e-07
cl36 5.7326590910688354e-09
cl37 9.219944155248314e-07
cl38 1.6845220228824332e-11
cl39 7.117550609082437e-14
cl40 5.553495051015567e-23
cl41 7.501583400341443e-30
cl42 1.8297701260697172e-45
cl43 6.43757687614015e-52
cl44 3.6214343249916274e-71
cl45 5.5004187301565505e-89
cl46 0.0
cl47 0.0
cl48 0.0
cl49 0.0
cl50 0.0
ar31 0.0
ar32 1.9597007020797274e-91
ar33 1.4007696095056713e-71
ar34 1.6549890325307684e-42
ar35 4.182202421919899e-43
ar36 9.339192429850072e-07
ar37 7.922868684394317e-09
ar38 1.184882266203605e-06
ar39 1.2206159494118673e-07
ar40 5.3639444558096586e-08
ar41 2.0407254564065486e-11
ar42 1.6655058217125464e-11
ar43 1.1268403498908075e-17
ar44 1.229880798085417e-20
ar45 2.183663747475798e-34
ar46 5.85489684953327e-46
ar47 2.075767408734836e-65
ar48 9.24680308334958e-86
ar49 0.0
ar50 0.0
ar51 0.0
ar52 0.0
k32 0.0
k33 0.0
k34 0.0
k35 6.644763880837397e-70
k36 2.8984614333206516e-64
k37 2.284952600394329e-25
k38 5.270628678708148e-22
k39 1.5758092484925967e-07
k40 1.5598877690211454e-08
k41 3.926210568573277e-08
k42 1.9232990890971585e-09
k43 9.374309690712888e-11
k44 2.0987133044647527e-15
k45 2.1178215402753042e-18
k46 4.0871045127600624e-26
k47 2.722191742033297e-38
k48 1.6855224418765058e-52
k49 1.242991359280949e-70
k50 1.2626953486283092e-90
k51 0.0
k52 0.0
k53 0.0
k54 0.0
k55 0.0
ca35 0.0
ca36 3.9746623829147395e-92
ca37 1.844268320812993e-84
ca38 3.698272874683832e-45
ca39 4.934574001205784e-41
ca40 8.164708328228815e-07
ca41 1.6745773265984793e-08
ca42 6.919642085370114e-08
ca43 2.8846812323315887e-08
ca44 6.743594698777748e-08
ca45 1.5350626880758043e-08
ca46 4.898203373703883e-09
ca47 2.0367656455051198e-10
ca48 2.832990900230871e-09
ca49 2.027866773326771e-15
ca50 9.608694144541674e-32
ca51 1.2554193336837447e-40
ca52 3.0677057796611876e-54
ca53 1.3235911222732407e-75
ca54 1.7065232320599473e-96
ca55 0.0
ca56 0.0
ca57 0.0
sc36 0.0
sc37 0.0
sc38 0.0
sc39 3.0175810253501793e-78
sc40 6.8684344460304294e-65
sc41 3.9854318687705082e-28
sc42 1.1085187303386957e-28
sc43 5.6594072436080515e-12
sc44 4.921118538764949e-12
sc45 4.812222873855367e-09
sc46 2.2912877222102643e-09
sc47 6.049555428897524e-10
sc48 7.929919088828148e-11
sc49 1.4881313846955185e-13
sc50 7.273227365703214e-22
sc51 4.927302176959889e-36
sc52 1.559732811201008e-44
sc53 6.171213687585297e-64
sc54 3.7248435488634704e-84
sc55 0.0
sc56 0.0
sc57 0.0
sc58 0.0
sc59 0.0
ti39 0.0
ti40 0.0
ti41 3.3909593329291434e-86
ti42 6.354855957128325e-49
ti43 1.8207814334400786e-48
ti44 4.557096903260519e-14
ti45 1.95700359929794e-15
ti46 7.125036962634031e-09
ti47 7.578430457299913e-09
ti48 1.0193704732761607e-08
ti49 2.416515060720429e-08
ti50 4.82983751189972e-08
ti51 6.038605347446837e-14
ti52 2.8732711489724914e-20
ti53 8.756646844340999e-29
ti54 6.714147032076428e-34
ti55 1.0802363426698106e-53
ti56 8.659926704078872e-74
ti57 8.379712881090567e-95
ti58 0.0
ti59 0.0
ti60 0.0
ti61 0.0
ti62 0.0
v41 0.0
v42 0.0
v43 1.1734565547759178e-75
v44 6.69049331216646e-70
v45 8.986677754985511e-36
v46 4.669378476849873e-36
v47 2.7461380436391676e-14
v48 1.0297372697787886e-12
v49 1.4334961913486947e-10
v50 2.7577634974661e-10
v51 6.647809150735402e-09
v52 1.1645457493177723e-14
v53 1.952973589145361e-20
v54 1.2004844971368417e-27
v55 1.641892501995705e-43
v56 1.0901576411624814e-62
v57 4.475635492703422e-81
v58 0.0
v59 0.0
v60 0.0
v61 0.0
v62 0.0
v63 0.0
v64 0.0
v65 0.0
cr43 0.0
cr44 1.15410163126468e-97
cr45 1.5581330848353147e-91
cr46 1.5565869550964286e-56
cr47 4.4394100218359e-56
cr48 1.3196490988717855e-16
cr49 2.545810184100906e-18
cr50 1.3559538083852826e-10
cr51 6.270669637635715e-11
cr52 1.281597930251648e-07
cr53 2.9435367166789036e-08
cr54 1.466647033343254e-07
cr55 4.762661231787758e-14
cr56 1.1385225511733537e-16
cr57 7.908383040076041e-30
cr58 1.4109478439362616e-42
cr59 1.7245188694857835e-61
cr60 1.3124870848039432e-79
cr61 3.259628150310943e-98
cr62 0.0
cr63 0.0
cr64 0.0
cr65 0.0
cr66 0.0
cr67 0.0
cr68 0.0
mn45 0.0
mn46 0.0
mn47 1.8319325856229068e-84
mn48 9.327255482673079e-79
mn49 2.834248195672498e-38
mn50 2.1235162717991844e-39
mn51 3.286973969805782e-16
mn52 6.344208969006219e-15
mn53 7.707167117539158e-11
mn54 7.190425826912869e-11
mn55 1.5502646258264687e-07
mn56 1.6154368002023773e-11
mn57 1.3808204511123667e-18
mn58 1.1722179406482995e-35
mn59 6.234647071437152e-44
mn60 6.515985658889559e-41
mn61 8.31771934860143e-59
mn62 4.063875236972201e-77
mn63 2.165860312958191e-95
mn64 0.0
mn65 0.0
mn66 0.0
mn67 0.0
mn68 0.0
mn69 0.0
mn70 0.0
mn71 0.0
fe47 0.0
fe48 0.0
fe49 0.0
fe50 5.190282640872667e-65
fe51 3.399731018643051e-61
fe52 8.12438576029656e-20
fe53 2.7143426360959365e-22
fe54 7.116694786517602e-08
fe55 3.928753766422093e-08
fe56 6.515698987210394e-06
fe57 3.265809654148277e-06
fe58 6.981625523173028e-06
fe59 1.192837267879676e-06
fe60 4.601258334637237e-07
fe61 8.302298446862822e-13
fe62 3.578454303023674e-20
fe63 1.5580043090130043e-37
fe64 9.691308077723247e-55
fe65 1.0000017179658602e-73
fe66 4.3958737888706455e-86
fe67 5.28279088929605e-93
fe68 0.0
fe69 0.0
fe70 0.0
fe71 0.0
fe72 0.0
fe73 0.0
fe74 0.0
co48 0.0
co49 0.0
co50 0.0
co51 5.215832177968911e-92
co52 2.2981687008234633e-84
co53 8.640999080611199e-42
co54 1.4927843643352635e-44
co55 1.3539708280392504e-12
co56 8.697741568582106e-13
co57 1.707287250660257e-09
co58 1.2579526831904411e-09
co59 1.432638689425966e-06
co60 2.7408999246886785e-07
co61 2.3947392257735252e-09
co62 3.984915854851904e-15
co63 1.0681061062738891e-24
co64 3.3812707471855843e-43
co65 6.924908916774626e-60
co66 2.1639361859327277e-78
co67 1.5795836267922071e-86
co68 0.0
co69 0.0
co70 0.0
co71 0.0
co72 0.0
co73 0.0
co74 0.0
co75 0.0
co76 0.0
co77 0.0
ni51 0.0
ni52 0.0
ni53 0.0
ni54 1.6001205098234303e-64
ni55 9.008212743318175e-67
ni56 9.402153935569571e-17
ni57 4.767694238396264e-18
ni58 1.313022220812866e-08
ni59 8.830772257403507e-09
ni60 9.426322569071744e-07
ni61 9.753192861923918e-07
ni62 9.947800644113894e-07
ni63 1.128563670748901e-06
ni64 1.035577075601038e-06
ni65 3.754315597022502e-09
ni66 1.14217969604597e-09
ni67 1.9501376940432422e-24
ni68 2.002285372658892e-27
ni69 1.4768662347354726e-38
ni70 6.668836550674063e-49
ni71 5.861004825998333e-64
ni72 1.0472234838184943e-75
ni73 8.273316903237356e-90
ni74 2.1769306688694476e-96
ni75 0.0
ni76 0.0
ni77 0.0
ni78 0.0
ni79 0.0
cu52 0.0
cu53 0.0
cu54 0.0
cu55 2.407005202614469e-95
cu56 7.201567082651242e-91
cu57 9.032208233889142e-40
cu58 2.4712450719727057e-39
cu59 1.3019489764632778e-20
cu60 1.6416515673954048e-16
cu61 2.30248906174979e-12
cu62 5.6642262061525126e-14
cu63 2.2984630490915393e-08
cu64 3.4314676740339106e-09
cu65 2.16544543330781e-07
cu66 3.5396203286874225e-12
cu67 1.292488352689409e-09
cu68 1.546342798194084e-21
cu69 3.2205155325645793e-19
cu70 4.133561050179362e-36
cu71 2.7098086522942243e-35
cu72 1.2686157266471746e-47
cu73 5.287127484369753e-57
cu74 5.750595811539551e-72
cu75 1.9190734653707882e-80
cu76 7.699456978358365e-94
cu77 0.0
cu78 0.0
cu79 0.0
cu80 0.0
cu81 0.0
cu82 0.0
zn55 0.0
zn56 0.0
zn57 0.0
zn58 2.982078930506003e-63
zn59 2.0633453535574674e-62
zn60 5.753198173245613e-26
zn61 6.268965571977452e-27
zn62 8.350907744336255e-17
zn63 5.050234608205236e-19
zn64 1.5611613067237128e-08
zn65 4.751582195410537e-09
zn66 1.6340911214419615e-07
zn67 5.58476175484136e-08
zn68 1.7391153677372792e-07
zn69 8.74386074869375e-11
zn70 4.9706545622978466e-09
zn71 8.4149716148121e-15
zn72 4.051653903784067e-12
zn73 6.571443050651064e-26
zn74 1.952882932322668e-24
zn75 4.865891605005025e-40
zn76 9.94849665564844e-50
zn77 5.535966167580306e-66
zn78 1.8821496517825814e-76
zn79 1.6038468207866378e-87
zn80 0.0
zn81 0.0
zn82 0.0
zn83 0.0
zn84 0.0
ga57 0.0
ga58 0.0
ga59 4.808681552996914e-99
ga60 7.200174012004882e-91
ga61 1.872632479952077e-52
ga62 1.470166565554861e-50
ga63 3.0243979587628385e-33
ga64 6.194433818658773e-28
ga65 4.376695435227318e-16
ga66 2.8885058502030636e-14
ga67 1.1047685445464918e-11
ga68 1.1811067899984117e-13
ga69 3.140328548951764e-08
ga70 1.9372588016202114e-11
ga71 7.701474859795885e-09
ga72 1.4991414415161957e-09
ga73 3.517668079332489e-10
ga74 6.119876531524835e-16
ga75 1.1336081064173505e-19
ga76 2.113643570026029e-28
ga77 3.6961199530664682e-37
ga78 8.583370141857788e-50
ga79 9.93394472837309e-61
ga80 1.7051383911671074e-72
ga81 1.7370068236928153e-81
ga82 5.420128119765087e-98
ga83 0.0
ga84 0.0
ga85 0.0
ga86 0.0
ge59 0.0
ge60 0.0
ge61 0.0
ge62 3.501554331560791e-75
ge63 4.171266409988738e-74
ge64 6.337236752693004e-40
ge65 1.3418432362238274e-40
ge66 8.987369029904267e-21
ge67 1.941878361316108e-21
ge68 6.594134060424616e-16
ge69 9.556634497161026e-16
ge70 2.409447261234015e-08
ge71 7.877710236788358e-09
ge72 2.4829734988453958e-08
ge73 1.4687358922700256e-08
ge74 3.0328021246169535e-08
ge75 1.3054962770038983e-10
ge76 1.751722756690494e-09
ge77 5.818103520193135e-13
ge78 1.212211207795136e-13
ge79 7.157048027686819e-28
ge80 1.4337706816716885e-30
ge81 3.006169326820098e-44
ge82 3.839262949522004e-54
ge83 3.066516574599855e-71
ge84 1.8259517606313635e-86
ge85 0.0
ge86 0.0
ge87 0.0
ge88 0.0
ge89 0.0
as61 0.0
as62 0.0
as63 0.0
as64 0.0
as65 1.1712211008913818e-68
as66 2.210185253186937e-65
as67 1.986839386997071e-37
as68 7.343728725127278e-31
as69 4.711874956864697e-24
as70 1.3492733804947175e-22
as71 2.829732773735254e-13
as72 1.0061210077786498e-13
as73 2.0353328642934427e-12
as74 9.273305627122748e-13
as75 6.299454101831274e-09
as76 2.637866604841183e-09
as77 2.254318882244598e-09
as78 1.3680135580987757e-11
as79 1.2637385017387652e-14
as80 1.0070370808048078e-28
as81 7.871167690937522e-28
as82 6.915894870195144e-35
as83 5.847617975493149e-41
as84 2.409577589385296e-58
as85 3.569926576915206e-70
as86 2.3336099756911416e-85
as87 0.0
as88 0.0
as89 0.0
as90 0.0
as91 0.0
se64 0.0
se65 0.0
se66 6.187356156537157e-94
se67 1.6372437998443865e-90
se68 3.773267665588927e-47
se69 5.818614478782206e-44
se70 4.2500824924895155e-30
se71 1.385199269679925e-30
se72 7.215622089656649e-18
se73 7.694900540037331e-19
se74 1.8212048055261492e-14
se75 5.3955155849076336e-14
se76 3.3652953796101775e-09
se77 4.141470506339431e-09
se78 9.939879662402381e-09
se79 6.3329660495231e-09
se80 1.636404836507488e-08
se81 3.478308221618379e-12
se82 6.069869524215599e-10
se83 2.3762899506158422e-14
se84 2.4519172142785493e-19
se85 6.240753090565005e-30
se86 3.320290335773252e-39
se87 2.236699894719638e-53
se88 4.832600552158445e-71
se89 1.9443214943594059e-90
se90 0.0
se91 0.0
se92 0.0
se93 0.0
br66 0.0
br67 0.0
br68 0.0
br69 1.3738222642921118e-78
br70 2.311531039256042e-69
br71 1.447722117925827e-48
br72 2.1411386924004233e-41
br73 1.1489682474768394e-28
br74 5.567321788846967e-26
br75 3.147929606120561e-21
br76 1.193453176139902e-19
br77 4.7285413526024195e-14
br78 2.2021351300810298e-17
br79 2.398997396132414e-13
br80 5.359120932653256e-16
br81 3.1553799007561133e-09
br82 9.265880201757174e-10
br83 1.2911159613506417e-10
br84 1.0479464947715961e-13
br85 3.812704567279783e-18
br86 1.9422164024344491e-25
br87 1.6260304658182144e-29
br88 5.6999170961723845e-40
br89 2.2748706508825136e-54
br90 4.761590638430616e-69
br91 2.2713209250396345e-86
br92 0.0
br93 0.0
br94 0.0
br95 0.0
kr69 0.0
kr70 0.0
kr71 1.258478569241664e-94
kr72 2.6497662718532074e-61
kr73 4.968621662461305e-53
kr74 4.179290657001075e-34
kr75 2.418783277046081e-34
kr76 1.9775749199050718e-25
kr77 8.19712873978245e-26
kr78 7.391305645891728e-19
kr79 3.0042161843979857e-19
kr80 2.4026217312266854e-13
kr81 1.0997054774672889e-13
kr82 2.5115372173325913e-09
kr83 3.3064252488832254e-09
kr84 1.0438166364286011e-08
kr85 5.707714978314305e-09
kr86 7.175107693897268e-09
kr87 6.94937077971938e-13
kr88 1.1435539243077904e-13
kr89 1.5917335950816337e-20
kr90 4.7585381336798e-30
kr91 1.3422038905593187e-43
kr92 3.299968527606395e-61
kr93 4.0642202282371226e-76
kr94 1.0174062287756415e-94
kr95 0.0
kr96 0.0
kr97 0.0
rb72 0.0
rb73 2.79922205220948e-94
rb74 9.680450691950659e-79
rb75 1.344995009272234e-53
rb76 2.485367560693599e-46
rb77 5.101786591123399e-36
rb78 3.976490378981007e-34
rb79 9.37794901724003e-27
rb80 2.8591578310708186e-33
rb81 1.8414191001089362e-19
rb82 1.2917394592023085e-23
rb83 1.5880592092416262e-14
rb84 9.949455311380857e-15
rb85 2.0198269840617704e-10
rb86 1.8627737959223285e-10
rb87 2.1866378505487007e-09
rb88 1.3470101392800424e-13
rb89 4.353910768929662e-16
rb90 2.3249251415979244e-20
rb91 1.3618863500650536e-26
rb92 3.5366616032516786e-43
rb93 4.022241425278897e-49
rb94 2.518257011973235e-63
rb95 9.659048720587264e-81
rb96 1.1593734251740825e-99
rb97 0.0
rb98 0.0
rb99 0.0
sr75 0.0
sr76 1.9536979125229712e-77
sr77 1.9489870593996037e-67
sr78 1.9399176446381195e-41
sr79 1.9182471789486492e-38
sr80 2.9655356801392305e-31
sr81 2.3240233410381646e-30
sr82 1.136921831732992e-24
sr83 5.2497054922600535e-23
sr84 9.81546788529279e-18
sr85 1.0306815536101644e-16
sr86 2.430007725368534e-10
sr87 3.641526496210681e-10
sr88 6.211247506189416e-09
sr89 9.067960626566646e-10
sr90 2.5518875504772637e-10
sr91 3.3521797787512227e-12
sr92 8.623787613594671e-14
sr93 7.284361733888654e-19
sr94 9.944367280263804e-26
sr95 3.6090148103295325e-36
sr96 4.2001051975079886e-54
sr97 4.9034189194906794e-73
sr98 1.0233803858646295e-90
sr99 0.0
sr100 0.0
sr101 0.0
y77 0.0
y78 8.311602468963274e-94
y79 4.004868990045631e-64
y80 8.431987921093432e-50
y81 6.721370665452951e-42
y82 6.796924730813095e-49
y83 2.8294382191929845e-33
y84 5.167132613108855e-38
y85 1.4084426555706667e-24
y86 4.272819909470042e-23
y87 2.6157646612421475e-16
y88 6.890094050054355e-16
y89 5.560704637010771e-10
y90 3.170381984789877e-11
y91 8.899746081346191e-11
y92 3.929482806726624e-12
y93 7.033861849260095e-12
y94 4.760189127494716e-15
y95 1.9214402354058077e-17
y96 5.723373916704623e-34
y97 1.589655164695939e-47
y98 1.7287638390007674e-65
y99 8.241125282074374e-75
y100 2.579797676022481e-90
y101 0.0
y102 0.0
y103 0.0
zr80 2.791274872758095e-91
zr81 6.268523898765164e-75
zr82 9.337111272453391e-65
zr83 6.405903294596464e-44
zr84 1.7404252398573786e-35
zr85 1.0854640661672221e-34
zr86 2.1259381095985079e-29
zr87 9.583595702159598e-29
zr88 4.843381681188541e-22
zr89 6.164470747384955e-20
zr90 2.7996723087706677e-10
zr91 1.5084865864029713e-10
zr92 3.0650918822934914e-10
zr93 1.3995315631137987e-10
zr94 2.45114603570237e-10
zr95 7.332252090608838e-11
zr96 1.179930844479854e-10
zr97 1.9885394551884136e-13
zr98 1.734662137929301e-25
zr99 6.0455789944836725e-43
zr100 1.1266245613517612e-57
zr101 2.7631225408494477e-72
zr102 5.42748747819229e-89
zr103 0.0
zr104 0.0
zr105 0.0
nb83 2.3416362312134477e-91
nb84 4.232786848905849e-60
nb85 3.0551081972863093e-49
nb86 2.8476739962871837e-43
nb87 1.2197447361005733e-37
nb88 3.77182529529846e-36
nb89 7.403056307928312e-30
nb90 1.4357929972800284e-26
nb91 3.4967338820322547e-16
nb92 2.914493781792149e-16
nb93 1.559211737106554e-15
nb94 1.476227377410455e-15
nb95 8.942041379423004e-13
nb96 8.239004509865272e-13
nb97 3.85591634609763e-14
nb98 3.3921763071242904e-26
nb99 2.9204503862802754e-32
nb100 8.870124694324642e-49
nb101 2.297768406560254e-45
nb102 1.351240807310586e-61
nb103 9.58780341300339e-70
nb104 7.074719394254789e-87
nb105 0.0
nb106 0.0
nb107 0.0
mo85 7.319154555162652e-88
mo86 8.134650387526389e-76
mo87 1.2610791062033044e-60
mo88 7.524277219593626e-41
mo89 4.88395613378726e-39
mo90 1.5886158044003472e-32
mo91 7.40004952098243e-31
mo92 1.5543826144283996e-14
mo93 4.422781480700726e-15
mo94 4.103213046869372e-14
mo95 5.443001984900128e-13
mo96 3.957569417210139e-12
mo97 4.8906975076952684e-12
mo98 2.434203372640663e-11
mo99 1.45399145101661e-12
mo100 1.486601963783525e-11
mo101 2.5376321104482424e-15
mo102 8.862359678548095e-18
mo103 3.8264982582778445e-25
mo104 1.379967395874822e-28
mo105 6.838445231416359e-46
mo106 2.2786386745194196e-63
mo107 5.232028043421476e-82
mo108 0.0
mo109 0.0
tc88 4.366022849760008e-88
tc89 4.740654132245155e-67
tc90 3.6342212004928986e-57
tc91 4.6327926234583726e-42
tc92 1.6366868061444848e-38
tc93 4.970643796314652e-22
tc94 5.2363657021889995e-22
tc95 1.377102710306244e-20
tc96 9.267807236228175e-20
tc97 1.359547058053187e-18
tc98 1.0443313645899357e-18
tc99 9.685147180146203e-13
tc100 6.404885099381272e-27
tc101 4.665734582646128e-15
tc102 6.9558287787854e-20
tc103 1.3538812804147032e-24
tc104 1.6187098428216294e-22
tc105 1.0850825121599997e-24
tc106 7.916558024283628e-34
tc107 3.0230986491590093e-39
tc108 2.336152527853773e-53
tc109 2.1191345527357917e-70
tc110 1.6932987173759352e-88
ru91 2.069638651778923e-84
ru92 1.0565300164973727e-66
ru93 6.87416978947725e-40
ru94 6.315480104949119e-29
ru95 3.652601975176892e-28
ru96 1.2409469000956897e-20
ru97 5.341176963910684e-21
ru98 6.057333618691422e-19
ru99 1.242120786503847e-16
ru100 4.462487967965201e-12
ru101 2.0386235712211882e-12
ru102 1.0734307040580164e-11
ru103 5.626975092309313e-12
ru104 1.6539755468231702e-11
ru105 5.67370961416209e-13
ru106 6.443434682230537e-12
ru107 2.111614988665638e-17
ru108 4.141422093098868e-19
ru109 2.3367418583065634e-28
ru110 2.5813221657813e-36
ru111 4.783517105691264e-55
ru112 1.2586467700905068e-73
rh93 1.2113596001412333e-94
rh94 7.321868929201632e-52
rh95 1.2912351440053004e-38
rh96 6.857708630879325e-37
rh97 4.894873281586715e-30
rh98 1.310793094303566e-30
rh99 7.972300479478412e-26
rh100 4.831577670440881e-24
rh101 2.359157153177295e-19
rh102 1.4561820618459463e-19
rh103 1.1165323122292648e-13
rh104 7.242503028409143e-23
rh105 1.3226633595329387e-12
rh106 7.839938380614985e-18
rh107 2.3877954721383368e-15
rh108 2.715687075104993e-20
rh109 8.014399852749692e-24
rh110 7.26424545654446e-37
rh111 6.903540689187015e-40
rh112 1.683392923375275e-53
rh113 1.6005259504026194e-59
rh114 1.517777568861976e-68
pd96 2.113678646038748e-40
pd97 1.9738562387539953e-36
pd98 3.967487149367848e-30
pd99 6.064268997983696e-29
pd100 2.67848614428045e-26
pd101 6.980524005169526e-28
pd102 8.810469092170996e-23
pd103 2.2652036295438675e-21
pd104 5.573790304433053e-13
pd105 4.640074502897724e-13
pd106 4.618304427166461e-12
pd107 1.5658147745176922e-12
pd108 1.0647127709194002e-11
pd109 2.1481530062881026e-12
pd110 9.70172540174646e-12
pd111 1.0467012586699281e-14
pd112 2.570118737473071e-13
pd113 7.27794872572577e-21
pd114 4.398974896725748e-22
pd115 7.813686566824676e-31
ag98 1.0693551537929218e-48
ag99 4.684214949006551e-41
ag100 2.699640104998883e-39
ag101 6.906253188871144e-35
ag102 1.0113807186396193e-32
ag103 4.8754277167342146e-30
ag104 2.7508899671329572e-28
ag105 7.236848126950473e-21
ag106 1.3780168916099196e-22
ag107 1.2141822265006291e-18
ag108 7.351398702108973e-24
ag109 1.2075237033507112e-12
ag110 1.4898821895541516e-21
ag111 8.736612961561894e-13
ag112 1.1013588099498558e-13
ag113 2.5099682478242695e-17
ag114 1.4392091554406067e-23
ag115 8.252215706839898e-29
ag116 4.014485525779014e-34
cd101 4.235433632282999e-41
cd102 7.3110734254656e-33
cd103 2.201249286882148e-31
cd104 2.2344892874148472e-27
cd105 1.6100351673263245e-28
cd106 1.9452151604787882e-23
cd107 3.162249490559965e-24
cd108 9.200745642538004e-18
cd109 1.906082153726048e-18
cd110 2.3250136209307436e-12
cd111 7.312947604001946e-13
cd112 5.104123787638877e-12
cd113 2.1320499163244986e-12
cd114 1.7203468077556068e-11
cd115 3.2055492561616205e-12
cd116 2.4847153622230555e-11
cd117 1.6076854304145132e-13
in102 7.650410041397473e-56
in103 1.872567449619633e-45
in104 6.302414462036736e-43
in105 8.273190404785096e-38
in106 4.8765372167895875e-37
in107 7.315334998912897e-33
in108 1.9149375221689995e-30
in109 6.48299296704527e-27
in110 2.232779513057943e-26
in111 7.811018661082754e-21
in112 4.2699118952347166e-23
in113 3.284183784951854e-16
in114 2.1894348668112012e-23
in115 4.972364497677167e-13
in116 4.3213101011727225e-25
in117 4.917149057838605e-14
in118 6.389247181147068e-18
