n 4.1363857509063623e-44
h1 2.1564187194751865e-16
he4 0.24636796273566308
h2 5.240561021601933e-39
h3 4.840098029831616e-55
he3 2.6293399835657868e-31
li6 2.2224101685965243e-26
li7 1.2824423853450887e-25
li8 2.4678863534006586e-44
li9 7.759269282820869e-85
be7 3.838229938771673e-36
be9 3.2776098528754717e-29
be10 9.541136029383738e-23
be11 3.0983131596440415e-62
be12 0.0
b8 9.867723786593963e-62
b10 5.444348284913288e-24
b11 3.0973743832958765e-26
b12 2.3481246190379313e-68
b13 0.0
b14 0.0
c10 0.0
c11 4.395825695818738e-49
c12 1.4810344744017757e-05
c13 4.206635817837651e-06
c14 3.71452545921397e-15
c15 6.846667198625791e-57
c16 2.7378668187358816e-99
c17 0.0
c18 0.0
n11 0.0
n12 3.2834883646303955e-81
n13 6.700983590537697e-32
n14 0.0006470617413857609
n15 1.9590166402292143e-08
n16 5.508568164899997e-49
n17 1.7443035186004922e-89
n18 0.0
n19 0.0
n20 0.0
n21 0.0
o13 0.0
o14 4.120831568061566e-62
o15 4.020536854646596e-33
o16 1.174970669132543e-05
o17 1.3070393417439765e-08
o18 2.775242466377798e-11
o19 4.415214821609362e-51
o20 3.6834199206702277e-91
o21 0.0
o22 0.0
f16 0.0
f17 4.995998693616122e-37
f18 6.669880288493285e-38
f19 1.858172255222744e-12
f20 3.0545045386677166e-91
f21 0.0
f22 0.0
f23 0.0
f24 0.0
f25 0.0
f26 0.0
ne16 0.0
ne17 0.0
ne18 1.1442691798690023e-72
ne19 1.0544399192838471e-69
ne20 5.692474075795025e-05
ne21 3.0974463651145427e-07
ne22 1.3692015737231839e-07
ne23 2.826695445250335e-45
ne24 9.873269308655319e-81
ne25 0.0
ne26 0.0
ne27 0.0
ne28 0.0
ne29 0.0
na19 0.0
na20 0.0
na21 6.884365763900292e-40
na22 1.2139715938354324e-35
na23 7.235246043148423e-06
na24 1.1258480014336982e-38
na25 2.1293133151330645e-74
na26 0.0
na27 0.0
na28 0.0
na29 0.0
na30 0.0
na31 0.0
na32 0.0
mg20 0.0
mg21 0.0
mg22 7.937632079605787e-79
mg23 3.4088022597800485e-68
mg24 2.3548959495724127e-05
mg25 6.030604144672186e-08
mg26 5.234699996802024e-06
mg27 5.2772892548893815e-42
mg28 8.02593668985838e-75
mg29 0.0
mg30 0.0
mg31 0.0
mg32 0.0
mg33 0.0
mg34 0.0
mg35 0.0
al22 0.0
al23 0.0
al24 0.0
al25 1.79487509389322e-45
al26 5.3831334968408e-07
al27 2.8929103177799635e-06
al28 1.8357113899414107e-41
al29 1.1221128051876824e-75
al30 0.0
al31 0.0
al32 0.0
al33 0.0
al34 0.0
al35 0.0
al36 0.0
al37 0.0
al38 0.0
si23 0.0
si24 0.0
si25 0.0
si26 1.7456528875872913e-85
si27 1.0129837155189753e-43
si28 2.6964490948671434e-05
si29 1.3692671752971298e-06
si30 9.02507571359211e-07
si31 6.9545530468416575e-40
si32 4.768538435939303e-60
si33 2.050902712549533e-97
si34 0.0
si35 0.0
si36 0.0
si37 0.0
si38 0.0
si39 0.0
si40 0.0
si41 0.0
p25 0.0
p26 0.0
p27 0.0
p28 8.908489213763396e-83
p29 1.2718319476466995e-47
p30 9.381466634048891e-49
p31 2.4573910089121116e-07
p32 5.735504631880538e-39
p33 3.3817685773426626e-40
p34 1.671876230358933e-76
p35 3.5035019806753804e-89
p36 0.0
p37 0.0
p38 0.0
p39 0.0
p40 0.0
p41 0.0
p42 0.0
p43 0.0
p44 0.0
s27 0.0
s28 0.0
s29 0.0
s30 7.110111194495359e-94
s31 2.2746670518472143e-94
s32 1.2374683593750001e-05
s33 9.782115050207711e-08
s34 5.470586508147132e-07
s35 1.4241722805984766e-38
s36 2.2223137694444444e-09
s37 1.582897276867098e-45
s38 3.235362838633652e-79
s39 0.0
s40 0.0
s41 0.0
s42 0.0
s43 0.0
s44 0.0
s45 0.0
s46 0.0
s47 0.0
cl29 0.0
cl30 0.0
cl31 0.0
cl32 0.0
cl33 2.723483523296992e-49
cl34 1.305185236899472e-50
cl35 1.1599475449228502e-07
cl36 2.738924064258776e-16
cl37 3.711530986297897e-08
cl38 3.161172281279938e-42
cl39 1.6067795725381637e-75
cl40 0.0
cl41 0.0
cl42 0.0
cl43 0.0
cl44 0.0
cl45 0.0
cl46 0.0
cl47 0.0
cl48 0.0
cl49 0.0
cl50 0.0
ar31 0.0
ar32 0.0
ar33 0.0
ar34 5.546068977966612e-99
ar35 0.0
ar36 2.5360142964527706e-06
ar37 4.290660530908493e-37
ar38 4.605179526315789e-07
ar39 4.9109371537091683e-32
ar40 7.02671183897913e-10
ar41 1.080005423883025e-43
ar42 8.970459263340126e-73
ar43 0.0
ar44 0.0
ar45 0.0
ar46 0.0
ar47 0.0
ar48 0.0
ar49 0.0
ar50 0.0
ar51 0.0
ar52 0.0
k32 0.0
k33 0.0
k34 0.0
k35 0.0
k36 0.0
k37 1.3753841508552536e-53
k38 4.16365779468096e-88
k39 1.0076923871794872e-07
k40 1.6134981155584779e-10
k41 7.318358429293465e-09
k42 5.01186173767438e-41
k43 1.814643681222044e-72
k44 0.0
k45 0.0
k46 0.0
k47 0.0
k48 0.0
k49 0.0
k50 0.0
k51 0.0
k52 0.0
k53 0.0
k54 0.0
k55 0.0
ca35 0.0
ca36 0.0
ca37 0.0
ca38 0.0
ca39 0.0
ca40 1.782441345e-06
ca41 2.34795126926569e-15
ca42 1.1904734316119106e-08
ca43 2.4884679470464544e-09
ca44 3.840808522727273e-08
ca45 2.8778720962053725e-38
ca46 7.304163413043479e-11
ca47 1.0795396742838358e-42
ca48 3.458302958333333e-09
ca49 2.025311218915822e-44
ca50 6.908313404960008e-81
ca51 0.0
ca52 0.0
ca53 0.0
ca54 0.0
ca55 0.0
ca56 0.0
ca57 0.0
sc36 0.0
sc37 0.0
sc38 0.0
sc39 0.0
sc40 0.0
sc41 3.02188171470439e-54
sc42 3.5495988044768057e-91
sc43 2.7543419929390903e-49
sc44 7.240513548873565e-80
sc45 1.001107761951188e-09
sc46 5.466343421342023e-39
sc47 9.280936668841737e-43
sc48 4.667722077165373e-74
sc49 1.1436720640127512e-43
sc50 7.482901273994924e-79
sc51 0.0
sc52 0.0
sc53 0.0
sc54 0.0
sc55 0.0
sc56 0.0
sc57 0.0
sc58 0.0
sc59 0.0
ti39 0.0
ti40 0.0
ti41 0.0
ti42 0.0
ti43 0.0
ti44 0.0
ti45 0.0
ti46 5.847526130434783e-09
ti47 5.254129717510586e-09
ti48 5.228682354166666e-08
ti49 3.842671427326884e-09
ti50 3.68034774e-09
ti51 4.468902497611297e-44
ti52 3.7514855299302324e-79
ti53 0.0
ti54 0.0
ti55 0.0
ti56 0.0
ti57 0.0
ti58 0.0
ti59 0.0
ti60 0.0
ti61 0.0
ti62 0.0
v41 0.0
v42 0.0
v43 0.0
v44 0.0
v45 0.0
v46 0.0
v47 0.0
v48 7.119426294384239e-48
v49 6.426791654511891e-45
v50 2.0994523344599508e-11
v51 8.41330024615696e-09
v52 1.1275122427869321e-42
v53 7.405219636233236e-77
v54 0.0
v55 0.0
v56 0.0
v57 0.0
v58 0.0
v59 0.0
v60 0.0
v61 0.0
v62 0.0
v63 0.0
v64 0.0
v65 0.0
cr43 0.0
cr44 0.0
cr45 0.0
cr46 0.0
cr47 0.0
cr48 0.0
cr49 0.0
cr50 1.6336785692299755e-08
cr51 2.2672765391131838e-38
cr52 3.153741288461538e-07
cr53 3.566051603773585e-08
cr54 8.898801240482304e-09
cr55 8.231328151269708e-44
cr56 8.189424912350567e-78
cr57 0.0
cr58 0.0
cr59 0.0
cr60 0.0
cr61 0.0
cr62 0.0
cr63 0.0
cr64 0.0
cr65 0.0
cr66 0.0
cr67 0.0
cr68 0.0
mn45 0.0
mn46 0.0
mn47 0.0
mn48 0.0
mn49 0.0
mn50 0.0
mn51 0.0
mn52 0.0
mn53 1.1050463812316426e-22
mn54 2.616551415780591e-51
mn55 2.6737974646182717e-07
mn56 9.384161982386767e-40
mn57 1.1183448853966965e-73
mn58 0.0
mn59 0.0
mn60 0.0
mn61 0.0
mn62 0.0
mn63 0.0
mn64 0.0
mn65 0.0
mn66 0.0
mn67 0.0
mn68 0.0
mn69 0.0
mn70 0.0
mn71 0.0
fe47 0.0
fe48 0.0
fe49 0.0
fe50 0.0
fe51 0.0
fe52 0.0
fe53 0.0
fe54 1.4313164577203569e-06
fe55 1.4915873650705447e-35
fe56 2.2499013214285717e-05
fe57 5.200918454000605e-07
fe58 6.908725400035588e-08
fe59 2.307940271537739e-38
fe60 6.258372302540042e-20
fe61 1.0148257512012142e-54
fe62 1.0582376338029601e-89
fe63 0.0
fe64 0.0
fe65 0.0
fe66 0.0
fe67 0.0
fe68 0.0
fe69 0.0
fe70 0.0
fe71 0.0
fe72 0.0
fe73 0.0
fe74 0.0
co48 0.0
co49 0.0
co50 0.0
co51 0.0
co52 0.0
co53 0.0
co54 0.0
co55 0.0
co56 0.0
co57 0.0
co58 1.4486294893908424e-45
co59 6.810516197661268e-08
co60 2.200554554961409e-25
co61 1.4402595987918923e-53
co62 4.367927072104046e-88
co63 5.489853552775935e-97
co64 0.0
co65 0.0
co66 0.0
co67 0.0
co68 0.0
co69 0.0
co70 0.0
co71 0.0
co72 0.0
co73 0.0
co74 0.0
co75 0.0
co76 0.0
co77 0.0
ni51 0.0
ni52 0.0
ni53 0.0
ni54 0.0
ni55 0.0
ni56 0.0
ni57 0.0
ni58 9.515705744292976e-07
ni59 6.453831388286228e-15
ni60 3.6663709499999995e-07
ni61 1.596753930701898e-08
ni62 5.0806117258064515e-08
ni63 1.8823420593387788e-35
ni64 1.2924232943515818e-08
ni65 1.0329121027447912e-41
ni66 5.0182085735717285e-73
ni67 0.0
ni68 2.0795921003682686e-96
ni69 0.0
ni70 0.0
ni71 0.0
ni72 0.0
ni73 0.0
ni74 0.0
ni75 0.0
ni76 0.0
ni77 0.0
ni78 0.0
ni79 0.0
cu52 0.0
cu53 0.0
cu54 0.0
cu55 0.0
cu56 0.0
cu57 0.0
cu58 0.0
cu59 0.0
cu60 0.0
cu61 4.1625370756240424e-63
cu62 1.226596693637132e-96
cu63 1.0668634731873174e-08
cu64 4.372452998066888e-40
cu65 4.757335572554149e-09
cu66 5.4069061916004884e-43
cu67 8.585216504792877e-59
cu68 9.097009533207382e-66
cu69 4.944767574481887e-87
cu70 0.0
cu71 0.0
cu72 0.0
cu73 0.0
cu74 0.0
cu75 0.0
cu76 0.0
cu77 0.0
cu78 0.0
cu79 0.0
cu80 0.0
cu81 0.0
cu82 0.0
zn55 0.0
zn56 0.0
zn57 0.0
zn58 0.0
zn59 0.0
zn60 0.0
zn61 0.0
zn62 0.0
zn63 0.0
zn64 1.7497776050468364e-08
zn65 1.3035019878211864e-37
zn66 9.999491450348448e-09
zn67 1.4719764043865928e-09
zn68 6.7210504011323885e-09
zn69 4.0030862851552696e-42
zn70 2.228397867471393e-10
zn71 6.75940360483609e-45
zn72 5.76503567189229e-76
zn73 0.0
zn74 0.0
zn75 0.0
zn76 0.0
zn77 0.0
zn78 0.0
zn79 0.0
zn80 0.0
zn81 0.0
zn82 0.0
zn83 0.0
zn84 0.0
ga57 0.0
ga58 0.0
ga59 0.0
ga60 0.0
ga61 0.0
ga62 0.0
ga63 0.0
ga64 0.0
ga65 0.0
ga66 0.0
ga67 0.0
ga68 0.0
ga69 6.319840490304454e-10
ga70 1.0389385164620424e-42
ga71 4.1976148630563724e-10
ga72 2.576621238045278e-41
ga73 1.0894476980715382e-72
ga74 0.0
ga75 0.0
ga76 0.0
ga77 0.0
ga78 0.0
ga79 0.0
ga80 0.0
ga81 0.0
ga82 0.0
ga83 0.0
ga84 0.0
ga85 0.0
ga86 0.0
ge59 0.0
ge60 0.0
ge61 0.0
ge62 0.0
ge63 0.0
ge64 0.0
ge65 0.0
ge66 0.0
ge67 0.0
ge68 0.0
ge69 0.0
ge70 7.486887883300107e-10
ge71 5.20915337358304e-40
ge72 9.76336773611111e-10
ge73 2.7257785578492814e-10
ge74 1.2662395584824357e-09
ge75 3.200080967382761e-42
ge76 2.631227785828915e-10
ge77 3.827419059458651e-42
ge78 1.7767959446534123e-74
ge79 0.0
ge80 0.0
ge81 0.0
ge82 0.0
ge83 0.0
ge84 0.0
ge85 0.0
ge86 0.0
ge87 0.0
ge88 0.0
ge89 0.0
as61 0.0
as62 0.0
as63 0.0
as64 0.0
as65 0.0
as66 0.0
as67 0.0
as68 0.0
as69 0.0
as70 0.0
as71 0.0
as72 0.0
as73 0.0
as74 0.0
as75 1.785435775586568e-10
as76 9.794586182400875e-41
as77 9.818717917496931e-42
as78 1.2477832583805855e-73
as79 9.25518645714957e-99
as80 0.0
as81 0.0
as82 0.0
as83 0.0
as84 0.0
as85 0.0
as86 0.0
as87 0.0
as88 0.0
as89 0.0
as90 0.0
as91 0.0
se64 0.0
se65 0.0
se66 0.0
se67 0.0
se68 0.0
se69 0.0
se70 0.0
se71 0.0
se72 0.0
se73 0.0
se74 1.7010417958377047e-11
se75 3.2664320862980152e-40
se76 1.805514844947628e-10
se77 1.4669075028960717e-10
se78 4.5770603461538457e-10
se79 1.4804438578538873e-17
se80 9.548585561149876e-10
se81 5.3093273990458624e-43
se82 1.682856e-10
se83 2.7263071923659266e-44
se84 2.0508198516836284e-78
se85 0.0
se86 0.0
se87 0.0
se88 0.0
se89 0.0
se90 0.0
se91 0.0
se92 0.0
se93 0.0
br66 0.0
br67 0.0
br68 0.0
br69 0.0
br70 0.0
br71 0.0
br72 0.0
br73 0.0
br74 0.0
br75 0.0
br76 0.0
br77 0.0
br78 2.5019422219404004e-83
br79 1.6820355542275985e-10
br80 1.0100655481599119e-42
br81 1.6296280829999694e-10
br82 5.293005054744668e-41
br83 1.4789869361943351e-43
br84 3.156640728256839e-76
br85 0.0
br86 0.0
br87 0.0
br88 0.0
br89 0.0
br90 0.0
br91 0.0
br92 0.0
br93 0.0
br94 0.0
br95 0.0
kr69 0.0
kr70 0.0
kr71 0.0
kr72 0.0
kr73 0.0
kr74 0.0
kr75 0.0
kr76 0.0
kr77 0.0
kr78 5.840414876909845e-12
kr79 9.495708044653502e-43
kr80 3.765713747952096e-11
kr81 1.9645161556973907e-18
kr82 1.8794159525367057e-10
kr83 1.8662498092649712e-10
kr84 9.179063836630982e-10
kr85 2.5453652007070474e-38
kr86 2.7790157441860466e-10
kr87 4.985244365687691e-44
kr88 8.169089573669494e-77
kr89 0.0
kr90 0.0
kr91 0.0
kr92 0.0
kr93 0.0
kr94 0.0
kr95 0.0
kr96 0.0
kr97 0.0
rb72 0.0
rb73 0.0
rb74 0.0
rb75 0.0
rb76 0.0
rb77 0.0
rb78 0.0
rb79 0.0
rb80 0.0
rb81 0.0
rb82 0.0
rb83 0.0
rb84 0.0
rb85 1.3886292973764997e-10
rb86 2.0600523468708785e-40
rb87 5.6996802757434416e-11
rb88 9.58292062823084e-45
rb89 1.4285815856386414e-77
rb90 0.0
rb91 0.0
rb92 0.0
rb93 0.0
rb94 0.0
rb95 0.0
rb96 0.0
rb97 0.0
rb98 0.0
rb99 0.0
sr75 0.0
sr76 0.0
sr77 0.0
sr78 0.0
sr79 0.0
sr80 0.0
sr81 0.0
sr82 0.0
sr83 0.0
sr84 3.8284743413806005e-12
sr85 5.781076295776977e-41
sr86 6.799258651000516e-11
sr87 4.748701221693368e-11
sr88 5.681814965909091e-10
sr89 2.832683271735739e-40
sr90 1.3126574914641806e-53
sr91 2.4617367124074505e-64
sr92 1.5226973379047947e-90
sr93 0.0
sr94 0.0
sr95 0.0
sr96 0.0
sr97 0.0
sr98 0.0
sr99 0.0
sr100 0.0
sr101 0.0
y77 0.0
y78 0.0
y79 0.0
y80 0.0
y81 0.0
y82 0.0
y83 0.0
y84 0.0
y85 0.0
y86 0.0
y87 0.0
y88 0.0
y89 1.348356126707893e-10
y90 2.921282257479854e-42
y91 5.7800305269725226e-55
y92 4.238668652755953e-86
y93 0.0
y94 0.0
y95 0.0
y96 0.0
y97 0.0
y98 0.0
y99 0.0
y100 0.0
y101 0.0
y102 0.0
y103 0.0
zr80 0.0
zr81 0.0
zr82 0.0
zr83 0.0
zr84 0.0
zr85 0.0
zr86 0.0
zr87 0.0
zr88 0.0
zr89 6.710988945760018e-59
zr90 1.699943311111111e-10
zr91 3.725843745395686e-11
zr92 5.6849492204022005e-11
zr93 3.3138649768191558e-18
zr94 5.754669028968059e-11
zr95 2.8532739883298294e-41
zr96 9.270376549197892e-12
zr97 1.536392155468384e-44
zr98 1.738088552363477e-80
zr99 0.0
zr100 0.0
zr101 0.0
zr102 0.0
zr103 0.0
zr104 0.0
zr105 0.0
nb83 0.0
nb84 0.0
nb85 0.0
nb86 0.0
nb87 0.0
nb88 0.0
nb89 0.0
nb90 0.0
nb91 6.881787411462316e-66
nb92 7.750363888139607e-36
nb93 2.20347132439777e-11
nb94 2.278672987800563e-19
nb95 1.382853533357939e-41
nb96 3.5609339147641676e-62
nb97 1.0919793288387743e-45
nb98 2.96159526801045e-81
nb99 0.0
nb100 0.0
nb101 0.0
nb102 0.0
nb103 0.0
nb104 0.0
nb105 0.0
nb106 0.0
nb107 0.0
mo85 0.0
mo86 0.0
mo87 0.0
mo88 0.0
mo89 0.0
mo90 0.0
mo91 0.0
mo92 1.1301648122064948e-11
mo93 4.456002363657631e-22
mo94 7.058092771702653e-12
mo95 1.2100333731157376e-11
mo96 1.2716479774063271e-11
mo97 7.276637393835712e-12
mo98 1.8369693191530864e-11
mo99 1.4319202007349605e-42
mo100 7.336637712299754e-12
mo101 5.795494958453444e-45
mo102 9.029838857954968e-78
mo103 0.0
mo104 0.0
mo105 0.0
mo106 0.0
mo107 0.0
mo108 0.0
mo109 0.0
tc88 0.0
tc89 0.0
tc90 0.0
tc91 0.0
tc92 0.0
tc93 0.0
tc94 0.0
tc95 0.0
tc96 1.6903336969603672e-55
tc97 1.3163935200177796e-16
tc98 1.2992733083734708e-21
tc99 3.1298292942041736e-19
tc100 2.1725359625794727e-53
tc101 5.571329264563229e-45
tc102 1.6973806016451413e-79
tc103 0.0
tc104 0.0
tc105 0.0
tc106 0.0
tc107 0.0
tc108 0.0
tc109 0.0
tc110 0.0
ru91 0.0
ru92 0.0
ru93 0.0
ru94 0.0
ru95 0.0
ru96 3.081015295187346e-12
ru97 5.245293406940193e-43
ru98 1.0401234127142353e-12
ru99 7.0756655524234955e-12
ru100 6.9978577554004935e-12
ru101 9.44981235759213e-12
ru102 1.7570642641080125e-11
ru103 7.769772550159222e-41
ru104 1.0378124150864672e-11
ru105 2.8109260460032354e-43
ru106 1.1372643484678736e-71
ru107 0.0
ru108 3.4703903574050608e-99
ru109 0.0
ru110 0.0
ru111 0.0
ru112 0.0
rh93 0.0
rh94 0.0
rh95 0.0
rh96 0.0
rh97 0.0
rh98 0.0
rh99 0.0
rh100 0.0
rh101 0.0
rh102 0.0
rh103 1.0862165409999762e-11
rh104 7.780221621972106e-46
rh105 1.6359012739629173e-42
rh106 5.29675774331713e-66
rh107 3.160366108297719e-88
rh108 0.0
rh109 0.0
rh110 0.0
rh111 0.0
rh112 0.0
rh113 0.0
rh114 0.0
pd96 0.0
pd97 0.0
pd98 0.0
pd99 0.0
pd100 0.0
pd101 0.0
pd102 4.268914613411378e-13
pd103 1.4851704403479026e-42
pd104 4.7024265584624864e-12
pd105 9.342499451684565e-12
pd106 1.1529847017453992e-11
pd107 1.5923478821338213e-15
pd108 1.1103416707962506e-11
pd109 5.194869340870054e-43
pd110 4.90644549551798e-12
pd111 7.402711144906223e-45
pd112 1.5009731991586733e-75
pd113 0.0
pd114 0.0
pd115 0.0
ag98 0.0
ag99 0.0
ag100 0.0
ag101 0.0
ag102 0.0
ag103 0.0
ag104 0.0
ag105 0.0
ag106 3.651167874144809e-58
ag107 7.442449499427337e-12
ag108 1.7097828180656207e-45
ag109 6.908218932375626e-12
ag110 5.663451054810107e-46
ag111 2.917503921052801e-42
ag112 3.96963994451351e-69
ag113 2.2612524146866392e-91
ag114 0.0
ag115 0.0
ag116 0.0
cd101 0.0
cd102 0.0
cd103 0.0
cd104 0.0
cd105 0.0
cd106 5.787522296216679e-13
cd107 1.3092179480805843e-44
cd108 4.2648410501001276e-13
cd109 7.554909017980685e-42
cd110 5.803668445200807e-12
cd111 5.924094687981049e-12
cd112 1.1172119563215168e-11
cd113 5.667588846273835e-12
cd114 1.3341116476404157e-11
cd115 8.059572941134351e-43
cd116 3.4820397193620264e-12
cd117 5.70412291539544e-45
in102 0.0
in103 0.0
in104 0.0
in105 0.0
in106 0.0
in107 0.0
in108 0.0
in109 0.0
in110 0.0
in111 0.0
in112 2.9391807487997615e-93
in113 2.2851086479293784e-13
in114 9.409974707726578e-48
in115 5.055826972034611e-12
in116 6.901025018469078e-47
in117 1.6039095583801167e-45
in118 7.381648565968499e-72
