n 1.397664484460808e-21
h1 9.036940000693785e-18
he4 2.0224410677240962e-13
h2 8.476956792319176e-33
h3 2.9839061433909386e-23
he3 2.6814799804919763e-23
li6 3.29287209562551e-37
li7 2.4309461148408384e-29
li8 1.0093883682120734e-45
li9 2.7925648606152285e-58
be7 1.534547761422436e-33
be9 1.1275420011624131e-46
be10 8.35588775626847e-37
be11 3.1842831005200834e-60
be12 5.453834744699553e-75
b8 4.7146529465606705e-55
b10 6.095442009192812e-26
b11 2.5290707316403933e-16
b12 3.403246449188528e-30
b13 4.688657974758816e-44
b14 1.7734407319370418e-65
c10 0.0
c11 3.164676261369256e-23
c12 0.0009692981244756586
c13 2.5149000002132846e-15
c14 5.643232707541184e-10
c15 4.8759118149792705e-30
c16 6.21500564634564e-43
c17 8.680333555997636e-65
c18 0.0
n11 0.0
n12 8.612891760853283e-43
n13 1.4928847003093265e-16
n14 2.937926420773133e-09
n15 2.6998284182020837e-10
n16 2.971763886198433e-24
n17 2.0296730769469374e-35
n18 1.1137930259114802e-48
n19 3.77812769323841e-62
n20 3.6952625013092756e-79
n21 0.0
o13 8.607236188270131e-58
o14 9.496592475345096e-22
o15 5.6670504285585314e-15
o16 0.041642165351043176
o17 1.5804723859850633e-09
o18 7.615673862828444e-11
o19 1.024289327473457e-19
o20 1.0862257295968701e-27
o21 5.166655720989905e-38
o22 2.0802753407967643e-49
f16 5.834651746567089e-43
f17 8.55441587076698e-21
f18 1.0998367348032879e-11
f19 4.0816223160113316e-10
f20 2.3458089563040197e-27
f21 6.456971204884395e-34
f22 8.881887395163896e-40
f23 1.1038453388432891e-44
f24 5.096640143534401e-58
f25 9.625228680852738e-72
f26 0.0
ne16 1.5175512207107132e-69
ne17 2.0394920020969943e-67
ne18 9.331765729360109e-32
ne19 2.1809096205853253e-19
ne20 0.011990210410256448
ne21 2.1775907040356575e-05
ne22 2.9279297667210866e-05
ne23 1.7923622719764117e-13
ne24 2.853164547555385e-17
ne25 9.864860537421286e-29
ne26 6.146642137017896e-41
ne27 1.0570910888990777e-59
ne28 0.0
ne29 0.0
na19 7.401911780185065e-55
na20 3.8384215479605424e-31
na21 4.674072159698893e-13
na22 9.128336388588294e-08
na23 0.00026095759127183057
na24 1.8459873479210412e-07
na25 7.685164667371665e-14
na26 1.0338810635728439e-24
na27 6.915274517118535e-36
na28 1.3911241561510194e-48
na29 3.220501632300742e-61
na30 4.7300978370123294e-76
na31 4.0585907949774465e-89
na32 0.0
mg20 1.4542734903874485e-69
mg21 7.213812113081758e-43
mg22 2.797591230831875e-21
mg23 5.680740989498418e-12
mg24 0.0018988723674541281
mg25 0.000447470506208152
mg26 0.0002914102913912855
mg27 6.356769995169672e-10
mg28 4.070677843586949e-11
mg29 4.7291913895884365e-22
mg30 2.2145425382485366e-33
mg31 1.0954470995682036e-47
mg32 1.118156247865716e-59
mg33 1.512761278096589e-74
mg34 5.366237260753102e-88
mg35 0.0
al22 6.598874587175004e-65
al23 3.354178745559509e-42
al24 4.354110771999889e-25
al25 3.0114640205711903e-14
al26 9.111940194819541e-08
al27 0.00014613165830328377
al28 1.2653376520565172e-09
al29 6.460965875555427e-13
al30 1.9720993299968929e-22
al31 6.708696307168966e-33
al32 1.551519275716827e-45
al33 6.974592956078449e-58
al34 3.1881565521464636e-72
al35 6.607648471940548e-83
al36 8.946873387311868e-99
al37 0.0
al38 0.0
si23 6.757821538187243e-84
si24 2.5545824726062697e-55
si25 2.21145084907814e-36
si26 1.1131317363529025e-23
si27 1.8286338183507244e-14
si28 0.00013267908996839671
si29 2.3019394261657468e-05
si30 1.0433180245071149e-05
si31 2.7394087190966822e-08
si32 3.453904279786242e-09
si33 1.8109390941453432e-18
si34 5.166833524392158e-27
si35 1.0754865663017684e-40
si36 2.9714703300730105e-52
si37 1.509032701191571e-67
si38 6.56447983199918e-76
si39 1.8197651072976612e-91
si40 0.0
si41 0.0
p25 5.037312627076833e-85
p26 6.198496673951626e-58
p27 2.2359236088379632e-41
p28 7.068739641614939e-27
p29 8.79383110586318e-15
p30 1.92042755647611e-10
p31 4.563459750911825e-06
p32 6.199281998422444e-08
p33 1.2028420313544054e-08
p34 1.5586328348596062e-16
p35 1.552544700791755e-20
p36 1.435842727879474e-30
p37 1.3762996934915949e-39
p38 1.6968430338544738e-50
p39 1.2696713255111419e-61
p40 1.1354875776773775e-72
p41 1.6576459030717516e-84
p42 0.0
p43 0.0
p44 0.0
s27 4.400930442887619e-77
s28 2.686223413468518e-56
s29 6.935396942498235e-38
s30 1.33918083168394e-25
s31 4.213015606924415e-19
s32 8.343632028421511e-06
s33 1.0801434419897707e-07
s34 1.0436721967568157e-06
s35 2.5684811321095676e-08
s36 9.021849978250527e-08
s37 1.6526793855144283e-14
s38 2.950206770956425e-17
s39 5.024736816168541e-26
s40 7.708467045386262e-33
s41 9.242187806210374e-42
s42 1.4699541489138398e-52
s43 1.159371713207955e-66
s44 2.3956317005184527e-79
s45 9.002466838130273e-95
s46 0.0
s47 0.0
cl29 2.95639861189662e-87
cl30 6.447554765784589e-62
cl31 6.624530368367596e-46
cl32 1.2030747904817706e-33
cl33 8.903161640419398e-17
cl34 4.010294766758317e-17
cl35 1.1422379940503874e-07
cl36 5.730470398953547e-09
cl37 9.211290578121668e-07
cl38 1.0558503740118433e-10
cl39 1.266978183752411e-13
cl40 1.509185721300179e-19
cl41 1.2648455851846485e-24
cl42 6.633674988005837e-32
cl43 1.1151220159413842e-33
cl44 1.3071558702511177e-44
cl45 2.7463509634112717e-55
cl46 6.861856049436878e-68
cl47 1.152222363070449e-79
cl48 3.0653124755224505e-95
cl49 0.0
cl50 0.0
ar31 2.6784084625755045e-82
ar32 1.7742153272300726e-61
ar33 7.349676289041116e-46
ar34 2.6743081632350925e-27
ar35 1.3087399743706934e-25
ar36 9.331607760411168e-07
ar37 7.91819506894454e-09
ar38 1.1852809230089483e-06
ar39 1.221786431289468e-07
ar40 5.368893645287019e-08
ar41 2.971369820378921e-11
ar42 1.665267999233428e-11
ar43 3.7579037671220674e-16
ar44 1.4297193969581518e-19
ar45 6.0214196839348916e-27
ar46 1.0398390203638465e-33
ar47 1.6587963608432968e-44
ar48 2.802168334964428e-56
ar49 2.1358330977538865e-70
ar50 8.168039967981909e-83
ar51 0.0
ar52 0.0
k32 0.0
k33 2.4369529104417572e-91
k34 2.2873782924766068e-82
k35 1.2838827622144348e-48
k36 6.2586733599876485e-40
k37 1.0991121237846137e-19
k38 4.533650128069208e-17
k39 1.5779457958747516e-07
k40 1.560735901189946e-08
k41 3.92520155398414e-08
k42 2.0047689705943045e-09
k43 8.467880253255355e-11
k44 1.0915881722083141e-14
k45 1.7893915217198133e-17
k46 2.098551431688028e-23
k47 4.635378151333803e-30
k48 2.9595644655634346e-39
k49 4.093986539531857e-46
k50 3.545753235312605e-58
k51 9.798711699098624e-69
k52 9.212157066631322e-84
k53 3.941436674102673e-96
k54 0.0
k55 0.0
ca35 3.493964506100751e-99
ca36 6.710160476159526e-62
ca37 1.457571549991446e-51
ca38 7.684421703725511e-31
ca39 2.3907435011132797e-27
ca40 8.159427995832632e-07
ca41 1.6735409239265495e-08
ca42 6.910534796282117e-08
ca43 2.886674590717746e-08
ca44 6.746192663579764e-08
ca45 1.5384232218645748e-08
ca46 4.914937049774281e-09
ca47 2.0634813833554066e-10
ca48 2.831573727595908e-09
ca49 3.275411583314062e-14
ca50 3.4823516705675745e-22
ca51 2.5105352391722998e-29
ca52 7.474135373397127e-38
ca53 1.1774444432170631e-50
ca54 5.182325113188864e-63
ca55 1.0779722333818774e-77
ca56 1.3340653241873347e-91
ca57 0.0
sc36 0.0
sc37 1.200083854904112e-92
sc38 3.052660330275044e-97
sc39 2.3169238712771586e-55
sc40 1.0140301719877638e-46
sc41 4.347162406668996e-23
sc42 4.5118356647920264e-20
sc43 8.264917316797053e-12
sc44 7.291870695946025e-12
sc45 4.817370873771642e-09
sc46 2.2877025082306893e-09
sc47 6.12468530239625e-10
sc48 8.018940998519588e-11
sc49 6.038495945808552e-13
sc50 8.809443862073443e-19
sc51 6.804430174752004e-26
sc52 3.8568882266963463e-32
sc53 5.030590728794494e-43
sc54 1.1354501844869131e-54
sc55 4.5921215367036786e-67
sc56 1.5160712254212698e-77
sc57 9.244216994185378e-90
sc58 0.0
sc59 0.0
ti39 0.0
ti40 4.942065677659387e-69
ti41 2.931502016373136e-59
ti42 3.622224838658365e-35
ti43 5.480072658729132e-31
ti44 4.56792892159431e-14
ti45 2.6078512573935106e-15
ti46 7.118202930310578e-09
ti47 7.570155979808243e-09
ti48 1.0187213469821484e-08
ti49 2.415799563261683e-08
ti50 4.832087284545137e-08
ti51 1.6530780745363044e-12
ti52 1.947970591671884e-17
ti53 4.556700663799885e-23
ti54 2.4199122247614624e-28
ti55 2.4619411073572783e-38
ti56 9.050244088839426e-50
ti57 7.731354861294833e-63
ti58 8.407453166201447e-73
ti59 1.355818252302636e-86
ti60 9.438816741239572e-98
ti61 0.0
ti62 0.0
v41 2.480707914045115e-97
v42 1.5737958396613193e-82
v43 3.169740506150463e-56
v44 9.31340542940555e-44
v45 1.0132048575788009e-27
v46 1.5184367642879768e-26
v47 1.7207886049379074e-13
v48 1.0012249024219655e-12
v49 1.4410912289796905e-10
v50 2.7703929010033334e-10
v51 6.6488085980897876e-09
v52 8.018728310906649e-13
v53 1.580152756212435e-17
v54 2.291803364837422e-23
v55 7.669990811450695e-30
v56 3.5208026076016166e-40
v57 4.706533286122556e-50
v58 4.0088705712389053e-61
v59 1.3727467526978517e-62
v60 8.309325814872587e-73
v61 5.300458789749607e-84
v62 1.391982052301036e-96
v63 0.0
v64 0.0
v65 0.0
cr43 4.7458760421914515e-99
cr44 2.6353036496703193e-69
cr45 2.1670026416988534e-56
cr46 1.5448579470472376e-39
cr47 9.825975066501073e-38
cr48 1.2709110403562384e-16
cr49 1.6563042295827287e-17
cr50 1.352362154645675e-10
cr51 6.262099579827875e-11
cr52 1.2805215053366506e-07
cr53 2.9425245617057658e-08
cr54 1.4670309392976436e-07
cr55 3.863984524505193e-12
cr56 2.3232461512093604e-15
cr57 2.2124022203248273e-22
cr58 3.085830588898842e-29
cr59 2.4430717726529216e-39
cr60 4.01930031762956e-49
cr61 1.855619535334045e-59
cr62 4.229050064099714e-69
cr63 2.0296815063435657e-80
cr64 2.149414819132766e-89
cr65 0.0
cr66 0.0
cr67 0.0
cr68 0.0
mn45 8.845758639567759e-96
mn46 3.3913998402571796e-75
mn47 1.2021610883450982e-60
mn48 1.3981690463128227e-50
mn49 2.3711255651362102e-29
mn50 5.313148394945236e-29
mn51 1.760935076958867e-15
mn52 6.2702512730686005e-15
mn53 7.747053986498575e-11
mn54 7.225106260572441e-11
mn55 1.54779371970779e-07
mn56 3.510945791974287e-11
mn57 2.4211581314064897e-15
mn58 2.0233160109157583e-22
mn59 1.2559905805837893e-27
mn60 8.677073646751969e-38
mn61 4.2218230310368306e-45
mn62 1.5798967242843407e-51
mn63 7.920773204381268e-61
mn64 1.8208008124127024e-71
mn65 2.1706898816725083e-81
mn66 2.5483596750903972e-92
mn67 0.0
mn68 0.0
mn69 0.0
mn70 0.0
mn71 0.0
fe47 1.1706335684629263e-90
fe48 5.652216528955483e-74
fe49 3.26888458023656e-64
fe50 5.578203166490903e-46
fe51 4.2580722272237065e-41
fe52 9.0865967812239e-20
fe53 6.014454394346325e-20
fe54 7.093789236623233e-08
fe55 3.926344638766343e-08
fe56 6.5078572612419175e-06
fe57 3.2649288534908406e-06
fe58 6.98221309161998e-06
fe59 1.191637976936635e-06
fe60 4.617384084522507e-07
fe61 2.1707212629686745e-11
fe62 1.984161683468661e-16
fe63 2.3250869178357292e-24
fe64 3.082640950795382e-32
fe65 1.239547780483738e-42
fe66 4.7977602491129024e-51
fe67 2.977827395935676e-58
fe68 3.756539252147609e-69
fe69 3.024956543457961e-80
fe70 1.273623205403481e-86
fe71 2.0393552159290645e-98
fe72 0.0
fe73 0.0
fe74 0.0
co48 0.0
co49 0.0
co50 6.691229739012796e-87
co51 6.125407636973532e-67
co52 5.6592490919673045e-59
co53 1.1019643344010334e-33
co54 2.3692726921657946e-32
co55 1.4660068696239488e-12
co56 8.852301593376737e-13
co57 1.716078393102721e-09
co58 1.2660763311968708e-09
co59 1.436332001819619e-06
co60 2.695575207907144e-07
co61 3.825159698973341e-09
co62 3.7665580903884255e-13
co63 2.8617677116742645e-18
co64 3.596185578382504e-28
co65 9.539968116940918e-35
co66 9.478866150762117e-45
co67 7.1858657760919e-51
co68 9.21599288624343e-61
co69 4.811531409435703e-66
co70 1.6923328263733148e-76
co71 5.211201795189894e-83
co72 3.5680856997487056e-94
co73 0.0
co74 0.0
co75 0.0
co76 0.0
co77 0.0
ni51 0.0
ni52 3.2949100919698354e-81
ni53 9.00804236918031e-73
ni54 4.961629651000275e-47
ni55 2.6027403129397617e-45
ni56 9.486159143673883e-17
ni57 5.1619021587179814e-18
ni58 1.3066090264738114e-08
ni59 8.790042087676064e-09
ni60 9.467362605696768e-07
ni61 9.745740616278153e-07
ni62 9.954499092936199e-07
ni63 1.1303398253851585e-06
ni64 1.0366715242902083e-06
ni65 4.542192898146059e-09
ni66 1.1487094743574596e-09
ni67 8.804162986636161e-17
ni68 3.1126394261739454e-21
ni69 5.218618928791115e-28
ni70 1.596589328749524e-34
ni71 1.2044283689820757e-42
ni72 2.9971788430369917e-50
ni73 2.050096614581663e-59
ni74 3.1443432586127236e-66
ni75 5.720981791714548e-76
ni76 5.2770636660016545e-87
ni77 4.75444082684765e-96
ni78 0.0
ni79 0.0
cu52 0.0
cu53 0.0
cu54 7.129918578928798e-97
cu55 2.0760694015929878e-70
cu56 5.890469543228429e-65
cu57 3.7090852576109473e-35
cu58 2.3558710880710438e-30
cu59 5.152711778062454e-17
cu60 7.6015224994979455e-16
cu61 3.3503992311241204e-12
cu62 7.890391425779186e-13
cu63 2.2799806341687582e-08
cu64 3.544533404295061e-09
cu65 2.159541469963409e-07
cu66 6.107330101229187e-11
cu67 1.2926475262347612e-09
cu68 2.0582671092830622e-15
cu69 2.5232101868695614e-17
cu70 1.0195914533180771e-24
cu71 1.0591728223476048e-27
cu72 6.447007239679744e-34
cu73 2.7446898222943557e-39
cu74 1.2166097849565725e-46
cu75 1.0470850850192115e-52
cu76 4.414184705022396e-61
cu77 1.14266595218439e-68
cu78 2.848556030849567e-77
cu79 1.8815395986206525e-87
cu80 0.0
cu81 0.0
cu82 0.0
zn55 0.0
zn56 1.799348759937055e-86
zn57 2.7169981550274416e-80
zn58 4.295631519643861e-49
zn59 1.1632531139918326e-43
zn60 1.6764357211612995e-23
zn61 8.62019459560109e-24
zn62 8.329655017637656e-17
zn63 3.434911184458893e-18
zn64 1.5503354374203006e-08
zn65 4.755920488867276e-09
zn66 1.6353548987140546e-07
zn67 5.590330575636699e-08
zn68 1.7413853513822196e-07
zn69 3.4636325956521756e-10
zn70 4.963096915054402e-09
zn71 8.126631216163878e-13
zn72 4.06304310153047e-12
zn73 1.0007006567911533e-18
zn74 1.6431917801746883e-21
zn75 7.168018236739377e-29
zn76 5.34395353556708e-35
zn77 5.951806348400837e-43
zn78 2.6497106605455117e-50
zn79 3.6663760127284376e-58
zn80 5.316826574582559e-68
zn81 1.0008815088351018e-82
zn82 4.7227830615012965e-94
zn83 0.0
zn84 0.0
ga57 0.0
ga58 0.0
ga59 2.995307395457209e-75
ga60 9.29982381839669e-66
ga61 2.791279925058367e-44
ga62 2.233275920742293e-37
ga63 6.125156251118332e-27
ga64 1.0739724106514417e-25
ga65 4.191126611223414e-15
ga66 3.2049404394628046e-14
ga67 1.1188298021473454e-11
ga68 4.286829284644669e-13
ga69 3.117535223271445e-08
ga70 1.56339180547042e-10
ga71 7.641791292830127e-09
ga72 1.5478490069925813e-09
ga73 3.764188471026325e-10
ga74 4.25550336804476e-14
ga75 2.825964005883526e-17
ga76 1.0528490161521467e-22
ga77 1.6000994655622935e-27
ga78 3.0479392706482326e-34
ga79 3.003035629589658e-40
ga80 1.3525378136506598e-47
ga81 9.611809604938728e-54
ga82 2.428184801484851e-65
ga83 1.626371860323065e-75
ga84 1.85493998056221e-88
ga85 0.0
ga86 0.0
ge59 0.0
ge60 2.0669170305129983e-93
ge61 2.9022999948950056e-83
ge62 2.8723003199315e-57
ge63 2.917693441383564e-51
ge64 7.408897070756583e-36
ge65 1.2071407183849892e-34
ge66 1.2526626197800389e-20
ge67 1.650590264414931e-20
ge68 6.637969980764156e-16
ge69 9.155132300713657e-16
ge70 2.4053113298569102e-08
ge71 7.920910132634121e-09
ge72 2.482085699983424e-08
ge73 1.4675180772990502e-08
ge74 3.0376123902749705e-08
ge75 2.6084036293332457e-10
ge76 1.7479678229258174e-09
ge77 2.6839193771268354e-12
ge78 1.3306971023601905e-13
ge79 3.005935158611743e-20
ge80 1.8603457483849613e-24
ge81 2.2351186061176507e-31
ge82 8.860712423470086e-38
ge83 6.573520385162689e-48
ge84 1.426851388188572e-57
ge85 1.102337440887033e-69
ge86 1.7318066707187594e-80
ge87 2.490148719837507e-94
ge88 0.0
ge89 0.0
as61 0.0
as62 0.0
as63 3.422597288890602e-84
as64 1.0264049342937667e-73
as65 7.698968157716747e-58
as66 3.452030963478042e-49
as67 5.327084157776683e-32
as68 1.8706893252494687e-28
as69 4.6066203038320145e-23
as70 6.845853110012548e-22
as71 2.8682647777475347e-13
as72 1.0292733900293309e-13
as73 2.042454210512734e-12
as74 9.355099508683533e-13
as75 6.10195741216029e-09
as76 2.8013556866489953e-09
as77 2.3067650882166004e-09
as78 2.86814401943564e-11
as79 2.0228261920438453e-13
as80 1.2599704481661525e-19
as81 3.265104132499866e-22
as82 3.688021083232849e-27
as83 1.835881830362134e-31
as84 6.611322525106796e-40
as85 6.288560841519878e-47
as86 2.654654631281372e-56
as87 1.9822975975238123e-65
as88 4.873618424611094e-77
as89 8.021675090958057e-88
as90 0.0
as91 0.0
se64 0.0
se65 5.533627816907746e-93
se66 8.430064376368801e-73
se67 7.434094852480299e-64
se68 1.6125312114946138e-41
se69 1.578283498763305e-37
se70 2.884985365634999e-29
se71 6.124768566606879e-29
se72 7.27466114269671e-18
se73 9.29093209610895e-19
se74 1.7747331195006666e-14
se75 5.499305761352439e-14
se76 3.310452819919937e-09
se77 4.085091335230985e-09
se78 9.942998694436014e-09
se79 6.3433264662179065e-09
se80 1.6396116465670396e-08
se81 3.03074824894116e-11
se82 6.068106488890725e-10
se83 1.8461309136737223e-13
se84 2.2570416037478143e-17
se85 6.119913075601123e-24
se86 2.959053476457843e-30
se87 5.824344152504529e-38
se88 7.324202239585056e-47
se89 1.0026782059153521e-57
se90 1.645958352871129e-68
se91 3.6973641441749534e-82
se92 1.896732764653961e-93
se93 0.0
br66 0.0
br67 0.0
br68 2.4568898103297357e-88
br69 7.139876305470039e-65
br70 1.0068619211847527e-52
br71 1.1081079107026474e-40
br72 9.344113416848552e-38
br73 1.6517294418469785e-26
br74 3.25280688065464e-25
br75 9.121891330383762e-21
br76 1.241849073471175e-19
br77 4.7304799743133496e-14
br78 5.028832094072274e-16
br79 2.3847760634729454e-13
br80 4.7478513833146205e-15
br81 3.1240879113814773e-09
br82 9.623426963171248e-10
br83 1.5766509712577161e-10
br84 6.784782415347018e-13
br85 4.485685215128572e-16
br86 3.80985295638013e-21
br87 2.1357549373678417e-25
br88 2.396820548272115e-31
br89 1.1796861202485996e-37
br90 1.2363984152343062e-45
br91 6.244578036063168e-55
br92 6.729269347325592e-66
br93 4.502886253499102e-76
br94 8.161326740397979e-89
br95 0.0
kr69 0.0
kr70 3.723884323262368e-80
kr71 2.324964491342646e-67
kr72 4.714428361513509e-51
kr73 5.244326279849426e-46
kr74 9.790688111255861e-33
kr75 4.753384103951313e-30
kr76 1.8069452109091893e-22
kr77 6.105746042567697e-22
kr78 1.1133159316241509e-17
kr79 5.56953212311167e-19
kr80 2.4042857706456607e-13
kr81 1.1242108550823683e-13
kr82 2.495072803047615e-09
kr83 3.2762018238793242e-09
kr84 1.0455757341319203e-08
kr85 5.718118501800407e-09
kr86 7.199451358604289e-09
kr87 2.4596063064735285e-12
kr88 1.1781552818753308e-13
kr89 2.1225769748758085e-18
kr90 3.655831081452886e-24
kr91 2.397262282104901e-31
kr92 7.486777082554939e-40
kr93 6.9361542461206e-50
kr94 4.956837912672632e-60
kr95 2.046568089286019e-71
kr96 6.353948838227078e-82
kr97 2.1314926314090306e-94
rb72 0.0
rb73 2.3088361645758923e-75
rb74 3.186170282839105e-61
rb75 1.3819565352152128e-44
rb76 3.989825121782191e-39
rb77 8.469057022502467e-31
rb78 1.2481512314161872e-29
rb79 2.9458210784332615e-24
rb80 6.0647700063888316e-27
rb81 2.24663774746198e-19
rb82 2.3175249153899282e-21
rb83 1.5837574913104447e-14
rb84 1.0047338574184153e-14
rb85 2.0285115696649271e-10
rb86 1.866252330267683e-10
rb87 2.1882738409740148e-09
rb88 1.0925215657883022e-12
rb89 4.83788704157965e-15
rb90 1.9692657716098e-18
rb91 1.5459133594777362e-22
rb92 6.76634877804814e-30
rb93 1.3543002665102326e-34
rb94 1.1414557117521655e-42
rb95 6.6304684855184646e-52
rb96 1.623505016599478e-62
rb97 3.0324644970814807e-72
rb98 1.3536811894574497e-82
rb99 1.7123368731648898e-93
sr75 3.708058040173947e-76
sr76 4.310543923554633e-58
sr77 2.015792599740758e-49
sr78 1.6992444200525885e-35
sr79 1.2938970911917201e-32
sr80 1.0947445731217372e-25
sr81 8.997676434197076e-25
sr82 4.670157688927085e-20
sr83 6.857367134891655e-21
sr84 1.561516018793549e-17
sr85 1.0049174890069201e-16
sr86 2.413907339393811e-10
sr87 3.6266043708354005e-10
sr88 6.212163907021693e-09
sr89 9.093888855064973e-10
sr90 2.560730306294583e-10
sr91 3.776737572058632e-12
sr92 9.629568315262013e-14
sr93 1.5318549286452192e-17
sr94 3.615923862513997e-22
sr95 4.845772904996627e-29
sr96 2.81282586003995e-38
sr97 1.8381195519530782e-48
sr98 5.10671229589007e-57
sr99 1.3537663442082736e-67
sr100 4.425366620037863e-78
sr101 5.510803776694235e-90
y77 7.308580711874235e-80
y78 2.0462713026614977e-65
y79 1.1829180651073692e-47
y80 2.894676531960983e-42
y81 3.0105196286839794e-35
y82 3.278200186861246e-36
y83 1.6584133195610236e-27
y84 3.9072921280366905e-32
y85 6.260433094589762e-23
y86 9.853050813988825e-23
y87 2.597986356798238e-16
y88 6.793851965509789e-16
y89 5.550533462568349e-10
y90 3.207923425654202e-11
y91 8.887600300166612e-11
y92 4.49210151685697e-12
y93 7.073150050398161e-12
y94 4.047231680170361e-14
y95 2.6950342296571327e-16
y96 1.1275476449201463e-23
y97 1.9878001710422412e-29
y98 1.370997452461182e-38
y99 1.0134090726862091e-42
y100 4.367969914597124e-51
y101 9.294730551114407e-60
y102 2.332205427687975e-69
y103 1.956397860743244e-79
zr80 3.425683646638996e-64
zr81 1.2807229317323737e-56
zr82 4.028235184413032e-47
zr83 3.6268836170211485e-37
zr84 1.110176390691706e-29
zr85 5.42200881753735e-29
zr86 8.385819575304301e-24
zr87 3.271101919951047e-23
zr88 1.1535547592528271e-19
zr89 1.1344750274577062e-19
zr90 2.7937279019470654e-10
zr91 1.5074688384058545e-10
zr92 3.062762534703381e-10
zr93 1.3996470453546824e-10
zr94 2.45489662785899e-10
zr95 7.35435533033228e-11
zr96 1.1838983644250621e-10
zr97 2.665509555817858e-13
zr98 2.5411047149633003e-19
zr99 9.80639610840407e-28
zr100 1.9242138754175597e-32
zr101 8.632123333171916e-40
zr102 1.5338660203871784e-48
zr103 1.8205643623267473e-58
zr104 9.646501078467437e-69
zr105 3.545889988377337e-80
nb83 1.1153574716412177e-62
nb84 3.447894033803942e-48
nb85 2.153100792466765e-40
nb86 5.224851298369261e-37
nb87 1.2727582899665397e-31
nb88 2.7038615137821398e-30
nb89 4.449909654751769e-25
nb90 4.170546850870751e-24
nb91 3.4938397981601145e-16
nb92 2.926795297270995e-16
nb93 1.549724376361369e-15
nb94 1.4718883882939881e-15
nb95 8.525224398494225e-13
nb96 8.241122920884115e-13
nb97 6.98034172673453e-14
nb98 9.702830735038566e-20
nb99 3.3759131588525293e-23
nb100 9.799312753454143e-31
nb101 3.9073057757401534e-32
nb102 2.456904697240984e-39
nb103 1.1860735365223053e-43
nb104 2.3398688705251485e-52
nb105 5.427380544369897e-61
nb106 3.699357509236018e-71
nb107 3.505092364514725e-81
mo85 8.130472634232272e-65
mo86 9.91062129705728e-56
mo87 1.5014201610470998e-44
mo88 7.540105269016776e-35
mo89 6.747028785676845e-33
mo90 7.27418413092771e-27
mo91 2.0653239868227021e-25
mo92 1.5434361728003528e-14
mo93 4.392570492571685e-15
mo94 4.077168705871869e-14
mo95 5.33926579169472e-13
mo96 3.9265028384896415e-12
mo97 4.8156300393856315e-12
mo98 2.4299830211503383e-11
mo99 1.6008355262156626e-12
mo100 1.4808888110890866e-11
mo101 2.5906299879522636e-14
mo102 1.1008220995039059e-16
mo103 2.4906863861620438e-21
mo104 1.1968773299491291e-24
mo105 2.452329464935853e-33
mo106 2.7960151379327713e-42
mo107 2.568432698234344e-52
mo108 1.0072420613458286e-62
mo109 4.152208085518525e-74
tc88 8.899353788600071e-61
tc89 6.693653385820797e-50
tc90 1.742742690023879e-44
tc91 5.743562422661008e-36
tc92 9.86152609945107e-33
tc93 6.337377675298426e-22
tc94 5.569271118330248e-22
tc95 1.3597232278338255e-20
tc96 9.225688759022576e-20
tc97 1.3473815957996655e-18
tc98 1.033661290021005e-18
tc99 9.210160483497791e-13
tc100 4.726242019895338e-18
tc101 2.628156068657791e-14
tc102 8.688891606723881e-19
tc103 5.186226431104123e-21
tc104 1.4945102663282078e-21
tc105 2.201750419080776e-23
tc106 2.640676693839925e-28
tc107 6.346476877893952e-32
tc108 7.201629758265841e-38
tc109 1.5835633454498402e-46
tc110 3.5072928665001814e-56
ru91 2.4381348373026945e-60
ru92 1.4700891991406543e-49
ru93 4.01879340987032e-34
ru94 1.4950502323237277e-23
ru95 8.286405004107578e-23
ru96 1.9907297391197057e-20
ru97 5.368766210600946e-21
ru98 5.999252202846669e-19
ru99 1.1916375643080092e-16
ru100 4.423435872737501e-12
ru101 2.0349094140260246e-12
ru102 1.0686390055877618e-11
ru103 5.663190639149125e-12
ru104 1.6458916211338793e-11
ru105 7.566037211257501e-13
ru106 6.4240054926490156e-12
ru107 1.4667281856358239e-15
ru108 1.239865478612757e-17
ru109 8.738639074504276e-23
ru110 3.3409334042512015e-27
ru111 2.5909483986383422e-37
ru112 2.258479484626293e-47
rh93 2.890447824171203e-66
rh94 1.3010320481558614e-44
rh95 7.573930008611137e-33
rh96 3.1454581750875873e-31
rh97 1.8561537690272136e-27
rh98 2.166710808598902e-25
rh99 1.0455564516788719e-23
rh100 1.0394993708117534e-23
rh101 2.29968422590578e-19
rh102 1.4463184883930275e-19
rh103 1.0338923950462486e-13
rh104 1.0246088418995849e-17
rh105 1.2725524829421311e-12
rh106 2.4403259205278945e-16
rh107 1.7473672901892002e-14
rh108 9.08267436163239e-19
rh109 1.4986403603484203e-20
rh110 4.61684101015244e-27
rh111 2.947597712984835e-29
rh112 9.80148318644886e-35
rh113 7.608258624724438e-39
rh114 2.6435332764355897e-44
pd96 9.056046650595171e-35
pd97 6.367858694584676e-31
pd98 1.0049703636258055e-24
pd99 1.490887814341217e-23
pd100 6.283790248323722e-21
pd101 1.5505717132481137e-22
pd102 1.2607233456245435e-20
pd103 2.2950489727486394e-21
pd104 5.487273962854967e-13
pd105 4.371243040870598e-13
pd106 4.60569037880874e-12
pd107 1.5412271541031612e-12
pd108 1.060160436920641e-11
pd109 2.2717432875424633e-12
pd110 9.657014384097898e-12
pd111 7.750578554839983e-14
pd112 2.588383725533543e-13
pd113 1.248912276428772e-17
pd114 6.982530434106748e-20
pd115 8.70849622543746e-25
ag98 4.0257204889704295e-42
ag99 4.359651184616983e-35
ag100 1.8240614719324295e-33
ag101 2.9715637501913886e-29
ag102 2.4272104602942434e-27
ag103 1.1660291677963503e-24
ag104 4.6778592854085705e-23
ag105 6.976010388315531e-21
ag106 7.503091718270209e-22
ag107 1.108857402426685e-18
ag108 1.9628164440171742e-21
ag109 1.116560098354039e-12
ag110 2.6605159753977433e-16
ag111 8.784186794390685e-13
ag112 1.4624184495185296e-13
ag113 9.46334879935646e-16
ag114 2.571628845403136e-21
ag115 2.6991372580043125e-23
ag116 4.0139610778575255e-27
cd101 2.6337687604066276e-35
cd102 2.219365269462166e-27
cd103 6.084422832709522e-26
cd104 5.396334121196877e-22
cd105 4.391562227631814e-23
cd106 1.367510257868156e-20
cd107 1.2716479575494634e-22
cd108 9.104257952200014e-18
cd109 1.8955374169764652e-18
cd110 2.350664987612948e-12
cd111 7.180726144584092e-13
cd112 5.053543092065957e-12
cd113 2.112495486444817e-12
cd114 1.7152673854718178e-11
cd115 3.3360495357528078e-12
cd116 2.4792822332577494e-11
cd117 2.9086939191081995e-13
in102 5.479292084791233e-48
in103 4.552602974138233e-39
in104 6.990717016887705e-37
in105 4.0762061232412906e-32
in106 2.431719899057239e-31
in107 2.3269274775116604e-27
in108 4.309782445454623e-25
in109 1.1569407643721935e-23
in110 6.32509474319038e-23
in111 7.418959043009033e-21
in112 4.0841390874489543e-22
in113 3.0004122459504197e-16
in114 1.274801409103038e-19
in115 4.5107523797899196e-13
in116 1.7756159354490133e-17
in117 5.800978378852305e-14
in118 3.393454860021723e-17
