n 4.795798969775075e-38
h1 3.487254791748933e-16
he4 0.24636778745464594
h2 3.942958656930786e-38
h3 5.226500976850541e-50
he3 8.83580598512215e-31
li6 5.983693937264187e-26
li7 8.956203381639273e-24
li8 2.718683705008359e-42
li9 2.8019053432463613e-76
be7 1.0164025636410538e-32
be9 4.46818458623245e-29
be10 2.9363456160650275e-39
be11 3.8396195374699634e-72
be12 0.0
b8 9.040421005055656e-56
b10 2.4440491304121168e-23
b11 1.1187731313654766e-22
b12 3.372870037030516e-58
b13 1.7183081533529561e-93
b14 0.0
c10 0.0
c11 1.5878855489978095e-45
c12 1.4559239632246637e-05
c13 4.1385765697772574e-06
c14 1.308706531133561e-12
c15 1.152235952362573e-47
c16 2.2250481453407058e-83
c17 0.0
c18 0.0
n11 0.0
n12 1.6268314949738888e-74
n13 1.1185160921159534e-28
n14 0.0006472324531486074
n15 1.9751246597880153e-08
n16 2.988267958534832e-42
n17 2.892313554964803e-76
n18 0.0
n19 0.0
n20 0.0
n21 0.0
o13 0.0
o14 4.4403308017180164e-55
o15 1.2871997294156032e-29
o16 1.1897608342863358e-05
o17 1.3458060532413282e-08
o18 2.8368736150568435e-11
o19 2.329820535139378e-44
o20 7.968981669896345e-77
o21 0.0
o22 0.0
f16 0.0
f17 3.0414068208641778e-33
f18 7.8712909715614e-34
f19 1.9100813990497717e-12
f20 6.662339172214767e-77
f21 0.0
f22 0.0
f23 0.0
f24 0.0
f25 0.0
f26 0.0
ne16 0.0
ne17 0.0
ne18 7.1300547466332384e-65
ne19 4.6801759924954286e-63
ne20 5.694299349585497e-05
ne21 3.551425566016122e-07
ne22 1.2946585228000804e-07
ne23 9.970018117391381e-39
ne24 1.0872273858634083e-67
ne25 2.7558889828775783e-100
ne26 0.0
ne27 0.0
ne28 0.0
ne29 0.0
na19 0.0
na20 1.717152383230514e-98
na21 9.998648461131832e-36
na22 9.654299253821663e-32
na23 7.17964201378665e-06
na24 4.0766699646437344e-32
na25 2.4770208169165073e-61
na26 1.3434072283590863e-92
na27 0.0
na28 0.0
na29 0.0
na30 0.0
na31 0.0
na32 0.0
mg20 0.0
mg21 0.0
mg22 3.875866095837083e-70
mg23 3.96981362475933e-60
mg24 2.354831652861111e-05
mg25 6.36154340874157e-08
mg26 5.396584680638753e-06
mg27 1.9842541679773696e-35
mg28 9.808933833344877e-62
mg29 1.7499877281113108e-93
mg30 0.0
mg31 0.0
mg32 0.0
mg33 0.0
mg34 0.0
mg35 0.0
al22 0.0
al23 0.0
al24 3.764932591501868e-96
al25 1.0358887343175742e-40
al26 3.9690487616386235e-07
al27 2.869203387704551e-06
al28 6.934041321692997e-35
al29 1.3111391899617508e-62
al30 3.492676151092531e-93
al31 0.0
al32 0.0
al33 0.0
al34 0.0
al35 0.0
al36 0.0
al37 0.0
al38 0.0
si23 0.0
si24 0.0
si25 0.0
si26 9.748431426872644e-77
si27 6.003809561750099e-38
si28 2.6964456353923022e-05
si29 1.3692746709824314e-06
si30 9.025075974198043e-07
si31 2.5583226649216463e-33
si32 9.354556480133378e-51
si33 1.1498231352688343e-81
si34 0.0
si35 0.0
si36 0.0
si37 0.0
si38 0.0
si39 0.0
si40 0.0
si41 0.0
p25 0.0
p26 0.0
p27 0.0
p28 5.5245444485224926e-73
p29 4.725902061046114e-44
p30 7.808709925315824e-42
p31 2.457391515520642e-07
p32 2.1920024114753557e-32
p33 1.201551415296126e-33
p34 1.8539670267552573e-63
p35 5.2041434458486296e-76
p36 0.0
p37 0.0
p38 0.0
p39 0.0
p40 0.0
p41 0.0
p42 0.0
p43 0.0
p44 0.0
s27 0.0
s28 0.0
s29 0.0
s30 7.329341957563452e-85
s31 1.7343065280514103e-85
s32 1.2374679700299007e-05
s33 9.782392171100657e-08
s34 5.470586919784617e-07
s35 5.213769203092324e-32
s36 2.222313868560257e-09
s37 5.421196805456373e-39
s38 3.3915406729301025e-66
s39 8.08196843437692e-97
s40 0.0
s41 0.0
s42 0.0
s43 0.0
s44 0.0
s45 0.0
s46 0.0
s47 0.0
cl29 0.0
cl30 0.0
cl31 0.0
cl32 0.0
cl33 7.596456169714051e-43
cl34 2.5329859640122702e-48
cl35 1.1599467705222798e-07
cl36 8.224781581944215e-14
cl37 3.7116706751678153e-08
cl38 1.1164909137126671e-35
cl39 1.7913850413022332e-62
cl40 2.69404420793201e-91
cl41 0.0
cl42 0.0
cl43 0.0
cl44 0.0
cl45 0.0
cl46 0.0
cl47 0.0
cl48 0.0
cl49 0.0
cl50 0.0
ar31 0.0
ar32 0.0
ar33 0.0
ar34 4.282141932692548e-91
ar35 1.4704167936143884e-95
ar36 2.536012897353579e-06
ar37 1.6524566904553438e-30
ar38 4.605178425841288e-07
ar39 5.349398328999314e-27
ar40 7.026734692028497e-10
ar41 4.0161128219984956e-37
ar42 9.376367961819985e-60
ar43 2.5192330219984516e-88
ar44 0.0
ar45 0.0
ar46 0.0
ar47 0.0
ar48 0.0
ar49 0.0
ar50 0.0
ar51 0.0
ar52 0.0
k32 0.0
k33 0.0
k34 0.0
k35 0.0
k36 0.0
k37 3.1999729011027793e-51
k38 3.3459788514231816e-79
k39 1.007692499533413e-07
k40 1.6143270521003846e-10
k41 7.318524183439916e-09
k42 1.975922136763517e-34
k43 2.2292602489934145e-59
k44 1.7489923129887776e-86
k45 0.0
k46 0.0
k47 0.0
k48 0.0
k49 0.0
k50 0.0
k51 0.0
k52 0.0
k53 0.0
k54 0.0
k55 0.0
ca35 0.0
ca36 0.0
ca37 0.0
ca38 1.277628099898183e-95
ca39 0.0
ca40 1.7824404929576855e-06
ca41 6.960530471920788e-13
ca42 1.190473501298462e-08
ca43 2.4884687632100254e-09
ca44 3.8408072706657246e-08
ca45 1.0801550013053313e-31
ca46 7.304160819179245e-11
ca47 3.940030355715896e-36
ca48 3.4583027471596144e-09
ca49 6.979143013207856e-38
ca50 7.021290082981556e-68
ca51 7.507180620639784e-99
ca52 0.0
ca53 0.0
ca54 0.0
ca55 0.0
ca56 0.0
ca57 0.0
sc36 0.0
sc37 0.0
sc38 0.0
sc39 0.0
sc40 0.0
sc41 2.2087196363645288e-52
sc42 9.69599340040844e-69
sc43 2.1844188160777e-43
sc44 8.605806871990132e-60
sc45 1.0011256745815398e-09
sc46 2.0308804996736017e-32
sc47 3.389385644828644e-36
sc48 5.270044948575955e-61
sc49 3.972429027456037e-37
sc50 7.64774478312174e-66
sc51 1.961550195212875e-95
sc52 0.0
sc53 0.0
sc54 0.0
sc55 0.0
sc56 0.0
sc57 0.0
sc58 0.0
sc59 0.0
ti39 0.0
ti40 0.0
ti41 0.0
ti42 0.0
ti43 0.0
ti44 2.384937356942865e-92
ti45 0.0
ti46 5.847521805351806e-09
ti47 5.254108849204423e-09
ti48 5.2286749801403275e-08
ti49 3.842769604467947e-09
ti50 3.6803540827046635e-09
ti51 1.5753335454527304e-37
ti52 4.054801098207226e-66
ti53 9.357968399324466e-96
ti54 0.0
ti55 0.0
ti56 0.0
ti57 0.0
ti58 0.0
ti59 0.0
ti60 0.0
ti61 0.0
ti62 0.0
v41 0.0
v42 0.0
v43 0.0
v44 0.0
v45 0.0
v46 0.0
v47 0.0
v48 4.439380847537537e-42
v49 2.9612497771161506e-39
v50 2.0994423663993087e-11
v51 8.413326552490096e-09
v52 3.970226290885796e-36
v53 7.882551941331708e-64
v54 1.6610862533279146e-92
v55 0.0
v56 0.0
v57 0.0
v58 0.0
v59 0.0
v60 0.0
v61 0.0
v62 0.0
v63 0.0
v64 0.0
v65 0.0
cr43 0.0
cr44 0.0
cr45 0.0
cr46 0.0
cr47 0.0
cr48 0.0
cr49 1.4421444204999288e-99
cr50 1.6336731219286358e-08
cr51 7.898447273039741e-32
cr52 3.1537398391656704e-07
cr53 3.566051240138169e-08
cr54 8.898974793147195e-09
cr55 3.0167755484295837e-37
cr56 8.346788089854363e-65
cr57 1.6496576756586508e-94
cr58 0.0
cr59 0.0
cr60 0.0
cr61 0.0
cr62 0.0
cr63 0.0
cr64 0.0
cr65 0.0
cr66 0.0
cr67 0.0
cr68 0.0
mn45 0.0
mn46 0.0
mn47 0.0
mn48 0.0
mn49 0.0
mn50 0.0
mn51 0.0
mn52 4.157848561754877e-89
mn53 9.291270173981618e-23
mn54 7.586535450313598e-45
mn55 2.673816605717068e-07
mn56 3.402411182165835e-33
mn57 1.1583345029276974e-60
mn58 1.976499509297323e-90
mn59 0.0
mn60 0.0
mn61 0.0
mn62 0.0
mn63 0.0
mn64 0.0
mn65 0.0
mn66 0.0
mn67 0.0
mn68 0.0
mn69 0.0
mn70 0.0
mn71 0.0
fe47 0.0
fe48 0.0
fe49 0.0
fe50 0.0
fe51 0.0
fe52 0.0
fe53 0.0
fe54 1.4313137229053924e-06
fe55 5.153900239361046e-29
fe56 2.2498998814988895e-05
fe57 5.201048617552955e-07
fe58 6.908950914556617e-08
fe59 8.335027391804098e-32
fe60 5.572000877201391e-20
fe61 3.1939919768623536e-48
fe62 1.0275817489919414e-76
fe63 0.0
fe64 0.0
fe65 0.0
fe66 0.0
fe67 0.0
fe68 0.0
fe69 0.0
fe70 0.0
fe71 0.0
fe72 0.0
fe73 0.0
fe74 0.0
co48 0.0
co49 0.0
co50 0.0
co51 0.0
co52 0.0
co53 0.0
co54 0.0
co55 0.0
co56 0.0
co57 0.0
co58 2.9968267236939633e-39
co59 6.810568070693483e-08
co60 1.9592661406513738e-25
co61 4.555352849312708e-47
co62 4.2604421344670426e-75
co63 1.745358846624826e-83
co64 0.0
co65 0.0
co66 0.0
co67 0.0
co68 0.0
co69 0.0
co70 0.0
co71 0.0
co72 0.0
co73 0.0
co74 0.0
co75 0.0
co76 0.0
co77 0.0
ni51 0.0
ni52 0.0
ni53 0.0
ni54 0.0
ni55 0.0
ni56 0.0
ni57 0.0
ni58 9.515680279871955e-07
ni59 1.87396607426638e-12
ni60 3.666366311379965e-07
ni61 1.5968094983100334e-08
ni62 5.080611972139952e-08
ni63 5.0014022031631664e-29
ni64 1.2924274546015222e-08
ni65 3.509453624279665e-35
ni66 5.009588870772488e-60
ni67 1.5618917892970293e-89
ni68 8.737889818967852e-83
ni69 0.0
ni70 0.0
ni71 0.0
ni72 0.0
ni73 0.0
ni74 0.0
ni75 0.0
ni76 0.0
ni77 0.0
ni78 0.0
ni79 0.0
cu52 0.0
cu53 0.0
cu54 0.0
cu55 0.0
cu56 0.0
cu57 0.0
cu58 0.0
cu59 0.0
cu60 0.0
cu61 4.174297057331395e-55
cu62 1.646420119335739e-76
cu63 1.0668667012870577e-08
cu64 1.6007845583708605e-33
cu65 4.7573952389467265e-09
cu66 2.0107540693309992e-36
cu67 1.1350944506118703e-52
cu68 2.9737293983559003e-59
cu69 4.616109876153729e-73
cu70 0.0
cu71 0.0
cu72 0.0
cu73 0.0
cu74 0.0
cu75 0.0
cu76 0.0
cu77 0.0
cu78 0.0
cu79 0.0
cu80 0.0
cu81 0.0
cu82 0.0
zn55 0.0
zn56 0.0
zn57 0.0
zn58 0.0
zn59 0.0
zn60 0.0
zn61 0.0
zn62 0.0
zn63 0.0
zn64 1.7497740547004532e-08
zn65 4.616854468159706e-31
zn66 9.999483727989217e-09
zn67 1.4719817606318668e-09
zn68 6.721058901707306e-09
zn69 1.3840166396414532e-35
zn70 2.2283951045551442e-10
zn71 2.3773813499654405e-38
zn72 5.721103713311615e-63
zn73 6.430866935578793e-92
zn74 0.0
zn75 0.0
zn76 0.0
zn77 0.0
zn78 0.0
zn79 0.0
zn80 0.0
zn81 0.0
zn82 0.0
zn83 0.0
zn84 0.0
ga57 0.0
ga58 0.0
ga59 0.0
ga60 0.0
ga61 0.0
ga62 0.0
ga63 0.0
ga64 0.0
ga65 1.0348343243360114e-79
ga66 0.0
ga67 1.0172855815086957e-77
ga68 3.2479765635908935e-80
ga69 6.319859497955997e-10
ga70 3.773390269065801e-36
ga71 4.197620049276314e-10
ga72 9.144154048654429e-35
ga73 1.1849316269832123e-59
ga74 1.7793417405520415e-86
ga75 0.0
ga76 0.0
ga77 0.0
ga78 0.0
ga79 0.0
ga80 0.0
ga81 0.0
ga82 0.0
ga83 0.0
ga84 0.0
ga85 0.0
ga86 0.0
ge59 0.0
ge60 0.0
ge61 0.0
ge62 0.0
ge63 0.0
ge64 0.0
ge65 0.0
ge66 0.0
ge67 0.0
ge68 0.0
ge69 0.0
ge70 7.486907907719714e-10
ge71 1.8927396204006875e-33
ge72 9.763361952041834e-10
ge73 2.7257733667679273e-10
ge74 1.2662399733399618e-09
ge75 1.1233652714661577e-35
ge76 2.6312217912894284e-10
ge77 1.3069910153430744e-35
ge78 1.689002788015203e-61
ge79 1.280074384618752e-90
ge80 0.0
ge81 0.0
ge82 0.0
ge83 0.0
ge84 0.0
ge85 0.0
ge86 0.0
ge87 0.0
ge88 0.0
ge89 0.0
as61 0.0
as62 0.0
as63 0.0
as64 0.0
as65 0.0
as66 0.0
as67 0.0
as68 0.0
as69 0.0
as70 0.0
as71 1.8766091292607515e-82
as72 0.0
as73 8.950431447776293e-81
as74 3.171626672745793e-81
as75 1.785413858259527e-10
as76 3.23315555699385e-34
as77 3.357815507807137e-35
as78 1.1964614931383583e-60
as79 4.525087455364968e-84
as80 0.0
as81 0.0
as82 0.0
as83 0.0
as84 0.0
as85 0.0
as86 0.0
as87 0.0
as88 0.0
as89 0.0
as90 0.0
as91 0.0
se64 0.0
se65 0.0
se66 0.0
se67 0.0
se68 0.0
se69 0.0
se70 0.0
se71 0.0
se72 0.0
se73 0.0
se74 1.701014216929934e-11
se75 1.1577331029463961e-33
se76 1.8055664465862214e-10
se77 1.4668990136083257e-10
se78 4.577060076923077e-10
se79 3.2862901227868645e-15
se80 9.548561365427892e-10
se81 1.8553363961494277e-36
se82 1.6828548930195039e-10
se83 9.278104384909311e-38
se84 2.123898721866324e-65
se85 7.479244088742295e-95
se86 0.0
se87 0.0
se88 0.0
se89 0.0
se90 0.0
se91 0.0
se92 0.0
se93 0.0
br66 0.0
br67 0.0
br68 0.0
br69 0.0
br70 0.0
br71 0.0
br72 0.0
br73 0.0
br74 0.0
br75 4.777633314985089e-89
br76 0.0
br77 7.067413832399979e-87
br78 2.4028997147496103e-76
br79 1.6819806860435911e-10
br80 3.389746478785443e-36
br81 1.629622835596921e-10
br82 1.8300005405273583e-34
br83 5.093727098410374e-37
br84 3.3266150410946894e-63
br85 4.258541078208368e-87
br86 0.0
br87 0.0
br88 0.0
br89 0.0
br90 0.0
br91 0.0
br92 0.0
br93 0.0
br94 0.0
br95 0.0
kr69 0.0
kr70 0.0
kr71 0.0
kr72 0.0
kr73 0.0
kr74 0.0
kr75 0.0
kr76 0.0
kr77 0.0
kr78 5.840326187967757e-12
kr79 3.4306708907934796e-36
kr80 3.766168745517721e-11
kr81 5.673920658394959e-16
kr82 1.8794402282943688e-10
kr83 1.8662297519890953e-10
kr84 9.17907290310593e-10
kr85 9.079813411708091e-32
kr86 2.779015043871551e-10
kr87 1.7121569410208899e-37
kr88 9.133906795673825e-64
kr89 4.946914402835285e-92
kr90 0.0
kr91 0.0
kr92 0.0
kr93 0.0
kr94 0.0
kr95 0.0
kr96 0.0
kr97 0.0
rb72 0.0
rb73 0.0
rb74 0.0
rb75 0.0
rb76 0.0
rb77 0.0
rb78 0.0
rb79 1.8132775270486318e-93
rb80 0.0
rb81 5.659049401133072e-92
rb82 4.186148454152104e-100
rb83 6.007742188605303e-89
rb84 7.866212288601273e-89
rb85 1.3886381111986187e-10
rb86 7.925932070175994e-34
rb87 5.6996597053453236e-11
rb88 3.497351952067842e-38
rb89 1.6043820897627892e-64
rb90 6.59091251119261e-92
rb91 0.0
rb92 0.0
rb93 0.0
rb94 0.0
rb95 0.0
rb96 0.0
rb97 0.0
rb98 0.0
rb99 0.0
sr75 0.0
sr76 0.0
sr77 0.0
sr78 0.0
sr79 0.0
sr80 0.0
sr81 0.0
sr82 0.0
sr83 0.0
sr84 3.828397383395013e-12
sr85 1.9964377612861385e-34
sr86 6.799378754315786e-11
sr87 4.748727527654894e-11
sr88 5.681814688533914e-10
sr89 9.243908506399878e-34
sr90 1.6245737612674264e-45
sr91 4.3990493566430597e-57
sr92 8.006033973771482e-77
sr93 0.0
sr94 1.3790950802719057e-89
sr95 0.0
sr96 0.0
sr97 0.0
sr98 0.0
sr99 0.0
sr100 0.0
sr101 0.0
y77 0.0
y78 0.0
y79 0.0
y80 0.0
y81 0.0
y82 0.0
y83 0.0
y84 0.0
y85 1.0815100294057886e-96
y86 0.0
y87 1.697992223029781e-94
y88 1.8705001719438172e-93
y89 1.3483573600570531e-10
y90 1.1114430464135287e-35
y91 1.646162291874619e-45
y92 2.1208452915201946e-71
y93 1.883597767779348e-88
y94 1.2667761717716225e-86
y95 0.0
y96 0.0
y97 0.0
y98 0.0
y99 0.0
y100 0.0
y101 0.0
y102 0.0
y103 0.0
zr80 0.0
zr81 0.0
zr82 0.0
zr83 0.0
zr84 0.0
zr85 0.0
zr86 0.0
zr87 0.0
zr88 0.0
zr89 1.5320945318527796e-50
zr90 1.6999421787917866e-10
zr91 3.725857413039155e-11
zr92 5.684952056313734e-11
zr93 1.1852591785823926e-16
zr94 5.754660032915151e-11
zr95 1.2224215970965567e-34
zr96 9.270370812047711e-12
zr97 6.723484959495875e-38
zr98 3.0476780531369974e-67
zr99 1.415715147473054e-97
zr100 0.0
zr101 0.0
zr102 0.0
zr103 0.0
zr104 0.0
zr105 0.0
nb83 0.0
nb84 0.0
nb85 0.0
nb86 0.0
nb87 0.0
nb88 0.0
nb89 0.0
nb90 0.0
nb91 3.2494352665909136e-58
nb92 7.7182239263993e-36
nb93 2.2034501540375498e-11
nb94 8.101607387804889e-17
nb95 5.907370852843406e-35
nb96 9.541572300427461e-53
nb97 4.780203616048023e-39
nb98 5.2387153018996635e-68
nb99 7.362720349902957e-96
nb100 0.0
nb101 0.0
nb102 0.0
nb103 0.0
nb104 0.0
nb105 0.0
nb106 0.0
nb107 0.0
mo85 0.0
mo86 0.0
mo87 0.0
mo88 0.0
mo89 0.0
mo90 0.0
mo91 0.0
mo92 1.1301606902324096e-11
mo93 1.6632548258108741e-19
mo94 7.058221383952896e-12
mo95 1.21002508136933e-11
mo96 1.2716609431347156e-11
mo97 7.276576072868968e-12
mo98 1.836974029204117e-11
mo99 5.909302216513532e-36
mo100 7.336582945652503e-12
mo101 2.165411286551125e-38
mo102 9.963985908134873e-65
mo103 1.330963897619854e-92
mo104 0.0
mo105 0.0
mo106 0.0
mo107 0.0
mo108 0.0
mo109 0.0
tc88 0.0
tc89 0.0
tc90 0.0
tc91 0.0
tc92 0.0
tc93 0.0
tc94 0.0
tc95 0.0
tc96 1.3526910530049695e-49
tc97 1.597457250701475e-16
tc98 6.227686219104074e-21
tc99 1.0238957409699159e-16
tc100 2.4219169239104015e-44
tc101 2.085889036755268e-38
tc102 1.9594796659264428e-66
tc103 1.327167728964996e-92
tc104 0.0
tc105 0.0
tc106 0.0
tc107 0.0
tc108 0.0
tc109 0.0
tc110 0.0
ru91 0.0
ru92 0.0
ru93 0.0
ru94 0.0
ru95 0.0
ru96 3.080981707509354e-12
ru97 1.9904832562210702e-36
ru98 1.040112489835395e-12
ru99 7.075490709545186e-12
ru100 6.997969470954408e-12
ru101 9.449396785473742e-12
ru102 1.7570998715296843e-11
ru103 2.8890055675014574e-34
ru104 1.037801352312342e-11
ru105 9.616472451120308e-37
ru106 1.1996511124781455e-58
ru107 5.801610508034882e-86
ru108 1.8821701494189065e-84
ru109 0.0
ru110 0.0
ru111 0.0
ru112 0.0
rh93 0.0
rh94 0.0
rh95 0.0
rh96 0.0
rh97 0.0
rh98 0.0
rh99 0.0
rh100 0.0
rh101 0.0
rh102 0.0
rh103 1.0862057943927425e-11
rh104 3.1243221092240146e-39
rh105 5.6062731793015694e-36
rh106 1.5656777427089295e-58
rh107 9.599557128133997e-75
rh108 1.1661671275850179e-85
rh109 0.0
rh110 0.0
rh111 0.0
rh112 0.0
rh113 0.0
rh114 0.0
pd96 0.0
pd97 0.0
pd98 0.0
pd99 0.0
pd100 0.0
pd101 0.0
pd102 4.2688283684059707e-13
pd103 5.445700069622031e-36
pd104 4.7026700886903915e-12
pd105 9.34222879190031e-12
pd106 1.1530149269912352e-11
pd107 1.7015094822528666e-15
pd108 1.1103298114910761e-11
pd109 1.9657408204625354e-36
pd110 4.906403344780654e-12
pd111 2.7010838409273314e-38
pd112 1.6706765904419169e-62
pd113 2.804965076036168e-90
pd114 3.651691169319845e-89
pd115 0.0
ag98 0.0
ag99 0.0
ag100 0.0
ag101 0.0
ag102 0.0
ag103 0.0
ag104 0.0
ag105 0.0
ag106 4.444512835382857e-52
ag107 7.442303552063009e-12
ag108 6.901771590065385e-39
ag109 6.908097834889951e-12
ag110 2.1181164428548236e-39
ag111 1.0771687394426109e-35
ag112 1.5709836191310968e-60
ag113 1.0378028198431558e-77
ag114 1.1584526028336272e-90
ag115 0.0
ag116 0.0
cd101 0.0
cd102 0.0
cd103 0.0
cd104 0.0
cd105 0.0
cd106 5.78745325711441e-13
cd107 4.944570469942786e-38
cd108 4.2666971934664605e-13
cd109 2.830858275584212e-35
cd110 5.803851857595548e-12
cd111 5.923888900825584e-12
cd112 1.1172313148655325e-11
cd113 5.667488873242541e-12
cd114 1.3341254170160293e-11
cd115 3.2609827579292714e-36
cd116 3.48202974964475e-12
cd117 2.3161393213669252e-38
in102 0.0
in103 0.0
in104 0.0
in105 0.0
in106 0.0
in107 0.0
in108 0.0
in109 0.0
in110 0.0
in111 0.0
in112 3.475622188399201e-86
in113 2.2851441808874027e-13
in114 4.5458480962702544e-41
in115 5.055773119177891e-12
in116 3.205326526272169e-40
in117 6.527271574032736e-39
in118 8.938549882344333e-64
