n 3.5443737860922523e-19
h1 2.1538670437327933e-13
he4 2.7880747998848756e-11
h2 1.0645757789300024e-30
h3 3.008292468856048e-27
he3 1.1220438042348496e-24
li6 3.6230186572685105e-35
li7 1.5209540730846933e-34
li8 3.796300843610578e-51
li9 4.0765801957500957e-60
be7 1.8507846893570065e-33
be9 2.2584538492110464e-37
be10 1.1709579321153447e-32
be11 2.0009638081513708e-54
be12 2.6913283076466047e-70
b8 3.0318795482168073e-50
b10 2.483376960265821e-30
b11 4.243934638346097e-20
b12 2.566431919249906e-35
b13 1.0716615990550157e-46
b14 1.505490304155137e-67
c10 0.0
c11 2.983596747484939e-20
c12 2.1323205685916802e-07
c13 9.425914047745468e-16
c14 3.62959043366862e-15
c15 3.137457162831047e-35
c16 1.7508554873425092e-48
c17 3.10545954213451e-69
c18 0.0
n11 0.0
n12 1.962789369575094e-36
n13 6.936428993773016e-20
n14 1.4104091930498734e-12
n15 6.626643708928731e-15
n16 8.97083438667908e-32
n17 3.2660167295520183e-41
n18 2.9393956720710126e-57
n19 2.816318269653213e-67
n20 8.430366441192074e-86
n21 0.0
o13 4.0133333816983354e-50
o14 2.0633463572094824e-26
o15 5.395585289544825e-13
o16 0.01861284706751047
o17 9.700235653398879e-14
o18 2.2252041454890868e-17
o19 3.7011198563197774e-30
o20 1.2980414944399143e-34
o21 4.682495876957186e-48
o22 4.936958364693547e-54
f16 6.31863638528796e-29
f17 9.365653543864382e-18
f18 1.0468086522055842e-17
f19 7.255646076041381e-20
f20 8.419926254863056e-25
f21 5.3270640898866024e-27
f22 1.2775386151085055e-37
f23 2.7111211608344607e-41
f24 7.113551301761832e-58
f25 7.836314650744439e-71
f26 9.60465061639353e-94
ne16 3.219606306888467e-46
ne17 3.1960726636873793e-43
ne18 1.724064961553616e-26
ne19 2.8604432118688797e-20
ne20 1.0135723111694243e-06
ne21 3.2346422985672235e-10
ne22 1.9588281901504272e-10
ne23 2.5646356984388942e-20
ne24 1.0781422279871874e-23
ne25 2.020645510439777e-36
ne26 1.3711721271827516e-46
ne27 7.511180799583448e-66
ne28 2.803903817589349e-85
ne29 0.0
na19 5.547072880034611e-44
na20 4.7705314015470906e-32
na21 1.2261629816470625e-17
na22 1.0101215997197894e-11
na23 7.98280449658682e-09
na24 1.8558903633937502e-13
na25 7.114893127574451e-18
na26 1.5217910878676467e-27
na27 9.008995446615898e-36
na28 1.0329895929575091e-50
na29 3.5063587300679505e-63
na30 1.3539866650168773e-80
na31 1.1520795168821795e-94
na32 0.0
mg20 7.502512204209702e-56
mg21 8.155102482480351e-42
mg22 1.9670778584681966e-22
mg23 4.4858823392091126e-11
mg24 2.4767492061196712e-05
mg25 7.217402359985727e-08
mg26 9.825828040107425e-08
mg27 1.0636459376687834e-14
mg28 3.606243109124776e-15
mg29 8.042994792193712e-29
mg30 1.1776351075480567e-37
mg31 1.4309699114743483e-54
mg32 4.7036574453403786e-64
mg33 2.8440370302753826e-81
mg34 2.836190204560264e-95
mg35 0.0
al22 4.809139302753203e-59
al23 7.122682255212146e-39
al24 1.0092981461559913e-23
al25 1.5291721397973107e-16
al26 9.000266028254933e-10
al27 5.321172633618238e-07
al28 4.54059708144631e-11
al29 3.6491521548251813e-13
al30 2.034422407579981e-22
al31 5.838955519056724e-28
al32 3.640911186023747e-41
al33 4.744905916110093e-51
al34 3.6048992684027873e-68
al35 1.1251607660495445e-78
al36 1.167541348219342e-96
al37 0.0
al38 0.0
si23 1.6372031996277115e-72
si24 3.9956727222105466e-49
si25 4.251640360338107e-33
si26 7.95983568415238e-20
si27 1.3449266188602269e-08
si28 0.013584525729103214
si29 1.976386796735937e-05
si30 1.1192547008202044e-05
si31 3.1042161201876466e-12
si32 2.3753764913666055e-13
si33 3.719380537524562e-25
si34 4.850470087762721e-32
si35 1.4177365081096405e-48
si36 1.4041730050698983e-56
si37 4.431495756075721e-74
si38 1.6356118105506904e-79
si39 3.7340963359868237e-97
si40 0.0
si41 0.0
p25 2.557588716838035e-68
p26 3.3540897447419523e-50
p27 1.0140909027841036e-34
p28 6.90581421972999e-21
p29 3.985796290543609e-13
p30 4.355396534202007e-09
p31 1.677345207145326e-05
p32 1.3711058168817535e-09
p33 5.108358992490528e-10
p34 8.509416689259611e-18
p35 2.7913631577505443e-22
p36 1.1067241190098144e-36
p37 5.994968079263577e-44
p38 1.886956932124093e-57
p39 5.2118854970063605e-65
p40 7.189907544755436e-80
p41 1.5482495473358435e-86
p42 0.0
p43 0.0
p44 0.0
s27 3.05328734814359e-66
s28 1.1016290131808827e-46
s29 1.3605548940793798e-30
s30 3.624315021281593e-19
s31 6.508565938130176e-10
s32 0.007700427667382133
s33 2.6468602074558857e-05
s34 0.0004708719075089163
s35 1.2697879003486247e-09
s36 7.596394162495232e-11
s37 8.689907554315182e-23
s38 5.975626043017014e-22
s39 5.214568405503439e-34
s40 2.9088600972999618e-39
s41 1.7048476932803558e-51
s42 8.602282050971939e-57
s43 1.6432003465218777e-73
s44 3.835575501444917e-83
s45 0.0
s46 0.0
s47 0.0
cl29 7.237155774006142e-68
cl30 4.165325584094944e-49
cl31 2.3617611767703594e-35
cl32 3.322282748744073e-23
cl33 3.221315822043094e-14
cl34 2.9022370150459107e-10
cl35 1.914554279148261e-05
cl36 1.3565654041942535e-08
cl37 1.272721927517627e-08
cl38 6.216884609336815e-17
cl39 1.4174174560201662e-18
cl40 1.5883846270387639e-27
cl41 3.618809227538004e-32
cl42 2.5739110908393187e-41
cl43 3.586474898520504e-42
cl44 1.0947814316438656e-54
cl45 3.825394345454217e-61
cl46 6.2891208772667664e-74
cl47 7.154782618944383e-88
cl48 0.0
cl49 0.0
cl50 0.0
ar31 1.0313616204213688e-65
ar32 1.2180410098018724e-47
ar33 7.310352188236003e-33
ar34 5.716036521259786e-21
ar35 1.5550448011869865e-13
ar36 0.0007097491173492967
ar37 4.169696627777582e-06
ar38 0.0004049391358770265
ar39 2.292337020414165e-10
ar40 2.0621985523164364e-11
ar41 8.394923892499062e-18
ar42 2.5747666168875328e-15
ar43 3.3412855490017256e-24
ar44 4.932156191700052e-25
ar45 1.9220958969684609e-35
ar46 5.662161342257449e-40
ar47 2.520237143372236e-52
ar48 6.957523573236102e-60
ar49 9.126317440481416e-77
ar50 8.065650961549462e-90
ar51 0.0
ar52 0.0
k32 1.713515920847431e-87
k33 6.505138910620472e-69
k34 7.20119178854736e-51
k35 1.0999418007824402e-37
k36 8.032778694728034e-27
k37 2.81480681267176e-16
k38 8.597216171676313e-11
k39 1.738144465548202e-05
k40 1.5868686114428914e-09
k41 1.2174252744418113e-10
k42 2.969497867425203e-13
k43 5.038075094274352e-15
k44 1.0323222813451972e-19
k45 1.089678233536652e-22
k46 2.925762827171017e-29
k47 2.577687436325516e-32
k48 4.841056105452924e-44
k49 5.996095966732074e-52
k50 6.477301508063062e-68
k51 9.819398208390018e-80
k52 3.805581202150874e-97
k53 0.0
k54 0.0
k55 0.0
ca35 1.0747101387142087e-65
ca36 1.430782554606262e-49
ca37 4.0757231999762954e-37
ca38 2.6361785150997666e-23
ca39 9.223733765952497e-15
ca40 0.00028735028949659495
ca41 6.484720063220142e-07
ca42 7.73511904187553e-06
ca43 3.735160297678751e-09
ca44 7.148854355920653e-10
ca45 1.4651339609985542e-12
ca46 1.1645920961291271e-12
ca47 1.9769455032255125e-14
ca48 6.124672075846365e-13
ca49 3.920927937613921e-23
ca50 1.1013369926481156e-30
ca51 8.141280809635604e-43
ca52 6.2656620741521025e-55
ca53 2.61270525984727e-69
ca54 2.1231136308995566e-83
ca55 0.0
ca56 0.0
ca57 0.0
sc36 2.0396972844676075e-87
sc37 5.336428138260834e-71
sc38 6.529397112252967e-53
sc39 1.1596034453366672e-41
sc40 1.4299684357045232e-30
sc41 2.968613058166666e-18
sc42 9.94711374940728e-15
sc43 2.5081618366386574e-10
sc44 3.1064522780264274e-10
sc45 9.31936352095773e-10
sc46 1.5589581609048036e-12
sc47 8.097360394621018e-13
sc48 2.9380422199093946e-13
sc49 3.843898395146919e-14
sc50 1.718176540441201e-22
sc51 1.2528752470768738e-29
sc52 3.276773019223709e-40
sc53 1.3365329396216501e-50
sc54 1.380504501873115e-62
sc55 1.8850477614999842e-77
sc56 1.6906973377498914e-91
sc57 0.0
sc58 0.0
sc59 0.0
ti39 8.169871042814153e-69
ti40 5.3498656137446775e-55
ti41 1.885312008176282e-42
ti42 1.741201390944692e-27
ti43 1.3513953685252728e-20
ti44 5.286970822012826e-08
ti45 8.328633786385736e-09
ti46 2.50659014722762e-06
ti47 3.6411593300403856e-08
ti48 8.026699377742637e-09
ti49 1.2393037698965951e-11
ti50 3.2349891745882496e-11
ti51 3.0978752427869907e-18
ti52 7.3010471956298755e-22
ti53 2.402637083830396e-31
ti54 1.8690755148537567e-36
ti55 2.212907707674763e-49
ti56 5.9198622284467085e-59
ti57 2.7950674544299447e-75
ti58 3.507083217730011e-80
ti59 6.14174612716173e-97
ti60 0.0
ti61 0.0
ti62 0.0
v41 2.427590545880779e-75
v42 2.3813090819833404e-60
v43 3.880893459488981e-44
v44 5.5625296722625776e-33
v45 2.1846099365230792e-20
v46 1.9202755282931267e-14
v47 3.9565809392527323e-10
v48 4.500746232548751e-09
v49 6.674836377839632e-09
v50 5.523770712851283e-11
v51 4.81508913498007e-10
v52 3.628867979855638e-15
v53 3.789023572790645e-19
v54 1.160370860098828e-27
v55 1.9924315595702912e-33
v56 1.2071838362939476e-44
v57 7.019874123297882e-53
v58 3.7605058410461323e-66
v59 1.8015958181077914e-77
v60 3.133415443865337e-91
v61 0.0
v62 0.0
v63 0.0
v64 0.0
v65 0.0
cr43 5.4619549235131e-75
cr44 2.144571337537005e-55
cr45 2.000948045030671e-45
cr46 3.3790719163516165e-27
cr47 1.079736136609649e-19
cr48 4.493385213985474e-09
cr49 9.277578232394707e-09
cr50 2.418366323474552e-06
cr51 1.5128837183648518e-07
cr52 8.345605178858378e-07
cr53 1.5932643585379556e-10
cr54 7.142388971527077e-11
cr55 2.927950672115918e-18
cr56 2.117145279335493e-20
cr57 4.315326568215568e-30
cr58 2.4812272506701933e-35
cr59 7.464441772643282e-48
cr60 1.0346558116585726e-52
cr61 3.531073699699013e-66
cr62 8.187521691635748e-69
cr63 1.5172261656471642e-83
cr64 6.832391610581907e-89
cr65 0.0
cr66 0.0
cr67 0.0
cr68 0.0
mn45 1.1452039930829255e-74
mn46 5.1176512624899865e-61
mn47 1.1273814925697838e-43
mn48 6.27203849061826e-32
mn49 1.1919711804877094e-20
mn50 2.427453435229953e-15
mn51 5.300834313671821e-10
mn52 6.8517963774473445e-09
mn53 2.1245061882520445e-07
mn54 1.2761533125998351e-09
mn55 6.317510589503174e-10
mn56 3.443127978609041e-15
mn57 5.233668756929562e-18
mn58 1.6076777529805095e-25
mn59 1.1052224179436638e-28
mn60 1.1701686090175661e-37
mn61 2.5817513756539568e-45
mn62 2.1666149751967547e-57
mn63 3.963282298654101e-62
mn64 9.92014557475576e-75
mn65 1.8874736936324313e-77
mn66 9.684093190692769e-92
mn67 0.0
mn68 0.0
mn69 0.0
mn70 0.0
mn71 0.0
fe47 5.833657168167293e-75
fe48 2.9294591502967906e-54
fe49 2.981993204234444e-43
fe50 5.0269618398860445e-29
fe51 9.429417346783685e-21
fe52 2.5999867321407014e-10
fe53 1.976146802809328e-09
fe54 1.3419599220130907e-05
fe55 8.05442582788646e-07
fe56 1.0065667011436446e-05
fe57 2.1086627876902316e-09
fe58 5.035277233207826e-09
fe59 8.513145361217444e-13
fe60 9.155753555193497e-11
fe61 7.295451610127185e-20
fe62 2.8475601305396952e-24
fe63 2.9639834126882464e-35
fe64 2.5989118884220647e-37
fe65 4.684160651343145e-50
fe66 1.9021778798070014e-53
fe67 4.218374279099425e-66
fe68 2.9029747993118567e-74
fe69 6.377811174810347e-89
fe70 6.720895573051418e-89
fe71 0.0
fe72 0.0
fe73 0.0
fe74 0.0
co48 9.894302105805937e-95
co49 8.50320594553829e-66
co50 5.7480221772030354e-61
co51 2.0340801635645434e-45
co52 4.675685424678289e-36
co53 4.811865489385869e-23
co54 1.8051971428728034e-16
co55 9.20290043213418e-10
co56 1.900973317469365e-09
co57 1.6589266287497297e-07
co58 7.462091191831586e-10
co59 4.79726766312778e-09
co60 1.2824472746889149e-11
co61 1.9422758923771693e-12
co62 2.4840190116394936e-19
co63 7.29880478629115e-23
co64 1.3355291321538747e-31
co65 4.643742511451422e-34
co66 6.503907648614549e-45
co67 1.0054954981485029e-49
co68 4.84709792198478e-62
co69 7.540909688998963e-66
co70 4.111164045081266e-80
co71 1.1090952890953275e-81
co72 2.131079690246118e-96
co73 0.0
co74 0.0
co75 0.0
co76 0.0
co77 0.0
ni51 4.83972765630364e-75
ni52 2.5637898436794794e-57
ni53 1.1889700019448822e-46
ni54 4.6698463451855113e-32
ni55 8.913992856929314e-23
ni56 2.364783728002003e-10
ni57 9.756717581188577e-10
ni58 1.0135525702258376e-06
ni59 4.1902404054370175e-08
ni60 7.472340207376245e-06
ni61 3.1738378652434837e-09
ni62 2.524546096174542e-07
ni63 5.741882963160084e-12
ni64 7.343603656478117e-10
ni65 7.156602426621442e-17
ni66 8.74568143205669e-13
ni67 1.2200295139774962e-21
ni68 1.2427016913842939e-26
ni69 8.443119963408905e-38
ni70 1.430878646924309e-40
ni71 2.998349375370092e-53
ni72 4.81246847860319e-55
ni73 6.953218109596779e-68
ni74 4.623669488646729e-70
ni75 9.325786826685216e-84
ni76 1.7837583128788053e-89
ni77 0.0
ni78 0.0
ni79 0.0
cu52 3.0394132360002115e-96
cu53 3.840166497741824e-79
cu54 4.766771853806218e-65
cu55 5.76916719143043e-50
cu56 8.046908957209278e-39
cu57 1.4017804212430094e-25
cu58 2.8057982381214446e-20
cu59 2.777093563817922e-15
cu60 2.067908255925807e-14
cu61 4.883354237656026e-11
cu62 3.269049129410969e-12
cu63 3.1443078802985803e-09
cu64 2.409419485214631e-12
cu65 2.5703178230751964e-10
cu66 7.944103774951793e-16
cu67 9.862423741492522e-13
cu68 1.9260638140080475e-20
cu69 2.2599434419264565e-22
cu70 2.863651765711104e-32
cu71 2.1037352390356364e-33
cu72 5.695584088507367e-44
cu73 5.583229501581915e-45
cu74 1.7300022809558087e-55
cu75 2.573772282072772e-60
cu76 4.781352436401958e-71
cu77 4.475628190259156e-76
cu78 1.290728006076572e-88
cu79 4.1401652162441934e-89
cu80 0.0
cu81 0.0
cu82 0.0
zn55 2.2333440766983283e-81
zn56 2.1554744391084545e-64
zn57 8.876820056864616e-53
zn58 3.8871201793136664e-38
zn59 1.043793848491821e-30
zn60 1.1584536097609983e-20
zn61 1.1352622766590838e-18
zn62 7.122157173328302e-13
zn63 3.4151038006969293e-13
zn64 1.932880294995709e-09
zn65 8.414909300595544e-12
zn66 8.415685724764643e-09
zn67 1.2076832094170484e-12
zn68 3.273438825734178e-10
zn69 5.314800040795613e-17
zn70 2.7942755239232236e-12
zn71 1.8480806790628157e-20
zn72 9.031007174912765e-16
zn73 2.363461574975507e-25
zn74 4.388264356382078e-28
zn75 8.887994425408769e-39
zn76 7.731483703364648e-41
zn77 5.324999242859013e-52
zn78 7.612833824813303e-55
zn79 4.6264142104365397e-67
zn80 1.4714361072882417e-70
zn81 7.593031541528214e-88
zn82 0.0
zn83 0.0
zn84 0.0
ga57 1.553720142017502e-87
ga58 6.698904020206149e-74
ga59 1.7194232985090303e-57
ga60 6.29946226699912e-48
ga61 4.0228470272181926e-37
ga62 3.458593824639795e-29
ga63 3.815074370458627e-23
ga64 6.14029271457802e-21
ga65 1.8034479804886152e-16
ga66 9.139782569418314e-17
ga67 1.401529300853186e-12
ga68 1.93812742845392e-14
ga69 5.055250260862365e-11
ga70 5.2276574149418474e-15
ga71 7.710816472380709e-12
ga72 8.807879031326722e-18
ga73 3.54931977108668e-13
ga74 2.339686643557288e-20
ga75 2.435951654466402e-22
ga76 2.3341855033646255e-31
ga77 2.587012568146926e-34
ga78 1.2536275214960818e-43
ga79 1.3476598082590448e-45
ga80 1.3610829079487968e-57
ga81 8.919761768208987e-58
ga82 1.670229477173869e-73
ga83 2.984813342401127e-86
ga84 0.0
ga85 0.0
ga86 0.0
ge59 9.840184008197415e-91
ge60 5.1669721827445775e-73
ge61 3.8215948406275473e-63
ge62 2.8555166336060633e-49
ge63 1.6511645228153293e-41
ge64 3.5092161817178096e-28
ge65 1.1260283024613393e-26
ge66 6.335048076801844e-19
ge67 1.3371329155120078e-18
ge68 1.9063907521363942e-12
ge69 1.0798119478372794e-13
ge70 1.6030137736598938e-09
ge71 5.246498014374285e-13
ge72 2.5851918092828975e-09
ge73 8.884593028403984e-14
ge74 2.7083635037929523e-11
ge75 5.0583739640033647e-17
ge76 1.079176392507659e-12
ge77 3.3870351085349207e-20
ge78 3.622020221686751e-17
ge79 7.363771228426653e-26
ge80 9.187825234340075e-31
ge81 2.6219344266086637e-41
ge82 2.122424880843959e-43
ge83 9.158990446486233e-58
ge84 3.686348038251392e-68
ge85 6.290258723150207e-84
ge86 9.213937048124423e-96
ge87 0.0
ge88 0.0
ge89 0.0
as61 7.034015114932079e-96
as62 5.870492551663042e-84
as63 9.530952298021734e-69
as64 6.924273673368968e-59
as65 3.91253870145159e-45
as66 3.482786515948255e-38
as67 5.059749925650774e-30
as68 2.1346575228726785e-27
as69 1.2100837897516972e-20
as70 6.250707186571365e-20
as71 8.54396046416946e-15
as72 2.717336190522991e-16
as73 9.795234152878073e-12
as74 7.487813822952475e-15
as75 1.2211813746240857e-11
as76 9.38382477042474e-15
as77 2.046443900691546e-12
as78 2.8591097960098897e-18
as79 9.077702160908427e-18
as80 6.230302251594504e-25
as81 1.1440663820918323e-28
as82 1.3291522557965194e-37
as83 3.002267467071171e-38
as84 3.131551882468904e-51
as85 1.307750114142355e-61
as86 4.223784632286997e-75
as87 3.1505443372300562e-83
as88 2.7644856794824898e-98
as89 0.0
as90 0.0
as91 0.0
se64 4.836014099829511e-84
se65 5.337611822547895e-75
se66 1.876061435326003e-58
se67 2.1776109622732663e-50
se68 3.739186939859004e-36
se69 1.3330050712409594e-33
se70 5.366562327870524e-23
se71 1.258116379427043e-21
se72 4.1019529978037473e-13
se73 1.0295466868050611e-13
se74 3.2147629262070826e-09
se75 8.760950035314166e-12
se76 6.947374182905363e-09
se77 9.390947186291154e-13
se78 6.310526709080377e-11
se79 4.062453734943654e-14
se80 1.2067777694090156e-11
se81 3.6122754975661206e-17
se82 3.0932573229716195e-13
se83 2.198077411122711e-21
se84 4.515247634784817e-24
se85 1.836851720809776e-35
se86 2.5356566211642995e-41
se87 9.467128113297903e-54
se88 2.0430150479520176e-62
se89 1.1627102942852101e-76
se90 3.8205186259483005e-89
se91 0.0
se92 0.0
se93 0.0
br66 4.2886076685085155e-96
br67 8.686387775764891e-79
br68 9.090460050584387e-69
br69 1.161617998298431e-53
br70 7.522245544297793e-45
br71 6.992548685396964e-34
br72 3.3011014568592453e-31
br73 3.8386878669068844e-22
br74 1.9922413057681745e-20
br75 3.114242183544304e-15
br76 9.288665273730175e-16
br77 4.9954838207092124e-12
br78 6.401702627890863e-15
br79 6.6237476549551146e-12
br80 3.207039057224949e-15
br81 4.717875210599553e-12
br82 2.8197793461624327e-14
br83 1.4322922931938216e-13
br84 1.0387389861031081e-19
br85 4.702597141032971e-21
br86 1.2979653008102737e-31
br87 4.58967626556151e-37
br88 3.714116310466891e-48
br89 1.2965562629988264e-50
br90 1.570220572656006e-63
br91 8.654247733452007e-75
br92 2.7011157684993253e-90
br93 0.0
br94 0.0
br95 0.0
kr69 4.470433496971183e-84
kr70 4.5302776478608913e-66
kr71 9.998066463471498e-56
kr72 3.469694030987335e-42
kr73 5.439010100000281e-37
kr74 4.743159428519308e-25
kr75 1.431251257763711e-21
kr76 3.03129178046157e-14
kr77 1.0028428634915689e-13
kr78 1.0186273743152357e-09
kr79 9.21791846015974e-12
kr80 7.891936222623704e-09
kr81 1.1506530190603824e-11
kr82 3.291620418315706e-10
kr83 3.997648558582812e-13
kr84 2.0893091148016515e-11
kr85 1.2179788680489797e-13
kr86 4.8120116611310896e-12
kr87 4.014928755687398e-21
kr88 1.4792324585490902e-20
kr89 1.2846027459810206e-30
kr90 1.3001153552566683e-36
kr91 1.5940876481881456e-48
kr92 9.705538890878896e-55
kr93 3.7180415598277485e-69
kr94 1.791504011220163e-77
kr95 3.736025738643965e-93
kr96 0.0
kr97 0.0
rb72 1.356172342518405e-69
rb73 3.446596045691411e-60
rb74 5.944774778689911e-48
rb75 1.7261612588154306e-36
rb76 7.664292002060781e-31
rb77 3.12644774374668e-23
rb78 1.0185319990408734e-21
rb79 2.030726400647928e-16
rb80 2.8996131562120684e-17
rb81 4.0890747778324635e-13
rb82 8.154488803917447e-15
rb83 4.44304123904582e-12
rb84 2.0235938940682964e-14
rb85 7.416973882290615e-12
rb86 1.3316401316257614e-13
rb87 3.3182413937368887e-12
rb88 3.7347827057873136e-20
rb89 9.944070433411907e-23
rb90 6.084535412349113e-32
rb91 8.398512791150147e-35
rb92 6.027936078742462e-46
rb93 7.044753893872695e-47
rb94 3.847133355388775e-60
rb95 4.170318612684219e-67
rb96 5.51848980575987e-82
rb97 5.9514463773181366e-86
rb98 1.294132860544943e-99
rb99 0.0
sr75 8.413800141792606e-61
sr76 6.369019654826114e-44
sr77 5.413234731976215e-37
sr78 4.8790600911071916e-27
sr79 9.735338945603302e-24
sr80 4.4138154255240456e-17
sr81 6.627518460960424e-16
sr82 2.085096664731963e-11
sr83 1.5088106942137197e-12
sr84 1.7006961467021727e-09
sr85 2.2244113126644982e-11
sr86 1.7181713726475175e-09
sr87 1.3240146677810662e-11
sr88 1.005940604020012e-09
sr89 6.187756590956077e-16
sr90 9.07290150973919e-15
sr91 2.9978858767027707e-22
sr92 1.6667172747811397e-20
sr93 3.812898268233566e-30
sr94 9.04963113632783e-33
sr95 3.5931657594057565e-45
sr96 2.620862556766805e-50
sr97 2.0901664563349581e-63
sr98 1.959073975251316e-62
sr99 1.2974676071847271e-76
sr100 2.953997199265403e-85
sr101 2.0629729938932047e-100
y77 5.3687991411297134e-61
y78 2.481638189380897e-49
y79 7.08477078729953e-38
y80 1.274079491395797e-33
y81 2.1127445745584084e-26
y82 5.474005446276571e-24
y83 8.801099415060964e-19
y84 3.5753359017442e-19
y85 8.313292795147837e-15
y86 5.38761788607546e-15
y87 4.254947719101385e-12
y88 1.3616769708516573e-12
y89 4.265510307862611e-10
y90 1.2926083210520843e-15
y91 2.0950926604697243e-15
y92 6.393183835111569e-19
y93 5.758251161521481e-18
y94 1.1956751363996013e-25
y95 1.960141568122531e-27
y96 2.5047117642167037e-37
y97 1.0307382024479759e-44
y98 1.5313510461879136e-56
y99 8.624840406780642e-56
y100 1.5822458345387608e-66
y101 4.375248077029155e-67
y102 7.502144754570608e-78
y103 5.804888418164553e-89
zr80 2.1095653263468853e-46
zr81 5.893398655951664e-41
zr82 6.908401240371722e-31
zr83 6.500250286683933e-27
zr84 8.896171740716892e-21
zr85 1.036384972483702e-19
zr86 1.6255441326165007e-14
zr87 7.353222208518414e-14
zr88 1.1173733842463855e-10
zr89 2.455537830563779e-11
zr90 5.738290112439239e-09
zr91 8.548036736927744e-14
zr92 1.5110473656360902e-13
zr93 6.904245356708267e-16
zr94 2.4668508004512478e-14
zr95 5.272871441863937e-17
zr96 1.7587127968602896e-15
zr97 6.229954146375283e-25
zr98 7.629877711949393e-31
zr99 3.126044525321718e-42
zr100 1.0830603302869107e-38
zr101 2.2710702998520534e-49
zr102 5.5636574369741025e-53
zr103 2.2231828186677628e-64
zr104 5.71409089250896e-73
zr105 7.407751820300833e-86
nb83 2.1085771979992135e-42
nb84 2.1835779641165947e-37
nb85 4.123964335729153e-30
nb86 3.3244869912785944e-27
nb87 5.166370958092514e-22
nb88 4.156735178524283e-21
nb89 2.0825760226871147e-16
nb90 1.472144541052978e-15
nb91 1.8891578582783912e-12
nb92 3.6063808566336914e-16
nb93 1.163557092325653e-16
nb94 7.591913080577311e-19
nb95 5.667552392233401e-17
nb96 5.972258145972436e-21
nb97 4.529118661718027e-19
nb98 1.233172249668592e-27
nb99 6.029819986299905e-33
nb100 4.6423390242862974e-42
nb101 6.596726024362523e-39
nb102 1.803874938420322e-48
nb103 1.2430033130710916e-48
nb104 1.2056570958916974e-59
nb105 1.5850342173777395e-63
nb106 6.050890358830933e-76
nb107 2.3468738440065098e-85
mo85 2.5929029212626062e-45
mo86 3.3003820596887504e-37
mo87 5.804949286567027e-32
mo88 1.354951149440912e-25
mo89 1.0496055890088463e-22
mo90 1.2781806472663962e-17
mo91 1.10696165353991e-16
mo92 2.0389565219413434e-12
mo93 4.1217261500000654e-15
mo94 2.969066219519963e-14
mo95 1.1171797864334212e-16
mo96 1.6874862285750137e-14
mo97 2.2291210031711803e-17
mo98 6.549144533546224e-15
mo99 6.541535885493638e-20
mo100 5.235043889328545e-16
mo101 6.4927435084262325e-25
mo102 2.2362810152045175e-23
mo103 7.319149860935982e-33
mo104 3.581522499652101e-33
mo105 2.1011768927934407e-43
mo106 1.0804071995225356e-47
mo107 8.170367253311462e-59
mo108 2.8494520093166172e-67
mo109 2.3013710096484417e-80
tc88 1.5497046947847334e-43
tc89 2.261238792723906e-36
tc90 3.1121512739743095e-32
tc91 1.683662100753138e-26
tc92 5.7693926146040556e-24
tc93 1.1265016272253293e-18
tc94 7.205928095504266e-18
tc95 2.0410897370382663e-16
tc96 3.269241379232133e-19
tc97 2.473054963618322e-17
tc98 1.3423526446710902e-20
tc99 1.1897156647750499e-17
tc100 3.2140659357265914e-23
tc101 1.0289213410623807e-19
tc102 7.59097121832922e-28
tc103 2.776520430419688e-29
tc104 3.417816853135555e-36
tc105 1.1441619041212812e-32
tc106 4.1004967990730226e-42
tc107 2.3980328800504128e-40
tc108 5.774440024330819e-51
tc109 2.1460923048015075e-58
tc110 2.259980915697193e-70
ru91 1.2709613078363047e-38
ru92 5.7570552774217784e-30
ru93 4.61073282480184e-25
ru94 6.08466459129233e-16
ru95 3.2031247891812805e-15
ru96 2.6247970710274e-13
ru97 1.4747965403886931e-15
ru98 1.280418470221487e-13
ru99 4.6018357150076217e-17
ru100 1.3710684230535702e-14
ru101 2.787519215640595e-18
ru102 7.64211965098834e-15
ru103 2.735932071946812e-19
ru104 3.6840759726893196e-15
ru105 1.7736290792225528e-20
ru106 2.0756617965521709e-16
ru107 4.262297976833246e-25
ru108 2.868796681367094e-25
ru109 5.210906830377276e-35
ru110 6.002474813026393e-36
ru111 7.688053150981965e-47
ru112 2.7341075907836004e-54
rh93 1.3386519552726712e-41
rh94 4.009191818543514e-35
rh95 5.739663686430197e-25
rh96 1.7579602711443298e-23
rh97 4.815339228035599e-20
rh98 3.269712781143069e-19
rh99 2.328135931199279e-16
rh100 2.4667496801940125e-17
rh101 1.9916740312248638e-16
rh102 1.5822047701613925e-20
rh103 4.669875445041561e-17
rh104 5.536282288539582e-21
rh105 4.038014549486147e-17
rh106 2.3521426508947753e-23
rh107 1.185165765230801e-19
rh108 2.8135996988151118e-27
rh109 4.2801825051655993e-29
rh110 1.1923472413903473e-37
rh111 3.5828085693263106e-36
rh112 9.974817063197341e-46
rh113 3.755697873262545e-46
rh114 3.8853831343978364e-57
pd96 9.104708557081285e-27
pd97 6.651784849368235e-23
pd98 4.9821085090786455e-17
pd99 7.128838199079767e-16
pd100 2.1244395371654863e-13
pd101 2.9858581758680624e-15
pd102 4.0914246359658453e-13
pd103 2.0947412631797592e-16
pd104 1.2159022912625038e-14
pd105 1.9943092863203863e-18
pd106 5.011186118236831e-15
pd107 4.514267625586724e-19
pd108 3.865630905024774e-15
pd109 1.0369368778527545e-19
pd110 1.0446489777516432e-15
pd111 2.016953191323772e-22
pd112 2.801298892582721e-18
pd113 2.686599297039657e-27
pd114 1.8808937987908277e-28
pd115 1.6337549745047009e-38
ag98 1.1111792082511648e-33
ag99 9.089693293268249e-27
ag100 4.9533003697528635e-25
ag101 1.0311449002430926e-21
ag102 1.5087858737901914e-20
ag103 5.305910896808886e-17
ag104 2.9250601218926584e-16
ag105 8.153709649787405e-16
ag106 4.301004515278406e-19
ag107 1.1655596445533678e-16
ag108 3.509025153200571e-20
ag109 1.1499216173429512e-16
ag110 3.2313404560226965e-21
ag111 2.864433048542706e-17
ag112 4.170432300403228e-24
ag113 2.0934581143417252e-22
ag114 1.176331411466305e-30
ag115 6.413058713114703e-31
ag116 3.300729502280794e-40
cd101 5.605441484234012e-27
cd102 2.0457356459480358e-19
cd103 4.7130981348210035e-18
cd104 2.2854136830205943e-14
cd105 1.4084475105102235e-15
cd106 4.909645854853639e-13
cd107 9.309595456311194e-16
cd108 7.563613371201835e-14
cd109 1.3224448644552426e-17
cd110 1.2564732114199631e-14
cd111 1.640021477608201e-18
cd112 8.26493291012273e-15
cd113 6.657335525671087e-19
cd114 6.445939537624505e-15
cd115 1.9773679453794495e-19
cd116 2.0271448637583333e-15
cd117 1.906046481859043e-23
in102 8.89402278754131e-39
in103 1.6850884630217217e-30
in104 2.5946822913857886e-28
in105 4.48298847430557e-24
in106 6.003643141801712e-24
in107 9.729000149866291e-20
in108 3.4027514902927984e-18
in109 6.261115245546819e-16
in110 2.6730464803367197e-16
in111 3.5714395358236277e-16
in112 2.9965569545283473e-20
in113 1.3881836159044284e-17
in114 2.9513436445518656e-21
in115 1.2218291871502003e-17
in116 1.128904394853951e-22
in117 6.037803191380052e-19
in118 4.643698624524017e-26
