n 7.621241114921102e-25
h1 4.47851849774929e-20
he4 3.925773996239135e-15
h2 1.7781595667435517e-35
h3 3.0139187633836415e-23
he3 2.652473785889491e-23
li6 1.000456371240219e-40
li7 2.2471798007951525e-28
li8 1.375543034204966e-45
li9 9.350908969931181e-62
be7 2.1895062663107048e-33
be9 3.622637937536474e-44
be10 1.6821095862983314e-36
be11 1.1383229403056312e-62
be12 5.599911393386773e-81
b8 3.736593775987836e-57
b10 7.177524115255452e-26
b11 2.5271289253038617e-16
b12 1.0980736135986013e-33
b13 4.0278690153656356e-51
b14 1.030453446234601e-74
c10 0.0
c11 2.2696587975732155e-23
c12 0.0009801891926946979
c13 4.715897764064456e-15
c14 5.661265493044549e-10
c15 6.817460038481544e-32
c16 1.9119910406172266e-48
c17 9.17745311925038e-73
c18 0.0
n11 0.0
n12 1.3199727335664492e-44
n13 1.559616409916893e-16
n14 2.9194746012688238e-09
n15 2.9336319818170713e-10
n16 6.536505364167872e-25
n17 1.120693187409813e-39
n18 1.8733386023083466e-56
n19 1.6733778099485098e-73
n20 1.31511777323065e-91
n21 0.0
o13 3.528885707402131e-60
o14 5.081154971294378e-23
o15 7.288752114123501e-16
o16 0.04164476516043698
o17 1.6921703865195315e-09
o18 8.24474251685269e-11
o19 4.724116025829087e-22
o20 4.764545900263915e-31
o21 3.044585258537725e-44
o22 1.6392416931917524e-57
f16 5.421299528841106e-44
f17 1.8190007176099394e-22
f18 8.40416814904362e-12
f19 3.9388381927847036e-10
f20 1.7230661995822498e-30
f21 8.380305189104774e-40
f22 9.143771452990499e-46
f23 2.3488494231089133e-52
f24 2.5306095559831077e-68
f25 1.1751209140506401e-85
f26 0.0
ne16 1.0855154868772938e-84
ne17 5.473919583013179e-83
ne18 1.5077132195139102e-36
ne19 3.8493523584347e-22
ne20 0.011984511067851982
ne21 2.1796749308515425e-05
ne22 2.947539497811533e-05
ne23 2.3201748200345074e-15
ne24 9.183377176828634e-18
ne25 7.748152822485607e-33
ne26 1.4744284407126207e-48
ne27 6.483086406578336e-69
ne28 0.0
ne29 0.0
na19 1.6721792153716677e-62
na20 9.287602511875372e-37
na21 6.592087430409602e-15
na22 8.87704665222495e-08
na23 0.00026092018988951973
na24 1.9465562037537254e-07
na25 3.0249133240840176e-15
na26 2.543777076317811e-29
na27 6.611714721323574e-44
na28 9.760197124283408e-61
na29 1.144391368855278e-76
na30 9.59439842453015e-94
na31 0.0
na32 0.0
mg20 1.827296718748761e-80
mg21 1.818829832331587e-51
mg22 1.5202188499238245e-25
mg23 1.6790675559235024e-15
mg24 0.0018970036090923904
mg25 0.0004473536286243647
mg26 0.0002912508172450638
mg27 3.226197642937501e-10
mg28 4.129568324938204e-11
mg29 1.5709251185513628e-25
mg30 2.325380533283407e-40
mg31 2.4022546006730843e-56
mg32 8.314755961960005e-72
mg33 2.0991425171008368e-88
mg34 0.0
mg35 0.0
al22 7.796805111736917e-77
al23 9.922043811624395e-49
al24 6.558412709958904e-29
al25 1.383670483130673e-14
al26 6.322203258754089e-08
al27 0.00014598828866367619
al28 1.9256996131404802e-10
al29 3.1961036442128217e-13
al30 3.030489192535129e-26
al31 4.0212651396383355e-40
al32 2.9006918881603954e-56
al33 4.0945411811942333e-72
