n 2.206772344031752e-15
h1 6.504507727848562e-10
he4 4.457132783313477e-09
h2 1.8830830961201574e-24
h3 1.232982817329081e-25
he3 1.2029533736749033e-21
li6 6.19732169415255e-29
li7 2.62587869770778e-31
li8 1.9013729703285012e-44
li9 1.1144839326088647e-52
be7 5.776560333165215e-28
be9 4.323733838697076e-30
be10 6.446460685876762e-28
be11 6.3605710640462845e-46
be12 1.60114038920257e-59
b8 4.437407351557374e-40
b10 1.0477460029478116e-25
b11 2.5448154493908308e-20
b12 2.0047832602060253e-33
b13 1.9000858576149273e-43
b14 8.968737092221395e-61
c10 0.0
c11 3.518328152194461e-18
c12 4.241779029362888e-07
c13 1.6448822593511836e-14
c14 3.5003233920738576e-17
c15 6.440886294523092e-34
c16 1.562116805842314e-45
c17 1.2894910719709998e-62
c18 0.0
n11 0.0
n12 5.697115065043145e-31
n13 5.329341043180544e-17
n14 2.1215159374007073e-12
n15 2.4335787425805917e-14
n16 1.3771521885174057e-28
n17 3.000021291570909e-37
n18 7.968619722756855e-51
n19 1.5594511621163814e-60
n20 6.497889454764859e-76
n21 0.0
o13 9.178339418050018e-42
o14 2.9653636887839774e-22
o15 6.252339428659668e-13
o16 0.014405031237055254
o17 7.677844164088539e-14
o18 2.128623898541354e-20
o19 2.251600621634899e-31
o20 9.931840466269844e-37
o21 2.4708907653065126e-48
o22 1.0524564871388126e-54
f16 1.8108674860806197e-28
f17 1.4909578905991932e-14
f18 1.5014619927905425e-17
f19 7.950324692871513e-19
f20 2.4395583915872152e-24
f21 2.6431539002985793e-27
f22 6.901880992175261e-37
f23 1.3521235214765124e-40
f24 1.0581079424356641e-54
f25 4.647887966290927e-66
f26 4.0137229594219937e-82
ne16 2.9559454739860226e-46
ne17 1.9331051601799398e-38
ne18 8.401891509280115e-22
ne19 8.578077468593621e-20
ne20 3.5034695513279383e-07
ne21 9.45837486214361e-13
ne22 1.0983341604339558e-13
ne23 1.4390738026234436e-22
ne24 7.957695137785536e-27
ne25 6.434149096349749e-38
ne26 3.859272573711953e-47
ne27 3.8830548897612427e-63
ne28 7.637949698131945e-77
ne29 2.004372924401012e-93
na19 2.5964981857273006e-35
na20 4.0850156941196954e-29
na21 9.402330995709635e-16
na22 1.559249430818811e-12
na23 1.308473622594185e-10
na24 3.636680028294464e-17
na25 3.121064810992948e-20
na26 4.682410990519063e-29
na27 1.6907366177606126e-36
na28 1.9510711070479546e-49
na29 2.1289052074621237e-60
na30 4.196317187060267e-75
na31 2.892050965000249e-87
na32 0.0
mg20 5.441355187189881e-45
mg21 5.590310433228578e-37
mg22 5.512061870176327e-20
mg23 8.298409826619795e-11
mg24 1.7122358837762144e-05
mg25 8.812967834600183e-10
mg26 1.5238717388635365e-09
mg27 9.859867526612088e-17
mg28 1.1417679263870501e-21
mg29 2.213218988918095e-33
mg30 1.6206959419676925e-41
mg31 1.0028525638505788e-55
mg32 9.466927005688546e-65
mg33 4.128287995203017e-79
mg34 2.3234549178756787e-91
mg35 0.0
al22 1.8819784776988245e-50
al23 9.127627529001797e-33
al24 7.33259765758871e-21
al25 2.5547903179618476e-14
al26 1.3017438916412982e-10
al27 2.087926604856844e-07
al28 3.8528838252544045e-13
al29 6.2307485990974816e-15
al30 2.0042804000156352e-23
al31 3.703243830067399e-30
al32 9.968958411122818e-42
al33 1.2452858177581247e-50
al34 4.15478930530842e-65
al35 1.3474821989880461e-74
al36 9.8822417518103e-90
al37 0.0
al38 0.0
si23 4.3386827588531945e-61
si24 3.784218005662557e-41
si25 1.8246369944834097e-28
si26 4.070915504778278e-18
si27 5.061413985877555e-08
si28 0.014182182674785566
si29 1.528983760875535e-05
si30 1.0744840823799073e-05
si31 4.528653549405123e-12
si32 1.6844321781519657e-14
si33 7.801625075129315e-25
si34 1.0803276343703093e-30
si35 1.364954046471619e-44
si36 4.351622474486084e-53
si37 1.1372564336413358e-67
si38 3.582496056246643e-77
si39 9.526382282527103e-92
si40 0.0
si41 0.0
p25 4.619523477632569e-56
p26 6.621009845190282e-42
p27 9.341945831617791e-30
p28 8.414051028586469e-18
p29 5.41078886612839e-11
p30 1.1166356058864053e-08
p31 1.5293630376696207e-05
p32 3.176260206668923e-09
p33 3.7708751752463116e-10
p34 1.9765558166978833e-17
p35 1.4825296363632916e-21
p36 7.3908833259621925e-34
p37 6.422672480912296e-41
p38 1.6254425979383804e-52
p39 1.0716817716881882e-60
p40 2.843693487563136e-73
p41 3.0754592675439535e-83
p42 3.312462917292815e-98
p43 0.0
p44 0.0
s27 1.3308580468777793e-54
s28 1.9851594467776902e-39
s29 1.1236789916624693e-25
s30 1.6876885680079026e-16
s31 7.520607319911335e-10
s32 0.008960992983663733
s33 2.5620764042180786e-05
s34 0.0004468523789299998
s35 1.0387069222225112e-09
s36 3.9204366048762896e-11
s37 1.6432858186819614e-21
s38 9.497522308522653e-27
s39 2.992043000836811e-37
s40 9.724332270022789e-43
s41 2.6822932837476467e-53
s42 8.905974293063183e-61
s43 9.640143332084585e-75
s44 3.744890801304636e-85
s45 5.699831327091476e-100
s46 0.0
s47 0.0
cl29 8.689890954566159e-56
cl30 2.97707409836158e-40
cl31 4.097043951121128e-29
cl32 2.398223917107341e-20
cl33 9.022375202838925e-12
cl34 2.0682367193386717e-09
cl35 2.3064044640691254e-05
cl36 1.870905388146023e-08
cl37 1.0057990085230607e-08
cl38 1.893493019625162e-16
cl39 6.933663231070289e-21
cl40 4.2332620953655276e-29
cl41 5.321717351986178e-34
cl42 2.3229183017677202e-42
cl43 1.8531892823575702e-46
cl44 2.1149409836814244e-57
cl45 1.2908472131211902e-65
cl46 7.76455877867064e-77
cl47 4.44312831669018e-89
cl48 0.0
cl49 0.0
cl50 0.0
ar31 2.445085703441222e-53
ar32 4.877373135674051e-39
ar33 3.4887218798308e-28
ar34 1.8303476608707665e-17
ar35 2.627576996044849e-12
ar36 0.0008611270037863863
ar37 4.445101962855707e-06
ar38 0.0004158443440694759
ar39 3.579101700247786e-10
ar40 5.208764450112605e-12
ar41 7.239183801577945e-19
ar42 1.5747507344537772e-19
ar43 1.1686820758853154e-27
ar44 3.008355893442508e-29
ar45 1.2405727075101214e-38
ar46 1.2061921839942988e-43
ar47 1.6739234207861172e-54
ar48 1.6731556049466156e-63
ar49 8.260198132248768e-78
ar50 1.7978870194722206e-89
ar51 0.0
ar52 0.0
k32 2.8694235742898726e-70
k33 1.4953068065440326e-55
k34 7.070454792842649e-43
k35 1.7441551400669303e-30
k36 8.209063146190645e-23
k37 1.4048437579476244e-13
k38 5.484623359865589e-10
k39 2.2482559709617625e-05
k40 1.8148179754757355e-09
k41 1.325883314761323e-10
k42 2.81686136700422e-15
k43 4.672067331719996e-17
k44 1.7428519204049467e-22
k45 5.872223185229551e-26
k46 5.350568219316554e-32
k47 1.3505561228193238e-34
k48 8.460936120567321e-42
k49 1.2386663335287045e-49
k50 2.2081995047876492e-63
k51 5.469910818126718e-74
k52 8.863300912181709e-89
k53 0.0
k54 0.0
k55 0.0
ca35 1.1990742104360296e-54
ca36 4.323524368118037e-40
ca37 4.142539052551555e-31
ca38 1.7631285654488623e-19
ca39 2.5914954887123325e-13
ca40 0.0003991068865938735
ca41 7.368353817866966e-07
ca42 8.10146534446579e-06
ca43 2.7247060792003638e-09
ca44 6.376750681706736e-10
ca45 2.454986954166691e-14
ca46 7.848385271948554e-15
ca47 2.4942334326864695e-19
ca48 3.902560928748482e-16
ca49 2.555590544739776e-25
ca50 2.2766630033651578e-33
ca51 4.490473462281838e-44
ca52 2.8449297662064175e-55
ca53 1.2443261529564515e-67
ca54 4.61849260910375e-80
ca55 2.0524517376662389e-94
ca56 0.0
ca57 0.0
sc36 1.9221845480706517e-71
sc37 1.3947339596053953e-56
sc38 6.015303535749826e-45
sc39 9.632439801770927e-34
sc40 1.0320398757569162e-25
sc41 4.5955617244484456e-15
sc42 3.007129463894352e-13
sc43 2.200762407152015e-09
sc44 2.7885783234686237e-10
sc45 1.0087339639297003e-09
sc46 6.713610956246622e-13
sc47 2.634955202472028e-13
sc48 1.3820305817286662e-15
sc49 2.79607685028119e-16
sc50 4.5955854335150425e-24
sc51 6.499259886088722e-31
sc52 1.7800474256341762e-40
sc53 5.49965908750141e-50
sc54 1.416013422098012e-60
sc55 1.5068359897100872e-73
sc56 1.0004703888896334e-85
sc57 1.0194054463627975e-98
sc58 0.0
sc59 0.0
ti39 1.3806544838035567e-57
ti40 1.8251739548205263e-44
ti41 2.936435214310334e-35
ti42 1.0166106343742206e-22
ti43 4.1673183975518526e-18
ti44 7.338260658642188e-08
ti45 1.116649363459795e-08
ti46 3.799570072024916e-06
ti47 4.5955814756220307e-08
ti48 1.0598406556602544e-08
ti49 6.348286412248521e-12
ti50 5.342878630005506e-12
ti51 8.366058222597942e-19
ti52 4.9212522167083264e-24
ti53 1.3256177676471967e-32
ti54 9.335589306915676e-40
ti55 5.410810082908764e-51
ti56 1.139007135287175e-60
ti57 2.760181038161687e-74
ti58 2.7617029211475875e-84
ti59 3.430720832603804e-98
ti60 0.0
ti61 0.0
ti62 0.0
v41 3.4789142707078906e-60
v42 3.178592144498341e-49
v43 1.0849373473948628e-35
v44 6.326160582329779e-28
v45 1.7358130848165897e-17
v46 1.5084265539881813e-13
v47 3.3999952939367702e-09
v48 6.203188904863621e-09
v49 9.69380203485846e-09
v50 9.042555873820163e-11
v51 6.148161679538094e-10
v52 4.3701224839642616e-15
v53 3.8213743141679397e-19
v54 4.456288031925106e-27
v55 9.603819772958552e-33
v56 9.803062043742459e-43
v57 1.1507906885144175e-50
v58 3.4959586654470574e-62
v59 2.178825490676997e-72
v60 2.338416304421736e-84
v61 7.923023636853273e-95
v62 0.0
v63 0.0
v64 0.0
v65 0.0
cr43 7.973126647901376e-61
cr44 8.504062403905489e-45
cr45 7.218489627865468e-38
cr46 2.233203685569576e-23
cr47 7.832444998416703e-18
cr48 7.455491034917928e-09
cr49 1.5118664475027793e-08
cr50 4.515340357570147e-06
cr51 2.5743547047497286e-07
cr52 1.5625456325215531e-06
cr53 2.4014150920142414e-10
cr54 6.152221533543568e-12
cr55 7.161813071240665e-19
cr56 1.9516743750376477e-23
cr57 4.0554658036917695e-32
cr58 5.250891522696271e-38
cr59 7.652649140125963e-49
cr60 1.996845163429162e-54
cr61 5.619554487043648e-66
cr62 2.965819266269409e-74
cr63 1.0759365819069655e-86
cr64 1.6607162545428168e-96
cr65 0.0
cr66 0.0
cr67 0.0
cr68 0.0
mn45 1.1711874043904149e-59
mn46 4.475468764692413e-50
mn47 3.85262481046636e-36
mn48 1.5207292992627023e-27
mn49 6.065570176809692e-18
mn50 5.97567252751341e-14
mn51 3.82766781296428e-09
mn52 1.3610362799944763e-08
mn53 4.3168874874339506e-07
mn54 2.3515868070505756e-09
mn55 8.068008427440728e-10
mn56 3.644210243424899e-15
mn57 1.266756785645422e-18
mn58 9.155431183258693e-26
mn59 1.0076189432628703e-28
mn60 5.451862701897765e-36
mn61 9.269843850908569e-43
mn62 1.9352541917708198e-53
mn63 1.1745403080666299e-60
mn64 1.3322716381617451e-71
mn65 1.6271365358730047e-79
mn66 1.078387152278012e-91
mn67 0.0
mn68 0.0
mn69 0.0
mn70 0.0
mn71 0.0
fe47 3.9436456552738015e-61
fe48 8.119386311617465e-45
fe49 1.4280392053329022e-36
fe50 6.455682121932486e-25
fe51 1.851014483031962e-18
fe52 5.389083208677689e-10
fe53 3.932577687661637e-09
fe54 2.7683531502445343e-05
fe55 1.438042576433332e-06
fe56 9.651535437008619e-06
fe57 8.928258431910786e-10
fe58 4.649074734926286e-10
fe59 8.88565463351891e-16
fe60 4.4917426046814284e-13
fe61 2.2011495214828825e-21
fe62 2.8636532212762616e-26
fe63 5.4734344398318596e-36
fe64 1.4005222402820449e-42
fe65 1.087709191743196e-53
fe66 7.256798038442205e-61
fe67 7.845431427905875e-72
fe68 1.7542971641798985e-81
fe69 7.142182832727232e-94
fe70 0.0
fe71 0.0
fe72 0.0
fe73 0.0
fe74 0.0
co48 1.5400903599500606e-76
co49 3.891953355913468e-58
co50 1.7878596341550923e-50
co51 1.250292279101149e-37
co52 1.4185911616195334e-30
co53 5.458332835872656e-20
co54 7.341360598094041e-15
co55 9.965171826962907e-09
co56 6.12762874119827e-09
co57 2.089677354844806e-07
co58 5.328904127849592e-10
co59 1.5307958671159741e-09
co60 3.087998753164271e-14
co61 4.5099458738720825e-14
co62 1.00653637385391e-20
co63 2.0559650441717753e-23
co64 1.8624771163897091e-31
co65 1.829104994150175e-32
co66 6.466994051195802e-42
co67 4.229450413901704e-46
co68 7.554231578600495e-57
co69 5.659162742008623e-64
co70 3.3075589700571524e-76
co71 9.542920879860028e-84
co72 2.7128784137156386e-96
co73 0.0
co74 0.0
co75 0.0
co76 0.0
co77 0.0
ni51 1.235091343232691e-61
ni52 2.6917547734918537e-47
ni53 4.744166182213566e-39
ni54 1.8020985539297656e-27
ni55 5.391443875776286e-20
ni56 5.714998367883942e-10
ni57 1.6543265711912596e-09
ni58 1.1762482880499393e-06
ni59 3.258732200512208e-08
ni60 3.96559426747249e-06
ni61 8.422577057404567e-10
ni62 8.514535745667514e-08
ni63 2.1752195666412222e-13
ni64 4.28185436864921e-11
ni65 6.7495213050069984e-18
ni66 8.009433624403298e-15
ni67 5.602177447626846e-23
ni68 4.721405434905141e-28
ni69 6.809013785291805e-38
ni70 3.2281902892665647e-44
ni71 2.761296721739644e-55
ni72 3.6049961689715597e-62
ni73 2.721177070257218e-73
ni74 1.0487537876095719e-79
ni75 2.0256917794736082e-91
ni76 0.0
ni77 0.0
ni78 0.0
ni79 0.0
cu52 3.972046671593299e-78
cu53 3.205289439065016e-64
cu54 2.0260620764661575e-53
cu55 1.9838125732489696e-41
cu56 1.4122268011841906e-32
cu57 6.622390271260069e-22
cu58 5.983371500222925e-18
cu59 1.8428003346368235e-13
cu60 2.45487426423264e-13
cu61 2.3777094451225835e-10
cu62 2.385869020242246e-12
cu63 1.5610517198408293e-09
cu64 3.66724968460021e-13
cu65 3.499442391008912e-11
cu66 8.17078241158137e-17
cu67 1.4945080502592993e-14
cu68 8.256017628779291e-22
cu69 1.1956364212926684e-24
cu70 1.876778825124003e-33
cu71 1.3615137623418183e-33
cu72 5.916350351589519e-43
cu73 4.634213520834362e-47
cu74 1.8571597022959438e-56
cu75 1.0447705708436227e-64
cu76 2.9459423245393495e-74
cu77 1.4205460415083835e-83
cu78 1.7500645307318115e-94
cu79 0.0
cu80 0.0
cu81 0.0
cu82 0.0
zn55 2.83792651318058e-66
zn56 6.483335516998981e-53
zn57 1.1286908760827342e-43
zn58 4.990657001704662e-32
zn59 2.434030532686114e-26
zn60 2.7128713684569118e-18
zn61 2.4676857684374096e-17
zn62 1.174130198020255e-12
zn63 4.467984737053718e-13
zn64 9.439558707284884e-10
zn65 2.464563561798319e-12
zn66 3.0010051923824407e-09
zn67 4.1307718611998956e-14
zn68 7.400545242393144e-11
zn69 3.268088376153502e-17
zn70 5.085449926725613e-14
zn71 1.8349782841540573e-21
zn72 2.17675168303585e-18
zn73 5.147775849971087e-27
zn74 3.1272244625051884e-31
zn75 8.923206333419198e-41
zn76 2.030780904833228e-46
zn77 2.3250819247144306e-56
zn78 4.1845829216944186e-64
zn79 1.0338562208175056e-74
zn80 9.219930391468647e-83
zn81 2.2886823119294827e-97
zn82 0.0
zn83 0.0
zn84 0.0
ga57 9.968059444912731e-71
ga58 4.265818825883964e-60
ga59 4.3070615552510455e-47
ga60 9.501121608675866e-40
ga61 3.705238288556585e-31
ga62 1.056209728496889e-25
ga63 1.0448092424046689e-20
ga64 2.7459070235244696e-19
ga65 2.6545057404342476e-15
ga66 1.989800796811045e-16
ga67 2.0798444633849042e-12
ga68 2.0086379334096652e-14
ga69 1.4148433277216213e-11
ga70 5.279051897982478e-16
ga71 2.3700119089372826e-13
ga72 6.283034797142642e-19
ga73 2.688405071878413e-15
ga74 3.831449954474199e-22
ga75 8.1979781347494e-26
ga76 2.978683714622556e-34
ga77 5.394971659589824e-37
ga78 4.4140179543184344e-45
ga79 6.191827487769539e-50
ga80 1.5614430286759545e-60
ga81 6.409672844451789e-67
ga82 1.9523639855541117e-80
ga83 9.668220611164449e-92
ga84 0.0
ga85 0.0
ga86 0.0
ge59 2.333981988368067e-73
ge60 2.1651928020359152e-59
ge61 7.39575906953e-52
ge62 6.236569810128637e-41
ge63 1.3120078860218686e-35
ge64 9.881458611047796e-26
ge65 2.896599948670188e-24
ge66 2.614603537300664e-18
ge67 4.967869480818791e-18
ge68 1.1714587524933213e-12
ge69 1.0813842427247694e-13
ge70 6.531402539667976e-10
ge71 1.1693491777851752e-13
ge72 9.663577698061012e-10
ge73 6.28577564735201e-15
ge74 2.964298956563637e-12
ge75 1.0848264885935387e-17
ge76 2.967030141895435e-14
ge77 2.914190249106094e-21
ge78 6.010191669351071e-21
ge79 6.978398508595123e-29
ge80 9.167749112089996e-34
ge81 3.4160591230871823e-43
ge82 1.0603978191395574e-49
ge83 4.709423551273355e-62
ge84 3.392519425457079e-72
ge85 1.6024160842381142e-85
ge86 1.400957957816315e-96
ge87 0.0
ge88 0.0
ge89 0.0
as61 5.490635131376685e-77
as62 6.058453525208341e-68
as63 6.365968798427387e-56
as64 4.023949086086011e-49
as65 7.673235307488687e-39
as66 2.6399090408918012e-33
as67 5.0379544733998746e-27
as68 4.343075078916036e-25
as69 4.736060638444659e-19
as70 1.0308574536058703e-18
as71 4.3239190151981476e-14
as72 1.0029437861223495e-15
as73 8.096426156134287e-12
as74 2.8739512566878648e-15
as75 2.201437609488819e-12
as76 5.886429553776353e-17
as77 1.2579167816051338e-13
as78 4.390974366417933e-20
as79 3.975324756451442e-20
as80 5.717788435680529e-27
as81 3.47001631955493e-29
as82 3.017396435735558e-37
as83 1.4416165351105057e-40
as84 6.73862148437986e-52
as85 1.9793279497881623e-61
as86 4.523917108594665e-73
as87 1.607145743871367e-83
as88 4.614814758508594e-96
as89 0.0
as90 0.0
as91 0.0
se64 3.4977747374299794e-68
se65 7.1826814360155465e-62
se66 1.3874379411229718e-49
se67 4.312376158519865e-43
se68 1.8270319134442326e-32
se69 2.5409344384936513e-30
se70 4.366237615503374e-22
se71 1.3369600639409079e-20
se72 2.6592664665208194e-13
se73 1.1010844146818208e-13
se74 1.367382586306842e-09
se75 1.8672066756586468e-12
se76 2.751059577737092e-09
se77 1.398978886898382e-13
se78 1.91453943094075e-11
se79 5.650667429854661e-16
se80 7.618626948395892e-13
se81 5.717163519136532e-18
se82 4.903506758075972e-15
se83 1.5305294852538444e-22
se84 1.3153477309425439e-26
se85 1.3367252623670116e-36
se86 2.549746257542266e-45
se87 5.312417652134746e-56
se88 2.5583963196541476e-66
se89 2.4966680788571163e-78
se90 1.2611565997452026e-89
se91 0.0
se92 0.0
se93 0.0
br66 3.5275239999557244e-78
br67 3.71258084914071e-65
br68 2.467973713213777e-57
br69 6.197419313865825e-46
br70 4.034772210172902e-39
br71 1.5507981076834688e-30
br72 2.9586116920189504e-28
br73 2.745812471684767e-20
br74 4.3364313256703555e-19
br75 2.7934591128248412e-14
br76 1.0099132880546123e-15
br77 6.072395307139833e-12
br78 2.843107260440744e-15
br79 3.1672138279390086e-12
br80 9.643632496317029e-16
br81 6.473564855331594e-13
br82 3.0271373989659637e-17
br83 3.5127993199237372e-15
br84 2.447372823552075e-21
br85 1.2017029547093999e-23
br86 4.408585332626968e-33
br87 4.385029055639448e-41
br88 7.500343649735717e-51
br89 2.4030185879678156e-59
br90 1.716163554520703e-70
br91 5.283826300350212e-81
br92 4.895806167451072e-94
br93 0.0
br94 0.0
br95 0.0
kr69 1.89912012142746e-69
kr70 6.252770696498993e-56
kr71 7.311647965221717e-48
kr72 1.8465912832621546e-37
kr73 6.015924692949919e-33
kr74 9.917820412984049e-24
kr75 8.841036168022178e-21
kr76 2.3329476091387333e-14
kr77 8.094843272433149e-14
kr78 4.4924131036613354e-10
kr79 2.368057678034876e-12
kr80 3.1062872807729597e-09
kr81 1.3031928200836555e-12
kr82 1.1376564679219854e-10
kr83 1.2263430520676201e-14
kr84 4.163135474089344e-12
kr85 4.0833741872884903e-16
kr86 5.955052114977431e-13
kr87 3.2987257825646185e-21
kr88 4.696542742313594e-28
kr89 4.945910497636348e-37
kr90 2.49245217718028e-45
kr91 1.0170590478828356e-55
kr92 2.132690431770681e-65
kr93 2.259064908007726e-77
kr94 9.37495914572935e-88
kr95 0.0
kr96 0.0
kr97 0.0
rb72 8.693159594145188e-60
rb73 2.716650755723735e-51
rb74 1.4381595945302524e-41
rb75 1.0728326659649252e-32
rb76 3.1539684109166015e-28
rb77 2.034268089237838e-21
rb78 2.48794427059558e-20
rb79 2.499053369181164e-15
rb80 6.805020182944339e-17
rb81 9.083901752128836e-13
rb82 3.624579679750837e-15
rb83 2.7549541000529073e-12
rb84 4.442902167915989e-15
rb85 2.4925530129014238e-12
rb86 6.542076814561406e-15
rb87 5.70302265394769e-13
rb88 2.548800469384542e-20
rb89 1.4642635883634745e-26
rb90 5.972348125185394e-35
rb91 2.752614327490427e-42
rb92 4.244747796426334e-52
rb93 2.692964826309622e-60
rb94 1.2609627648957862e-71
rb95 3.4017594490016656e-81
rb96 9.514253399154362e-94
rb97 0.0
rb98 0.0
rb99 0.0
sr75 7.353792293557474e-52
sr76 8.264493716696588e-39
sr77 2.303488467976773e-33
sr78 1.9943960427225036e-25
sr79 8.333447006243722e-23
sr80 5.230394361378434e-17
sr81 6.414128982260381e-16
sr82 1.2489047944405188e-11
sr83 7.46335873132863e-13
sr84 8.906879750898093e-10
sr85 5.869778894353572e-12
sr86 7.557246783881723e-10
sr87 2.840814221783072e-12
sr88 3.6130842372704486e-10
sr89 7.963396966817053e-17
sr90 3.018499526310975e-22
sr91 7.419369872916577e-30
sr92 1.9993543513278245e-36
sr93 5.027372029062233e-45
sr94 2.247442185761649e-52
sr95 3.966885006647798e-63
sr96 7.777650380772892e-72
sr97 7.896722063892623e-83
sr98 1.5134143395397305e-85
sr99 0.0
sr100 0.0
sr101 0.0
y77 3.877486174246995e-52
y78 4.8336782936882255e-43
y79 5.642748145162703e-34
y80 1.087186946887992e-30
y81 2.2147968396087836e-24
y82 1.9175809202406434e-22
y83 2.167892102484565e-17
y84 3.3525221999501213e-18
y85 4.8369113393625633e-14
y86 4.322149347514468e-15
y87 3.5364374581437155e-12
y88 6.141180939977246e-13
y89 1.7737601094534103e-10
y90 2.518643612954574e-16
y91 2.931480801388867e-21
y92 5.33440624315077e-28
y93 9.797588114290596e-34
y94 8.286788174802897e-41
y95 1.9790362364851534e-45
y96 2.6647930760975717e-52
y97 4.364642926324546e-61
y98 3.068220963795434e-71
y99 2.1642768574303815e-79
y100 1.6852633385552188e-86
y101 2.0612022314119663e-91
y102 0.0
y103 0.0
zr80 5.711893105425869e-40
zr81 5.657408438662918e-37
zr82 9.520160616216675e-29
zr83 9.990946987225281e-26
zr84 2.4686193986893566e-20
zr85 1.68964750803354e-19
zr86 1.3718095875461015e-14
zr87 6.407556267384104e-14
zr88 8.001320692701623e-11
zr89 1.3500002964564874e-11
zr90 2.873694771514872e-09
zr91 2.411885546200938e-14
zr92 1.2345231749154265e-17
zr93 1.9222424847995775e-23
zr94 3.857583956942709e-23
zr95 8.53317521461537e-29
zr96 4.229831972535576e-28
zr97 8.754917403288596e-37
zr98 1.8479267699355103e-44
zr99 2.1790840186610922e-54
zr100 7.118422660849839e-57
zr101 1.371132085877488e-66
zr102 1.2513210668496616e-74
zr103 7.167436871980356e-85
zr104 1.5806247463542752e-93
zr105 0.0
nb83 1.0516839397539508e-37
nb84 6.613311010829893e-34
nb85 1.112723508359384e-27
nb86 1.8094997928482756e-25
nb87 1.7370862791831156e-20
nb88 1.0975994124998638e-19
nb89 2.034806505159409e-15
nb90 3.203999730185185e-15
nb91 2.3696673207716397e-12
nb92 1.6041359402687888e-16
nb93 1.7408105268438128e-19
nb94 1.1957694132068607e-24
nb95 1.2245146837162187e-24
nb96 1.4430875049464542e-30
nb97 5.800572982930838e-32
nb98 7.469248040125508e-40
nb99 1.551451757267667e-41
nb100 1.0963864150277167e-48
nb101 6.249813006517121e-51
nb102 9.474072583272526e-59
nb103 2.9504666946418623e-63
nb104 4.470230579522042e-73
nb105 3.984749836140483e-80
nb106 5.834999833026035e-91
nb107 9.595961920837096e-100
mo85 3.3205678572774446e-40
mo86 8.70541402277247e-34
mo87 6.344227106352091e-30
mo88 1.6277146902433836e-24
mo89 3.0198503463487003e-22
mo90 1.5386638566769472e-17
mo91 1.0714659770072792e-16
mo92 8.752463769885978e-13
mo93 9.08853584430612e-16
mo94 4.501886385601603e-15
mo95 6.814647072544022e-19
mo96 1.944496470998501e-17
mo97 4.908714401956782e-23
mo98 5.282818417580713e-22
mo99 3.767512300752114e-28
mo100 1.4072830320180695e-25
mo101 1.4481409184916162e-33
mo102 3.362647477434809e-34
mo103 8.548882037360292e-43
mo104 5.65893013632287e-48
mo105 3.257578127546552e-57
mo106 3.6851776057838116e-64
mo107 4.7629777491574375e-74
mo108 4.276396633318962e-82
mo109 1.7703078210077664e-93
tc88 6.34901484964051e-39
tc89 7.220381908499971e-33
tc90 6.540910218608835e-30
tc91 1.805387664382181e-24
tc92 1.7140897654628453e-22
tc93 1.0381662418302905e-17
tc94 1.2180656236290119e-17
tc95 2.708236289904541e-16
tc96 9.372147909210967e-20
tc97 1.599505529667184e-18
tc98 1.2484400331428262e-23
tc99 8.196777148794148e-23
tc100 4.252253808619629e-29
tc101 1.5115682852345341e-27
tc102 3.872694113147823e-35
tc103 1.951167447886549e-33
tc104 4.318805943730137e-41
tc105 9.722782398564733e-40
tc106 3.820996523435808e-48
tc107 1.0805186331428473e-52
tc108 4.038047514602031e-62
tc109 2.4507635425085395e-69
tc110 6.324127977557712e-80
ru91 1.8649494243786256e-34
ru92 1.834712568347938e-28
ru93 6.647015554137264e-24
ru94 4.2614510885999973e-16
ru95 1.812600859528784e-15
ru96 9.329469911019306e-14
ru97 6.660258970567981e-16
ru98 3.8435540438825487e-14
ru99 5.8322006107676384e-18
ru100 3.7867676275610415e-16
ru101 3.898053725464809e-21
ru102 5.206025505737153e-19
ru103 1.060075794150434e-23
ru104 5.9201534895441625e-21
ru105 9.247723160373796e-28
ru106 2.9327778775999335e-25
ru107 3.112176888867381e-33
ru108 1.1682362689467143e-38
ru109 1.8737233125006121e-47
ru110 4.3356148660935706e-54
ru111 8.886810590870924e-64
ru112 4.3879591695347236e-71
rh93 1.685818149316401e-37
rh94 8.390990268920422e-32
rh95 3.5768190394929227e-23
rh96 5.16372939240909e-22
rh97 8.375633518782236e-19
rh98 5.105917236435351e-19
rh99 4.1228539350870247e-16
rh100 4.924816767458581e-19
rh101 6.65084974665825e-17
rh102 1.1312788790619182e-21
rh103 1.0128040111436974e-19
rh104 5.689539220068419e-25
rh105 1.8422895572383283e-22
rh106 5.191790961649877e-29
rh107 4.135588049618433e-28
rh108 2.9326911677506033e-35
rh109 1.8877645696126173e-36
rh110 4.47284671617208e-44
rh111 1.1037897221315999e-44
rh112 6.68517027726886e-53
rh113 6.425668409057277e-58
rh114 1.0824310540440941e-67
pd96 3.3876152676099657e-25
pd97 5.7959504044233785e-22
pd98 4.4530966615712284e-17
pd99 5.39328638645994e-16
pd100 7.772336385148414e-14
pd101 1.2813398526583033e-15
pd102 1.2635363196165542e-13
pd103 2.5032590897967966e-17
pd104 1.8542310521685948e-15
pd105 5.4934270386576e-20
pd106 6.951330447012e-18
pd107 5.429190288690172e-23
pd108 1.6629787869615448e-20
pd109 1.159891927415639e-25
pd110 5.100399784367949e-23
pd111 1.5607975601496897e-30
pd112 4.213929929655049e-29
pd113 2.9048817234212844e-37
pd114 7.800831658511067e-43
pd115 8.302840758231277e-52
ag98 1.816750756450805e-30
ag99 1.1688035593908589e-24
ag100 2.476290357210553e-23
ag101 2.3592509300672634e-20
ag102 1.1981402634962366e-19
ag103 8.183409992905979e-17
ag104 5.08399980385705e-18
ag105 5.356028123719436e-16
ag106 4.7332202106243454e-20
ag107 9.571429583119522e-19
ag108 2.360721900787213e-23
ag109 4.092607521497631e-21
ag110 2.3405375759310725e-26
ag111 1.071710471410447e-23
ag112 3.279882283905178e-30
ag113 3.481026667630341e-32
ag114 1.388805161030867e-39
ag115 2.4962099708404464e-37
ag116 9.332455710805375e-46
cd101 3.744845814914276e-25
cd102 4.391985660671114e-19
cd103 7.874737630988287e-18
cd104 1.1489059634625352e-14
cd105 1.064505768008975e-15
cd106 1.6772524383705307e-13
cd107 2.431752721011435e-16
cd108 2.3966898045365022e-14
cd109 2.5062486075646785e-18
cd110 2.8803421974691365e-16
cd111 8.87953547236442e-21
cd112 1.5845446166177748e-18
cd113 1.5812924436192937e-23
cd114 4.895248768870131e-21
cd115 6.759370893513817e-26
cd116 2.366679880857351e-23
cd117 1.006273963495391e-30
in102 1.9311721507496373e-34
in103 9.793163934155313e-28
in104 5.790955017826907e-26
in105 2.5477390340276306e-22
in106 2.1735212896372397e-22
in107 1.0918742836125976e-18
in108 2.446488945697318e-18
in109 3.971984792404494e-16
in110 6.249376965513268e-19
in111 1.1050552756727303e-16
in112 4.433711231863988e-21
in113 6.205881247735086e-20
in114 8.675760561052164e-25
in115 8.387022564182144e-23
in116 1.1564086134919991e-28
in117 6.1691595094890445e-27
in118 1.5275423496119836e-33
