n 5.768629730475563e-19
h1 5.637182464300876e-16
he4 5.078489575769485e-12
h2 3.2697803309535135e-30
h3 2.956793874465953e-23
he3 2.707618638218599e-23
li6 7.989766564249297e-35
li7 5.549462721923053e-30
li8 2.0819243571747392e-45
li9 4.131694857842387e-55
be7 2.096138720924451e-33
be9 6.510184682259872e-41
be10 1.4645221326334664e-36
be11 1.1199077031735359e-57
be12 1.0574750257969344e-69
b8 3.9565681935024025e-53
b10 5.078663101550426e-26
b11 3.20024505394735e-16
b12 2.2145056763845054e-27
b13 2.3947897120583995e-38
b14 7.342878681113934e-58
c10 0.0
c11 3.865863899389583e-23
c12 0.0009605743656961366
c13 9.810667886615044e-16
c14 5.627875621440661e-10
c15 2.2500346234283296e-28
c16 2.5243334198211864e-38
c17 4.53077849517524e-58
c18 0.0
n11 0.0
n12 2.5381396042634884e-41
n13 2.414992815862994e-16
n14 2.9523369500493794e-09
n15 2.4500564335389843e-10
n16 9.706444981170304e-24
n17 3.3318670639843846e-32
n18 2.5088245167021613e-44
n19 6.406008051909882e-55
n20 8.605925945557663e-71
n21 0.0
o13 9.816026904684227e-56
o14 1.1033812052511529e-20
o15 3.28095497270037e-14
o16 0.04164003808924621
o17 1.4893901430079717e-09
o18 6.939591265064342e-11
o19 2.1830861313770106e-18
o20 2.637138151919261e-25
o21 4.032076022134436e-34
o22 1.790626922398225e-44
f16 5.417811244476166e-39
f17 2.067294366098975e-19
f18 1.3244356955885164e-11
f19 4.1997439063462756e-10
f20 2.459693451435033e-25
f21 4.3433903140141975e-30
f22 1.3575551382107297e-35
f23 1.1372082525754902e-39
f24 1.5351742436572594e-52
f25 2.7219285356882155e-63
f26 0.0
ne16 1.080770794677613e-56
ne17 6.406215840962354e-58
ne18 4.947282567783354e-28
ne19 1.463463480014138e-17
ne20 0.01199484928803184
ne21 2.175965323464783e-05
ne22 2.9126500918428788e-05
ne23 5.3390437956362386e-12
ne24 8.491871259557068e-17
ne25 2.020260477442824e-25
ne26 8.820453900335984e-35
ne27 4.850439656751129e-52
ne28 7.377691713640582e-83
ne29 0.0
na19 6.655799657544448e-49
na20 4.3133114906649955e-29
na21 4.8135898145642e-13
na22 9.376044443270249e-08
na23 0.0002610024273518675
na24 1.8017880228092256e-07
na25 1.2048161536878637e-12
na26 1.0078369613961857e-20
na27 4.530198402331939e-29
na28 2.4026996983693647e-39
na29 4.134109661013356e-49
na30 3.151303127835385e-63
na31 2.0580678406858727e-73
na32 5.733421739117343e-91
mg20 4.8146724327561315e-61
mg21 1.3802403206406954e-38
mg22 4.335614027881939e-19
mg23 1.2234544818572228e-09
mg24 0.0019003347396688794
mg25 0.00044755743032895407
mg26 0.0002915034575486252
mg27 1.1188461095975764e-09
mg28 4.02244247027796e-11
mg29 7.757547335513673e-20
mg30 2.0790122720601916e-28
mg31 4.805693558605473e-42
mg32 3.2368023243270666e-51
mg33 2.8621143585739758e-65
mg34 7.975087187102648e-76
mg35 1.0430641540524925e-95
al22 1.204192822663231e-58
al23 3.2946095711295154e-38
al24 1.7613020822433453e-22
al25 2.5710290866364574e-14
al26 1.3978983790000962e-07
al27 0.00014624740693105782
al28 4.927700022172567e-09
al29 1.1588770224496783e-12
al30 1.484110632743216e-19
al31 3.195186815629202e-27
al32 5.351567279466695e-37
al33 1.855485050774018e-46
al34 3.641191963838673e-60
al35 1.5721556520596108e-68
al36 1.675967457806307e-83
al37 5.642249539178491e-94
al38 0.0
si23 5.884180667013814e-75
si24 5.85679002200958e-49
si25 1.9456430816514012e-31
si26 2.203202990626395e-21
si27 1.2195345652086602e-11
si28 0.00013280208455424163
si29 2.3043298891746832e-05
si30 1.0439711917159579e-05
si31 2.8766959635359022e-08
si32 3.449930596105015e-09
si33 4.586049327252676e-16
si34 5.770679275499094e-23
si35 4.5850823578879216e-36
si36 7.585709138148478e-45
si37 2.778904492376873e-59
si38 1.1906910887469514e-67
si39 2.920451051415404e-82
si40 1.7307522234335987e-92
si41 0.0
p25 2.315989100399774e-73
p26 3.455869592352511e-51
p27 6.261693713142227e-38
p28 6.596525630252947e-24
p29 3.9354938749547055e-14
p30 9.045077913642163e-10
p31 4.564513126941574e-06
p32 6.205151106841135e-08
p33 1.2032613792472956e-08
p34 2.489620371836239e-14
p35 4.393682285959576e-19
p36 1.0344340579976484e-28
p37 1.698374005667523e-35
p38 4.414233790014977e-44
p39 1.949012536261434e-52
p40 1.1193517089278253e-62
p41 6.874101521155695e-72
p42 2.240592087333457e-87
p43 9.754955444444125e-99
p44 0.0
s27 4.841501668500644e-69
s28 3.4658131364332404e-50
s29 1.293015167325897e-32
s30 9.812656015658444e-23
s31 7.09564723905816e-16
s32 8.343426162199083e-06
s33 1.080111078757677e-07
s34 1.0439517470605216e-06
s35 2.569475292135638e-08
s36 9.023087794337772e-08
s37 4.682012082325995e-14
s38 3.0567493972084114e-17
s39 5.762904385170266e-24
s40 6.926037383426122e-30
s41 2.848107078423151e-37
s42 2.001003519364956e-45
s43 7.734138789011246e-59
s44 1.1418983029974473e-68
s45 3.010890245210034e-83
s46 1.274410554059196e-93
s47 0.0
cl29 9.821687814867809e-77
cl30 1.948723838426911e-54
cl31 2.207678039532785e-41
cl32 7.425348033107463e-30
cl33 7.891107445657593e-17
cl34 1.0637995008081188e-14
cl35 1.1429791831848297e-07
cl36 5.729634798304615e-09
cl37 9.208815102910282e-07
cl38 1.393635056147626e-10
cl39 1.4958024604733115e-13
cl40 1.750526104966455e-18
cl41 5.269660495277953e-23
cl42 1.1455777393850054e-28
cl43 8.547332385784169e-33
cl44 6.698060276654286e-41
cl45 8.922266707680968e-49
cl46 1.534461087900793e-58
cl47 1.2788770464871075e-67
cl48 2.4124099386572186e-82
cl49 7.761164726220698e-94
cl50 0.0
ar31 2.8880737293003143e-73
ar32 3.101689939431879e-54
ar33 1.448498762965625e-39
ar34 7.421949830495921e-25
ar35 4.187718368869894e-21
ar36 9.329557151508538e-07
ar37 7.917772116209192e-09
ar38 1.1853870880483292e-06
ar39 1.2221079677834076e-07
ar40 5.37024511074721e-08
ar41 3.281637047889168e-11
ar42 1.665193522277093e-11
ar43 8.386265595817102e-16
ar44 2.0836028045062864e-19
ar45 4.80174518939143e-25
ar46 1.1697367194147791e-30
ar47 1.0715548614710317e-38
ar48 1.162845358890864e-47
ar49 4.9391308499293704e-61
ar50 1.419082343825923e-70
ar51 3.0143762375021433e-88
ar52 1.1986777015733223e-99
k32 0.0
k33 1.129988331965613e-80
k34 1.6557346439754542e-70
k35 2.5125829282114216e-44
k36 6.195624324600513e-35
k37 2.1482661610508442e-19
k38 2.1379978197217136e-15
k39 1.5785624308744132e-07
k40 1.5609961277469216e-08
k41 3.924878372247377e-08
k42 2.024134607759532e-09
k43 8.327998682891626e-11
k44 1.936251224354817e-14
k45 2.394353004351663e-17
k46 2.705380025443633e-22
k47 1.0757270955332173e-27
k48 9.507363323460666e-35
k49 5.693216178132236e-41
k50 9.575650537551063e-53
k51 1.298453944036778e-60
k52 7.232392156629207e-75
k53 1.9641824212078776e-84
k54 0.0
k55 0.0
ca35 2.021863513419491e-86
ca36 1.3131935759987128e-55
ca37 3.0493065546753284e-44
ca38 5.396048574893493e-28
ca39 3.810796636787527e-23
ca40 8.157976631934591e-07
ca41 1.6732375896301348e-08
ca42 6.908346441631999e-08
ca43 2.8870974974043628e-08
ca44 6.746920279559938e-08
ca45 1.539512926674721e-08
ca46 4.919580873149883e-09
ca47 2.0708978104656544e-10
ca48 2.8311755103535058e-09
ca49 6.171777462391649e-14
ca50 6.314671306911205e-20
ca51 1.6351338704842608e-26
ca52 5.319568376793167e-34
ca53 4.3618100357477424e-44
ca54 1.250230810248403e-53
ca55 2.0901336715162344e-67
ca56 8.707253147234883e-79
ca57 8.578955240867333e-95
sc36 0.0
sc37 1.1480766048248088e-82
sc38 1.5675310123032666e-72
sc39 4.58030780649721e-50
sc40 4.602441082880664e-41
sc41 3.9689363112334155e-22
sc42 1.603869602853481e-17
sc43 9.056265466244607e-12
sc44 7.95719489291924e-12
sc45 4.8171788701026405e-09
sc46 2.288050622547526e-09
sc47 6.145439655058988e-10
sc48 8.054871535481237e-11
sc49 7.453038064567487e-13
sc50 8.618479710936837e-18
sc51 2.569934030612363e-23
sc52 5.926923080201497e-29
sc53 5.2119413838226005e-37
sc54 8.429193277645195e-46
sc55 6.055769285345764e-56
sc56 3.6198039225590357e-65
sc57 2.731779135570932e-75
sc58 1.0691442516629934e-88
sc59 0.0
ti39 5.267335384744028e-90
ti40 1.805080887142384e-63
ti41 2.3644266229337817e-52
ti42 1.1955784636254818e-31
ti43 8.417448610394952e-26
ti44 4.585832212593543e-14
ti45 2.828931268872348e-15
ti46 7.114999423006932e-09
ti47 7.567821274282228e-09
ti48 1.0185324893466935e-08
ti49 2.4155957945569674e-08
ti50 4.832711550755666e-08
ti51 3.8446821533179084e-12
ti52 1.3528024871170384e-16
ti53 1.3859313121358251e-21
ti54 1.1215544156378514e-26
ti55 2.176523378872544e-34
ti56 5.2450729781026986e-43
ti57 1.703017132765045e-55
ti58 1.5299376357650413e-63
ti59 1.2406264296974701e-76
ti60 2.889038663538907e-85
ti61 0.0
ti62 0.0
v41 1.3083044810104466e-88
v42 1.817236095004839e-73
v43 6.125491941836607e-51
v44 3.704052633250878e-38
v45 4.573446607904214e-27
v46 9.387446461833801e-24
v47 2.3225084497132347e-13
v48 1.0156517050533996e-12
v49 1.4431360518521571e-10
v50 2.774142050514053e-10
v51 6.647315241366901e-09
v52 2.4945440192999056e-12
v53 1.7529600454870053e-16
v54 2.0246799772682858e-21
v55 2.0148939647453172e-26
v56 5.848161527556042e-34
v57 4.505482539550954e-41
v58 1.9870589120276706e-49
v59 3.655603356654471e-55
v60 1.1986002857307023e-64
v61 4.922886613194715e-73
v62 3.1539483769566185e-84
v63 2.741783307402944e-93
v64 0.0
v65 0.0
cr43 3.691244753924119e-89
cr44 1.3423408610839614e-61
cr45 1.9995378891874594e-50
cr46 3.040783378199232e-36
cr47 3.9594362399622025e-32
cr48 1.3095893360569568e-16
cr49 3.4217918846487195e-17
cr50 1.351236172046116e-10
cr51 6.260134194697022e-11
cr52 1.2802091706640343e-07
cr53 2.942234481743502e-08
cr54 1.4671374990295892e-07
cr55 1.3022497885817781e-11
cr56 4.298741779484276e-15
cr57 2.359685581734897e-20
cr58 8.200102851472989e-26
cr59 1.960992003366183e-33
cr60 1.1102493770257102e-40
cr61 3.6797648133452646e-49
cr62 1.0711827804238115e-56
cr63 5.1808956664872866e-67
cr64 3.254366555361404e-75
cr65 8.722512946912437e-88
cr66 1.8357464528515075e-96
cr67 0.0
cr68 0.0
mn45 3.465026783222464e-85
mn46 6.606731299418103e-68
mn47 1.7096525543149443e-55
mn48 2.6330600283743663e-44
mn49 3.760951581413583e-28
mn50 8.479573792472533e-26
mn51 2.2994862609157465e-15
mn52 6.283804280849649e-15
mn53 7.757945597952625e-11
mn54 7.234525908841731e-11
mn55 1.5470224650169684e-07
mn56 6.205997878132433e-11
mn57 1.5978724437109668e-14
mn58 1.2844846591963104e-19
mn59 3.754137550460307e-24
mn60 2.0988735812591e-31
mn61 1.8073435503152675e-37
mn62 6.226660396644652e-44
mn63 1.1855460666651168e-50
mn64 1.6467901500128292e-58
mn65 8.268437244948043e-66
mn66 3.7773832911199286e-75
mn67 4.22288138719553e-83
mn68 1.0381389766445102e-93
mn69 0.0
mn70 0.0
mn71 0.0
fe47 1.578154383631278e-82
fe48 3.539357939371683e-66
fe49 3.0445894317915462e-55
fe50 1.3660955373244e-41
fe51 1.4876824076565563e-34
fe52 2.417290000330927e-19
fe53 1.1352188925008776e-18
fe54 7.0874579877746e-08
fe55 3.925677810071303e-08
fe56 6.505664384931051e-06
fe57 3.2646748064809556e-06
fe58 6.982381319967919e-06
fe59 1.1917988215450545e-06
fe60 4.621869172449743e-07
fe61 4.954103444632925e-11
fe62 2.4597436742480867e-15
fe63 3.0277748307697138e-21
fe64 2.5340940542310532e-27
fe65 4.4859946580621485e-35
fe66 5.696203050972461e-42
fe67 2.1955240974231863e-49
fe68 1.9836521528046262e-57
fe69 2.1543898989989228e-67
fe70 5.074628494045384e-75
fe71 1.8334228093553928e-85
fe72 2.5392965281366907e-94
fe73 0.0
fe74 0.0
co48 0.0
co49 6.014556839955988e-85
co50 7.086123111252651e-76
co51 1.047756492959861e-60
co52 2.576661141525057e-51
co53 1.2074511803370672e-32
co54 7.148633937383204e-28
co55 1.4965329184580218e-12
co56 8.899168766946153e-13
co57 1.7184883297788886e-09
co58 1.2682826319285443e-09
co59 1.4368616134738806e-06
co60 2.686737290977222e-07
co61 4.253576999961198e-09
co62 1.2902997059202773e-12
co63 1.675571635425566e-16
co64 1.50546454328024e-23
co65 9.452836982800882e-29
co66 6.132543164166782e-36
co67 7.486763799634919e-42
co68 3.908150893029434e-49
co69 2.820404775058495e-55
co70 1.8688802901886446e-64
co71 4.235104199852638e-71
co72 6.063558787103376e-81
co73 1.76147388346935e-89
co74 0.0
co75 0.0
co76 0.0
co77 0.0
ni51 1.1792569910771506e-90
ni52 2.2137388847222066e-72
ni53 5.357772335036678e-62
ni54 4.568500396437989e-43
ni55 1.290388162711569e-37
ni56 9.52667821049083e-17
ni57 6.749933513991657e-18
ni58 1.3048377192438722e-08
ni59 8.778997713611167e-09
ni60 9.475027457685994e-07
ni61 9.743102011094153e-07
ni62 9.956380257737856e-07
ni63 1.1308299397275606e-06
ni64 1.0369764921516494e-06
ni65 4.779558471410509e-09
ni66 1.1504745456119045e-09
ni67 7.004574711608399e-15
ni68 2.0274880397038226e-19
ni69 2.762623009614961e-25
ni70 6.218687019413028e-31
ni71 4.0580535718287294e-38
ni72 1.17000878802064e-44
ni73 1.893872263212926e-52
ni74 2.7370856701020404e-59
ni75 4.575664579868222e-68
ni76 1.6980685315065993e-76
ni77 1.425207761669762e-86
ni78 2.3911976060087993e-95
ni79 0.0
cu52 0.0
cu53 8.648969712595933e-100
cu54 1.0088669507870416e-83
cu55 3.458703201024722e-64
cu56 9.893880409491574e-56
cu57 7.436597660264295e-34
cu58 7.085023872333061e-28
cu59 4.357406134802142e-16
cu60 1.5513754023360215e-15
cu61 3.655011691580318e-12
cu62 1.3874960683490699e-12
cu63 2.2748680605566537e-08
cu64 3.5763387430044687e-09
cu65 2.157715318040443e-07
cu66 1.5183553974159935e-10
cu67 1.2925170547535283e-09
cu68 8.541594921115711e-14
cu69 9.404217224699737e-17
cu70 8.403285305751462e-22
cu71 1.8144449517338975e-25
cu72 1.6529706282482796e-30
cu73 4.686618645958392e-35
cu74 5.504794162946725e-41
cu75 2.1223580244984175e-46
cu76 3.303687328319814e-53
cu77 7.75743355785862e-60
cu78 2.6799717325774143e-67
cu79 4.081533581331058e-75
cu80 6.952535244181041e-90
cu81 2.174400348313432e-100
cu82 0.0
zn55 0.0
zn56 1.8177781316478992e-79
zn57 2.299782230611964e-70
zn58 4.1134961776930015e-46
zn59 2.087277724265344e-38
zn60 4.792634022394545e-23
zn61 7.344423974608729e-23
zn62 8.331949669338034e-17
zn63 4.3159815961597344e-18
zn64 1.5473243560936052e-08
zn65 4.757007540650388e-09
zn66 1.6349626758168859e-07
zn67 5.591784901842592e-08
zn68 1.74202116075731e-07
zn69 4.352482333266553e-10
zn70 4.9609489118780745e-09
zn71 2.2173014597886993e-12
zn72 4.065425933185627e-12
zn73 6.573911146069124e-17
zn74 1.3418169951578332e-20
zn75 3.473637991499608e-26
zn76 2.245667209828698e-31
zn77 7.233133547791223e-38
zn78 2.0286884025427608e-44
zn79 1.9585715425443676e-51
zn80 1.1973715147260815e-59
zn81 1.1363726254178068e-73
zn82 1.7338632188030534e-82
zn83 4.3680123986153916e-98
zn84 0.0
ga57 0.0
ga58 2.2294285212317063e-96
ga59 1.3653237638004558e-69
ga60 1.5114859679602918e-58
ga61 4.3715943309178e-42
ga62 1.400739127563442e-33
ga63 2.966722231362909e-26
ga64 4.704098242404667e-25
ga65 6.407102337321696e-15
ga66 3.2886703362850255e-14
ga67 1.122487029177383e-11
ga68 5.304080728918578e-13
ga69 3.109475392828518e-08
ga70 2.2225330795074373e-10
ga71 7.624031005720289e-09
ga72 1.5616338629630453e-09
ga73 3.8354637828239646e-10
ga74 1.715532244097261e-13
ga75 1.5002671141447624e-16
ga76 4.5024923479345944e-21
ga77 5.705531583707647e-25
ga78 1.69427460239647e-30
ga79 1.495969073459298e-35
ga80 5.0074036620927804e-42
ga81 1.8934316640664817e-47
ga82 6.647074672738856e-59
ga83 1.7585370386761018e-66
ga84 5.2184770078453936e-79
ga85 1.6390693545254435e-87
ga86 0.0
ge59 0.0
ge60 1.1926399706046796e-86
ge61 4.656434075860688e-75
ge62 1.1078355420364614e-53
ge63 1.3599000185842671e-45
ge64 1.029085365802418e-34
ge65 5.868369388570616e-33
ge66 1.3431668906596759e-20
ge67 2.3788360212474215e-20
ge68 6.649879041282054e-16
ge69 9.028980613504578e-16
ge70 2.4013951533257837e-08
ge71 7.932615495903135e-09
ge72 2.4818401927554897e-08
ge73 1.4671152339993124e-08
ge74 3.03896387162622e-08
ge75 3.02720193124e-10
ge76 1.7469412608043074e-09
ge77 3.606208592332508e-12
ge78 1.368144398618058e-13
ge79 1.959041500809297e-18
ge80 1.139604650492642e-22
ge81 3.268147368360732e-28
ge82 8.450684268025521e-34
ge83 1.5345273039392427e-43
ge84 3.9374455314452896e-51
ge85 6.584814356283212e-63
ge86 6.167352317001742e-71
ge87 4.316575670877558e-84
ge88 2.2747691128240336e-93
ge89 0.0
as61 0.0
as62 0.0
as63 1.094911170330011e-77
as64 5.107836442328932e-66
as65 1.0750770318584334e-54
as66 1.1793997816389726e-44
as67 2.652029179100308e-31
as68 8.835623188618331e-28
as69 7.632581632927354e-23
as70 8.634963190060303e-22
as71 2.8773509099585806e-13
as72 1.0349704135192271e-13
as73 2.0439363014160542e-12
as74 9.376882337439627e-13
as75 6.041376504096256e-09
as76 2.8468027161406535e-09
as77 2.3212762991741707e-09
as78 3.34690924420625e-11
as79 3.639588554384691e-13
as80 1.9358498503609648e-17
as81 1.5980244706650365e-20
as82 5.911238563507178e-25
as83 7.649912506766721e-29
as84 3.374194797732035e-36
as85 5.128267881007549e-42
as86 3.01651970628085e-50
as87 3.0371050442996305e-57
as88 2.24489304214788e-67
as89 3.381154406481021e-76
as90 5.08775528431914e-90
as91 0.0
se64 4.718571240927824e-94
se65 5.625836383427904e-84
se66 5.6842846299555285e-68
se67 1.1532032227562348e-56
se68 5.920054204046694e-40
se69 9.926994312105422e-36
se70 3.8870114601013954e-29
se71 1.7897560518998092e-28
se72 7.298937160310764e-18
se73 9.779610278859107e-19
se74 1.7715743389895678e-14
se75 5.5230037064621297e-14
se76 3.2948672211193704e-09
se77 4.0692697028633286e-09
se78 9.943413275385801e-09
se79 6.345923473519653e-09
se80 1.640517768765468e-08
se81 4.409284854004277e-11
se82 6.067617374167681e-10
se83 2.700485594072066e-13
se84 8.097123731784742e-17
se85 2.0140509932506164e-22
se86 6.4656236820026605e-28
se87 8.667959375217433e-35
se88 9.587211961185174e-42
se89 3.0796458524890035e-51
se90 2.758223397691308e-59
se91 2.6423774013084697e-72
se92 7.853356313056801e-81
se93 4.5473915730586854e-95
br66 0.0
br67 1.6624239907724518e-93
br68 1.0291384813732832e-78
br69 5.450654910450039e-61
br70 5.510025809622882e-48
br71 1.073677571362078e-39
br72 8.916137660940746e-37
br73 6.167585549951604e-26
br74 4.201222128184317e-25
br75 1.1038015996794839e-20
br76 1.2539651355096384e-19
br77 4.728748176114686e-14
br78 1.0881698347527792e-15
br79 2.379782535817707e-13
br80 6.985786351940754e-15
br81 3.1089824350836035e-09
br82 9.736141414285793e-10
br83 1.6626962492478516e-10
br84 9.218289570493611e-13
br85 1.74485185651716e-15
br86 6.170877597741721e-20
br87 3.651213024585864e-24
br88 3.529223103213299e-29
br89 6.080071518743573e-34
br90 3.306730808446624e-41
br91 4.778095618248582e-48
br92 6.400695703517201e-59
br93 2.1849104665809673e-66
br94 8.709147385203128e-79
br95 4.130469505825485e-87
kr69 2.1165537785292434e-95
kr70 2.4048066728940963e-73
kr71 1.8149260212318575e-59
kr72 6.779053877008651e-49
kr73 2.1718834470834432e-44
kr74 2.8934515447954753e-32
kr75 2.6639736292414594e-29
kr76 8.019557669241162e-22
kr77 2.649663951838345e-21
kr78 4.344978804176073e-17
kr79 1.4080702435917354e-18
kr80 2.3976698229883167e-13
kr81 1.1308774350542501e-13
kr82 2.4891882876714036e-09
kr83 3.267063502313879e-09
kr84 1.0460613400954242e-08
kr85 5.721596928108199e-09
kr86 7.206193004054847e-09
kr87 3.037741335263868e-12
kr88 1.189369302933523e-13
kr89 8.350936005824904e-18
kr90 1.6159616850325022e-22
kr91 1.2790367126633644e-28
kr92 4.4416347281871713e-35
kr93 5.54228015224957e-45
kr94 2.4523620126770727e-52
kr95 1.4930823877422262e-63
kr96 3.1752017367799685e-71
kr97 1.6491741577717047e-82
rb72 0.0
rb73 1.0117131300342496e-70
rb74 1.686633368484076e-56
rb75 1.665906098127346e-43
rb76 1.4354757934819046e-37
rb77 6.687815574146749e-30
rb78 8.086729712141991e-29
rb79 1.0289882475404259e-23
rb80 1.1507109021023612e-25
rb81 2.5617986153780013e-19
rb82 8.388286947888912e-21
rb83 1.5815623302963966e-14
rb84 1.007004072870605e-14
rb85 2.0246713072964414e-10
rb86 1.8672250107295595e-10
rb87 2.188640595420232e-09
rb88 1.5972250757739226e-12
rb89 7.102512334322075e-15
rb90 6.032669535382255e-18
rb91 2.3320571179071043e-21
rb92 1.1525792960242293e-26
rb93 5.014657686923501e-31
rb94 9.168259039501432e-39
rb95 2.2831096975312716e-45
rb96 2.219451610827359e-55
rb97 1.8097942592148047e-62
rb98 1.233795671282433e-70
rb99 9.709681747092396e-79
sr75 2.732397282426551e-69
sr76 5.050899618570251e-54
sr77 5.660938010602593e-46
sr78 9.10265695469521e-35
sr79 9.744151903829194e-32
sr80 6.068226354826659e-25
sr81 5.996902778507517e-24
sr82 2.7950820794815624e-19
sr83 3.6064791898916625e-20
sr84 4.179962806247704e-17
sr85 1.0049081198501773e-16
sr86 2.409463682645879e-10
sr87 3.6224698197422417e-10
sr88 6.21217531843171e-09
sr89 9.101084086947371e-10
sr90 2.563140207686251e-10
sr91 3.901009837555511e-12
sr92 9.932934761234112e-14
sr93 3.238191003169489e-17
sr94 3.949737221943115e-21
sr95 1.4424072273218726e-27
sr96 4.271514061630056e-34
sr97 4.870810519239647e-42
sr98 6.428964802041298e-49
sr99 5.519483449287238e-58
sr100 1.1181042124754906e-65
sr101 5.0399068765092155e-76
y77 7.02618118511448e-74
y78 5.7930961577277e-59
y79 4.812939671487917e-45
y80 1.2235718998525937e-40
y81 5.937721846494427e-34
y82 3.678228516123416e-33
y83 8.207402315518835e-27
y84 5.418591119155167e-29
y85 2.744944778982871e-22
y86 2.9420364909349013e-22
y87 2.591633866152003e-16
y88 6.763096153459263e-16
y89 5.547723059481368e-10
y90 3.21825202866667e-11
y91 8.88418742479609e-11
y92 4.657429569499982e-12
y93 7.083974286409764e-12
y94 5.846752079209272e-14
y95 4.378172064312119e-16
y96 6.6303987914753704e-21
y97 2.4557571363444824e-25
y98 6.40655454736326e-32
y99 9.561137045517623e-37
y100 1.028789494168519e-42
y101 1.2675595511719234e-48
y102 2.2367177832845263e-55
y103 1.241646853709296e-62
zr80 1.7432133877053825e-58
zr81 7.77278131340931e-52
zr82 2.723295464964578e-40
zr83 1.4611397257329342e-35
zr84 8.26906554111803e-29
zr85 5.448503588374299e-28
zr86 7.964359211518011e-23
zr87 3.3121569879536734e-22
zr88 8.682765215609282e-19
zr89 3.853180501545053e-19
zr90 2.7920831647735486e-10
zr91 1.5071693591122875e-10
zr92 3.0620258058095025e-10
zr93 1.3996682077599892e-10
zr94 2.45585362243998e-10
zr95 7.360472864929608e-11
zr96 1.1849711566564656e-10
zr97 2.8813681379647404e-13
zr98 1.1162411826114816e-17
zr99 8.815349109088798e-24
zr100 3.2541160264598047e-28
zr101 5.3421694269827915e-34
zr102 4.014315974839606e-40
zr103 3.3045294642533983e-47
zr104 1.2709770505468222e-54
zr105 3.737475645871642e-63
nb83 4.518992840052959e-52
nb84 1.181744421318302e-45
nb85 3.023538231310682e-38
nb86 6.037385120058133e-36
nb87 1.0632934870490957e-30
nb88 1.582257614239107e-29
nb89 2.5390698970654532e-24
nb90 2.3066345107834632e-23
nb91 3.4921431319087005e-16
nb92 2.9297041091042647e-16
nb93 1.5469587470921718e-15
nb94 1.470601387044905e-15
nb95 8.409677438759887e-13
nb96 8.242435103609063e-13
nb97 7.973441205689542e-14
nb98 1.0940382544041125e-17
nb99 1.0070118657875828e-20
nb100 9.305327907112091e-26
nb101 1.560929646090069e-28
nb102 1.618990583361494e-33
nb103 1.067192474183803e-37
nb104 1.2439227912098579e-43
nb105 1.8439245500767863e-49
nb106 8.900158896380643e-57
nb107 6.178315679786391e-64
mo85 6.189025114940722e-59
mo86 3.2139255762247833e-50
mo87 4.131080495982663e-41
mo88 7.08381671650276e-34
mo89 2.179493194195199e-31
mo90 6.397331525003308e-26
mo91 1.019133047441099e-24
mo92 1.5404258252151985e-14
mo93 4.384164980836128e-15
mo94 4.069988269758426e-14
mo95 5.310624177801826e-13
mo96 3.917909484372749e-12
mo97 4.793196630772073e-12
mo98 2.428534475173496e-11
mo99 1.6442695114355605e-12
mo100 1.4789983570891177e-11
mo101 4.298846232692968e-14
mo102 1.78080181969067e-16
mo103 3.061887511969706e-20
mo104 1.81673250423231e-23
mo105 2.629391326333503e-29
mo106 2.106057522987835e-35
mo107 1.5630949463233323e-42
mo108 4.720377558477662e-50
mo109 1.6492657847641538e-58
tc88 1.1092948879530385e-53
tc89 1.5081479679146727e-45
tc90 2.593770850428377e-41
tc91 5.469475881884297e-35
tc92 4.37874495680807e-32
tc93 6.721995001604558e-22
tc94 5.716138591660133e-22
tc95 1.3551908309445413e-20
tc96 9.206364416307313e-20
tc97 1.3428889456316193e-18
tc98 1.03038605861907e-18
tc99 9.077808928068532e-13
tc100 5.73708687055096e-16
tc101 3.0971743391213056e-14
tc102 3.583242798650447e-18
tc103 4.3525757330717704e-20
tc104 1.840815355514916e-21
tc105 3.8132607027419815e-23
tc106 8.453938061239288e-27
tc107 7.045039983802258e-30
tc108 1.7733175433012408e-34
tc109 2.296627417458245e-40
tc110 3.1719691381222536e-47
ru91 1.099923088725746e-53
ru92 6.192337268855938e-40
ru93 2.9474648177701787e-33
ru94 4.982118258656969e-23
ru95 2.7256452252119004e-22
ru96 3.751012942165523e-20
ru97 5.614199611837662e-21
ru98 6.057271540774508e-19
ru99 1.177753769317745e-16
ru100 4.412093233315742e-12
ru101 2.0274038093507104e-12
ru102 1.0672668438373118e-11
ru103 5.673698015660782e-12
ru104 1.643565231512641e-11
ru105 8.125990391303268e-13
ru106 6.418553074921612e-12
ru107 4.825550851649531e-15
ru108 2.892296053117611e-17
ru109 3.0615823215962702e-21
ru110 8.850389891518668e-25
ru111 5.121349919262626e-32
ru112 3.224748382832189e-39
rh93 5.926445483475822e-53
rh94 4.9985019958387675e-43
rh95 3.63669069777574e-32
rh96 1.0396224357849069e-30
rh97 5.854039117388874e-27
rh98 6.234110602173075e-25
rh99 3.2447573278401984e-23
rh100 2.1764664446005846e-23
rh101 2.2817456261327267e-19
rh102 1.4430790450630712e-19
rh103 1.0111165342545661e-13
rh104 2.5928507667810423e-16
rh105 1.2557901548513847e-12
rh106 3.375389206668968e-15
rh107 2.1512419668726472e-14
rh108 1.2875731996310288e-17
rh109 1.4854382989780243e-19
rh110 1.2658261408887752e-23
rh111 2.5344338301887393e-26
rh112 2.1090142749815454e-30
rh113 5.167501230910689e-34
rh114 8.052966376549181e-39
pd96 3.921824235332211e-34
pd97 2.465160778813042e-30
pd98 3.423113018354518e-24
pd99 5.0002204720357547e-23
pd100 2.0498706422755708e-20
pd101 5.842186369890464e-22
pd102 4.08732101050812e-20
pd103 2.604562422837244e-21
pd104 5.461089703322856e-13
pd105 4.296790683715807e-13
pd106 4.599507975439542e-12
pd107 1.5315725742676248e-12
pd108 1.0588460097509917e-11
pd109 2.3069776094340694e-12
pd110 9.64394801520699e-12
pd111 1.0622018165016116e-13
pd112 2.5938477908213676e-13
pd113 1.0491668579429747e-16
pd114 3.220780416337023e-19
pd115 3.2648789414272863e-23
ag98 6.967042801298811e-41
ag99 3.2888993417047276e-34
ag100 8.86284220764784e-33
ag101 9.222228661775948e-29
ag102 7.416142730999943e-27
ag103 3.868924572627538e-24
ag104 1.3602075368125292e-22
ag105 6.944743297336476e-21
ag106 9.497224626273789e-22
ag107 1.0803219185469769e-18
ag108 9.900206819038686e-21
ag109 1.0905387669480939e-12
ag110 4.353600029077912e-15
ag111 8.699376035337909e-13
ag112 1.5710476193215884e-13
ag113 2.5705803621912556e-15
ag114 2.7621626956778853e-19
ag115 1.5511617441714604e-21
ag116 8.214226610234663e-25
cd101 1.3608036888064878e-34
cd102 8.477943820258695e-27
cd103 2.2148961995664833e-25
cd104 1.818800599548373e-21
cd105 1.5666850344258835e-22
cd106 4.523763169528523e-20
cd107 5.535549898362054e-22
cd108 9.073589506944177e-18
cd109 1.892387613054376e-18
cd110 2.3541758193343782e-12
cd111 7.144647146577481e-13
cd112 5.038834056501393e-12
cd113 2.1057495250870136e-12
cd114 1.7137206190226798e-11
cd115 3.371628683501294e-12
cd116 2.4777479726109497e-11
cd117 3.296474151514294e-13
in102 2.6016392183059273e-46
in103 6.531079828288043e-38
in104 5.822094807996277e-36
in105 1.5251254050301797e-31
in106 8.159575473427588e-31
in107 8.086367794358539e-27
in108 1.3465830800881869e-24
in109 3.9450074055227915e-23
in110 1.8689041811967073e-22
in111 7.330847465407818e-21
in112 6.228689475262161e-22
in113 2.9203071856365227e-16
in114 1.4964448763110691e-18
in115 4.39985032639118e-13
in116 8.677237251543179e-16
in117 5.85053438737467e-14
in118 9.718778394829046e-17
