n 1.3158884526258462e-22
h1 1.6825252434649843e-17
he4 1.503535623266769e-13
h2 1.7661799955826838e-35
h3 2.2937304183922285e-26
he3 5.871691646251177e-24
li6 3.553164104901838e-36
li7 3.848008858088267e-36
li8 2.4161550495172295e-56
li9 6.6805712288137e-60
be7 1.4903476894919675e-36
be9 4.639746029867228e-44
be10 9.827192292943805e-32
be11 9.668801609730303e-57
be12 7.20086498983369e-74
b8 8.30492697247197e-58
b10 2.685557911075929e-29
b11 3.4668163533969745e-19
b12 1.8722696334021384e-35
b13 1.329419974254082e-45
b14 3.1258034984415246e-69
c10 0.0
c11 4.178541316532943e-20
c12 7.033326973459012e-07
c13 7.297238855127453e-16
c14 3.211189204817558e-13
c15 6.800159477353856e-36
c16 3.2740419053428867e-40
c17 6.155995918822712e-64
c18 0.0
n11 0.0
n12 3.96553808431818e-40
n13 2.8526473467513063e-22
n14 3.1792110725059284e-12
n15 2.0031708267806165e-13
n16 5.387418950864435e-32
n17 1.2999607033093158e-34
n18 4.365917570845475e-52
n19 1.5929305915942113e-56
n20 4.02900654736968e-77
n21 0.0
o13 5.0050418383551644e-57
o14 1.0635093423086021e-23
o15 4.0386801374183704e-13
o16 0.021366790954100268
o17 9.541613622549835e-13
o18 3.8989367911898114e-14
o19 5.175589742351617e-23
o20 4.927466471484989e-28
o21 1.7474249107304738e-37
o22 1.7360776817593196e-46
f16 1.190274180820275e-29
f17 1.5410804434833407e-21
f18 7.64862925492784e-15
f19 2.2825594879705645e-13
f20 2.339161765631142e-25
f21 1.2540821412924359e-27
f22 1.1315317582012686e-37
f23 1.6365396811015632e-41
f24 1.1131827202227517e-59
f25 2.0193848688518947e-66
f26 0.0
ne16 3.901455895179031e-47
ne17 3.454379012921534e-47
ne18 3.759578486475594e-30
ne19 2.9094229788639874e-20
ne20 9.083859053042386e-06
ne21 1.2845733981756185e-08
ne22 1.6334443096154103e-08
ne23 6.868617731386686e-15
ne24 7.105836248151653e-20
ne25 1.7531302077441367e-28
ne26 1.4131655822651724e-36
ne27 2.730034547745907e-58
ne28 4.536506720101155e-87
ne29 0.0
na19 2.9213711288585942e-52
na20 9.244700949392444e-35
na21 2.861677219264191e-19
na22 6.819253333972239e-11
na23 1.681501305337454e-07
na24 9.948780764264548e-11
na25 1.3752048125671767e-15
na26 7.373581355779118e-23
na27 1.5595018197476668e-30
na28 2.1803757720927164e-46
na29 8.082882247033692e-54
na30 5.418733182815103e-73
na31 3.0148345237644015e-82
na32 0.0
mg20 1.68097302524355e-65
mg21 9.675312790590968e-44
mg22 1.0284511680223968e-21
mg23 1.809543666166014e-11
mg24 3.114427070980425e-05
mg25 4.093665898066222e-07
mg26 3.570067136343243e-07
mg27 7.798247574725198e-13
mg28 3.660449657217978e-14
mg29 1.295282611266931e-28
mg30 6.458801197577017e-31
mg31 1.3026951988529755e-49
mg32 4.106412938218468e-53
mg33 3.815459857810978e-72
mg34 1.7187244956281695e-82
mg35 0.0
al22 2.566646495976095e-65
al23 2.1542934639779373e-42
al24 4.6869030018521366e-27
al25 4.079154004940157e-19
al26 1.863587967332017e-09
al27 8.691822192506645e-07
al28 1.2386703236845672e-10
al29 8.875031671075789e-13
al30 5.847743825011977e-22
al31 6.439935162167668e-29
al32 5.202351238928519e-42
al33 5.5900655562219964e-52
al34 8.66802236587543e-71
al35 6.300854120462752e-68
al36 7.395631184160556e-88
al37 0.0
al38 0.0
si23 1.9682291208003552e-80
si24 3.1073832909856304e-51
si25 9.671523023555375e-36
si26 5.615155287999411e-21
si27 2.8601905552025826e-09
si28 0.013201023626672928
si29 2.263272428063527e-05
si30 1.2574500897280064e-05
si31 2.539161376838765e-11
si32 2.6101040577307394e-12
si33 5.788226937754092e-19
si34 3.006442907539561e-25
si35 1.77752698931004e-43
si36 3.522372129665654e-46
si37 1.4907605475036392e-65
si38 3.774912913549452e-68
si39 1.1997979229555144e-87
si40 2.0534391803644896e-95
si41 0.0
p25 2.030904235808519e-75
p26 4.19379699375329e-57
p27 1.4999648003618824e-39
p28 2.154720147758395e-24
p29 1.8049561456661622e-15
p30 4.193140081939199e-09
p31 1.9354695336735877e-05
p32 1.8464466505532957e-09
p33 8.022912704792318e-10
p34 5.257577119333315e-17
p35 1.0246285628254179e-21
p36 3.774666702982055e-37
p37 1.1545940720393058e-37
p38 1.3922716644224372e-51
p39 3.5448233507582753e-54
p40 4.464339634839431e-70
p41 6.18835396706512e-73
p42 3.6880718993320477e-93
p43 0.0
p44 0.0
s27 5.742428641773735e-77
s28 5.163184140022799e-54
s29 4.8795634782721054e-36
s30 2.6872211531913612e-21
s31 7.260899273008003e-11
s32 0.006867847542186865
s33 2.6396722655021736e-05
s34 0.00048262811914505426
s35 2.055108832883872e-09
s36 1.756041512236597e-10
s37 1.8761056557461807e-17
s38 1.849631784934441e-20
s39 2.0977414448191005e-27
s40 1.8183769477783104e-32
s41 5.549989077212244e-40
s42 6.414864053622711e-47
s43 2.1506777163505274e-65
s44 8.812008139035016e-70
s45 2.458027740236995e-89
s46 1.3810416240779786e-96
s47 0.0
cl29 9.516630623575564e-81
cl30 4.433067170564573e-59
cl31 1.4615586032101975e-41
cl32 2.3790162236659926e-27
cl33 6.206300065835959e-17
cl34 6.565512563599326e-11
cl35 1.9347278210409774e-05
cl36 1.5920009460186617e-08
cl37 1.725863062396554e-08
cl38 8.333603189486277e-14
cl39 9.065513148873233e-17
cl40 1.8856092077502776e-21
cl41 7.994862145338963e-26
cl42 3.8878386052966753e-31
cl43 9.677379119865294e-36
cl44 2.5964450742145386e-45
cl45 2.764960909754969e-50
cl46 1.5847449064426973e-59
cl47 6.068032741464245e-74
cl48 1.3546720775092735e-93
cl49 0.0
cl50 0.0
ar31 1.1504988934422685e-79
ar32 1.9681556318298463e-56
ar33 1.146290534152684e-38
ar34 5.888322073159705e-24
ar35 8.796002062039876e-15
ar36 0.0006041411638780251
ar37 3.825088554710333e-06
ar38 0.00039387041031999136
ar39 4.897046028759041e-10
ar40 6.820869869094225e-11
ar41 1.874575879160582e-14
ar42 1.5069357880789032e-14
ar43 5.939199075345286e-19
ar44 1.3034683758122632e-22
ar45 7.4268371790139185e-28
ar46 3.582095282793876e-33
ar47 1.7259602022691764e-41
ar48 6.440837793331249e-49
ar49 2.015385417474186e-67
ar50 3.16926039897028e-74
ar51 2.7969309645649564e-96
ar52 0.0
k32 0.0
k33 3.655288380648645e-83
k34 6.919912269669269e-58
k35 6.713571345436326e-45
k36 3.4280367858036803e-31
k37 2.6289488624555354e-19
k38 4.035291138862789e-11
k39 1.639075568074514e-05
k40 1.9534117351110814e-09
k41 1.735817614940489e-10
k42 1.928841763992089e-12
k43 5.673276844399078e-14
k44 1.403640824107004e-17
k45 1.4909859377225075e-20
k46 3.1354586611371545e-25
k47 2.3261871900415956e-30
k48 2.185134089031431e-37
k49 7.298573478247641e-43
k50 3.9419887726492156e-60
k51 4.723988162825451e-62
k52 2.6885945836894797e-81
k53 2.0817644709458025e-94
k54 0.0
k55 0.0
ca35 4.001048270122042e-76
ca36 2.9312448281439837e-59
ca37 1.2663175866517118e-43
ca38 4.651332216918862e-27
ca39 1.141074826408641e-16
ca40 0.0002128628664996606
ca41 5.571122037616022e-07
ca42 7.335196898135181e-06
ca43 4.527501922714803e-09
ca44 8.070363382216337e-10
ca45 1.1964552977669715e-11
ca46 5.002533338265654e-12
ca47 1.6365962014421715e-13
ca48 2.8724864806729294e-12
ca49 4.138934170239662e-17
ca50 1.202343725712881e-22
ca51 1.4649025300927063e-29
ca52 2.0819588256764982e-36
ca53 1.27166586058003e-51
ca54 5.047025440293549e-62
ca55 9.451034896028654e-81
ca56 1.6375048736980692e-93
ca57 0.0
sc36 0.0
sc37 2.2882368593055218e-86
sc38 7.168314475917622e-60
sc39 4.0242118146185507e-50
sc40 2.205520311794849e-36
sc41 6.894127065663153e-22
sc42 1.5781871766903132e-16
sc43 1.8171402393639225e-10
sc44 3.5406037867375827e-10
sc45 9.271108614352414e-10
sc46 3.780470465932995e-12
sc47 1.5829663368506198e-12
sc48 5.592344934677975e-13
sc49 6.703825729523416e-14
sc50 9.376000629001283e-21
sc51 5.965780696896702e-26
sc52 1.9748804881249616e-31
sc53 2.735642034875272e-39
sc54 5.579738626852015e-47
sc55 9.676890816709111e-63
sc56 3.414645471279444e-74
sc57 3.982745595895313e-89
sc58 0.0
sc59 0.0
ti39 1.959988847534486e-79
ti40 2.4334436798320673e-66
ti41 8.312306515783871e-51
ti42 2.238399434427215e-32
ti43 1.588448525851498e-23
ti44 3.60488002278251e-08
ti45 5.783104905824708e-09
ti46 1.6171551081013358e-06
ti47 2.8035899310124317e-08
ti48 5.980329501916291e-09
ti49 3.194987037040236e-11
ti50 8.182542491482822e-11
ti51 2.810372147274129e-15
ti52 1.3513756451397577e-19
ti53 1.9456062853850333e-24
ti54 1.8290290852012185e-29
ti55 1.0131065303761788e-40
ti56 4.460940980647605e-45
ti57 7.919377761745615e-63
ti58 2.6370056057185406e-64
ti59 1.4433831155119126e-82
ti60 6.311321348527043e-87
ti61 0.0
ti62 0.0
v41 6.042757374448694e-92
v42 3.566214200205798e-73
v43 2.981663342894927e-53
v44 9.520524380848153e-39
v45 1.0564523983029343e-23
v46 7.324819184433036e-17
v47 2.433344224394206e-10
v48 3.2403316376269532e-09
v49 4.627869407023214e-09
v50 3.9056680561562386e-11
v51 3.526404836349881e-10
v52 5.8828698830775256e-15
v53 5.489656137699358e-19
v54 3.7205158065922835e-24
v55 7.675905896162936e-29
v56 8.106481396793521e-36
v57 4.960707995088476e-42
v58 1.2032629864387117e-55
v59 3.6006581110514906e-56
v60 1.99575993571706e-71
v61 8.059658368730857e-78
v62 1.6408113748874857e-94
v63 4.449949127621005e-99
v64 0.0
v65 0.0
cr43 3.407388970913487e-91
cr44 9.077726066162284e-67
cr45 5.976307147908981e-54
cr46 1.2835626297646336e-31
cr47 2.0443348856549195e-22
cr48 2.3720229102740927e-09
cr49 5.230706759971604e-09
cr50 1.1735706435743184e-06
cr51 8.282113195341047e-08
cr52 4.2866368004614327e-07
cr53 1.2811586209279247e-10
cr54 2.105267586321255e-10
cr55 1.0429956674221085e-14
cr56 2.9820056561522e-18
cr57 4.003067413007535e-23
cr58 3.0779499790533685e-28
cr59 4.049021676815054e-39
cr60 4.82004552204641e-42
cr61 3.067700488197554e-56
cr62 1.78378051268601e-57
cr63 2.4501566504437288e-73
cr64 2.730674124162191e-75
cr65 3.895746777360006e-93
cr66 1.3194952575494798e-96
cr67 0.0
cr68 0.0
mn45 3.7640451529972195e-91
mn46 2.412070163281952e-73
mn47 2.514493245952194e-52
mn48 1.809276865429149e-37
mn49 9.60813525020362e-24
mn50 3.388933058314764e-17
mn51 2.628804043954823e-10
mn52 3.572461082097644e-09
mn53 1.0232561176824286e-07
mn54 7.265073361262501e-10
mn55 6.572596077001134e-10
mn56 5.2134270186119174e-14
mn57 2.260180905820535e-17
mn58 3.2764301899730653e-22
mn59 1.509759156966108e-26
mn60 3.642446116162983e-33
mn61 2.0524596144077076e-38
mn62 3.915479318337261e-47
mn63 4.3016179563400335e-51
mn64 9.873786798004883e-64
mn65 6.676805108168167e-66
mn66 5.171466258103851e-81
mn67 3.3602818317380556e-84
mn68 0.0
mn69 0.0
mn70 0.0
mn71 0.0
fe47 1.7649036859219458e-90
fe48 6.686302432504695e-65
fe49 2.743482338151921e-51
fe50 4.2475577480027205e-34
fe51 3.205917551523659e-24
fe52 1.110789397519057e-10
fe53 8.323374295530898e-10
fe54 6.123152237972029e-06
fe55 4.5665530524779073e-07
fe56 1.057570538055752e-05
fe57 5.32674435816255e-09
fe58 1.2668137429564529e-08
fe59 6.625524741086356e-10
fe60 4.3421865415616476e-10
fe61 3.561251439778664e-14
fe62 2.7503075788966197e-18
fe63 6.514570359714484e-24
fe64 2.4629729288698233e-29
fe65 5.809436411214552e-42
fe66 5.32684555319999e-43
fe67 5.5612566369880035e-55
fe68 2.0612804632066126e-58
fe69 4.97644783821456e-74
fe70 1.1800308701541054e-74
fe71 1.1372979343132438e-90
fe72 4.1111073691004487e-94
fe73 0.0
fe74 0.0
co48 0.0
co49 2.472642279016342e-72
co50 2.4137977038159764e-73
co51 1.0740217864337439e-54
co52 3.988747371672074e-43
co53 1.534463223430184e-26
co54 1.789190509095004e-18
co55 4.2989090633015275e-10
co56 1.0459593313591424e-09
co57 1.5985406362126096e-07
co58 9.192179586225116e-10
co59 8.07709419458148e-09
co60 1.8653385447604745e-10
co61 6.025656601903769e-12
co62 1.0418069777943617e-15
co63 2.595502358544687e-19
co64 9.751876102659607e-26
co65 3.0541764461745554e-30
co66 3.560417456748855e-37
co67 3.363688486909103e-42
co68 1.9501106086334656e-54
co69 5.009708910071633e-55
co70 4.428028257120178e-70
co71 1.264050788354094e-70
co72 3.0785078757234697e-86
co73 1.2738959067757354e-92
co74 0.0
co75 0.0
co76 0.0
co77 0.0
ni51 1.238221560525488e-90
ni52 5.255828532987655e-69
ni53 4.807371207753811e-56
ni54 2.2217509547611697e-37
ni55 4.6487502824726556e-27
ni56 9.613875192982079e-11
ni57 5.513816487017904e-10
ni58 9.173292065901494e-07
ni59 4.777922370884257e-08
ni60 9.940374103035743e-06
ni61 6.068403870394307e-09
ni62 3.877052365471303e-07
ni63 6.631369013656144e-10
ni64 1.8849842434301564e-09
ni65 2.6629368544254027e-12
ni66 2.324346829171723e-12
ni67 1.0940620834865034e-17
ni68 3.5801308640973494e-22
ni69 5.679847887724441e-28
ni70 2.69521681011186e-33
ni71 4.282520720609033e-45
ni72 1.7541999663407344e-46
ni73 6.695023878435619e-58
ni74 1.526170017976176e-60
ni75 5.336900172796356e-75
ni76 2.8812689414898243e-77
ni77 6.114508421063533e-93
ni78 3.1050213133045186e-95
ni79 0.0
cu52 0.0
cu53 1.9726484270786845e-96
cu54 5.2125675158955106e-79
cu55 8.508513476624779e-60
cu56 5.005673508118434e-47
cu57 9.489125715844425e-30
cu58 8.168452875425219e-23
cu59 3.8270097734151825e-17
cu60 1.1118988608562651e-14
cu61 5.7155403468128614e-11
cu62 5.431397135038877e-12
cu63 4.6853439208743675e-09
cu64 6.976208288514095e-12
cu65 5.434778596125649e-10
cu66 1.159191291034183e-13
cu67 2.5800236687565173e-12
cu68 1.171249829921618e-16
cu69 8.555081994454212e-20
cu70 2.1709074328670578e-24
cu71 4.213390702577646e-28
cu72 4.9317614754176876e-33
cu73 3.041319193661029e-37
cu74 8.101517607185484e-43
cu75 6.614575586736141e-48
cu76 2.697840305040738e-54
cu77 1.8338961133071736e-60
cu78 3.075628236685158e-70
cu79 4.023874559677047e-75
cu80 8.33377074052196e-95
cu81 0.0
cu82 0.0
zn55 3.0637800174783164e-99
zn56 1.632672669383756e-77
zn57 3.501611092077064e-64
zn58 5.5519672656511756e-45
zn59 2.6467300289038477e-35
zn60 9.00372444601795e-21
zn61 9.695135417635244e-19
zn62 8.419719572265915e-13
zn63 4.465771863409083e-13
zn64 2.7311386585195994e-09
zn65 1.6638700101706677e-11
zn66 1.2842126368557827e-08
zn67 3.597262611719269e-11
zn68 6.245744631897979e-10
zn69 2.562150206806755e-13
zn70 7.972804402718343e-12
zn71 1.649362130892437e-15
zn72 4.045762001995069e-15
zn73 9.645868851341573e-20
zn74 1.5034412595019488e-23
zn75 7.524115328179376e-29
zn76 9.689255867382362e-34
zn77 6.098962416662818e-40
zn78 4.393396572169653e-46
zn79 2.6304912124529988e-55
zn80 1.2785166731373847e-60
zn81 1.077007915770199e-79
zn82 1.203031987163644e-83
zn83 0.0
zn84 0.0
ga57 0.0
ga58 1.1482604805917866e-90
ga59 3.0181565850882037e-69
ga60 6.873699258951301e-57
ga61 2.331833788567528e-41
ga62 1.4968095854731994e-31
ga63 1.690862149753715e-25
ga64 5.148877494401903e-22
ga65 4.259706568459914e-17
ga66 1.6147949296057225e-16
ga67 2.2234512097628518e-12
ga68 3.236368506745138e-14
ga69 9.720072552499437e-11
ga70 1.5096956982137195e-13
ga71 1.8371905429114678e-11
ga72 8.577018219352521e-13
ga73 9.010817376950762e-13
ga74 1.4555993402199572e-16
ga75 1.4175745980103967e-19
ga76 6.718292815213537e-24
ga77 1.3875908569011976e-27
ga78 7.904663031667386e-33
ga79 1.304468429585756e-37
ga80 3.492692526571855e-45
ga81 5.558860962978244e-49
ga82 5.725490302051754e-66
ga83 2.433340434589638e-72
ga84 4.156895513262108e-90
ga85 2.2979461468066786e-99
ga86 0.0
ge59 0.0
ge60 2.1964865397291367e-88
ge61 1.279816147369451e-75
ge62 4.523430138293747e-56
ge63 1.5665530276283424e-46
ge64 5.000304317065958e-28
ge65 7.19272514084124e-27
ge66 8.146551615908833e-19
ge67 1.900451074911973e-18
ge68 2.5938134434504705e-12
ge69 1.5329569027258387e-13
ge70 2.3707591897554404e-09
ge71 6.0164337880933605e-12
ge72 3.886344993976613e-09
ge73 8.673028781618095e-12
ge74 6.332070795160786e-11
ge75 1.7498151979122768e-13
ge76 2.9525649552883043e-12
ge77 2.2020318651043526e-15
ge78 1.545594198408975e-16
ge79 2.9117792008785015e-21
ge80 1.9630879884603605e-25
ge81 9.785569624354042e-31
ge82 4.615148972574407e-36
ge83 1.7019805747650798e-51
ge84 1.0430504518763047e-52
ge85 7.651486189041705e-70
ge86 1.634982705254246e-72
ge87 9.711817952383464e-91
ge88 0.0
ge89 0.0
as61 0.0
as62 0.0
as63 1.1433945200258761e-80
as64 2.660461884426045e-68
as65 2.439800925366491e-49
as66 4.940900613089174e-41
as67 1.4959276893245332e-32
as68 4.8206188058058327e-29
as69 3.092291341045037e-22
as70 3.666602606409405e-20
as71 1.0389383455173821e-14
as72 7.296059306909228e-16
as73 1.4285116078053087e-11
as74 1.7072574099028323e-14
as75 2.3279084850146956e-11
as76 1.6446604541741812e-12
as77 4.917966224434815e-12
as78 1.935835786991418e-14
as79 2.6121843740582e-16
as80 3.542254729796672e-20
as81 2.729789842006607e-23
as82 1.2776867532650012e-27
as83 2.0754827007757337e-31
as84 1.2013685563414197e-44
as85 4.0533393961544084e-44
as86 2.886530434118402e-58
as87 2.2390405873207225e-59
as88 3.8262255992381044e-75
as89 1.9161201143760677e-89
as90 0.0
as91 0.0
se64 2.420512316226076e-99
se65 3.3928936556669587e-88
se66 1.8144069408237608e-65
se67 7.075724962914438e-56
se68 4.978102002525692e-36
se69 5.8696360758298686e-34
se70 6.891256102420095e-23
se71 1.820802411892783e-21
se72 5.565866756347144e-13
se73 1.4245087969052753e-13
se74 4.6728999815218855e-09
se75 1.693941050123815e-11
se76 1.0284647073856261e-08
se77 4.918438642367747e-12
se78 1.0300670514036594e-10
se79 3.761111299298339e-12
se80 3.040413288129391e-11
se81 2.755918888485031e-14
se82 9.162899894908673e-13
se83 1.6882460483230346e-16
se84 6.688834380495046e-20
se85 6.643628186638241e-26
se86 1.2929366301841563e-30
se87 3.285544504780735e-42
se88 8.167188527597922e-44
se89 5.568370973679054e-59
se90 2.685969998345673e-63
se91 2.296164952388143e-81
se92 5.288634626443241e-90
se93 0.0
br66 0.0
br67 2.9289952470317484e-91
br68 5.765399449745746e-79
br69 3.802916186351542e-58
br70 7.20648338669372e-48
br71 1.9078072325015918e-36
br72 4.183149777656347e-33
br73 2.9628132658027376e-24
br74 8.5412650156094e-21
br75 2.442272253707809e-15
br76 1.9578798932329395e-15
br77 7.292353230844649e-12
br78 1.3281250379049121e-14
br79 9.543616839828043e-12
br80 7.476288005099e-15
br81 9.576460906113209e-12
br82 6.488795203831872e-13
br83 3.583263287500566e-13
br84 5.627013069991891e-16
br85 1.4745149494513847e-18
br86 5.2113131594373535e-23
br87 4.591382186121442e-27
br88 1.5350873701721465e-32
br89 2.528740107924676e-36
br90 1.0883720566030292e-49
br91 1.0357421762601766e-50
br92 4.0789828422008494e-67
br93 2.644974358905303e-74
br94 5.76827241486972e-92
br95 0.0
kr69 7.94303216992421e-98
kr70 4.0545730050677584e-73
kr71 5.394073120360376e-61
kr72 1.364491005313788e-42
kr73 1.8944883872636058e-36
kr74 6.410914819203975e-25
kr75 1.8312251419585764e-21
kr76 3.8705178718051555e-14
kr77 1.287761063385952e-13
kr78 1.4645488558726322e-09
kr79 1.620335862659923e-11
kr80 1.1693315405106013e-08
kr81 2.4800541273720785e-11
kr82 4.993914602598298e-10
kr83 2.9007436387572112e-12
kr84 3.976492027419189e-11
kr85 3.6253614683165114e-12
kr86 1.2160964747470916e-11
kr87 1.7693008866025593e-15
kr88 6.557346754038936e-17
kr89 6.4089901270788364e-21
kr90 2.36675648902875e-25
kr91 7.09398167148015e-33
kr92 3.475769755503206e-37
kr93 1.1380905727510536e-52
kr94 2.411722471062795e-54
kr95 5.352279871948729e-71
kr96 6.659678113518638e-76
kr97 1.3280578673310084e-92
rb72 4.292149095516221e-81
rb73 2.286389768244521e-65
rb74 5.7640434586408895e-50
rb75 4.343216992304068e-39
rb76 1.1903694705542095e-32
rb77 3.7926952822612244e-25
rb78 1.360682977284717e-22
rb79 9.802255384458827e-17
rb80 2.4772131484352793e-17
rb81 6.178601007322008e-13
rb82 1.445571620776947e-14
rb83 6.269783007009732e-12
rb84 4.0382106383619436e-14
rb85 1.1409665455712855e-11
rb86 3.787675620725979e-13
rb87 6.724955659637596e-12
rb88 9.911740810635659e-16
rb89 4.406955246232402e-18
rb90 4.589614166188819e-21
rb91 2.7351187040398763e-24
rb92 4.127222148203072e-30
rb93 1.974705527176363e-33
rb94 3.144576150318821e-47
rb95 2.4084060509306055e-47
rb96 4.3305971430694904e-63
rb97 4.3958991127427654e-64
rb98 3.6036954950223664e-78
rb99 6.346352103072661e-86
sr75 1.3116007415320772e-65
sr76 2.1144879504557023e-45
sr77 2.4305082567625947e-37
sr78 5.402055204635434e-27
sr79 1.0814141645733361e-23
sr80 5.200385524357818e-17
sr81 7.596807934935512e-16
sr82 2.6223907930080463e-11
sr83 2.1062417078731195e-12
sr84 2.2790317970747468e-09
sr85 3.5066625044821155e-11
sr86 2.4549707423340413e-09
sr87 2.1908109754583722e-11
sr88 1.518131632178093e-09
sr89 5.05886949526975e-13
sr90 1.708408508049634e-13
sr91 2.1500288090484584e-15
sr92 5.5161130778154885e-17
sr93 2.1616574677143308e-20
sr94 4.277315128095226e-24
sr95 6.017179091332342e-36
sr96 2.2967027827539737e-36
sr97 4.385421304909824e-50
sr98 2.369442474217937e-50
sr99 2.7596643930147934e-65
sr100 2.4717252797118394e-70
sr101 2.614404565793624e-86
y77 1.0383343327124723e-66
y78 1.4071629934915357e-52
y79 2.6368285685654382e-40
y80 1.0018076748714663e-35
y81 3.6254169100917697e-28
y82 4.639001600682425e-25
y83 2.345964231675005e-19
y84 6.192663491365089e-20
y85 1.1108498854993928e-14
y86 8.28714001900774e-15
y87 5.7187924596031686e-12
y88 1.9892627421981107e-12
y89 6.209306090902479e-10
y90 2.3304614339229246e-14
y91 5.786283714427688e-14
y92 2.585088895306723e-15
y93 4.0139546868130694e-15
y94 3.609100032735095e-17
y95 2.8230524941458314e-19
y96 1.3077079075082747e-23
y97 1.3215615779198822e-27
y98 1.7944715316540207e-39
y99 1.8031757993427947e-38
y100 3.064075997964606e-44
y101 2.923399830020505e-49
y102 1.1992161641174208e-57
y103 1.1614031407017748e-66
zr80 3.812952513448968e-54
zr81 7.38846494117299e-45
zr82 3.958430671097799e-31
zr83 5.853675115771032e-27
zr84 9.942125899732271e-21
zr85 1.098558498865037e-19
zr86 1.6701292505776937e-14
zr87 7.542195166251351e-14
zr88 1.2859609546229248e-10
zr89 3.124043260240523e-11
zr90 7.791250476119491e-09
zr91 2.874842653267506e-13
zr92 4.820314993627184e-13
zr93 8.026217525251295e-14
zr94 2.0619009308789615e-13
zr95 4.058350623806046e-14
zr96 7.302766745447614e-14
zr97 1.5922316317460828e-16
zr98 1.561985286233397e-20
zr99 2.032685721121186e-28
zr100 1.347809464150664e-30
zr101 4.411369209276485e-36
zr102 2.4782473465831235e-41
zr103 7.514086685164023e-49
zr104 2.1950924883240528e-57
zr105 2.5515826384730346e-69
nb83 1.848406893415398e-45
nb84 7.046645637504736e-40
nb85 5.68992021007638e-32
nb86 9.5218561126906e-28
nb87 1.47459413811002e-22
nb88 1.6226206316445871e-21
nb89 2.3968645299540534e-16
nb90 1.8409202112133394e-15
nb91 2.4411951973059093e-12
nb92 8.0571829223207e-16
nb93 2.1733539649131796e-16
nb94 2.4635770864052933e-18
nb95 6.122566428465355e-16
nb96 4.504439781341407e-16
nb97 4.7606245933818845e-17
nb98 2.1447983322802206e-20
nb99 2.4597157965212506e-23
nb100 9.20288604953211e-28
nb101 7.4904738780561615e-31
nb102 2.6398598637924163e-35
nb103 2.5768851879636004e-39
nb104 2.00752337128314e-45
nb105 3.259164789070877e-51
nb106 9.056889643289628e-64
nb107 1.942400876410554e-69
mo85 2.436620041750909e-53
mo86 2.616780143965808e-43
mo87 3.95642360251189e-32
mo88 1.3172541230420978e-25
mo89 9.155533145972685e-23
mo90 1.2653607821933194e-17
mo91 1.156096247337252e-16
mo92 2.928576726097064e-12
mo93 7.271097038348447e-15
mo94 4.5956958566511345e-14
mo95 5.043347666599547e-16
mo96 3.279800328944495e-14
mo97 2.722444214932503e-15
mo98 3.0179801880787367e-14
mo99 9.03717357645318e-16
mo100 9.767732097270583e-15
mo101 2.634957209680423e-17
mo102 1.1499755475634214e-19
mo103 3.178288713750539e-23
mo104 2.236570434442084e-26
mo105 2.043957912323764e-31
mo106 9.074005364672934e-37
mo107 2.5569760251176794e-45
mo108 4.7599757713787755e-54
mo109 3.035284169628161e-67
tc88 1.8113358708471816e-46
tc89 5.261894107939622e-39
tc90 5.787995161882157e-34
tc91 9.29813836656694e-28
tc92 3.0280642903738358e-24
tc93 1.4873075795767128e-18
tc94 2.0981614640548946e-17
tc95 3.3305481839401215e-16
tc96 7.433227776996927e-19
tc97 4.102751573231555e-17
tc98 2.6224803994812026e-20
tc99 5.208159942930973e-16
tc100 9.780799346847267e-19
tc101 1.7583582642657815e-17
tc102 6.5670167724573656e-21
tc103 4.7029158591431943e-23
tc104 1.0529956372731595e-24
tc105 2.4932974090898935e-26
tc106 1.023157256308764e-29
tc107 1.3135622687791926e-32
tc108 2.736328495094644e-38
tc109 5.932650932313111e-45
tc110 9.575975986212233e-57
ru91 3.599914644307484e-46
ru92 1.485360356839859e-30
ru93 4.356059906333016e-25
ru94 8.710045646359479e-16
ru95 4.672771003658367e-15
ru96 4.013552318467312e-13
ru97 2.6717642784758157e-15
ru98 1.9736243544513303e-13
ru99 1.0345757991282169e-16
ru100 2.4650277166851874e-14
ru101 1.1191242781398502e-15
ru102 2.161405408941407e-14
ru103 3.09942516659159e-15
ru104 1.776081549123736e-14
ru105 4.533269982396643e-16
ru106 4.129948911199971e-15
ru107 3.820603607237557e-18
ru108 2.151449207488135e-20
ru109 3.751449613511454e-24
ru110 1.9763523830167206e-27
ru111 4.349037499489173e-37
ru112 3.3105798284681166e-46
rh93 4.892446037053685e-45
rh94 2.532532716399117e-37
rh95 5.429259330292769e-26
rh96 5.411788976973031e-24
rh97 5.441493890858143e-20
rh98 2.3597322964322434e-18
rh99 3.72993237000585e-16
rh100 7.893886016870122e-17
rh101 3.11391987488155e-16
rh102 4.771543020635906e-20
rh103 1.3552258111183748e-16
rh104 3.256648950990897e-19
rh105 7.769510052843811e-16
rh106 3.654053662797457e-18
rh107 1.2473830987437037e-17
rh108 1.9825604846731017e-20
rh109 1.7397784457874512e-22
rh110 5.743167508091512e-26
rh111 8.398267319751636e-29
rh112 1.1166639525969168e-32
rh113 5.090026516018836e-36
rh114 5.739137710333309e-43
pd96 1.2269742990160346e-26
pd97 8.183282613007637e-23
pd98 6.81561453938045e-17
pd99 9.886947794580072e-16
pd100 3.239556900329204e-13
pd101 5.2701129489330895e-15
pd102 6.351365628181562e-13
pd103 5.856719401871845e-16
pd104 1.9048879772622826e-14
pd105 2.3969739631124066e-16
pd106 1.1258426890641538e-14
pd107 8.353025998175466e-16
pd108 1.44126278273967e-14
pd109 1.2655159303247764e-15
pd110 8.042476469610409e-15
pd111 6.356099242965479e-17
pd112 1.5179113587041528e-16
pd113 1.006045244645346e-19
pd114 2.9634664969783936e-22
pd115 2.688324495107856e-26
ag98 5.141874640695486e-36
ag99 3.120515674994979e-28
ag100 8.139443940704173e-26
ag101 5.856545672626774e-22
ag102 4.463693666737904e-20
ag103 7.59696647879164e-17
ag104 7.986603716643977e-16
ag105 1.2358462042584751e-15
ag106 1.2720255865612385e-18
ag107 1.953243601769351e-16
ag108 4.5955779579899175e-20
ag109 8.37262488997237e-16
ag110 4.856612581012799e-18
ag111 5.444485264760226e-16
ag112 8.779718786315322e-17
ag113 1.9391673188645625e-18
ag114 8.379980948438153e-22
ag115 2.951356268397715e-24
ag116 1.723859437320377e-27
cd101 7.125478421594485e-27
cd102 2.522037466214584e-19
cd103 6.031358226520819e-18
cd104 3.3425739083463604e-14
cd105 2.191198941138394e-15
cd106 7.529740288791483e-13
cd107 2.0804569661191e-15
cd108 1.1375394954517731e-13
cd109 3.357972163150064e-17
cd110 2.1278290731493066e-14
cd111 3.9523647062830063e-16
cd112 1.777503541708607e-14
cd113 1.1491614361290882e-15
cd114 2.4210994970362968e-14
cd115 1.8460488992756402e-15
cd116 1.9094803143963414e-14
cd117 1.867396453039512e-16
in102 2.1373010176088838e-41
in103 4.734504505762455e-33
in104 8.100624617166997e-30
in105 4.663131129951001e-25
in106 6.099105679216337e-24
in107 1.3114686517484427e-19
in108 9.853096558258066e-18
in109 9.005324073407746e-16
in110 9.9531149712749e-16
in111 5.820612861923776e-16
in112 1.3841420645972196e-19
in113 2.4990621433307817e-17
in114 4.572885700663225e-21
in115 2.6612279976152154e-16
in116 1.2038331420728234e-18
in117 3.3489008283689734e-17
in118 1.1765971580267644e-19
