mass element = 1.84925925926 M_sun
   t [s]      T [K]      rho [g/cm^3]      r [cm]      Ye    enue [MeV]   enua [MeV]   fnue [erg/cm^2/s/1e-51]    fnua [erg/cm^2/s/1e-51]
  0.0000000000E+00	  6.6950192488E+08	  3.1114421165E+04	  1.1593750000E+09	  4.9913913804E-01  6.6315160232E+00  6.6315160232E+00  0.0000000000E+00  0.0000000000E+00
  1.0000615727E-02	  6.6951698803E+08	  3.1116221300E+04	  1.1593750000E+09	  4.9913913804E-01  6.6308314424E+00  6.6308314424E+00  4.3314587159E-23  4.3314587159E-23
  2.0001675152E-02	  6.6953489454E+08	  3.1118364124E+04	  1.1593750000E+09	  4.9913913804E-01  6.6279036120E+00  6.6279036120E+00  3.9658857852E-23  3.9658857852E-23
  3.0000780099E-02	  6.6955161117E+08	  3.1120360500E+04	  1.1593750000E+09	  4.9913913804E-01  6.6212265007E+00  6.6213113568E+00  3.7435244907E-23  3.7433077740E-23
  4.0001839524E-02	  6.6956511571E+08	  3.1121965323E+04	  1.1593750000E+09	  4.9913913804E-01  2.4304857417E+00  6.0746462233E+00  9.6246502581E-21  3.0455193134E-23
  5.0000944471E-02	  6.6957347964E+08	  3.1122944172E+04	  1.1593750000E+09	  4.9913913804E-01  2.4418200948E+00  8.3874530225E+00  1.0227202889E-20  1.6945040312E-25
  6.0000049419E-02	  6.6957570282E+08	  3.1123176021E+04	  1.1593750000E+09	  4.9913913804E-01  2.4793406568E+00  4.1206481737E+00  1.1134708797E-20  6.3626245171E-26
  7.0001108844E-02	  6.6957415615E+08	  3.1122949124E+04	  1.1593750000E+09	  4.9913913804E-01  2.5278862792E+00  3.9560223908E+00  1.2346946115E-20  6.5042138980E-26
  8.0000213791E-02	  6.6957206244E+08	  3.1122654946E+04	  1.1593750000E+09	  4.9913913804E-01  2.5819541315E+00  3.9705465137E+00  1.3857161614E-20  6.9955626298E-26
  9.0001273216E-02	  6.6957293651E+08	  3.1122720620E+04	  1.1593750000E+09	  4.9913913804E-01  2.6449828119E+00  3.9956670385E+00  1.5796400934E-20  7.5710780512E-26
  1.0000037816E-01	  6.6957862145E+08	  3.1123369989E+04	  1.1593750000E+09	  4.9913913804E-01  2.7185420491E+00  4.0271452185E+00  1.8298198484E-20  8.2800477728E-26
  1.1000143759E-01	  6.6958960612E+08	  3.1124662035E+04	  1.1593750000E+09	  4.9913913804E-01  2.8026991490E+00  4.0653729301E+00  2.1659624784E-20  9.2253236203E-26
  1.2000054254E-01	  6.6960536132E+08	  3.1126532350E+04	  1.1593750000E+09	  4.9913913804E-01  2.9035822630E+00  4.1079444403E+00  2.6530822087E-20  1.0363656253E-25
  1.3000160196E-01	  6.6962433162E+08	  3.1128791830E+04	  1.1593750000E+09	  4.9913913804E-01  3.0191713875E+00  4.1539384123E+00  3.2718243826E-20  1.1667728662E-25
  1.4000070691E-01	  6.6964579537E+08	  3.1131353419E+04	  1.1593750000E+09	  4.9913913804E-01  3.1764814773E+00  4.2091448670E+00  4.1371466224E-20  1.3363083094E-25
  1.5000176633E-01	  6.6966916166E+08	  3.1134145474E+04	  1.1593750000E+09	  4.9913913805E-01  3.3592912792E+00  4.2680254151E+00  5.2984599191E-20  1.5234775551E-25
  1.6000087128E-01	  6.6969263102E+08	  3.1136981008E+04	  1.1531250000E+09	  4.9913913805E-01  3.5907658245E+00  4.3374331652E+00  7.1537252618E-20  1.7544889606E-25
  1.7000095347E-01	  6.6971479062E+08	  3.1139732674E+04	  1.1531250000E+09	  4.9913913804E-01  3.8661079298E+00  4.4238178150E+00  1.0117639913E-19  2.0569319409E-25
  1.8000005841E-01	  6.6973562003E+08	  3.1142323756E+04	  1.1531250000E+09	  4.9913913804E-01  4.3038940574E+00  4.5359429499E+00  1.5224750309E-19  2.4498063389E-25
  1.9000014060E-01	  6.6975316754E+08	  3.1144517192E+04	  1.1531250000E+09	  4.9913913804E-01  4.9253251195E+00  4.6742717781E+00  2.7912924485E-19  2.9062795583E-25
  2.0000022278E-01	  6.6976740299E+08	  3.1146309206E+04	  1.1531250000E+09	  4.9913913804E-01  5.7522823990E+00  4.8740809094E+00  5.4578383996E-19  3.4843673782E-25
  2.1000030497E-01	  6.6977940324E+08	  3.1147830185E+04	  1.1531250000E+09	  4.9913913804E-01  7.1495995189E+00  5.1769474484E+00  1.7624273635E-18  4.0300190501E-25
  2.2000038716E-01	  6.6978974702E+08	  3.1149150354E+04	  1.1531250000E+09	  4.9913913804E-01  1.3375180630E+01  1.2265305507E+01  1.5655022412E-17  9.1580705727E-20
  2.3000046934E-01	  6.6979893585E+08	  3.1150330615E+04	  1.1531250000E+09	  4.9913913804E-01  1.0660846631E+01  1.1452160516E+01  6.4472410699E-18  7.9029503049E-19
  2.4000006291E-01	  6.6980747999E+08	  3.1151433189E+04	  1.1531250000E+09	  4.9913913804E-01  9.3460572519E+00  1.1697134297E+01  3.6226162371E-18  1.4334989091E-18
  2.5000014509E-01	  6.6981572416E+08	  3.1152499804E+04	  1.1531250000E+09	  4.9913913803E-01  8.7495733157E+00  1.1896019318E+01  2.7271942131E-18  1.8336898428E-18
  2.6000022728E-01	  6.6982402977E+08	  3.1153574758E+04	  1.1531250000E+09	  4.9913913803E-01  8.7812730589E+00  1.2130380712E+01  2.5734171265E-18  2.1868071274E-18
  2.7000030947E-01	  6.6983286078E+08	  3.1154714651E+04	  1.1531250000E+09	  4.9913913803E-01  8.9631797880E+00  1.2361491713E+01  2.6074003202E-18  2.4396951397E-18
  2.8000039165E-01	  6.6984273341E+08	  3.1155982325E+04	  1.1531250000E+09	  4.9913913803E-01  9.1679339900E+00  1.2541723755E+01  2.6653872712E-18  2.5972633043E-18
  2.9000047384E-01	  6.6985412383E+08	  3.1157435601E+04	  1.1531250000E+09	  4.9913913803E-01  9.3740115836E+00  1.2689605580E+01  2.6991167024E-18  2.6900124846E-18
  3.0000006741E-01	  6.6986741176E+08	  3.1159120327E+04	  1.1531250000E+09	  4.9913913803E-01  9.5827758085E+00  1.2833527427E+01  2.7140123263E-18  2.7438029634E-18
  3.1000014959E-01	  6.6988281687E+08	  3.1161063257E+04	  1.1531250000E+09	  4.9913913803E-01  9.8043449710E+00  1.2980100515E+01  2.7181853457E-18  2.7755438579E-18
  3.2000023178E-01	  6.6990032922E+08	  3.1163262850E+04	  1.1531250000E+09	  4.9913913803E-01  1.0027380468E+01  1.3131280399E+01  2.7151117389E-18  2.7858164524E-18
  3.3000031397E-01	  6.6991966319E+08	  3.1165684252E+04	  1.1531250000E+09	  4.9913913802E-01  1.0243847531E+01  1.3279236085E+01  2.7035693878E-18  2.7785337175E-18
  3.4000039615E-01	  6.6994027058E+08	  3.1168260770E+04	  1.1531250000E+09	  4.9913913802E-01  1.0457509015E+01  1.3434409108E+01  2.6847109988E-18  2.7589551441E-18
  3.5000047834E-01	  6.6996142873E+08	  3.1170904561E+04	  1.1531250000E+09	  4.9913913802E-01  1.0659977905E+01  1.3587644264E+01  2.6552725372E-18  2.7251266588E-18
  3.6000007191E-01	  6.6998236899E+08	  3.1173522290E+04	  1.1531250000E+09	  4.9913913802E-01  1.0853146479E+01  1.3741946478E+01  2.6126287165E-18  2.6797388156E-18
  3.7000015409E-01	  6.7000240593E+08	  3.1176030450E+04	  1.1531250000E+09	  4.9913913802E-01  1.0982588916E+01  1.3847110807E+01  2.5183854697E-18  2.5902687540E-18
  3.8000023628E-01	  6.7002105594E+08	  3.1178370225E+04	  1.1531250000E+09	  4.9913913802E-01  1.0936272516E+01  1.3829081035E+01  2.2582452999E-18  2.3607006918E-18
  3.9000031846E-01	  6.7003813648E+08	  3.1180519216E+04	  1.1531250000E+09	  4.9913913802E-01  1.0972384933E+01  1.3866557742E+01  2.0806645245E-18  2.1882052065E-18
  4.0000028199E-01	  6.7005376821E+08	  3.1182491804E+04	  1.1531250000E+09	  4.9913913802E-01  1.1089477588E+01  1.3966340003E+01  1.9905411548E-18  2.0886700894E-18
  4.1000037133E-01	  6.7006828188E+08	  3.1184327759E+04	  1.1531250000E+09	  4.9913913801E-01  1.1197303487E+01  1.4061841510E+01  1.9167831573E-18  2.0069215776E-18
  4.2000028086E-01	  6.7008208225E+08	  3.1186076220E+04	  1.1531250000E+09	  4.9913913801E-01  1.1296560396E+01  1.4153820624E+01  1.8512396190E-18  1.9359516029E-18
  4.3000005580E-01	  6.7009554435E+08	  3.1187782106E+04	  1.1531250000E+09	  4.9913913801E-01  1.1400539411E+01  1.4248826659E+01  1.8009507794E-18  1.8801287461E-18
  4.4000033296E-01	  6.7010891967E+08	  3.1189476169E+04	  1.1531250000E+09	  4.9913913801E-01  1.1521101080E+01  1.4363770179E+01  1.7654008964E-18  1.8381324140E-18
  4.5000035246E-01	  6.7012230558E+08	  3.1191169891E+04	  1.1531250000E+09	  4.9913913801E-01  1.1592521344E+01  1.4428509439E+01  1.7227834459E-18  1.7937987475E-18
  4.6000002996E-01	  6.7013565875E+08	  3.1192858059E+04	  1.1531250000E+09	  4.9913913801E-01  1.1684383912E+01  1.4515076628E+01  1.6934454203E-18  1.7610253115E-18
  4.7000002504E-01	  6.7014885790E+08	  3.1194526257E+04	  1.1531250000E+09	  4.9913913801E-01  1.1769542402E+01  1.4597596196E+01  1.6650611853E-18  1.7300131051E-18
  4.8000026749E-01	  6.7016178524E+08	  3.1196160291E+04	  1.1531250000E+09	  4.9913913801E-01  1.1848022353E+01  1.4674197005E+01  1.6386889532E-18  1.7011761103E-18
  4.9000010819E-01	  6.7017439335E+08	  3.1197754695E+04	  1.1531250000E+09	  4.9913913801E-01  1.1917249624E+01  1.4742291015E+01  1.6136959997E-18  1.6741992893E-18
  5.0000002879E-01	  6.7018674742E+08	  3.1199317449E+04	  1.1531250000E+09	  4.9913913801E-01  1.1982834540E+01  1.4808067191E+01  1.5901278837E-18  1.6490100263E-18
  5.1000016235E-01	  6.7019901053E+08	  3.1200868563E+04	  1.1531250000E+09	  4.9913913800E-01  1.2042030841E+01  1.4869141024E+01  1.5659598108E-18  1.6235106175E-18
  5.2000034769E-01	  6.7021139648E+08	  3.1202434013E+04	  1.1531250000E+09	  4.9913913800E-01  1.2090570608E+01  1.4920504668E+01  1.5404989157E-18  1.5970801956E-18
  5.3000022949E-01	  6.7022409823E+08	  3.1204037096E+04	  1.1531250000E+09	  4.9913913800E-01  1.2134093644E+01  1.4968423005E+01  1.5145812006E-18  1.5703306186E-18
  5.4000031482E-01	  6.7023722729E+08	  3.1205691078E+04	  1.1531250000E+09	  4.9913913800E-01  1.2164496655E+01  1.5005110975E+01  1.4851324090E-18  1.5404293401E-18
  5.5000017386E-01	  6.7025077441E+08	  3.1207394430E+04	  1.1531250000E+09	  4.9913913800E-01  1.2185471138E+01  1.5034636484E+01  1.4531317702E-18  1.5080279098E-18
  5.6000008950E-01	  6.7026460793E+08	  3.1209130680E+04	  1.1531250000E+09	  4.9913913800E-01  1.2191160638E+01  1.5051988002E+01  1.4166039302E-18  1.4718423289E-18
  5.7000033035E-01	  6.7027850637E+08	  3.1210872429E+04	  1.1531250000E+09	  4.9913913800E-01  1.2186703488E+01  1.5061678121E+01  1.3773062885E-18  1.4328705137E-18
  5.8000001179E-01	  6.7029221891E+08	  3.1212588757E+04	  1.1531250000E+09	  4.9913913800E-01  1.2167556450E+01  1.5060471573E+01  1.3335971765E-18  1.3899336310E-18
  5.9000032777E-01	  6.7030553850E+08	  3.1214254143E+04	  1.1531250000E+09	  4.9913913800E-01  1.2133630333E+01  1.5048652923E+01  1.2862199329E-18  1.3436759682E-18
  6.0000020793E-01	  6.7031834995E+08	  3.1215854336E+04	  1.1531250000E+09	  4.9913913800E-01  1.2086407430E+01  1.5029280007E+01  1.2357545320E-18  1.2943502268E-18
  6.1000023161E-01	  6.7033065975E+08	  3.1217390107E+04	  1.1531250000E+09	  4.9913913800E-01  1.2019054111E+01  1.4992025876E+01  1.1833559204E-18  1.2428618316E-18
  6.2000008696E-01	  6.7034259175E+08	  3.1218876195E+04	  1.1531250000E+09	  4.9913913800E-01  1.1945366622E+01  1.4955965526E+01  1.1292953377E-18  1.1902794631E-18
  6.3000016914E-01	  6.7035434752E+08	  3.1220337206E+04	  1.1531250000E+09	  4.9913913800E-01  1.1842325010E+01  1.4899987858E+01  1.0715945747E-18  1.1342346633E-18
  6.4000025133E-01	  6.7036613737E+08	  3.1221798715E+04	  1.1531250000E+09	  4.9913913800E-01  1.1743241403E+01  1.4850692555E+01  1.0185934636E-18  1.0825317147E-18
  6.5000033351E-01	  6.7037810321E+08	  3.1223277992E+04	  1.1531250000E+09	  4.9913913800E-01  1.1625532107E+01  1.4791105770E+01  9.6456675532E-19  1.0298749607E-18
  6.6000041570E-01	  6.7039025775E+08	  3.1224776598E+04	  1.1531250000E+09	  4.9913913800E-01  1.1501227501E+01  1.4730073243E+01  9.1331265773E-19  9.7968910470E-19
  6.7000000927E-01	  6.7040245430E+08	  3.1226276697E+04	  1.1531250000E+09	  4.9913913800E-01  1.1381259219E+01  1.4674419429E+01  8.6701591440E-19  9.3451303295E-19
  6.8000009145E-01	  6.7041439534E+08	  3.1227742100E+04	  1.1531250000E+09	  4.9913913800E-01  1.1270067115E+01  1.4627190434E+01  8.2557977559E-19  8.9376036197E-19
  6.9000017364E-01	  6.7042566555E+08	  3.1229122283E+04	  1.1531250000E+09	  4.9913913800E-01  1.1165194933E+01  1.4583969428E+01  7.8898736544E-19  8.5772680315E-19
  7.0000025582E-01	  6.7043579115E+08	  3.1230359611E+04	  1.1531250000E+09	  4.9913913800E-01  1.1073461827E+01  1.4549840883E+01  7.5731590301E-19  8.2654846105E-19
  7.1000033801E-01	  6.7044430446E+08	  3.1231397194E+04	  1.1531250000E+09	  4.9913913800E-01  1.0992862296E+01  1.4523889779E+01  7.2942192933E-19  7.9876412600E-19
  7.2000042019E-01	  6.7045080591E+08	  3.1232186419E+04	  1.1531250000E+09	  4.9913913800E-01  1.0921417546E+01  1.4505101005E+01  7.0443562666E-19  7.7399538963E-19
  7.3000001376E-01	  6.7045501482E+08	  3.1232693120E+04	  1.1531250000E+09	  4.9913913800E-01  1.0860762679E+01  1.4492573667E+01  6.8262049174E-19  7.5170627083E-19
  7.4000009594E-01	  6.7045680608E+08	  3.1232902013E+04	  1.1531250000E+09	  4.9913913800E-01  1.0811514983E+01  1.4488295245E+01  6.6359591985E-19  7.3280360472E-19
  7.5000017813E-01	  6.7045622879E+08	  3.1232818948E+04	  1.1531250000E+09	  4.9913913800E-01  1.0775171492E+01  1.4492031982E+01  6.4770351676E-19  7.1659177582E-19
  7.6000026031E-01	  6.7045351150E+08	  3.1232471530E+04	  1.1531250000E+09	  4.9913913800E-01  1.0752512729E+01  1.4505136508E+01  6.3525373051E-19  7.0375551954E-19
  7.7000034250E-01	  6.7044905121E+08	  3.1231907771E+04	  1.1531250000E+09	  4.9913913800E-01  1.0740447360E+01  1.4520834753E+01  6.2395837302E-19  6.9173094443E-19
  7.8000042468E-01	  6.7044336273E+08	  3.1231189952E+04	  1.1531250000E+09	  4.9913913800E-01  1.0737096264E+01  1.4539850428E+01  6.1505544111E-19  6.8186343935E-19
  7.9000001825E-01	  6.7043708169E+08	  3.1230394969E+04	  1.1531250000E+09	  4.9913913801E-01  1.0743153693E+01  1.4563274173E+01  6.0764625609E-19  6.7321838739E-19
  8.0000010044E-01	  6.7043093258E+08	  3.1229610481E+04	  1.1531250000E+09	  4.9913913801E-01  1.0751090313E+01  1.4586437482E+01  6.0092700867E-19  6.6581832277E-19
  8.0848644009E-01	  6.7042637141E+08	  3.1229019977E+04	  1.1531250000E+09	  4.9913913801E-01  1.0761181850E+01  1.4606012414E+01  5.9624158767E-19  6.6021416042E-19
  8.1000018262E-01	  6.7042565709E+08	  3.1228926246E+04	  1.1531250000E+09	  4.9913913801E-01  1.0762902957E+01  1.4609314087E+01  5.9538342141E-19  6.5915721306E-19
  8.2000026481E-01	  6.7042193318E+08	  3.1228424297E+04	  1.1531250000E+09	  4.9913913801E-01  1.0774677660E+01  1.4630373307E+01  5.8998929505E-19  6.5268198316E-19
  8.3000034699E-01	  6.7042028314E+08	  3.1228167790E+04	  1.1531250000E+09	  4.9913913801E-01  1.0786757292E+01  1.4650688174E+01  5.8491930338E-19  6.4677434749E-19
  8.4000042918E-01	  6.7042097696E+08	  3.1228189274E+04	  1.1531250000E+09	  4.9913913801E-01  1.0796541795E+01  1.4667537592E+01  5.7960310643E-19  6.4032207936E-19
  8.5000002274E-01	  6.7042393902E+08	  3.1228479380E+04	  1.1531250000E+09	  4.9913913801E-01  1.0805434749E+01  1.4682661902E+01  5.7462071433E-19  6.3413253411E-19
  8.6000010493E-01	  6.7042866851E+08	  3.1228977156E+04	  1.1531250000E+09	  4.9913913801E-01  1.0814550954E+01  1.4698657393E+01  5.6944682276E-19  6.2775845941E-19
  8.7000018711E-01	  6.7043418605E+08	  3.1229563642E+04	  1.1531250000E+09	  4.9913913802E-01  1.0823335652E+01  1.4713906288E+01  5.6437841420E-19  6.2219366731E-19
  8.8000026930E-01	  6.7043902875E+08	  3.1230061272E+04	  1.1531250000E+09	  4.9913913802E-01  1.0832491114E+01  1.4728685183E+01  5.5957121695E-19  6.1689741804E-19
  8.9000035148E-01	  6.7044130780E+08	  3.1230240878E+04	  1.1531250000E+09	  4.9913913802E-01  1.0841787047E+01  1.4743484332E+01  5.5516649842E-19  6.1113033876E-19
  9.0000043367E-01	  6.7043879804E+08	  3.1229832540E+04	  1.1531250000E+09	  4.9913913802E-01  1.0851185743E+01  1.4759258958E+01  5.5075268638E-19  6.0619521270E-19
  9.1000002723E-01	  6.7042899673E+08	  3.1228579127E+04	  1.1468750000E+09	  4.9913913802E-01  1.0870122010E+01  1.4784224007E+01  5.4642385827E-19  6.0065396585E-19
  9.2000010942E-01	  6.7040914350E+08	  3.1226209664E+04	  1.1468750000E+09	  4.9913913802E-01  1.0868382049E+01  1.4788506413E+01  5.4147989327E-19  5.9535114442E-19
  9.3000019160E-01	  6.7037761444E+08	  3.1222426541E+04	  1.1468750000E+09	  4.9913913802E-01  1.0874247502E+01  1.4799453763E+01  5.3705686613E-19  5.8986278734E-19
  9.4000027379E-01	  6.7033333600E+08	  3.1217098755E+04	  1.1468750000E+09	  4.9913913802E-01  1.0879988247E+01  1.4810456863E+01  5.3234488590E-19  5.8482361324E-19
  9.5000035598E-01	  6.7027614851E+08	  3.1210206258E+04	  1.1468750000E+09	  4.9913913801E-01  1.0885081308E+01  1.4820686963E+01  5.2780589133E-19  5.7985996792E-19
  9.6000043816E-01	  6.7020694745E+08	  3.1201857198E+04	  1.1468750000E+09	  4.9913913801E-01  1.0891023444E+01  1.4831803812E+01  5.2384315172E-19  5.7514976565E-19
  9.7000003173E-01	  6.7012769996E+08	  3.1192290042E+04	  1.1468750000E+09	  4.9913913801E-01  1.0899259404E+01  1.4845413023E+01  5.1996063393E-19  5.7034945078E-19
  9.8000011391E-01	  6.7004129465E+08	  3.1181855424E+04	  1.1468750000E+09	  4.9913913801E-01  1.0904355696E+01  1.4855548760E+01  5.1539641105E-19  5.6550170407E-19
  9.9000019610E-01	  6.6995130004E+08	  3.1170986852E+04	  1.1468750000E+09	  4.9913913801E-01  1.0912260862E+01  1.4868163255E+01  5.1136306662E-19  5.6067779124E-19
  1.0000002783E+00	  6.6986157976E+08	  3.1160153942E+04	  1.1468750000E+09	  4.9913913801E-01  1.0917604507E+01  1.4878584219E+01  5.0733500799E-19  5.5593837715E-19
  1.0100003605E+00	  6.6977587917E+08	  3.1149812116E+04	  1.1468750000E+09	  4.9913913800E-01  1.0920687459E+01  1.4886971062E+01  5.0317129121E-19  5.5139042846E-19
  1.0200004427E+00	  6.6969741904E+08	  3.1140353072E+04	  1.1468750000E+09	  4.9913913800E-01  1.0927372697E+01  1.4898480420E+01  4.9947930192E-19  5.4704746576E-19
  1.0300000362E+00	  6.6962855815E+08	  3.1132063623E+04	  1.1468750000E+09	  4.9913913800E-01  1.0934359443E+01  1.4910212771E+01  4.9576615942E-19  5.4267416283E-19
  1.0400001184E+00	  6.6957055334E+08	  3.1125096396E+04	  1.1468750000E+09	  4.9913913800E-01  1.0938350743E+01  1.4918709947E+01  4.9226412389E-19  5.3896885814E-19
  1.0500002006E+00	  6.6952350616E+08	  3.1119463254E+04	  1.1468750000E+09	  4.9913913800E-01  1.0944967326E+01  1.4929427646E+01  4.8865252650E-19  5.3463713273E-19
  1.0600002828E+00	  6.6948642526E+08	  3.1115042925E+04	  1.1468750000E+09	  4.9913913800E-01  1.0949564869E+01  1.4939815234E+01  4.8489129907E-19  5.3039820972E-19
  1.0700003650E+00	  6.6945744056E+08	  3.1111607114E+04	  1.1468750000E+09	  4.9913913800E-01  1.0954288442E+01  1.4946583238E+01  4.8200145590E-19  5.2664465944E-19
  1.0800004472E+00	  6.6943413268E+08	  3.1108860637E+04	  1.1468750000E+09	  4.9913913800E-01  1.0961465119E+01  1.4958739097E+01  4.7817999348E-19  5.2260735721E-19
  1.0900000407E+00	  6.6941389462E+08	  3.1106485549E+04	  1.1468750000E+09	  4.9913913799E-01  1.0960896249E+01  1.4963232493E+01  4.7457078842E-19  5.1890176023E-19
  1.1000001229E+00	  6.6939425056E+08	  3.1104179994E+04	  1.1468750000E+09	  4.9913913799E-01  1.0969279024E+01  1.4975449122E+01  4.7144797819E-19  5.1497689143E-19
  1.1100002051E+00	  6.6937313358E+08	  3.1101691975E+04	  1.1468750000E+09	  4.9913913799E-01  1.0973261276E+01  1.4982541931E+01  4.6876188474E-19  5.1145736856E-19
  1.1200002873E+00	  6.6934907949E+08	  3.1098842898E+04	  1.1468750000E+09	  4.9913913799E-01  1.0978013338E+01  1.4992420375E+01  4.6525165122E-19  5.0790036746E-19
  1.1300003695E+00	  6.6932130155E+08	  3.1095536631E+04	  1.1468750000E+09	  4.9913913799E-01  1.0981880707E+01  1.5000292067E+01  4.6254254088E-19  5.0474685053E-19
  1.1400004517E+00	  6.6928972551E+08	  3.1091763667E+04	  1.1468750000E+09	  4.9913913799E-01  1.0989416393E+01  1.5011228675E+01  4.5968399506E-19  5.0126491431E-19
  1.1500000452E+00	  6.6925492454E+08	  3.1087593231E+04	  1.1468750000E+09	  4.9913913799E-01  1.0992987000E+01  1.5017864809E+01  4.5692272828E-19  4.9833195588E-19
  1.1600001274E+00	  6.6921790368E+08	  3.1083147099E+04	  1.1468750000E+09	  4.9913913799E-01  1.0995803680E+01  1.5025755066E+01  4.5411574307E-19  4.9541746959E-19
  1.1700002096E+00	  6.6917983153E+08	  3.1078566985E+04	  1.1468750000E+09	  4.9913913799E-01  1.1004940327E+01  1.5038030918E+01  4.5130682486E-19  4.9238635302E-19
  1.1800002918E+00	  6.6914173583E+08	  3.1073977532E+04	  1.1468750000E+09	  4.9913913799E-01  1.1008513803E+01  1.5044762521E+01  4.4845651928E-19  4.8951538748E-19
  1.1900003740E+00	  6.6910424616E+08	  3.1069455007E+04	  1.1468750000E+09	  4.9913913799E-01  1.1010707689E+01  1.5050848368E+01  4.4542694350E-19  4.8619704081E-19
  1.2000004562E+00	  6.6906742521E+08	  3.1065006714E+04	  1.1468750000E+09	  4.9913913799E-01  1.1014082052E+01  1.5058234994E+01  4.4258038450E-19  4.8283893376E-19
  1.2100000497E+00	  6.6903072501E+08	  3.1060565615E+04	  1.1468750000E+09	  4.9913913799E-01  1.1020557762E+01  1.5068591332E+01  4.4024103439E-19  4.8036546653E-19
  1.2200001319E+00	  6.6899306830E+08	  3.1056000143E+04	  1.1468750000E+09	  4.9913913799E-01  1.1028316637E+01  1.5080136477E+01  4.3769906019E-19  4.7750727521E-19
  1.2300002141E+00	  6.6895306127E+08	  3.1051140030E+04	  1.1468750000E+09	  4.9913913799E-01  1.1032403086E+01  1.5088267173E+01  4.3472062582E-19  4.7451339284E-19
  1.2400002963E+00	  6.6890926544E+08	  3.1045809350E+04	  1.1468750000E+09	  4.9913913799E-01  1.1032642876E+01  1.5090963369E+01  4.3183315882E-19  4.7102171178E-19
  1.2500003785E+00	  6.6886049900E+08	  3.1039863198E+04	  1.1468750000E+09	  4.9913913799E-01  1.1033816120E+01  1.5096997188E+01  4.2917837416E-19  4.6848804078E-19
  1.2600004607E+00	  6.6880609563E+08	  3.1033219253E+04	  1.1468750000E+09	  4.9913913799E-01  1.1047207797E+01  1.5115601926E+01  4.2745489099E-19  4.6667486771E-19
  1.2700000542E+00	  6.6874607265E+08	  3.1025878339E+04	  1.1468750000E+09	  4.9913913800E-01  1.1059379397E+01  1.5131863511E+01  4.2451019019E-19  4.6328504895E-19
  1.2800001364E+00	  6.6868117121E+08	  3.1017929466E+04	  1.1468750000E+09	  4.9913913800E-01  1.1045713407E+01  1.5114780073E+01  4.2219569198E-19  4.6085063476E-19
  1.2900002186E+00	  6.6861274972E+08	  3.1009536952E+04	  1.1468750000E+09	  4.9913913800E-01  1.1056367729E+01  1.5136045964E+01  4.1869387753E-19  4.5717271139E-19
  1.3000003008E+00	  6.6854252747E+08	  3.1000909322E+04	  1.1468750000E+09	  4.9913913800E-01  1.1056105349E+01  1.5138362415E+01  4.1620825735E-19  4.5424716079E-19
  1.3100003830E+00	  6.6847229406E+08	  3.0992263965E+04	  1.1468750000E+09	  4.9913913800E-01  1.1060781074E+01  1.5144347630E+01  4.1388473742E-19  4.5145388123E-19
  1.3200004652E+00	  6.6840358203E+08	  3.0983787252E+04	  1.1468750000E+09	  4.9913913800E-01  1.1066118994E+01  1.5153910090E+01  4.1128932337E-19  4.4891512835E-19
  1.3300000588E+00	  6.6833736588E+08	  3.0975597785E+04	  1.1468750000E+09	  4.9913913801E-01  1.1068453748E+01  1.5159712607E+01  4.0879497989E-19  4.4638544307E-19
  1.3400001409E+00	  6.6827427093E+08	  3.0967808624E+04	  1.1406250000E+09	  4.9913913801E-01  1.1072408595E+01  1.5167674913E+01  4.0621083168E-19  4.4353790745E-19
  1.3500002231E+00	  6.6821384619E+08	  3.0960438183E+04	  1.1406250000E+09	  4.9913913801E-01  1.1076032041E+01  1.5177194770E+01  4.0374894004E-19  4.4135260329E-19
  1.3600003053E+00	  6.6815302202E+08	  3.0953031809E+04	  1.1406250000E+09	  4.9913913800E-01  1.1080564397E+01  1.5185310114E+01  4.0141028197E-19  4.3844753759E-19
  1.3700003875E+00	  6.6808953239E+08	  3.0945312508E+04	  1.1406250000E+09	  4.9913913800E-01  1.1082843299E+01  1.5189858090E+01  3.9874922888E-19  4.3531336436E-19
  1.3800004697E+00	  6.6802101255E+08	  3.0936990795E+04	  1.1406250000E+09	  4.9913913800E-01  1.1083832141E+01  1.5194066250E+01  3.9631315118E-19  4.3253629287E-19
  1.3900000633E+00	  6.6794540237E+08	  3.0927813854E+04	  1.1406250000E+09	  4.9913913800E-01  1.1087735518E+01  1.5201012441E+01  3.9401081926E-19  4.2990322239E-19
  1.4000001454E+00	  6.6786136804E+08	  3.0917617089E+04	  1.1406250000E+09	  4.9913913800E-01  1.1090891678E+01  1.5206033683E+01  3.9207892056E-19  4.2770042467E-19
  1.4100002276E+00	  6.6776854404E+08	  3.0906353847E+04	  1.1406250000E+09	  4.9913913799E-01  1.1096085336E+01  1.5215879697E+01  3.8987177381E-19  4.2524060838E-19
  1.4200003098E+00	  6.6766757306E+08	  3.0894100549E+04	  1.1406250000E+09	  4.9913913799E-01  1.1099873126E+01  1.5224240804E+01  3.8775240115E-19  4.2296600812E-19
  1.4300003920E+00	  6.6756000903E+08	  3.0881045100E+04	  1.1406250000E+09	  4.9913913799E-01  1.1102749465E+01  1.5230698680E+01  3.8525636583E-19  4.2026689358E-19
  1.4400004742E+00	  6.6744809052E+08	  3.0867459416E+04	  1.1406250000E+09	  4.9913913799E-01  1.1104284113E+01  1.5233901555E+01  3.8316190152E-19  4.1759698528E-19
  1.4500000678E+00	  6.6733443909E+08	  3.0853662681E+04	  1.1406250000E+09	  4.9913913799E-01  1.1107100320E+01  1.5239981250E+01  3.8119602357E-19  4.1535312289E-19
  1.4600001500E+00	  6.6722170160E+08	  3.0839977628E+04	  1.1406250000E+09	  4.9913913799E-01  1.1111408396E+01  1.5246874202E+01  3.7955384726E-19  4.1325352214E-19
  1.4700002321E+00	  6.6711227244E+08	  3.0826696436E+04	  1.1406250000E+09	  4.9913913799E-01  1.1115888719E+01  1.5254486156E+01  3.7768392726E-19  4.1138133094E-19
  1.4800003143E+00	  6.6700804437E+08	  3.0814050044E+04	  1.1406250000E+09	  4.9913913799E-01  1.1120781813E+01  1.5263926876E+01  3.7586163055E-19  4.0948403144E-19
  1.4900003965E+00	  6.6691027997E+08	  3.0802192163E+04	  1.1406250000E+09	  4.9913913798E-01  1.1122932834E+01  1.5268741044E+01  3.7375970530E-19  4.0694996251E-19
  1.5000004787E+00	  6.6681956110E+08	  3.0791192882E+04	  1.1406250000E+09	  4.9913913798E-01  1.1125917406E+01  1.5275743539E+01  3.7150113039E-19  4.0440700625E-19
  1.5100000723E+00	  6.6673582486E+08	  3.0781042940E+04	  1.1406250000E+09	  4.9913913798E-01  1.1126983558E+01  1.5280661996E+01  3.6925006424E-19  4.0225593315E-19
  1.5200001545E+00	  6.6665846236E+08	  3.0771665781E+04	  1.1406250000E+09	  4.9913913798E-01  1.1129598826E+01  1.5286840550E+01  3.6705352824E-19  3.9978736109E-19
  1.5300002366E+00	  6.6658654445E+08	  3.0762945220E+04	  1.1406250000E+09	  4.9913913798E-01  1.1129519928E+01  1.5288347804E+01  3.6513487021E-19  3.9737079245E-19
  1.5400003188E+00	  6.6651893695E+08	  3.0754739645E+04	  1.1406250000E+09	  4.9913913799E-01  1.1132051427E+01  1.5293564177E+01  3.6348841923E-19  3.9542183522E-19
  1.5500004010E+00	  6.6645446646E+08	  3.0746902484E+04	  1.1406250000E+09	  4.9913913799E-01  1.1133645030E+01  1.5297315498E+01  3.6205077663E-19  3.9373517203E-19
  1.5600004832E+00	  6.6639220299E+08	  3.0739316942E+04	  1.1406250000E+09	  4.9913913799E-01  1.1138422936E+01  1.5305738111E+01  3.6079064618E-19  3.9219184143E-19
  1.5700000768E+00	  6.6633149066E+08	  3.0731899996E+04	  1.1406250000E+09	  4.9913913799E-01  1.1143135649E+01  1.5312554947E+01  3.5965324632E-19  3.9066568448E-19
  1.5800001590E+00	  6.6627311882E+08	  3.0724745378E+04	  1.1406250000E+09	  4.9913913799E-01  1.1148578001E+01  1.5321848701E+01  3.5821827368E-19  3.8921818844E-19
  1.5900002412E+00	  6.6621541111E+08	  3.0717626736E+04	  1.1406250000E+09	  4.9913913799E-01  1.1151745970E+01  1.5327666796E+01  3.5636488857E-19  3.8751452370E-19
  1.6000003233E+00	  6.6623138758E+08	  3.0718394765E+04	  1.1406250000E+09	  4.9913913799E-01  1.1152195687E+01  1.5332190531E+01  3.5424740156E-19  3.8538290910E-19
  1.6100004055E+00	  7.2128770360E+08	  3.3724624814E+04	  1.1406250000E+09	  4.9913913790E-01  1.1134747990E+01  1.5310385951E+01  3.5193004063E-19  3.8285069512E-19
  1.6200004877E+00	  1.0131362756E+09	  5.7974009237E+04	  1.1406250000E+09	  4.9913913651E-01  1.1060257820E+01  1.5210012557E+01  3.4849903886E-19  3.7906995211E-19
  1.6300000813E+00	  1.2180450717E+09	  8.3161896399E+04	  1.1468750000E+09	  4.9913913659E-01  1.1001241662E+01  1.5128612709E+01  3.4395097926E-19  3.7407837319E-19
  1.6400001635E+00	  1.3312723313E+09	  1.0325068832E+05	  1.1531250000E+09	  4.9913913827E-01  1.0965205779E+01  1.5081176973E+01  3.3885967579E-19  3.6858817959E-19
  1.6500002457E+00	  1.3891137694E+09	  1.1469735726E+05	  1.1593750000E+09	  4.9913914154E-01  1.0942200747E+01  1.5049371747E+01  3.3391153181E-19  3.6295377319E-19
  1.6600003278E+00	  1.4241901773E+09	  1.2298907665E+05	  1.1656250000E+09	  4.9913914636E-01  1.0928588898E+01  1.5030737066E+01  3.2910176074E-19  3.5760124701E-19
  1.6700004100E+00	  1.4385191154E+09	  1.2759246000E+05	  1.1718750000E+09	  4.9913915755E-01  1.0921759258E+01  1.5021596872E+01  3.2406775558E-19  3.5204943112E-19
  1.6800000036E+00	  1.4383426635E+09	  1.2871353942E+05	  1.1781250000E+09	  4.9913917847E-01  1.0918015908E+01  1.5019791593E+01  3.1887586361E-19  3.4651062312E-19
  1.6900000858E+00	  1.4324353905E+09	  1.2794659407E+05	  1.1843750000E+09	  4.9913920076E-01  1.0916205948E+01  1.5019814741E+01  3.1346024787E-19  3.4074952467E-19
  1.7000001680E+00	  1.4251763859E+09	  1.2648511857E+05	  1.1906250000E+09	  4.9913923458E-01  1.0917754179E+01  1.5024415182E+01  3.0808350885E-19  3.3484718034E-19
  1.7100002502E+00	  1.4173426052E+09	  1.2465775667E+05	  1.2031250000E+09	  4.9913929648E-01  1.0919507020E+01  1.5029555572E+01  3.0306599122E-19  3.2938403167E-19
  1.7200003324E+00	  1.4095942973E+09	  1.2265141671E+05	  1.2093750000E+09	  4.9913939576E-01  1.0922292632E+01  1.5034786880E+01  2.9832932905E-19  3.2433226550E-19
  1.7300004145E+00	  1.4020874439E+09	  1.2066135010E+05	  1.2156250000E+09	  4.9913949804E-01  1.0925257537E+01  1.5040743850E+01  2.9360839710E-19  3.1952420621E-19
  1.7400000081E+00	  1.3947470405E+09	  1.1867833941E+05	  1.2218750000E+09	  4.9913959938E-01  1.0928903735E+01  1.5046500476E+01  2.8906039716E-19  3.1469904167E-19
  1.7500000903E+00	  1.3869917005E+09	  1.1670603464E+05	  1.2281250000E+09	  4.9913970119E-01  1.0931535747E+01  1.5052133835E+01  2.8468767941E-19  3.1001177373E-19
  1.7600001725E+00	  1.3792516558E+09	  1.1475715164E+05	  1.2343750000E+09	  4.9913980792E-01  1.0936253173E+01  1.5058618751E+01  2.8071916604E-19  3.0536738033E-19
  1.7700002547E+00	  1.3718114669E+09	  1.1284211013E+05	  1.2406250000E+09	  4.9913991067E-01  1.0941702092E+01  1.5068603221E+01  2.7676655540E-19  3.0126427322E-19
  1.7800003369E+00	  1.3645865923E+09	  1.1096969424E+05	  1.2468750000E+09	  4.9914001605E-01  1.0947559559E+01  1.5079243085E+01  2.7300999177E-19  2.9722380758E-19
  1.7900004190E+00	  1.3572811605E+09	  1.0914855634E+05	  1.2531250000E+09	  4.9914012527E-01  1.0953309418E+01  1.5087430402E+01  2.6910554168E-19  2.9272001540E-19
  1.8000000126E+00	  1.3502002885E+09	  1.0738324317E+05	  1.2593750000E+09	  4.9914023890E-01  1.0956052433E+01  1.5092112122E+01  2.6490176003E-19  2.8797948158E-19
  1.8100000948E+00	  1.3433609264E+09	  1.0567521568E+05	  1.2656250000E+09	  4.9914035654E-01  1.0956993386E+01  1.5097299421E+01  2.6065115692E-19  2.8344850462E-19
  1.8200001770E+00	  1.3367454639E+09	  1.0401398906E+05	  1.2781250000E+09	  4.9914049094E-01  1.0961001470E+01  1.5104210839E+01  2.5694720331E-19  2.7933620682E-19
  1.8300002592E+00	  1.3303081882E+09	  1.0239029624E+05	  1.2843750000E+09	  4.9914063038E-01  1.0964071899E+01  1.5108368917E+01  2.5321027626E-19  2.7509746205E-19
  1.8400003414E+00	  1.3240245895E+09	  1.0079869122E+05	  1.2906250000E+09	  4.9914077343E-01  1.0965573000E+01  1.5111919413E+01  2.4933713204E-19  2.7081536879E-19
  1.8500004236E+00	  1.3176751284E+09	  9.9236623731E+04	  1.2968750000E+09	  4.9914092013E-01  1.0968658949E+01  1.5117153050E+01  2.4572251834E-19  2.6673868348E-19
  1.8600000171E+00	  1.3110064890E+09	  9.7702992819E+04	  1.3031250000E+09	  4.9914107042E-01  1.0973395087E+01  1.5124644409E+01  2.4239444915E-19  2.6322729748E-19
  1.8700000993E+00	  1.3044456472E+09	  9.6198311999E+04	  1.3093750000E+09	  4.9914122433E-01  1.0976466061E+01  1.5130767798E+01  2.3910109017E-19  2.5986273121E-19
  1.8800001815E+00	  1.2977937148E+09	  9.4723914218E+04	  1.3156250000E+09	  4.9914138193E-01  1.0979590127E+01  1.5137008645E+01  2.3580733590E-19  2.5652954942E-19
  1.8900002637E+00	  1.2913191386E+09	  9.3282253354E+04	  1.3218750000E+09	  4.9914154315E-01  1.0982969297E+01  1.5142455744E+01  2.3266950059E-19  2.5305194451E-19
  1.9000003459E+00	  1.2850234022E+09	  9.1875234670E+04	  1.3281250000E+09	  4.9914170785E-01  1.0987169564E+01  1.5149955400E+01  2.2971008304E-19  2.4991316101E-19
  1.9100004281E+00	  1.2789020471E+09	  9.0503010457E+04	  1.3343750000E+09	  4.9914187632E-01  1.0991140171E+01  1.5155809875E+01  2.2675173933E-19  2.4658244971E-19
  1.9200000216E+00	  1.2729389452E+09	  8.9162138852E+04	  1.3406250000E+09	  4.9914205019E-01  1.0995826385E+01  1.5163800644E+01  2.2380929394E-19  2.4323594819E-19
  1.9300001038E+00	  1.2671184995E+09	  8.7849033340E+04	  1.3468750000E+09	  4.9914223315E-01  1.1000596955E+01  1.5171771254E+01  2.2087687921E-19  2.3993131565E-19
  1.9356930070E+00	  1.2638684349E+09	  8.7109732362E+04	  1.3531250000E+09	  4.9914235616E-01  1.1002780170E+01  1.5176531553E+01  2.1915538132E-19  2.3809378873E-19
  1.9356934957E+00	  1.2638681575E+09	  8.7109669169E+04	  1.3531250000E+09	  4.9914235617E-01  1.1002780340E+01  1.5176531909E+01  2.1915523317E-19  2.3809362288E-19
  1.9356939843E+00	  1.2638678802E+09	  8.7109605976E+04	  1.3531250000E+09	  4.9914235619E-01  1.1002780510E+01  1.5176532265E+01  2.1915508503E-19  2.3809345702E-19
