n 1.1465113998529588e-28
h1 1.8908072539986744e-24
he4 1.6720810852402658e-16
h2 8.1303930893731e-30
h3 5.5515728039971705e-39
he3 4.3473231137583277e-35
li6 2.9217306387554107e-32
li7 1.4243009596876457e-33
li8 6.359301055040555e-46
li9 8.746932067294734e-67
be7 4.249521636916622e-35
be9 1.3538088867127038e-54
be10 4.667310035010686e-51
be11 3.654510245449337e-79
be12 0.0
b8 5.709460831998146e-63
b10 2.2109993830673246e-28
b11 1.7361684351529959e-31
b12 3.0963252324643437e-53
b13 2.5203531895318313e-75
b14 1.4997886203643821e-99
c10 0.0
c11 1.323259117789354e-44
c12 0.015598983885365394
c13 9.822808788211887e-13
c14 1.4260769772546564e-12
c15 1.713349744506062e-33
c16 7.470620016442767e-55
c17 5.514230960739361e-80
c18 0.0
n11 0.0
n12 7.325597681196312e-68
n13 9.295903628531878e-18
n14 2.6328946704094098e-15
n15 3.8390008237211123e-17
n16 1.7588152631091884e-36
n17 1.0930080440715383e-56
n18 2.1446129148276434e-78
n19 0.0
n20 0.0
n21 0.0
o13 7.562439761674355e-89
o14 9.754151182266503e-35
o15 2.304011201596268e-31
o16 0.04935171805803315
o17 1.3422755459278769e-11
o18 4.358193376719997e-13
o19 1.8833216703364735e-31
o20 1.6764164140617019e-49
o21 9.478195443711893e-70
o22 5.206409651304009e-92
f16 3.552123084252734e-68
f17 2.3158739251886774e-24
f18 1.8166349186677852e-26
f19 8.331103527618203e-14
f20 1.2750406216589474e-49
f21 4.423896291742071e-67
f22 1.8758962967267402e-86
f23 2.576315053237339e-97
f24 0.0
f25 0.0
f26 0.0
ne16 0.0
ne17 0.0
ne18 2.0926435380520285e-45
ne19 2.302029799710009e-44
ne20 0.00020759505631456652
ne21 7.406816383154938e-07
ne22 0.0004047188595418647
ne23 3.3800798376874976e-22
ne24 2.359332727366043e-38
ne25 7.001805663246138e-58
ne26 4.869016126010509e-78
ne27 0.0
ne28 0.0
ne29 0.0
na19 1.3140257971114937e-77
na20 1.0487845634617829e-66
na21 5.4852762340738776e-24
na22 5.022704157725384e-15
na23 8.088852194002314e-06
na24 2.9996850484318607e-19
na25 1.395742043806574e-35
na26 4.037160259456172e-54
na27 3.640431598686464e-73
na28 1.7910312422476538e-94
na29 0.0
na30 0.0
na31 0.0
na32 0.0
mg20 0.0
mg21 3.387156186994655e-88
mg22 1.9049213711674047e-41
mg23 1.7861103655406266e-27
mg24 1.8542990668004143e-05
mg25 0.00012708013422431096
mg26 0.00012277544524698047
mg27 3.598936613705641e-21
mg28 5.745470256698305e-34
mg29 6.642917679890179e-53
mg30 3.6397291894794935e-72
mg31 1.0490352693669957e-92
mg32 0.0
mg33 0.0
mg34 0.0
mg35 0.0
al22 0.0
al23 8.594982307790592e-69
al24 2.8579425621516226e-47
al25 3.2732096508462593e-22
al26 4.9149350341195e-18
al27 2.3152784443642943e-06
al28 3.855936306156797e-22
al29 4.606832569729058e-37
al30 7.233037169924554e-55
al31 2.6245421802601054e-73
al32 6.306944730687588e-94
al33 0.0
al34 0.0
al35 0.0
al36 0.0
al37 0.0
al38 0.0
si23 0.0
si24 3.167856507471153e-90
si25 4.954473483163909e-68
si26 2.974219065377516e-41
si27 9.818834319356441e-36
si28 1.9209095117019413e-05
si29 5.773769414318028e-06
si30 6.912326051677538e-06
si31 1.8872883826869953e-19
si32 7.547517839708515e-13
si33 6.943569734336578e-31
si34 3.825341012116001e-49
si35 3.679082412265852e-69
si36 7.26223319740096e-89
si37 0.0
si38 0.0
si39 0.0
si40 0.0
si41 0.0
p25 0.0
p26 0.0
p27 1.640835051081298e-61
p28 3.2625104905066084e-56
p29 9.896526909565961e-25
p30 4.644997469893015e-22
p31 3.515828839355334e-06
p32 1.7360692418369508e-16
p33 8.819946982492489e-20
p34 9.396203893056245e-37
p35 3.5500134065726737e-48
p36 1.7509324718142714e-66
p37 2.9853566772615704e-84
p38 0.0
p39 0.0
p40 0.0
p41 0.0
p42 0.0
p43 0.0
p44 0.0
s27 0.0
s28 3.19577509538662e-87
s29 5.416261104365309e-77
s30 2.799837959695878e-45
s31 4.953575622000097e-38
s32 7.42836587606428e-06
s33 1.3965282416201587e-07
s34 7.149759605515373e-07
s35 7.216336684327505e-17
s36 8.312135006785534e-08
s37 1.7612744257207612e-24
s38 3.2050159092240076e-38
s39 7.710732132417407e-56
s40 4.0247185038748095e-73
s41 9.962402437123894e-92
s42 0.0
s43 0.0
s44 0.0
s45 0.0
s46 0.0
s47 0.0
cl29 0.0
cl30 0.0
cl31 4.759416843515048e-71
cl32 1.1751718866184429e-60
cl33 1.1462195211770158e-25
cl34 2.0110869556501477e-27
cl35 4.200372856681992e-08
cl36 3.5431652733483015e-09
cl37 1.5807996056890383e-06
cl38 2.779573796964506e-21
cl39 3.630073573572744e-35
cl40 3.226896939163391e-51
cl41 4.783157563149444e-67
cl42 4.213670441286684e-84
cl43 0.0
cl44 0.0
cl45 0.0
cl46 0.0
cl47 0.0
cl48 0.0
cl49 0.0
cl50 0.0
ar31 0.0
ar32 1.1161372935247331e-97
ar33 8.058899178050188e-84
ar34 2.710163312143715e-46
ar35 8.967168023616412e-47
ar36 7.995356578194977e-07
ar37 3.539357407977587e-17
ar38 1.2577973831688865e-06
ar39 6.517028304900974e-08
ar40 3.810180484633792e-08
ar41 2.5608498243952772e-22
ar42 9.769416900317893e-17
ar43 2.7150183008131293e-32
ar44 4.2586758508619167e-47
ar45 5.030926928966023e-64
ar46 4.477547589792564e-81
ar47 0.0
ar48 0.0
ar49 0.0
ar50 0.0
ar51 0.0
ar52 0.0
k32 0.0
k33 0.0
k34 0.0
k35 1.886744054413327e-74
k36 1.2248368567560324e-69
k37 9.447727961519887e-27
k38 4.480305265324875e-36
k39 1.520989335885431e-07
k40 2.0701612644904977e-08
k41 3.506466481816048e-08
k42 1.6832318190563245e-20
k43 4.6646427769695594e-30
k44 3.410500610794272e-44
k45 3.8935414557283986e-58
k46 3.000302726727014e-68
k47 5.898743987116332e-74
k48 1.9013522448071855e-91
k49 0.0
k50 0.0
k51 0.0
k52 0.0
k53 0.0
k54 0.0
k55 0.0
ca35 0.0
ca36 4.792112504746622e-99
ca37 7.241321419098223e-92
ca38 2.1491808800788907e-48
ca39 4.406380122639905e-57
ca40 7.60273830868544e-07
ca41 1.4787231717095164e-08
ca42 8.200171698356604e-08
ca43 2.4133109240652926e-08
ca44 8.355898575133089e-08
ca45 2.077492483988024e-15
ca46 7.215579273733662e-11
ca47 3.405872969905067e-23
ca48 3.0995285793363437e-09
ca49 5.948102451065253e-25
ca50 3.742822242277398e-42
ca51 5.912049781832141e-60
ca52 8.993808432434735e-79
ca53 1.241560030861081e-99
ca54 0.0
ca55 0.0
ca56 0.0
ca57 0.0
sc36 0.0
sc37 0.0
sc38 0.0
sc39 1.377888920188117e-83
sc40 9.765525634958895e-82
sc41 3.791408218990175e-30
sc42 1.9225551844733837e-30
sc43 7.486910672458004e-24
sc44 7.656892915446882e-25
sc45 1.0383287644419634e-08
sc46 1.8202004311960652e-16
sc47 3.3312855510551675e-23
sc48 1.2626086598384929e-26
sc49 3.1821430745733058e-24
sc50 3.3245973683625668e-40
sc51 5.15089936353794e-57
sc52 3.5576584501342576e-74
sc53 4.829190981259347e-93
sc54 0.0
sc55 0.0
sc56 0.0
sc57 0.0
sc58 0.0
sc59 0.0
ti39 0.0
ti40 0.0
ti41 0.0
ti42 7.660856957714326e-53
ti43 3.1594757921537333e-52
ti44 2.2166480728877095e-23
ti45 7.595293564631052e-33
ti46 2.0175819935283484e-08
ti47 7.156558263726928e-09
ti48 1.2574373347972138e-08
ti49 1.8403270964030488e-08
ti50 5.2777211999082046e-08
ti51 2.6783458038747836e-23
ti52 2.808043695538137e-38
ti53 9.458602247336777e-55
ti54 2.569761406174089e-71
ti55 1.552462343119836e-90
ti56 0.0
ti57 0.0
ti58 0.0
ti59 0.0
ti60 0.0
ti61 0.0
ti62 0.0
v41 0.0
v42 0.0
v43 4.900668530915821e-80
v44 1.2010395659599293e-75
v45 1.2789834430085336e-46
v46 1.8331894235663227e-55
v47 3.4340958630816285e-27
v48 1.4685385085180532e-23
v49 1.4694469293522682e-22
v50 3.14403178791424e-14
v51 4.6338825531054256e-09
v52 1.4150513148248076e-23
v53 9.89010935134565e-39
v54 1.4075251851394501e-54
v55 6.996142671762156e-71
v56 1.555480620429442e-89
v57 0.0
v58 0.0
v59 0.0
v60 0.0
v61 0.0
v62 0.0
v63 0.0
v64 0.0
v65 0.0
cr43 0.0
cr44 0.0
cr45 1.8432180319050244e-99
cr46 2.102158205094447e-69
cr47 2.04665754065231e-77
cr48 4.843622005867418e-43
cr49 1.0430165894544473e-42
cr50 4.45145470156512e-11
cr51 2.931176976614958e-21
cr52 1.262182640876232e-07
cr53 2.0957556776181922e-08
cr54 1.5797466692777437e-07
cr55 8.493122710331479e-23
cr56 1.6588495444415708e-37
cr57 5.208552602375611e-54
cr58 8.332970670593365e-71
cr59 2.7315638663431535e-89
cr60 0.0
cr61 0.0
cr62 0.0
cr63 0.0
cr64 0.0
cr65 0.0
cr66 0.0
cr67 0.0
cr68 0.0
mn45 0.0
mn46 0.0
mn47 0.0
mn48 0.0
mn49 1.519155250878623e-66
mn50 6.645028466766455e-66
mn51 5.4217316588616624e-30
mn52 1.7109192617423245e-38
mn53 6.758813310685685e-20
mn54 1.8301069352080836e-24
mn55 1.0457473574735333e-07
mn56 1.613646401746758e-20
mn57 2.500145718957275e-35
mn58 5.517039323444241e-52
mn59 3.701818435964904e-68
mn60 4.35509967563908e-84
mn61 0.0
mn62 0.0
mn63 0.0
mn64 0.0
mn65 0.0
mn66 0.0
mn67 0.0
mn68 0.0
mn69 0.0
mn70 0.0
mn71 0.0
fe47 0.0
fe48 0.0
fe49 0.0
fe50 1.3502441686593704e-95
fe51 6.253325344482924e-90
fe52 1.5258141273538602e-46
fe53 1.1635636784495302e-58
fe54 5.089037468149325e-08
fe55 2.0552092367783637e-11
fe56 6.325942132695575e-06
fe57 1.981985338393479e-06
fe58 8.279603828374568e-06
fe59 1.808641720087246e-15
fe60 1.6214847730745727e-09
fe61 1.2462960833007353e-24
fe62 3.2379764445501256e-40
fe63 2.3072102843952212e-57
fe64 1.2411976119484035e-74
fe65 2.8724343826999854e-93
fe66 0.0
fe67 0.0
fe68 0.0
fe69 0.0
fe70 0.0
fe71 0.0
fe72 0.0
fe73 0.0
fe74 0.0
co48 0.0
co49 0.0
co50 0.0
co51 0.0
co52 0.0
co53 1.8808097731460246e-70
co54 4.113138796471585e-83
co55 7.663985734298792e-27
co56 4.614022129608474e-28
co57 3.5713964967223723e-22
co58 2.2864187365574073e-23
co59 2.375683599670275e-06
co60 1.4682592558624812e-08
co61 2.6112394784752846e-21
co62 4.54447989194099e-36
co63 2.8810959904848613e-51
co64 3.375164951973733e-69
co65 9.876836762284807e-86
co66 0.0
co67 0.0
co68 0.0
co69 0.0
co70 0.0
co71 0.0
co72 0.0
co73 0.0
co74 0.0
co75 0.0
co76 0.0
co77 0.0
ni51 0.0
ni52 0.0
ni53 0.0
ni54 1.556867564616773e-95
ni55 0.0
ni56 6.455408322909574e-45
ni57 6.747996579100278e-47
ni58 7.146857581874638e-09
ni59 4.286765725364407e-09
ni60 2.4552159350269248e-06
ni61 8.630871050840838e-07
ni62 1.42401265880568e-06
ni63 3.38699074925472e-07
ni64 9.518956367712345e-07
ni65 3.5690561771150683e-20
ni66 4.216886837494259e-32
ni67 1.421698816439628e-48
ni68 3.9133406747631844e-54
ni69 1.9420972051785276e-71
ni70 1.3870041869826303e-88
ni71 0.0
ni72 0.0
ni73 0.0
ni74 0.0
ni75 0.0
ni76 0.0
ni77 0.0
ni78 0.0
ni79 0.0
cu52 0.0
cu53 0.0
cu54 0.0
cu55 0.0
cu56 0.0
cu57 1.1475921440454521e-69
cu58 2.123323627673967e-70
cu59 2.7421807469621317e-31
cu60 6.049248582499998e-30
cu61 8.076857196671694e-26
cu62 2.9324968235869048e-28
cu63 3.187883125551764e-07
cu64 5.247292019050285e-19
cu65 2.7440380461432833e-07
cu66 1.3154872230560405e-21
cu67 9.967482768814255e-30
cu68 7.252322529614075e-45
cu69 3.928810837067809e-43
cu70 1.2894117346696114e-59
cu71 6.010009629267447e-75
cu72 1.8758347793565814e-91
cu73 0.0
cu74 0.0
cu75 0.0
cu76 0.0
cu77 0.0
cu78 0.0
cu79 0.0
cu80 0.0
cu81 0.0
cu82 0.0
zn55 0.0
zn56 0.0
zn57 0.0
zn58 1.7943168409696914e-95
zn59 6.389651115505771e-96
zn60 8.767504332454712e-54
zn61 1.3142519322897283e-52
zn62 1.5729110862205534e-40
zn63 2.556904343258103e-42
zn64 1.450666646824699e-07
zn65 1.0903937861751366e-13
zn66 2.0433041273737195e-07
zn67 4.0143351483222265e-08
zn68 1.3689059573052438e-07
zn69 3.2644935993195578e-21
zn70 2.007691555641069e-10
zn71 2.6710380342217875e-25
zn72 1.592761985940358e-36
zn73 1.345283895666582e-52
zn74 9.762522156510246e-68
zn75 1.0540101503339027e-84
zn76 0.0
zn77 0.0
zn78 0.0
zn79 0.0
zn80 0.0
zn81 0.0
zn82 0.0
zn83 0.0
zn84 0.0
ga57 0.0
ga58 0.0
ga59 0.0
ga60 0.0
ga61 1.2977548566643477e-80
ga62 9.499451665927988e-79
ga63 1.7726836223597351e-63
ga64 6.793888030596457e-65
ga65 1.1871800831020468e-29
ga66 1.2622975175186617e-33
ga67 9.865263138433592e-27
ga68 3.8498930896258427e-29
ga69 1.5603017524180757e-08
ga70 1.1437357812408475e-21
ga71 1.099674354467556e-08
ga72 2.492714348472603e-20
ga73 4.6415339640053867e-32
ga74 2.809600579735842e-46
ga75 1.5938773826501965e-60
ga76 2.7010009073517123e-76
ga77 1.295784620512489e-91
ga78 0.0
ga79 0.0
ga80 0.0
ga81 0.0
ga82 0.0
ga83 0.0
ga84 0.0
ga85 0.0
ga86 0.0
ge59 0.0
ge60 0.0
ge61 0.0
ge62 0.0
ge63 0.0
ge64 1.7450082993884638e-87
ge65 6.0468105758914926e-89
ge66 1.10912494977573e-49
ge67 9.156902036077296e-56
ge68 1.2821616997972929e-39
ge69 4.516326723970207e-44
ge70 1.889472021410249e-08
ge71 5.103492147532705e-19
ge72 1.3552817338195561e-08
ge73 3.6360675081323996e-09
ge74 1.1124349788017878e-08
ge75 1.0817895040295134e-21
ge76 4.769094055403654e-12
ge77 7.538566110512235e-25
ge78 1.0032712378088301e-37
ge79 5.1749050646833713e-54
ge80 1.090640540045345e-69
ge81 1.0360764326489878e-86
ge82 0.0
ge83 0.0
ge84 0.0
ge85 0.0
ge86 0.0
ge87 0.0
ge88 0.0
ge89 0.0
as61 0.0
as62 0.0
as63 0.0
as64 0.0
as65 0.0
as66 0.0
as67 2.2864770427901107e-74
as68 2.8431232931898544e-79
as69 4.0793964390938085e-62
as70 1.1549039937738648e-65
as71 2.0508110468463356e-28
as72 5.047432639286783e-39
as73 3.25206511557219e-27
as74 5.197943561338926e-28
as75 9.921986862637188e-10
as76 1.2851962623783802e-20
as77 4.0584046198834105e-24
as78 1.105671822217028e-36
as79 9.28322453743762e-50
as80 5.615241227627554e-65
as81 1.5397299055772086e-79
as82 2.8223985950888495e-93
as83 0.0
as84 0.0
as85 0.0
as86 0.0
as87 0.0
as88 0.0
as89 0.0
as90 0.0
as91 0.0
se64 0.0
se65 0.0
se66 0.0
se67 0.0
se68 3.693555071839604e-99
se69 0.0
se70 6.213535990329589e-74
se71 2.915404019825058e-82
se72 1.4114222109239268e-47
se73 5.0696960285118125e-59
se74 1.2669768288585558e-24
se75 2.9006387540565535e-31
se76 2.9623944180282144e-09
se77 1.096571005363129e-09
se78 3.4318680998172174e-09
se79 1.2993215133685108e-09
se80 5.264169565427874e-09
se81 1.0742557713206056e-22
se82 5.4757009586064895e-11
se83 2.7826524999709276e-25
se84 5.2667340198027175e-40
se85 1.6356808976338824e-56
se86 2.1592458752245024e-73
se87 1.00592067990294e-90
se88 0.0
se89 0.0
se90 0.0
se91 0.0
se92 0.0
se93 0.0
br66 0.0
br67 0.0
br68 0.0
br69 0.0
br70 0.0
br71 6.846476244024826e-99
br72 8.349015439634783e-96
br73 1.8923526026734375e-71
br74 1.0297492271324233e-69
br75 1.0812865096735694e-46
br76 2.8195680311878657e-52
br77 8.706600187448608e-30
br78 5.201630573316707e-33
br79 2.3080648960661985e-14
br80 6.86984214878026e-27
br81 6.604783128878335e-10
br82 4.231462858197773e-21
br83 1.9415075602961663e-24
br84 1.4831539712466567e-37
br85 1.8377028281399103e-51
br86 4.77003170342152e-67
br87 1.1224030511802696e-82
br88 1.2511656133121364e-98
br89 0.0
br90 0.0
br91 0.0
br92 0.0
br93 0.0
br94 0.0
br95 0.0
kr69 0.0
kr70 0.0
kr71 0.0
kr72 0.0
kr73 0.0
kr74 6.379596007167057e-84
kr75 3.132349617894978e-86
kr76 6.414795605966312e-67
kr77 3.6150691690811477e-68
kr78 1.6685278419566876e-27
kr79 1.5104126133248744e-38
kr80 3.6241748271726123e-14
kr81 1.6957897200242702e-14
kr82 1.8688908161526205e-09
kr83 6.47119940238361e-10
kr84 2.7959047115571285e-09
kr85 6.252796174839624e-11
kr86 4.2829136289202824e-10
kr87 2.350417041440305e-24
kr88 5.333898038295012e-37
kr89 2.7940711751918913e-52
kr90 2.7043666493235852e-68
kr91 2.5377583916257167e-85
kr92 0.0
kr93 0.0
kr94 0.0
kr95 0.0
kr96 0.0
kr97 0.0
rb72 0.0
rb73 0.0
rb74 0.0
rb75 0.0
rb76 0.0
rb77 1.1787383919705301e-87
rb78 4.624679933845321e-84
rb79 5.911184379219265e-51
rb80 1.0754035750758519e-63
rb81 4.684006060263899e-36
rb82 3.093373172012488e-39
rb83 1.9333047762044003e-29
rb84 5.6334919196554285e-30
rb85 4.5936051278104026e-10
rb86 5.447915093701983e-20
rb87 6.643341312299567e-11
rb88 4.548131135890624e-25
rb89 1.8068266659030293e-38
rb90 7.773338943506929e-53
rb91 1.728837909947944e-67
rb92 1.0022273156968445e-83
rb93 1.422946757948279e-99
rb94 0.0
rb95 0.0
rb96 0.0
rb97 0.0
rb98 0.0
rb99 0.0
sr75 0.0
sr76 0.0
sr77 0.0
sr78 0.0
sr79 1.7412499565556307e-96
sr80 9.538772178229271e-73
sr81 2.6498857421762342e-79
sr82 2.442895164793249e-56
sr83 1.344491535503038e-59
sr84 2.2830952315484595e-28
sr85 1.3107374979926252e-35
sr86 1.150465664749541e-09
sr87 7.056654729397233e-10
sr88 3.8427879415269535e-09
sr89 8.319871161283001e-19
sr90 3.745818258350904e-14
sr91 1.0989276788893992e-26
sr92 1.8822202176178284e-39
sr93 4.769901070456918e-54
sr94 1.656689169770009e-63
sr95 7.884671716151081e-80
sr96 2.9414339229808835e-97
sr97 0.0
sr98 0.0
sr99 0.0
sr100 0.0
sr101 0.0
y77 0.0
y78 0.0
y79 0.0
y80 0.0
y81 5.229911120678013e-99
y82 0.0
y83 3.0641106309685333e-81
y84 2.298409174538067e-86
y85 4.7495765015488517e-51
y86 4.607221203584721e-58
y87 1.8653073450128966e-31
y88 1.6984722808300073e-30
y89 7.397400738139245e-10
y90 9.508627630017518e-18
y91 1.5100041616371878e-22
y92 3.781421745108617e-35
y93 1.6583961006275145e-42
y94 1.1055781589088907e-55
y95 5.843801626535648e-66
y96 5.2111261640550033e-82
y97 1.4552606477111302e-97
y98 0.0
y99 0.0
y100 0.0
y101 0.0
y102 0.0
y103 0.0
zr80 0.0
zr81 0.0
zr82 0.0
zr83 0.0
zr84 1.2361487130369954e-85
zr85 5.1817476472384545e-92
zr86 2.97394230736853e-72
zr87 1.6384522256090865e-71
zr88 6.433165361526933e-52
zr89 2.140021854059225e-37
zr90 4.1383093675792794e-10
zr91 1.1565889609379879e-10
zr92 1.5536190137682924e-10
zr93 4.796365901676001e-11
zr94 1.3183679630848752e-10
zr95 3.25570077026819e-19
zr96 2.5053510774414044e-12
zr97 5.127497025018507e-25
zr98 8.181314505838669e-41
zr99 7.25049078979987e-58
zr100 6.948984555730146e-74
zr101 5.259957628897783e-91
zr102 0.0
zr103 0.0
zr104 0.0
zr105 0.0
nb83 0.0
nb84 0.0
nb85 0.0
nb86 0.0
nb87 3.103957210403222e-94
nb88 4.647927228142511e-86
nb89 2.728336329272266e-72
nb90 5.946493687037921e-58
nb91 8.346474358000082e-29
nb92 7.47609207719267e-30
nb93 1.2851040104799942e-15
nb94 6.490904468497561e-16
nb95 3.7100701056276956e-19
nb96 2.6679684595343047e-30
nb97 3.6610213439910266e-26
nb98 2.350099928552967e-41
nb99 5.6116787794668655e-56
nb100 4.2518969542067816e-72
nb101 4.933046301495353e-87
nb102 0.0
nb103 0.0
nb104 0.0
nb105 0.0
nb106 0.0
nb107 0.0
mo85 0.0
mo86 0.0
mo87 0.0
mo88 0.0
mo89 0.0
mo90 4.818582056712091e-78
mo91 7.555007815041488e-72
mo92 2.3855102777762326e-15
mo93 5.41269954314603e-16
mo94 5.644249225384433e-15
mo95 1.1505865807604942e-11
mo96 2.7972452956706678e-11
mo97 9.153056787347094e-12
mo98 2.920087923235968e-11
mo99 1.231115903283356e-22
mo100 7.906071212394035e-15
mo101 3.1518039474139877e-28
mo102 1.3874490305737156e-41
mo103 1.2118790074613326e-56
mo104 3.4037908998083145e-71
mo105 6.468706687653457e-88
mo106 0.0
mo107 0.0
mo108 0.0
mo109 0.0
tc88 0.0
tc89 0.0
tc90 0.0
tc91 1.1034652362043153e-99
tc92 3.072809081286404e-95
tc93 1.5919034453099055e-39
tc94 5.767867887707861e-40
tc95 1.8000131815316363e-38
tc96 6.852563182228835e-35
tc97 8.768460729834625e-25
tc98 6.218632462133756e-25
tc99 3.690703076186371e-12
tc100 1.6924337016027686e-26
tc101 3.1045614997404706e-28
tc102 3.0754859773064215e-43
tc103 5.988954775009037e-55
tc104 1.0685499704952181e-67
tc105 1.1762871315339141e-76
tc106 1.4310470547205628e-90
tc107 5.927532986585307e-98
tc108 0.0
tc109 0.0
tc110 0.0
ru91 0.0
ru92 0.0
ru93 0.0
ru94 6.315820607400735e-65
ru95 9.717074447349488e-65
ru96 2.293890456255275e-24
ru97 2.4999614934780945e-35
ru98 7.343015300380762e-22
ru99 3.522248880783879e-16
ru100 1.363942412147692e-11
ru101 2.828897820671818e-12
ru102 1.46264343445439e-11
ru103 2.6481634429252875e-20
ru104 2.1418787038889932e-13
ru105 2.8780033532297968e-25
ru106 1.3448546835901896e-23
ru107 5.430294817930603e-38
ru108 1.7267857675041193e-51
ru109 7.91996236724902e-67
ru110 8.426797260202359e-82
ru111 0.0
ru112 0.0
rh93 0.0
rh94 0.0
rh95 1.142859928667268e-91
rh96 8.170621946070022e-90
rh97 1.9716315253157264e-50
rh98 5.679919751625794e-62
rh99 2.3247477197966378e-46
rh100 2.1510681260701122e-40
rh101 1.9375256102101904e-34
rh102 4.934275496118888e-35
rh103 2.8758457640479644e-12
rh104 4.3606366281312566e-26
rh105 7.010150634703989e-25
rh106 1.440826111306369e-29
rh107 3.6604287751079246e-37
rh108 1.224814778885521e-51
rh109 5.65486543447745e-62
rh110 3.704382865298794e-77
rh111 1.776670657331143e-89
rh112 0.0
rh113 0.0
rh114 0.0
pd96 0.0
pd97 6.255621712044894e-95
pd98 8.57764266968755e-77
pd99 2.5729642251753633e-84
pd100 8.242008288941286e-66
pd101 3.506399808725711e-65
pd102 9.459854018848353e-32
pd103 1.3594950752507876e-37
pd104 9.093657814491688e-12
pd105 2.2145249813199307e-12
pd106 1.0323591815354897e-11
pd107 1.938569759575474e-12
pd108 1.2415544657664606e-11
pd109 4.6469789488555864e-23
pd110 5.5818887267569566e-14
pd111 4.998826266563502e-27
pd112 1.639263950709094e-37
pd113 3.4899375015930486e-52
pd114 6.018345513394528e-61
pd115 3.027927598574919e-76
ag98 0.0
ag99 0.0
ag100 9.783933009971933e-98
ag101 2.404669521274061e-91
ag102 4.737847846062262e-88
ag103 2.8412856797387588e-58
ag104 2.6026303655106665e-64
ag105 2.462518080062755e-35
ag106 3.002903883877789e-39
ag107 4.9605049370341485e-18
ag108 2.330117770109054e-31
ag109 2.848076440095685e-12
ag110 3.057848668622706e-26
ag111 1.45756638636234e-24
ag112 5.847507066817175e-36
ag113 9.118068233266252e-49
ag114 1.975760932058666e-62
ag115 3.263108577024545e-72
ag116 1.0486373985773735e-86
cd101 0.0
cd102 2.053671536427762e-90
cd103 6.84863112120994e-89
cd104 4.0957742919301726e-80
cd105 4.3962292770313154e-76
cd106 1.1387752288658355e-27
cd107 4.3291283226581736e-39
cd108 1.402281893849491e-17
cd109 4.152581544934823e-22
cd110 9.976062168814364e-12
cd111 2.3056212687016194e-12
cd112 1.0209772637296917e-11
cd113 3.284415293432929e-12
cd114 1.831134152375964e-11
cd115 8.806621451826635e-23
cd116 1.2535675318068952e-14
cd117 3.2183785694050136e-27
in102 0.0
in103 0.0
in104 0.0
in105 7.331126508799241e-95
in106 2.1894574231558306e-93
in107 3.382323267919993e-55
in108 2.861005343901698e-66
in109 1.1136662305498746e-43
in110 2.8315522477860627e-48
in111 4.111540644905943e-37
in112 3.2875825420042006e-40
in113 3.693870006286035e-15
in114 7.795795046934514e-29
in115 3.263725535560432e-12
in116 1.4947205450664363e-26
in117 9.548002009114826e-28
in118 5.839027282471512e-42
