n 5.3016701101405224e-18
h1 3.045812172852209e-12
he4 1.098825789800537e-10
h2 1.009424827945108e-28
h3 2.4538151204093845e-27
he3 2.2329455550990984e-24
li6 1.6370196711366085e-33
li7 8.327551352994267e-34
li8 2.1582923377752417e-49
li9 2.9089005074571397e-58
be7 4.344700100753924e-32
be9 4.3063070915423145e-35
be10 3.674516714072306e-31
be11 9.8524023997841e-52
be12 6.226070729952141e-67
b8 2.2952774121233074e-47
b10 3.0622563595322987e-29
b11 1.691077178402428e-20
b12 3.652263068063454e-35
b13 3.4840076069493016e-46
b14 5.281310629631036e-66
c10 0.0
c11 4.508842741217553e-20
c12 2.1947001693106957e-07
c13 2.1898534981121155e-15
c14 6.077010145786505e-16
c15 4.5335663114917874e-35
c16 6.272565702493716e-48
c17 1.3181257202058002e-67
c18 0.0
n11 0.0
n12 3.8895407191892525e-35
n13 4.803942074819573e-19
n14 1.2952474522505643e-12
n15 4.931420575243002e-16
n16 3.8864845844356564e-32
n17 2.6111700388117436e-41
n18 1.2150044520061342e-56
n19 3.776276368363158e-67
n20 1.1954025005295095e-84
n21 0.0
o13 7.273198746124748e-48
o14 3.0938446051820947e-25
o15 5.778992412967666e-13
o16 0.01742724789852812
o17 6.623522837083467e-14
o18 6.941063968967259e-19
o19 3.4131487168269306e-31
o20 7.275767891099473e-35
o21 8.282596168067699e-48
o22 3.0178270335611287e-54
f16 9.147128214053821e-29
f17 1.0718538492245896e-16
f18 6.518640314745843e-18
f19 1.1318052173745633e-19
f20 1.1979038216623084e-24
f21 7.911863044375225e-27
f22 3.144477980333652e-37
f23 4.798807165461481e-41
f24 6.556764657534165e-57
f25 1.8877425524748029e-69
f26 2.2252680842099026e-89
ne16 4.538593745335852e-46
ne17 3.718196490351537e-42
ne18 5.708122181836063e-25
ne19 2.910842112629377e-20
ne20 5.134399392444616e-07
ne21 1.0538497303074545e-10
ne22 9.900056461190103e-11
ne23 2.1377117514704334e-20
ne24 1.4662681630973773e-24
ne25 6.6751333872860644e-37
ne26 6.71009968780738e-47
ne27 3.0174524905333984e-65
ne28 8.31927281827462e-82
ne29 0.0
na19 4.051711642543276e-41
na20 2.9189032274018004e-31
na21 3.403362929177402e-17
na22 6.948203636695367e-12
na23 2.085122995769981e-09
na24 2.264720647937914e-14
na25 5.558398712337875e-18
na26 1.733532290750364e-27
na27 3.4523906880806144e-35
na28 1.4009219783075125e-49
na29 1.1468275793958852e-61
na30 2.807791041512271e-78
na31 8.10534562981111e-92
na32 0.0
mg20 2.9212791092508432e-52
mg21 1.962984418609867e-40
mg22 7.521807996632428e-22
mg23 6.06676011170151e-11
mg24 2.2598199950330408e-05
mg25 3.755479038360653e-08
mg26 6.117306120367999e-08
mg27 2.493580467948445e-15
mg28 5.052286666528003e-16
mg29 3.4626232222835466e-29
mg30 8.710661120596402e-38
mg31 5.688811208149924e-54
mg32 1.1793476978406012e-63
mg33 4.988537083840208e-80
mg34 1.4416127357052486e-93
mg35 0.0
al22 2.069565247901435e-56
al23 4.303559844178689e-37
al24 9.435515482711951e-23
al25 8.144791165362741e-16
al26 5.523919011531605e-10
al27 4.2219461829849147e-07
al28 1.7630122524908587e-11
al29 1.7776968122385614e-13
al30 1.3431765605708657e-22
al31 1.037948000065852e-27
al32 1.6721048171927942e-40
al33 4.0307929444494466e-50
al34 1.7287693205689983e-66
al35 8.662719824073029e-77
al36 6.244072455751359e-94
al37 0.0
al38 0.0
si23 6.170352986976622e-69
si24 9.463718009035978e-47
si25 1.443403541437213e-31
si26 2.073746710158104e-19
si27 2.2056104561360305e-08
si28 0.013751137971250988
si29 1.8556981827952947e-05
si30 1.0526235572899782e-05
si31 2.088781303147521e-12
si32 6.908269755081138e-14
si33 2.417829373883247e-25
si34 4.958749986364265e-32
si35 8.10890447694058e-48
si36 9.532720387773386e-57
si37 2.3699303485854017e-73
si38 1.4326226918622157e-83
si39 0.0
si40 0.0
si41 0.0
p25 1.7515697656440116e-64
p26 1.940675841487549e-47
p27 3.0283914997205918e-33
p28 7.39161032114742e-20
p29 1.901977407258006e-12
p30 5.408308281024914e-09
p31 1.5583884139416376e-05
p32 1.17189209764456e-09
p33 3.8122110096242417e-10
p34 7.077391417399956e-18
p35 2.116941580785871e-22
p36 3.079149032417066e-36
p37 1.4800065813568463e-43
p38 1.4891641609696804e-56
p39 5.3598806488403134e-64
p40 3.709655362717659e-78
p41 6.060472056365692e-89
p42 0.0
p43 0.0
p44 0.0
s27 2.4358300923398365e-62
s28 1.8265870162220732e-44
s29 5.575848632312556e-29
s30 1.9239144820983033e-18
s31 9.598391841720917e-10
s32 0.008056404124723072
s33 2.641711491533726e-05
s34 0.00046548219688602975
s35 9.331410225166796e-10
s36 5.590851707922558e-11
s37 1.5916091358313666e-22
s38 2.2708418950435918e-22
s39 4.711079561416928e-34
s40 1.203894306315964e-39
s41 1.8040812517084056e-51
s42 2.4860852537081137e-58
s43 2.508057632314751e-74
s44 1.2249796147770732e-85
s45 0.0
s46 0.0
s47 0.0
cl29 5.458524242095758e-64
cl30 3.6788133498741975e-46
cl31 1.9013779318194202e-33
cl32 3.9492135755334906e-22
cl33 1.9625874400556273e-13
cl34 5.168974003657581e-10
cl35 1.885463541182589e-05
cl36 1.2370831495577378e-08
cl37 1.0918931081724822e-08
cl38 6.111206030454109e-17
cl39 6.00273696065018e-19
cl40 8.604183054254183e-28
cl41 1.5616722910602638e-32
cl42 1.4420655405360643e-41
cl43 7.323288278314136e-43
cl44 5.7940914005732204e-55
cl45 1.2570561274936619e-63
cl46 5.714768951318408e-76
cl47 2.065616533538914e-89
cl48 0.0
cl49 0.0
cl50 0.0
ar31 1.4672112869078027e-61
ar32 5.857407569076025e-45
ar33 3.2668754067654534e-31
ar34 7.136257385064487e-20
ar35 3.7125831332652076e-13
ar36 0.0007544095373523614
ar37 4.29224636014429e-06
ar38 0.0004093580942877112
ar39 1.7797343326432884e-10
ar40 1.3658614183819781e-11
ar41 6.023890096042372e-19
ar42 1.2996146887297771e-15
ar43 2.341749126663721e-24
ar44 2.4896227925317493e-25
ar45 1.6651841997820034e-35
ar46 2.730752843511632e-40
ar47 3.06529684632246e-52
ar48 9.064933609116995e-62
ar49 8.699882360298322e-78
ar50 1.9779610514127636e-90
ar51 0.0
ar52 0.0
k32 1.2400835850795167e-81
k33 1.3894245681741237e-64
k34 2.999040268216618e-48
k35 2.3477362777577542e-35
k36 1.5182138652933514e-25
k37 2.0969248273597903e-15
k38 1.4120667812611511e-10
k39 1.7615974458417593e-05
k40 1.4169586148604527e-09
k41 1.0710762329509474e-10
k42 1.0743603206787275e-13
k43 2.73230245392673e-15
k44 2.881144467762786e-20
k45 6.043334374005104e-23
k46 1.7877535074371882e-29
k47 3.373874817403014e-32
k48 2.6492495542356578e-42
k49 1.6202547408819285e-50
k50 9.302078792541727e-66
k51 3.081261392681119e-77
k52 9.111309331615623e-94
k53 0.0
k54 0.0
k55 0.0
ca35 4.859950596709518e-62
ca36 1.7249393183972025e-46
ca37 3.346689128122857e-35
ca38 4.25846672464428e-22
ca39 2.9181985560302516e-14
ca40 0.00031922988345424425
ca41 6.827180594592603e-07
ca42 7.881657321886725e-06
ca43 3.3992452165373897e-09
ca44 6.842850861884183e-10
ca45 6.838212838667238e-13
ca46 7.353535844907038e-13
ca47 8.426617655754183e-15
ca48 3.4504911854587084e-13
ca49 3.767810624907131e-23
ca50 1.3982952216528621e-31
ca51 2.5804108517925235e-43
ca52 1.9492312330693113e-55
ca53 3.696791383961918e-69
ca54 9.833220510375713e-83
ca55 7.2955136875101885e-99
ca56 0.0
ca57 0.0
sc36 4.964618674799914e-82
sc37 3.38447371187249e-66
sc38 2.6395240101098613e-50
sc39 4.4597929822626994e-39
sc40 5.934253793548155e-29
sc41 3.2647945290041775e-17
sc42 2.81384529508119e-14
sc43 4.6409811085582116e-10
sc44 2.890205749802511e-10
sc45 9.167687842347219e-10
sc46 1.1787394392323837e-12
sc47 6.405726795344714e-13
sc48 2.1201035676617315e-13
sc49 2.7974805638104818e-14
sc50 1.48402690620369e-22
sc51 1.2140755322325702e-29
sc52 5.462336719741022e-40
sc53 3.457922862297944e-50
sc54 8.375070627312575e-62
sc55 4.1571672191695096e-76
sc56 1.3172262519101683e-89
sc57 0.0
sc58 0.0
sc59 0.0
ti39 4.257459929647161e-65
ti40 1.5434064123105452e-51
ti41 4.492979743401523e-40
ti42 5.949773739904162e-26
ti43 7.733298365090674e-20
ti44 5.966483520612717e-08
ti45 9.329149633787001e-09
ti46 2.8823504844152567e-06
ti47 3.9689356396711785e-08
ti48 8.840048175371394e-09
ti49 9.948037782390837e-12
ti50 2.377259504153541e-11
ti51 1.5595803803643275e-18
ti52 3.8037534076044295e-22
ti53 1.8844717044683797e-31
ti54 3.477890051314695e-38
ti55 1.0371989983118804e-50
ti56 3.493643528993041e-61
ti57 1.0519342733448868e-76
ti58 1.5393922315645675e-87
ti59 0.0
ti60 0.0
ti61 0.0
ti62 0.0
v41 2.8559288213043896e-70
v42 1.242577001361319e-56
v43 2.282980066324709e-41
v44 2.1501819996106514e-31
v45 1.9451971888473968e-19
v46 3.492704933728492e-14
v47 6.895951242081336e-10
v48 4.984484972618499e-09
v49 7.4666570626149e-09
v50 6.139083331950219e-11
v51 5.376775667629634e-10
v52 3.379416934107282e-15
v53 3.8798756370953632e-19
v54 1.3726569283037393e-27
v55 2.637182340140725e-33
v56 3.0329508711471587e-44
v57 1.2955657793566482e-52
v58 2.0598351389053323e-65
v59 3.825280209569648e-76
v60 9.51925935521911e-90
v61 0.0
v62 0.0
v63 0.0
v64 0.0
v65 0.0
cr43 3.118277867298918e-70
cr44 6.51367163743867e-52
cr45 5.1137653139379515e-43
cr46 5.562033358348301e-26
cr47 4.1006880023571995e-19
cr48 5.390645663285007e-09
cr49 1.1027276072047284e-08
cr50 2.9921987350905784e-06
cr51 1.8204491743080808e-07
cr52 1.0292558194693898e-06
cr53 1.8124913348324533e-10
cr54 4.95689618758169e-11
cr55 2.0297407058560812e-18
cr56 1.1322097843403179e-20
cr57 3.73328031618667e-30
cr58 4.572796746035597e-36
cr59 3.7036486544655766e-48
cr60 2.517876747994602e-55
cr61 3.3085921812796258e-68
cr62 3.907918969860195e-75
cr63 3.1680789788602395e-89
cr64 5.908793250288069e-97
cr65 0.0
cr66 0.0
cr67 0.0
cr68 0.0
mn45 1.19365626857059e-69
mn46 1.8286688704331717e-57
mn47 3.2358215098305675e-41
mn48 1.5500675091407619e-30
mn49 9.10780485107598e-20
mn50 6.504307509406357e-15
mn51 7.913520062473764e-10
mn52 8.255596213886093e-09
mn53 2.635014184250937e-07
mn54 1.5221794360528885e-09
mn55 6.644339892423611e-10
mn56 2.4895933954622935e-15
mn57 4.4528693328932886e-18
mn58 1.3602483514618633e-25
mn59 8.175186585442637e-29
mn60 2.605528051999815e-37
mn61 1.9390281067504025e-44
mn62 3.911320936593098e-56
mn63 1.125108596803107e-63
mn64 9.595400139451042e-76
mn65 4.052553722502003e-82
mn66 8.9534107974486e-96
mn67 0.0
mn68 0.0
mn69 0.0
mn70 0.0
mn71 0.0
fe47 2.0030164723229935e-70
fe48 3.514275163122256e-51
fe49 4.067371106030185e-41
fe50 1.155117330253678e-27
fe51 4.956608971168823e-20
fe52 3.2532249490987373e-10
fe53 2.5114701797907963e-09
fe54 1.7070097048596573e-05
fe55 9.743544817077599e-07
fe56 9.897608817609716e-06
fe57 1.552090261767487e-09
fe58 3.606947295209665e-09
fe59 2.0885235139227048e-14
fe60 5.7969669362350814e-11
fe61 6.580746555955358e-20
fe62 1.694509894097101e-24
fe63 3.67768488098032e-35
fe64 1.149362543970986e-38
fe65 5.2456257029463374e-51
fe66 1.080309202920381e-56
fe67 6.278129165020667e-69
fe68 3.0707622576810226e-79
fe69 3.028739980707155e-93
fe70 4.08107005161269e-97
fe71 0.0
fe72 0.0
fe73 0.0
fe74 0.0
co48 1.1515262613640906e-88
co49 2.604752532694896e-63
co50 1.5411244358281475e-57
co51 7.983372578953413e-43
co52 2.7131182076243006e-34
co53 4.6537139300824055e-22
co54 5.746516514126105e-16
co55 1.5960228624263184e-09
co56 2.2783884703415673e-09
co57 1.6732520418285014e-07
co58 6.751960388138662e-10
co59 3.828386236710786e-09
co60 3.649883055293069e-12
co61 1.3184239790181444e-12
co62 1.4403017126540383e-19
co63 8.421476859716362e-23
co64 1.9650963080587935e-31
co65 2.074346694659403e-33
co66 6.149071037876965e-44
co67 2.8764533525652727e-48
co68 3.8057065617875286e-60
co69 1.6618509524923734e-67
co70 4.0239092040398735e-81
co71 3.6827232624922668e-87
co72 0.0
co73 0.0
co74 0.0
co75 0.0
co76 0.0
co77 0.0
ni51 1.2646008686336942e-70
ni52 5.47720556321412e-54
ni53 3.3679434458623224e-44
ni54 1.3464258458703895e-30
ni55 7.94097844761324e-22
ni56 3.014201741264594e-10
ni57 1.1646036725026115e-09
ni58 1.0574695155414202e-06
ni59 3.9401429279351424e-08
ni60 6.441305898698451e-06
ni61 2.2324914103419704e-09
ni62 2.0147760690847357e-07
ni63 4.089832675413643e-13
ni64 5.173899588718199e-10
ni65 3.489979956550277e-17
ni66 5.696443136544481e-13
ni67 1.0432407902430439e-21
ni68 9.693672094888598e-27
ni69 1.4443989575451855e-37
ni70 7.91542379626559e-42
ni71 4.15616303535509e-54
ni72 2.432237215009021e-57
ni73 9.101712741192865e-70
ni74 2.546972264728832e-73
ni75 1.5773552997193799e-86
ni76 2.2195025166871574e-96
ni77 0.0
ni78 0.0
ni79 0.0
cu52 3.5805899561094306e-90
cu53 4.194459979075415e-74
cu54 3.204483776134265e-61
cu55 3.522378563849951e-47
cu56 9.899825662087377e-37
cu57 2.11402064188373e-24
cu58 1.5495532187814106e-19
cu59 1.0273071181359125e-14
cu60 4.382836077511826e-14
cu61 7.686675858016935e-11
cu62 2.4728539571477874e-12
cu63 2.5523712926365874e-09
cu64 1.4383468424194212e-12
cu65 1.9439161920247427e-10
cu66 4.386350649181912e-16
cu67 6.569357283624515e-13
cu68 1.3757746392190612e-20
cu69 1.1363440366045193e-22
cu70 2.533799240708351e-32
cu71 2.7138399443488256e-33
cu72 1.3868309459006256e-43
cu73 5.74543749030549e-47
cu74 3.074270383416597e-57
cu75 6.639293822385116e-66
cu76 3.391109754380672e-76
cu77 1.872081250641664e-84
cu78 1.3095332429814626e-96
cu79 3.106281944800386e-97
cu80 0.0
cu81 0.0
cu82 0.0
zn55 2.3758192032984315e-76
zn56 1.3036651254497376e-60
zn57 9.820951243925407e-50
zn58 3.613756926023921e-36
zn59 2.5740257655684955e-29
zn60 4.072530120381642e-20
zn61 1.5709316157196957e-18
zn62 6.337241653137946e-13
zn63 2.9294158049877714e-13
zn64 1.6319395856641695e-09
zn65 6.263505334158163e-12
zn66 6.767056873931447e-09
zn67 1.5913651832343832e-13
zn68 2.5150060186092244e-10
zn69 6.488166664117121e-17
zn70 1.878936428376985e-12
zn71 1.998999315704297e-20
zn72 5.595257790452899e-16
zn73 2.391308032487296e-25
zn74 2.398569632387497e-28
zn75 9.26704748307746e-39
zn76 1.7467701195059505e-41
zn77 2.3752792788881216e-52
zn78 9.679514750835122e-58
zn79 1.4504426716046599e-69
zn80 6.961608369062715e-73
zn81 1.8961117277349305e-89
zn82 0.0
zn83 0.0
zn84 0.0
ga57 6.989544494023266e-82
ga58 3.154772860858612e-69
ga59 4.6115350142746274e-54
ga60 2.935735439605519e-45
ga61 2.235122037967755e-35
ga62 2.2791289846379748e-28
ga63 1.7003800846219773e-22
ga64 1.538722642432141e-20
ga65 4.3549569521052865e-16
ga66 1.1591026623461043e-16
ga67 1.3427651392353706e-12
ga68 1.426632913328051e-14
ga69 3.936162076081193e-11
ga70 2.948884181771722e-15
ga71 5.301469519682912e-12
ga72 6.055840534911301e-18
ga73 2.3050483126129446e-13
ga74 1.4839289218926078e-20
ga75 1.2756033613009841e-22
ga76 1.4614567448399508e-31
ga77 7.296287738502232e-35
ga78 4.604945184960893e-44
ga79 9.025584788850791e-48
ga80 1.9347327497426914e-59
ga81 3.627285126038878e-60
ga82 2.5968527077933556e-75
ga83 9.999425219308245e-88
ga84 0.0
ga85 0.0
ga86 0.0
ge59 8.118688375055518e-85
ge60 1.7665672441869037e-68
ge61 2.0200264164611926e-59
ge62 9.543918404160715e-47
ge63 6.597763290710009e-40
ge64 4.961475247985558e-28
ge65 3.913141209457248e-26
ge66 5.427610972496588e-19
ge67 1.0581124230893153e-18
ge68 1.6301595654195907e-12
ge69 8.889279867601887e-14
ge70 1.3125507112683874e-09
ge71 1.534392725069008e-13
ge72 2.0930231187079957e-09
ge73 9.168254505275838e-15
ge74 1.978550404750578e-11
ge75 2.744026127174548e-17
ge76 7.386242717617736e-13
ge77 2.7502335835552477e-20
ge78 2.0107670453923216e-17
ge79 5.72775250868524e-26
ge80 7.137081795335319e-31
ge81 3.840081059320153e-41
ge82 1.7721067207595443e-44
ge83 2.6839234960157142e-58
ge84 4.09021655421857e-69
ge85 4.0552744286561995e-84
ge86 4.957999993858802e-96
ge87 0.0
ge88 0.0
ge89 0.0
as61 1.7407946467898172e-89
as62 1.3914270233132803e-78
as63 1.1304808090573008e-64
as64 5.577800429417066e-56
as65 1.0206118541404906e-43
as66 7.370278104838047e-37
as67 2.4687366325520763e-29
as68 5.726418513111372e-27
as69 3.7908901018557634e-20
as70 1.1800203686960164e-19
as71 1.438058586189275e-14
as72 1.3591448397060925e-16
as73 8.02945561819378e-12
as74 4.138116661443898e-15
as75 9.297859222230957e-12
as76 3.0144923234767795e-16
as77 1.4531494118144339e-12
as78 3.594356912639741e-19
as79 5.744667907377071e-18
as80 3.811181990051506e-25
as81 1.0829791609848049e-28
as82 1.6586193024350902e-37
as83 4.449477634886569e-39
as84 1.1981298942115789e-51
as85 6.733503897420339e-62
as86 6.559711474450136e-75
as87 2.700290615524196e-86
as88 0.0
as89 0.0
as90 0.0
as91 0.0
se64 6.356576665526921e-79
se65 6.083325873732316e-71
se66 3.430210578452386e-56
se67 2.806981497952111e-48
se68 1.7886495722983738e-35
se69 6.49051264984102e-33
se70 4.458282769398717e-23
se71 9.402542614555985e-22
se72 3.495623899536333e-13
se73 8.568541722639714e-14
se74 2.6506358581209823e-09
se75 5.582450859414412e-12
se76 5.6666679001218185e-09
se77 3.594649791073395e-13
se78 5.001485217711018e-11
se79 1.8954487801218935e-15
se80 8.595636197541425e-12
se81 3.0952263043281106e-17
se82 2.072501077258966e-13
se83 1.863890865485036e-21
se84 2.5909825609444026e-24
se85 2.4102543679687535e-35
se86 1.84329862044606e-44
se87 2.3269998523006103e-56
se88 2.1760274291902974e-67
se89 7.0810142651287275e-81
se90 3.838706774762468e-93
se91 0.0
se92 0.0
se93 0.0
br66 2.3550801974941185e-90
br67 7.053884097830024e-75
br68 2.996286963785572e-65
br69 1.2414836432079068e-51
br70 2.1795970475901263e-43
br71 3.3894585532702036e-33
br72 9.597123027646361e-31
br73 1.4389516297607084e-21
br74 4.0686077301804704e-20
br75 6.542896729909914e-15
br76 6.680337749885008e-16
br77 4.186498018847391e-12
br78 3.672697162532955e-15
br79 5.48945177191005e-12
br80 1.7496098290780475e-15
br81 3.5364759720936484e-12
br82 3.759843385163695e-15
br83 9.784170609586778e-14
br84 3.827154143131033e-20
br85 2.910865306379837e-21
br86 1.4780064317884175e-31
br87 6.950996132142037e-40
br88 1.2980506237882974e-50
br89 7.999899471184186e-59
br90 2.830006148347367e-71
br91 1.306543361977274e-82
br92 5.2861934059698875e-98
br93 0.0
br94 0.0
br95 0.0
kr69 1.8236863138304644e-79
kr70 2.992832962095925e-63
kr71 1.397676819315061e-53
kr72 4.247837947315632e-41
kr73 2.5493855714489446e-36
kr74 4.0196765340732766e-25
kr75 1.1525489235639474e-21
kr76 2.6614196349166685e-14
kr77 8.784483753618806e-14
kr78 8.450230996319196e-10
kr79 6.512475340858682e-12
kr80 6.432420293710872e-09
kr81 6.376977697476611e-12
kr82 2.6453276275451207e-10
kr83 1.415011367684741e-13
kr84 1.5944363876452873e-11
kr85 1.6787328857660972e-14
kr86 3.5445353932126175e-12
kr87 3.987885510471537e-21
kr88 1.3082549169551828e-23
kr89 1.8611100129015892e-33
kr90 3.444718652132662e-42
kr91 1.0076632870265007e-53
kr92 3.453300031894674e-63
kr93 3.467242343893471e-77
kr94 6.3473164216669864e-86
kr95 0.0
kr96 0.0
kr97 0.0
rb72 2.741620155349099e-66
rb73 1.0272558831817698e-57
rb74 1.5324246350713116e-46
rb75 8.830283371073095e-36
rb76 2.213695948413886e-30
rb77 1.1106622316114455e-22
rb78 2.5131198953429828e-21
rb79 4.731592208087787e-16
rb80 3.783816570457528e-17
rb81 4.021283093633692e-13
rb82 5.676067124566218e-15
rb83 3.704458040644957e-12
rb84 1.2381943565091201e-14
rb85 5.956099971486696e-12
rb86 7.910490537873935e-14
rb87 2.4945496264030267e-12
rb88 3.321122270700847e-20
rb89 1.7501677791227228e-25
rb90 1.4469014907080727e-34
rb91 2.0770997100101292e-41
rb92 2.941799792234661e-52
rb93 5.419572720608086e-55
rb94 8.871243653961039e-68
rb95 1.438527666505518e-75
rb96 0.0
rb97 2.2188166303464768e-94
rb98 0.0
rb99 0.0
sr75 1.4746735505951385e-58
sr76 7.571647001741443e-43
sr77 2.7740284712514623e-36
sr78 5.3616523277265845e-27
sr79 8.376728040376816e-24
sr80 3.939501839649332e-17
sr81 6.02613833086256e-16
sr82 1.8441181181790394e-11
sr83 1.2555654981005987e-12
sr84 1.460373482194957e-09
sr85 1.7144529334176556e-11
sr86 1.4278335290498683e-09
sr87 9.979704787154733e-12
sr88 8.104082556617641e-10
sr89 1.4223430047631842e-16
sr90 1.9037517269867335e-15
sr91 1.1699968192630729e-23
sr92 2.2313599431822365e-23
sr93 7.907562735376538e-33
sr94 6.429079249023895e-38
sr95 6.216466926281375e-50
sr96 1.8074285722498392e-58
sr97 4.745675799335511e-71
sr98 1.0698723326010893e-69
sr99 2.5306926738305174e-83
sr100 7.083867842362116e-92
sr101 0.0
y77 1.1083800405372154e-58
y78 8.932023081748911e-48
y79 4.107346667105833e-37
y80 4.517175448545712e-33
y81 7.668240640611674e-26
y82 1.4740732116159836e-23
y83 2.4935686378141203e-18
y84 7.090639575178076e-19
y85 1.1959863012070815e-14
y86 4.2813607382325655e-15
y87 3.6246009411875444e-12
y88 1.1099824261518935e-12
y89 3.509335948968759e-10
y90 3.640978834779931e-16
y91 1.8706248312261946e-16
y92 7.770034094829086e-22
y93 4.723662829585696e-21
y94 1.1185809863174371e-28
y95 1.5575065667928523e-33
y96 3.776612575896577e-43
y97 1.5574068637405229e-52
y98 6.033165845720453e-64
y99 2.651044409683672e-64
y100 5.2850569771876e-75
y101 1.3397638928525858e-75
y102 1.843675974336339e-86
y103 1.2320143982464395e-97
zr80 2.849979286313441e-44
zr81 4.017460699304432e-40
zr82 1.1164961278609083e-30
zr83 6.045078280432741e-27
zr84 7.911752292107754e-21
zr85 9.496312441181378e-20
zr86 1.556777066307399e-14
zr87 7.043620263428456e-14
zr88 1.0287136412525289e-10
zr89 2.152035596928233e-11
zr90 4.888873817173861e-09
zr91 4.3641996773794954e-14
zr92 8.757050583021319e-14
zr93 2.501422130970044e-16
zr94 7.000683687494408e-15
zr95 7.085843382885452e-18
zr96 1.35468516466927e-16
zr97 6.62376691209338e-26
zr98 6.426715036008486e-34
zr99 6.539787885127319e-45
zr100 5.02314244997785e-42
zr101 1.868071914152443e-52
zr102 7.612904531139706e-60
zr103 6.251284452120668e-71
zr104 5.862613416543705e-80
zr105 2.1821003128956993e-92
nb83 2.250339960317384e-41
nb84 1.0389614789736683e-36
nb85 1.5268934298774333e-29
nb86 8.714063364341269e-27
nb87 1.5498692520198781e-21
nb88 1.1206644821060317e-20
nb89 3.377599223747112e-16
nb90 1.346606088039562e-15
nb91 1.6262048421423721e-12
nb92 1.8500085222817822e-16
nb93 7.815069704314739e-17
nb94 4.538764693233832e-19
nb95 1.9758400388014876e-17
nb96 6.443688328661384e-22
nb97 3.2810226694665133e-20
nb98 1.1306403170396538e-28
nb99 7.315772078854851e-35
nb100 2.829145027418383e-43
nb101 2.0409276889382712e-42
nb102 9.454634391171217e-52
nb103 6.530414369749055e-53
nb104 1.1768972857003694e-63
nb105 2.2005525745947676e-70
nb106 2.2496731671213972e-82
nb107 1.0740595935600943e-91
mo85 8.661309373200397e-44
mo86 2.2851639840681533e-36
mo87 9.077365552772297e-32
mo88 1.2586937133570666e-25
mo89 1.0150838546903023e-22
mo90 1.2311845217947422e-17
mo91 1.0511970617720802e-16
mo92 1.6916486840858147e-12
mo93 2.9090872004852554e-15
mo94 2.371161113007146e-14
mo95 9.092268019330104e-17
mo96 1.1739164405521442e-14
mo97 1.6438342479012123e-17
mo98 2.615792049812494e-15
mo99 4.1907920162324454e-20
mo100 1.2030107835912741e-16
mo101 2.3396350191214024e-25
mo102 3.45823478867877e-24
mo103 1.72139461546326e-33
mo104 5.802433882264304e-35
mo105 5.5930581549010015e-45
mo106 5.3840804656112706e-52
mo107 8.240509907388676e-63
mo108 3.2633106518737236e-71
mo109 7.664422565245781e-84
tc88 1.5817467782004526e-42
tc89 1.2063005710543034e-35
tc90 1.0974940318531304e-31
tc91 6.605044845611526e-26
tc92 1.5359665864322828e-23
tc93 1.996271218475659e-18
tc94 3.700412449367362e-18
tc95 1.538347489751519e-16
tc96 1.9081932578428908e-19
tc97 1.8836184969117496e-17
tc98 1.3443304576769153e-20
tc99 5.924402017843802e-18
tc100 2.385503738820652e-23
tc101 3.465304778396812e-20
tc102 2.8271547436866287e-28
tc103 1.4341838943844915e-29
tc104 1.1986444531170831e-36
tc105 1.671822326874876e-33
tc106 9.368421928612513e-43
tc107 6.291508362099098e-44
tc108 2.8112564598189385e-54
tc109 1.0097299437849664e-61
tc110 2.3173155792868575e-73
ru91 5.30647704747684e-37
ru92 6.423327962801438e-30
ru93 4.1292472012408083e-25
ru94 5.029961141604064e-16
ru95 2.6275274538090705e-15
ru96 2.0988898859054633e-13
ru97 1.0091684667570674e-15
ru98 1.0198116832414411e-13
ru99 2.959140705311596e-17
ru100 1.0633614818131012e-14
ru101 3.917847939512378e-18
ru102 4.595357438747837e-15
ru103 3.9412195776681673e-19
ru104 1.7439271989450587e-15
ru105 1.381823134407048e-20
ru106 5.741273266797356e-17
ru107 1.5676798749254555e-25
ru108 5.174571653054355e-27
ru109 1.4527334084651637e-36
ru110 1.1807903650165606e-40
ru111 2.8777528512112545e-51
ru112 1.178419231431637e-58
rh93 9.741576582952997e-41
rh94 1.6611043229240588e-34
rh95 1.9416822244551e-24
rh96 4.920270676622867e-23
rh97 1.0744128852490537e-19
rh98 7.362552363922576e-20
rh99 1.7938282681346764e-16
rh100 5.7038265526457956e-18
rh101 1.5671779820278927e-16
rh102 1.8351010014146328e-20
rh103 3.439556431276943e-17
rh104 7.100887734578294e-21
rh105 1.9826993290888372e-17
rh106 1.7221223807882286e-23
rh107 3.642539374254498e-20
rh108 9.513650856071268e-28
rh109 1.9463052570153195e-30
rh110 8.094189858171407e-39
rh111 8.046915329209125e-37
rh112 4.350943218948376e-46
rh113 6.442081562260553e-51
rh114 1.6462845764105623e-61
pd96 7.058777830924066e-27
pd97 5.586690007163989e-23
pd98 4.2169093413613316e-17
pd99 6.007948990471453e-16
pd100 1.7017133093408492e-13
pd101 2.0994842947186977e-15
pd102 3.2418008322160047e-13
pd103 8.067535970538469e-17
pd104 9.736009059764622e-15
pd105 2.675479206235843e-18
pd106 3.663145228042916e-15
pd107 7.468376417815283e-19
pd108 2.0547969441360955e-15
pd109 1.1668340120316253e-19
pd110 3.939655229067121e-16
pd111 9.746518338230483e-23
pd112 4.680197816812729e-19
pd113 6.656360654891195e-28
pd114 2.5563366940877967e-30
pd115 3.8430982109552324e-40
ag98 4.82520230186073e-33
ag99 3.689556330939166e-26
ag100 1.5470868280009037e-24
ag101 2.988900309739086e-21
ag102 1.3154466679602038e-20
ag103 4.502094752506772e-17
ag104 1.0091287025455299e-16
ag105 6.487349283471443e-16
ag106 2.2963957354029813e-19
ag107 8.834397305836805e-17
ag108 4.827946402023669e-20
ag109 6.545379741136152e-17
ag110 3.624224892102465e-21
ag111 1.231077302435277e-17
ag112 1.7114963416441864e-24
ag113 4.557149757855009e-23
ag114 3.187374113441857e-31
ag115 1.1766768681544286e-31
ag116 8.672771680491278e-41
cd101 4.934185262175528e-27
cd102 1.78850990123853e-19
cd103 4.074806958627165e-18
cd104 1.876307494428998e-14
cd105 1.0946628021863803e-15
cd106 3.9214272492817563e-13
cd107 4.938279818840078e-16
cd108 6.130093213623571e-14
cd109 9.786170891311473e-18
cd110 9.904446663016016e-15
cd111 3.1783323992528376e-18
cd112 5.802680514275673e-15
cd113 1.0977048106338322e-18
cd114 3.2292506342373254e-15
cd115 2.2303911078588715e-19
cd116 7.055305307509136e-16
cd117 8.937147959978592e-24
in102 4.829921178403924e-38
in103 8.722750930833111e-30
in104 1.0454274629273635e-27
in105 1.6491180855371534e-23
in106 1.4089149956107434e-23
in107 1.4232508557968574e-19
in108 1.1556951324367657e-18
in109 4.64265889985512e-16
in110 3.892807366966884e-17
in111 2.7230183659772725e-16
in112 1.5463030331464897e-20
in113 9.910545958114189e-18
in114 4.3139155004261035e-21
in115 6.3010257808965285e-18
in116 1.1551266187662413e-22
in117 2.1211406809616877e-19
in118 1.5579612001232514e-26
