n 6.938757944624611e-32
h1 9.801530870236453e-22
he4 0.24636146784227483
h2 1.601247907620079e-42
h3 1.4026695899287965e-58
he3 9.204230208561984e-50
li6 1.6180845193674107e-37
li7 4.117291188803459e-43
li8 3.5781232011779172e-65
li9 1.302762206053886e-91
be7 1.2652265248150353e-43
be9 2.1578499254574957e-32
be10 1.0887129406895888e-51
be11 5.342676101154921e-77
be12 0.0
b8 1.2266165984047877e-66
b10 9.70618362221401e-33
b11 5.226615708164921e-41
b12 4.750609408225749e-68
b13 7.828464421623795e-96
b14 0.0
c10 0.0
c11 4.212452453257956e-53
c12 1.535064464176264e-05
c13 2.3668286145167284e-16
c14 1.0939323967877429e-10
c15 1.022320293381819e-37
c16 2.027525313136289e-65
c17 7.433159884090519e-94
c18 0.0
n11 0.0
n12 1.193967044855663e-80
n13 4.8921025930232526e-27
n14 0.0006448526007647183
n15 1.1927706996548516e-07
n16 1.9926861760450702e-33
n17 7.929027068611874e-60
n18 7.690227722422729e-88
n19 0.0
n20 0.0
n21 0.0
o13 0.0
o14 1.1065767731549603e-50
o15 1.943291325708701e-27
o16 1.6152285955437376e-05
o17 1.5200808114033845e-08
o18 1.7646210978120753e-06
o19 1.4766318409773372e-31
o20 4.028215688887461e-55
o21 9.036488053742096e-82
o22 0.0
f16 0.0
f17 2.6568891692506814e-30
f18 1.3694820214466866e-20
f19 2.830269039066001e-09
f20 3.337055552235596e-55
f21 4.128598836804971e-78
f22 0.0
f23 0.0
f24 0.0
f25 0.0
f26 0.0
ne16 0.0
ne17 0.0
ne18 1.725732380842452e-58
ne19 1.8830398156944302e-47
ne20 5.6939530563509784e-05
ne21 3.2332079939812354e-07
ne22 1.6616127242476662e-07
ne23 3.7942214914617007e-31
ne24 1.1893043686761778e-52
ne25 1.5926371213807474e-77
ne26 0.0
ne27 0.0
ne28 0.0
ne29 0.0
na19 0.0
na20 8.441807008550947e-79
na21 5.058334625459034e-32
na22 1.76059804284417e-23
na23 7.143441261066676e-06
na24 9.502302628212094e-25
na25 1.7825252426434787e-46
na26 2.6509069403055723e-70
na27 1.4194891849937313e-94
na28 0.0
na29 0.0
na30 0.0
na31 0.0
na32 0.0
mg20 0.0
mg21 0.0
mg22 1.8437132178287436e-58
mg23 5.288145284793395e-49
mg24 2.3344229055059586e-05
mg25 3.1357829702787103e-07
mg26 5.766798172924292e-06
mg27 5.745142158881228e-28
mg28 9.14691276810757e-47
mg29 3.929437787738141e-71
mg30 1.3706692158225794e-95
mg31 0.0
mg32 0.0
mg33 0.0
mg34 0.0
mg35 0.0
al22 0.0
al23 1.992887506690385e-91
al24 7.140740185201577e-80
al25 6.664642058119156e-31
al26 9.988510923572218e-09
al27 2.844825612815383e-06
al28 2.006673054232737e-27
al29 1.1218159863680525e-47
al30 7.1846969513512286e-71
al31 1.3125095167788444e-94
al32 0.0
al33 0.0
al34 0.0
al35 0.0
al36 0.0
al37 0.0
al38 0.0
si23 0.0
si24 0.0
si25 0.0
si26 8.082664558804107e-63
si27 8.996409379795254e-35
si28 2.6793114032124362e-05
si29 1.540935049574851e-06
si30 9.732627059216832e-07
si31 7.21313927962438e-26
si32 1.355513746334587e-40
si33 3.9332815630261295e-64
si34 8.901253301080348e-88
si35 0.0
si36 0.0
si37 0.0
si38 0.0
si39 0.0
si40 0.0
si41 0.0
p25 0.0
p26 0.0
p27 1.1822975485742802e-96
p28 9.884331490011146e-64
p29 5.960700264658932e-38
p30 3.5471737418500916e-34
p31 2.6124623920111225e-07
p32 7.988923046076948e-25
p33 1.2389263237078777e-25
p34 5.376101488755169e-48
p35 1.321228189027917e-62
p36 2.097339335857215e-86
p37 0.0
p38 0.0
p39 0.0
p40 0.0
p41 0.0
p42 0.0
p43 0.0
p44 0.0
s27 0.0
s28 0.0
s29 3.417505572002049e-94
s30 5.86515196174095e-72
s31 1.7828077246409015e-63
s32 1.2246118268220723e-05
s33 1.6922275375910448e-07
s34 5.490646505394695e-07
s35 1.933762122300404e-24
s36 2.4506820801636174e-09
s37 1.3407426273753416e-31
s38 2.207864972797951e-51
s39 1.5629999676371152e-74
s40 3.0509028140990625e-97
s41 0.0
s42 0.0
s43 0.0
s44 0.0
s45 0.0
s46 0.0
s47 0.0
cl29 0.0
cl30 0.0
cl31 0.0
cl32 1.1922800951164224e-95
cl33 8.27818904789914e-39
cl34 7.967709220884212e-38
cl35 1.1355793250309312e-07
cl36 2.2694707073030856e-09
cl37 8.467916243068722e-08
cl38 5.604499564903514e-28
cl39 2.4558656141962237e-47
cl40 9.04303642221114e-69
cl41 5.248985216564774e-90
cl42 0.0
cl43 0.0
cl44 0.0
cl45 0.0
cl46 0.0
cl47 0.0
cl48 0.0
cl49 0.0
cl50 0.0
ar31 0.0
ar32 0.0
ar33 0.0
ar34 1.9131433931131838e-70
ar35 1.2495986544921233e-68
ar36 2.4883879254569776e-06
ar37 7.030873548907206e-23
ar38 4.6410736179957025e-07
ar39 2.1944299757164813e-21
ar40 7.268517901567566e-10
ar41 1.2295137135447705e-29
ar42 3.205461239930704e-45
ar43 2.851833631989989e-66
ar44 1.4717022312482909e-86
ar45 0.0
ar46 0.0
ar47 0.0
ar48 0.0
ar49 0.0
ar50 0.0
ar51 0.0
ar52 0.0
k32 0.0
k33 0.0
k34 0.0
k35 0.0
k36 0.0
k37 1.578139118909841e-39
k38 2.7818039663371875e-52
k39 1.0103658269218352e-07
k40 2.969994351564372e-09
k41 1.1941011020085131e-08
k42 1.2154143305807355e-26
k43 3.9370536947482825e-44
k44 9.756273196622857e-64
k45 3.847485722428843e-83
k46 0.0
k47 0.0
k48 0.0
k49 0.0
k50 0.0
k51 0.0
k52 0.0
k53 0.0
k54 0.0
k55 0.0
ca35 0.0
ca36 0.0
ca37 0.0
ca38 4.701395293805751e-73
ca39 3.1163275088305376e-85
ca40 1.7557942342776284e-06
ca41 1.4356787038455245e-08
ca42 1.2701091932250077e-08
ca43 2.5574743497616855e-09
ca44 3.798230546751041e-08
ca45 3.387325313331279e-24
ca46 7.223205327889168e-11
ca47 1.147145004959058e-28
ca48 3.4517004675649087e-09
ca49 1.7396608993007397e-30
ca50 3.95110052888593e-53
ca51 1.609768072672172e-76
ca52 0.0
ca53 0.0
ca54 0.0
ca55 0.0
ca56 0.0
ca57 0.0
sc36 0.0
sc37 0.0
sc38 0.0
sc39 0.0
sc40 0.0
sc41 1.0852837043933318e-46
sc42 1.8563889887679397e-42
sc43 1.096769823584953e-35
sc44 7.120802411736042e-39
sc45 1.5387108725713475e-09
sc46 8.636765306290813e-25
sc47 1.0527889746357466e-28
sc48 4.44577471631526e-46
sc49 9.538868073491758e-30
sc50 3.9301776098424965e-51
sc51 2.0994676635988358e-73
sc52 5.208953780818831e-96
sc53 0.0
sc54 0.0
sc55 0.0
sc56 0.0
sc57 0.0
sc58 0.0
sc59 0.0
ti39 0.0
ti40 0.0
ti41 0.0
ti42 5.755745622855067e-82
ti43 3.545108542627866e-77
ti44 3.8365491549900243e-63
ti45 2.260184335828697e-69
ti46 5.756005694700109e-09
ti47 4.7173620971542e-09
ti48 4.986843689765785e-08
ti49 6.826161307224466e-09
ti50 3.957860933367862e-09
ti51 4.816780075532319e-30
ti52 3.3753683530976465e-51
ti53 2.592499095711754e-73
ti54 2.7947116737198482e-95
ti55 0.0
ti56 0.0
ti57 0.0
ti58 0.0
ti59 0.0
ti60 0.0
ti61 0.0
ti62 0.0
v41 0.0
v42 0.0
v43 0.0
v44 0.0
v45 0.0
v46 0.0
v47 0.0
v48 1.3437252088435693e-34
v49 3.162591319292638e-32
v50 1.8439156172151476e-11
v51 9.126198863138126e-09
v52 9.902895312752519e-29
v53 4.06363772121355e-49
v54 2.1762715106284722e-70
v55 3.333158156769279e-92
v56 0.0
v57 0.0
v58 0.0
v59 0.0
v60 0.0
v61 0.0
v62 0.0
v63 0.0
v64 0.0
v65 0.0
cr43 0.0
cr44 0.0
cr45 0.0
cr46 0.0
cr47 0.0
cr48 0.0
cr49 9.514953424861841e-68
cr50 1.4786087819492163e-08
cr51 1.8567315508043616e-24
cr52 3.107916583014265e-07
cr53 3.581010557963629e-08
cr54 1.4056298584513802e-08
cr55 1.6736814358119463e-29
cr56 1.0022295269476186e-49
cr57 7.425198937239333e-72
cr58 3.7741307216850453e-94
cr59 0.0
cr60 0.0
cr61 0.0
cr62 0.0
cr63 0.0
cr64 0.0
cr65 0.0
cr66 0.0
cr67 0.0
cr68 0.0
mn45 0.0
mn46 0.0
mn47 0.0
mn48 0.0
mn49 0.0
mn50 0.0
mn51 0.0
mn52 3.1251192813644236e-56
mn53 9.187382004473371e-21
mn54 1.2106150000034252e-35
mn55 3.1791430424283197e-07
mn56 1.210474693026777e-25
mn57 7.876208772501856e-46
mn58 4.678717547514183e-68
mn59 8.54280757115516e-90
mn60 0.0
mn61 0.0
mn62 0.0
mn63 0.0
mn64 0.0
mn65 0.0
mn66 0.0
mn67 0.0
mn68 0.0
mn69 0.0
mn70 0.0
mn71 0.0
fe47 0.0
fe48 0.0
fe49 0.0
fe50 0.0
fe51 0.0
fe52 0.0
fe53 0.0
fe54 1.3525849343149008e-06
fe55 8.466168155435063e-22
fe56 2.2047743912815057e-05
fe57 9.118751449223113e-07
fe58 1.5496580574306438e-07
fe59 6.315632013073624e-24
fe60 3.812286604878827e-15
fe61 6.706535781962922e-36
fe62 6.058580243470842e-57
fe63 9.65510942588536e-80
fe64 0.0
fe65 0.0
fe66 0.0
fe67 0.0
fe68 0.0
fe69 0.0
fe70 0.0
fe71 0.0
fe72 0.0
fe73 0.0
fe74 0.0
co48 0.0
co49 0.0
co50 0.0
co51 0.0
co52 0.0
co53 0.0
co54 0.0
co55 0.0
co56 0.0
co57 0.0
co58 3.967486810085574e-32
co59 8.578903765470353e-08
co60 1.3530647480437711e-20
co61 9.235191855306411e-35
co62 2.8245474176249515e-55
co63 5.013917147058887e-70
co64 2.412281897594456e-93
co65 0.0
co66 0.0
co67 0.0
co68 0.0
co69 0.0
co70 0.0
co71 0.0
co72 0.0
co73 0.0
co74 0.0
co75 0.0
co76 0.0
co77 0.0
ni51 0.0
ni52 0.0
ni53 0.0
ni54 0.0
ni55 0.0
ni56 0.0
ni57 0.0
ni58 8.779431508573142e-07
ni59 4.4106494884570724e-08
ni60 3.599020861258268e-07
ni61 3.1254162670162874e-08
ni62 5.2491964649504096e-08
ni63 4.38878303114974e-22
ni64 1.423510669581529e-08
ni65 9.314501313827756e-28
ni66 3.066054650760176e-45
ni67 2.4379393794171238e-67
ni68 5.902542075674177e-66
ni69 7.249875424282424e-89
ni70 0.0
ni71 0.0
ni72 0.0
ni73 0.0
ni74 0.0
ni75 0.0
ni76 0.0
ni77 0.0
ni78 0.0
ni79 0.0
cu52 0.0
cu53 0.0
cu54 0.0
cu55 0.0
cu56 0.0
cu57 0.0
cu58 0.0
cu59 0.0
cu60 0.0
cu61 1.5252655690890097e-42
cu62 5.980743743910259e-46
cu63 1.1694323614669009e-08
cu64 4.8565071450556636e-26
cu65 6.456377470243027e-09
cu66 9.013757008807175e-29
cu67 4.759691552221115e-44
cu68 5.524791753890647e-56
cu69 3.9794067067025673e-56
cu70 3.2454736603188164e-78
cu71 4.849842780630278e-99
cu72 0.0
cu73 0.0
cu74 0.0
cu75 0.0
cu76 0.0
cu77 0.0
cu78 0.0
cu79 0.0
cu80 0.0
cu81 0.0
cu82 0.0
zn55 0.0
zn56 0.0
zn57 0.0
zn58 0.0
zn59 0.0
zn60 0.0
zn61 0.0
zn62 3.203117421758453e-90
zn63 5.656495497271991e-84
zn64 1.6476405019947703e-08
zn65 1.0692543925487645e-23
zn66 9.84709259150651e-09
zn67 1.6230846595432737e-09
zn68 7.000083489334254e-09
zn69 3.771603491666785e-28
zn70 2.144819349201203e-10
zn71 6.129039969301281e-31
zn72 3.313345671782631e-48
zn73 6.806521379228156e-70
zn74 1.8207701122423298e-90
zn75 0.0
zn76 0.0
zn77 0.0
zn78 0.0
zn79 0.0
zn80 0.0
zn81 0.0
zn82 0.0
zn83 0.0
zn84 0.0
ga57 0.0
ga58 0.0
ga59 0.0
ga60 0.0
ga61 0.0
ga62 0.0
ga63 0.0
ga64 0.0
ga65 1.113424791382824e-47
ga66 4.311410665050283e-61
ga67 2.563838953724962e-45
ga68 1.2432658678426621e-47
ga69 6.836595829070903e-10
ga70 1.319406481542986e-28
ga71 4.4674426427751416e-10
ga72 2.4544672837309057e-27
ga73 1.0415552138207873e-44
ga74 3.6221218450317025e-64
ga75 8.216314319609403e-84
ga76 0.0
ga77 0.0
ga78 0.0
ga79 0.0
ga80 0.0
ga81 0.0
ga82 0.0
ga83 0.0
ga84 0.0
ga85 0.0
ga86 0.0
ge59 0.0
ge60 0.0
ge61 0.0
ge62 0.0
ge63 0.0
ge64 0.0
ge65 0.0
ge66 1.2069350429313586e-86
ge67 0.0
ge68 9.43971343667398e-81
ge69 3.1289318233671695e-85
ge70 8.138208455023686e-10
ge71 6.868313467609183e-26
ge72 9.546771974812412e-10
ge73 2.6209615786807407e-10
ge74 1.278603452211337e-09
ge75 2.8856507274285793e-28
ge76 2.458712134536664e-10
ge77 2.793989141868139e-28
ge78 7.484154800153944e-47
ge79 9.975053449145933e-69
ge80 7.821903422945333e-90
ge81 0.0
ge82 0.0
ge83 0.0
ge84 0.0
ge85 0.0
ge86 0.0
ge87 0.0
ge88 0.0
ge89 0.0
as61 0.0
as62 0.0
as63 0.0
as64 0.0
as65 0.0
as66 0.0
as67 0.0
as68 0.0
as69 0.0
as70 0.0
as71 6.994789905208901e-48
as72 4.071870638035528e-64
as73 4.372737012084872e-46
as74 5.059815612621425e-47
as75 1.4241570491293914e-10
as76 5.1378702039035314e-27
as77 6.342679559200128e-28
as78 5.1408165343783066e-46
as79 1.0551102866061466e-64
as80 1.3375140118596338e-85
as81 0.0
as82 0.0
as83 0.0
as84 0.0
as85 0.0
as86 0.0
as87 0.0
as88 0.0
as89 0.0
as90 0.0
as91 0.0
se64 0.0
se65 0.0
se66 0.0
se67 0.0
se68 0.0
se69 0.0
se70 0.0
se71 0.0
se72 1.6913547276090042e-85
se73 0.0
se74 1.0174949350559644e-11
se75 1.9419877716323194e-26
se76 2.837856995249989e-10
se77 1.3853378032409443e-10
se78 4.6082068714529516e-10
se79 7.597621187150626e-11
se80 9.033783481255884e-10
se81 4.6175190908566645e-29
se82 1.650221698758012e-10
se83 2.164805574693296e-30
se84 1.376519106869342e-50
se85 1.1030092031182115e-72
se86 5.224836969081786e-95
se87 0.0
se88 0.0
se89 0.0
se90 0.0
se91 0.0
se92 0.0
se93 0.0
br66 0.0
br67 0.0
br68 0.0
br69 0.0
br70 0.0
br71 0.0
br72 0.0
br73 0.0
br74 0.0
br75 1.2179218244158917e-52
br76 2.3586006467093973e-66
br77 1.132651134417818e-49
br78 2.0618021159435887e-52
br79 6.020539360675544e-11
br80 3.4159729764427116e-29
br81 1.5028957344882653e-10
br82 3.85387794499849e-27
br83 1.1572150993590854e-29
br84 2.3966792701512796e-48
br85 8.321266477877824e-68
br86 7.611551118226221e-89
br87 0.0
br88 0.0
br89 0.0
br90 0.0
br91 0.0
br92 0.0
br93 0.0
br94 0.0
br95 0.0
kr69 0.0
kr70 0.0
kr71 0.0
kr72 0.0
kr73 0.0
kr74 0.0
kr75 0.0
kr76 3.6089572402883436e-93
kr77 0.0
kr78 3.4385096003119107e-12
kr79 6.83177272134489e-29
kr80 9.992641366486769e-11
kr81 2.3241444129703938e-11
kr82 2.624655531165931e-10
kr83 1.4337186418290368e-10
kr84 9.314562123001166e-10
kr85 1.750298202644426e-24
kr86 2.758437168683568e-10
kr87 3.983048503035913e-30
kr88 9.038530571435593e-49
kr89 1.4110366052151249e-69
kr90 7.125166944031795e-91
kr91 0.0
kr92 0.0
kr93 0.0
kr94 0.0
kr95 0.0
kr96 0.0
kr97 0.0
rb72 0.0
rb73 0.0
rb74 0.0
rb75 0.0
rb76 0.0
rb77 0.0
rb78 0.0
rb79 5.410258990816945e-55
rb80 2.5564886417082784e-73
rb81 1.1226115105970263e-52
rb82 1.2696989837560638e-55
rb83 1.5507839582069867e-49
rb84 6.259105180994993e-50
rb85 1.54964185542809e-10
rb86 4.8639171948991174e-26
rb87 5.6983526358785054e-11
rb88 1.1178836209008335e-30
rb89 1.5337633037757733e-49
rb90 1.6295060463949099e-69
rb91 1.0330627678630555e-89
rb92 0.0
rb93 0.0
rb94 0.0
rb95 0.0
rb96 0.0
rb97 0.0
rb98 0.0
rb99 0.0
sr75 0.0
sr76 0.0
sr77 0.0
sr78 0.0
sr79 0.0
sr80 5.409149544203186e-98
sr81 0.0
sr82 9.846837923386247e-93
sr83 1.796418963684457e-97
sr84 1.9682107585589846e-12
sr85 3.1870658702219085e-27
sr86 1.1583316429986266e-10
sr87 5.081095098756252e-11
sr88 5.701990810883929e-10
sr89 1.735247923997147e-26
sr90 2.1914163459488957e-33
sr91 1.5226819909541003e-48
sr92 7.669124312618528e-59
sr93 5.558951756040418e-79
sr94 1.7578253676334316e-76
sr95 2.6783041132792724e-98
sr96 0.0
sr97 0.0
sr98 0.0
sr99 0.0
sr100 0.0
sr101 0.0
y77 0.0
y78 0.0
y79 0.0
y80 0.0
y81 0.0
y82 0.0
y83 0.0
y84 0.0
y85 6.302740647550872e-56
y86 4.769993348320886e-70
y87 8.535618978147428e-53
y88 1.3262979675016205e-51
y89 1.371534069097156e-10
y90 4.110313187799614e-28
y91 1.8942066184415632e-33
y92 1.8300039916161693e-51
y93 1.9409972779059336e-66
y94 3.1480429689626364e-68
y95 1.798946796236561e-82
y96 0.0
y97 0.0
y98 0.0
y99 0.0
y100 0.0
y101 0.0
y102 0.0
y103 0.0
zr80 0.0
zr81 0.0
zr82 0.0
zr83 0.0
zr84 0.0
zr85 0.0
zr86 0.0
zr87 0.0
zr88 9.527371806454713e-94
zr89 8.679435902944685e-40
zr90 1.6769432610608133e-10
zr91 3.995458809839552e-11
zr92 5.8013962792097907e-11
zr93 3.687828109411766e-12
zr94 5.468349227568126e-11
zr95 7.4940710687702e-27
zr96 9.052153244700791e-12
zr97 4.4710821239022514e-30
zr98 1.9987411429472762e-51
zr99 4.977263772786615e-74
zr100 1.3466230943238534e-95
zr101 0.0
zr102 0.0
zr103 0.0
zr104 0.0
zr105 0.0
nb83 0.0
nb84 0.0
nb85 0.0
nb86 0.0
nb87 0.0
nb88 0.0
nb89 0.0
nb90 8.885634227989949e-83
nb91 6.915224715322034e-47
nb92 1.9018173436712453e-33
nb93 1.4847138411721568e-11
nb94 1.372269650160127e-12
nb95 4.900245225252448e-27
nb96 2.393185188418823e-39
nb97 3.176260270774861e-31
nb98 3.725964904595353e-52
nb99 2.403943656676245e-72
nb100 5.922974143319256e-94
nb101 0.0
nb102 0.0
nb103 0.0
nb104 0.0
nb105 0.0
nb106 0.0
nb107 0.0
mo85 0.0
mo86 0.0
mo87 0.0
mo88 0.0
mo89 0.0
mo90 0.0
mo91 0.0
mo92 9.951581974284014e-12
mo93 9.565925070036828e-16
mo94 1.0280694859762972e-11
mo95 1.2126798498056091e-11
mo96 1.638144222480157e-11
mo97 6.226950571555006e-12
mo98 1.905511854923313e-11
mo99 3.0792939801272185e-28
mo100 5.756275079894733e-12
mo101 6.101113684744951e-31
mo102 8.26499010093587e-50
mo103 2.2446276915611958e-70
mo104 2.0810224329580426e-90
mo105 0.0
mo106 0.0
mo107 0.0
mo108 0.0
mo109 0.0
tc88 0.0
tc89 0.0
tc90 0.0
tc91 0.0
tc92 0.0
tc93 5.690421353322745e-58
tc94 9.830121759307388e-62
tc95 3.130982949636406e-57
tc96 1.903738814564264e-44
tc97 5.123985417446765e-13
tc98 2.3529769905165253e-13
tc99 2.034884289840829e-12
tc100 2.110276437938123e-32
tc101 5.8752320455087155e-31
tc102 1.808266042944312e-51
tc103 2.5194011708928824e-70
tc104 1.4757030196801856e-88
tc105 0.0
tc106 0.0
tc107 0.0
tc108 0.0
tc109 0.0
tc110 0.0
ru91 0.0
ru92 0.0
ru93 0.0
ru94 0.0
ru95 0.0
ru96 2.0424352923350238e-12
ru97 6.013848713862164e-29
ru98 7.296726913026041e-13
ru99 3.0013860980118013e-12
ru100 1.0123456817840856e-11
ru101 3.84640914221623e-12
ru102 2.076611814766419e-11
ru103 1.3065205225583845e-26
ru104 7.490642965885594e-12
ru105 1.783375787061425e-29
ru106 7.718774821121611e-44
ru107 1.0358396542875479e-63
ru108 8.597298447914617e-66
ru109 1.1557600842238063e-86
ru110 0.0
ru111 0.0
ru112 0.0
rh93 0.0
rh94 0.0
rh95 0.0
rh96 0.0
rh97 1.154380689707578e-60
rh98 9.780037226510434e-78
rh99 2.6254042433816234e-58
rh100 1.1202933566611585e-63
rh101 3.408810659847883e-61
rh102 1.3984665941523873e-61
rh103 7.42779541915711e-12
rh104 1.610044804716826e-31
rh105 9.244840145999491e-29
rh106 7.814838387103827e-48
rh107 4.35872929337257e-59
rh108 5.316255736738913e-67
rh109 9.937517266844233e-78
rh110 1.416210219746601e-98
rh111 0.0
rh112 0.0
rh113 0.0
rh114 0.0
pd96 0.0
pd97 0.0
pd98 0.0
pd99 0.0
pd100 0.0
pd101 0.0
pd102 2.127433746547558e-13
pd103 1.0963393934963037e-28
pd104 1.1298934115923368e-11
pd105 5.281438607249997e-12
pd106 1.6231588180334182e-11
pd107 2.7836340622550478e-12
pd108 1.125072607126335e-11
pd109 8.094917058032151e-29
pd110 3.685031017952512e-12
pd111 7.235086909857057e-31
pd112 1.5591310271598348e-47
pd113 8.697818105733881e-68
pd114 1.1187516519538158e-70
pd115 1.310344947713286e-91
ag98 0.0
ag99 0.0
ag100 0.0
ag101 0.0
ag102 0.0
ag103 9.781696615280179e-68
ag104 3.851148038196815e-83
ag105 4.0963162843174696e-63
ag106 5.535359137082411e-47
ag107 2.5612838541952985e-12
ag108 1.686778771729097e-31
ag109 4.738253664186921e-12
ag110 6.642341527653134e-32
ag111 2.9270176883879514e-28
ag112 1.483673550247443e-45
ag113 1.992605086764024e-61
ag114 3.547561361408233e-72
ag115 1.8866154199730408e-86
ag116 0.0
cd101 0.0
cd102 0.0
cd103 0.0
cd104 0.0
cd105 0.0
cd106 3.641263444048932e-13
cd107 1.617524360192314e-30
cd108 4.340722689942117e-12
cd109 1.0854382251251178e-26
cd110 9.62086560853874e-12
cd111 3.2688957730783515e-12
cd112 1.3242263461423431e-11
cd113 4.6364345521417924e-12
cd114 1.6207057346193558e-11
cd115 2.1328498777523157e-28
cd116 3.11987913603642e-12
cd117 1.2101218489448006e-30
in102 0.0
in103 0.0
in104 0.0
in105 0.0
in106 0.0
in107 2.406716470393793e-69
in108 1.5149869118603408e-86
in109 1.2167159202594442e-67
in110 4.3313904581265255e-82
in111 1.4551241407978734e-66
in112 7.84324032993026e-68
in113 2.4800402003138153e-13
in114 7.407201099895947e-33
in115 3.612568759879219e-12
in116 2.4583815748012064e-32
in117 3.4104191896608644e-31
in118 3.306307342235364e-51
