n 9.166697279639833e-21
h1 3.239208953739087e-17
he4 5.480561329352805e-13
h2 5.030608678615695e-32
h3 2.975870759994511e-23
he3 2.689238880208365e-23
li6 2.008469589608207e-36
li7 1.4194053681790448e-29
li8 1.1002305372633242e-45
li9 2.4766323684067894e-57
be7 1.597920665655011e-33
be9 1.2911502133947797e-45
be10 6.076438912267372e-37
be11 1.173463698735549e-59
be12 1.5954234040251966e-73
b8 1.7381641292225187e-54
b10 5.798682198613854e-26
b11 2.4610910617873587e-16
b12 2.5077805060670285e-29
b13 2.8447728006213404e-42
b14 4.27151983733143e-63
c10 0.0
c11 3.341424978698109e-23
c12 0.0009666775292090636
c13 2.0271023420111474e-15
c14 5.638729745145991e-10
c15 1.5503591863093646e-29
c16 1.707150417293163e-41
c17 1.0953440237528513e-62
c18 0.0
n11 0.0
n12 2.3722526802075273e-42
n13 1.6164586382252903e-16
n14 2.942321864334027e-09
n15 2.625738152820925e-10
n16 4.0039370830693856e-24
n17 2.3329386020808773e-34
n18 5.466860363884599e-47
n19 1.4957623783236252e-59
n20 3.2421113600011065e-76
n21 0.0
o13 3.412272576669674e-57
o14 2.0612756000428287e-21
o15 9.81367606054072e-15
o16 0.0416415293017475
o17 1.5532325827750629e-09
o18 7.40668428380431e-11
o19 3.4513003817789287e-19
o20 7.10215975489613e-27
o21 1.2115790336234534e-36
o22 1.075932707506511e-47
f16 1.5118615403779758e-42
f17 2.2333260266750242e-20
f18 1.1655106871628717e-11
f19 4.115140684600149e-10
f20 1.2232182512104382e-26
f21 1.3516350751269622e-32
f22 2.3886391642550487e-38
f23 5.852449117878877e-43
f24 3.7909951664879214e-56
f25 6.532217599998908e-69
f26 0.0
ne16 4.299970142754664e-66
ne17 3.176312922159803e-64
ne18 1.4307446198543597e-30
ne19 9.234928498608647e-19
ne20 0.011991599099665141
ne21 2.1770982530737952e-05
ne22 2.923316302901871e-05
ne23 5.374305464250178e-13
ne24 3.85751162645724e-17
ne25 1.0446527450017491e-27
ne26 5.243951203084281e-39
ne27 2.624342392619349e-57
ne28 4.485954295746728e-95
ne29 0.0
na19 5.756240362204603e-53
na20 2.3006647528925196e-30
na21 5.500783995440162e-13
na22 9.19467951571547e-08
na23 0.000260970398094132
na24 1.8245364505183295e-07
na25 1.8254507587566875e-13
na26 1.8685946851769215e-23
na27 1.0141198257623077e-33
na28 1.707406586359356e-45
na29 3.564602105338618e-57
na30 8.634941339558966e-72
na31 6.9908042762523465e-84
na32 0.0
mg20 7.757286999815768e-67
mg21 2.184777823099595e-41
mg22 1.474425238089511e-20
mg23 3.560350529103903e-11
mg24 0.0018993144031661856
mg25 0.00044749700938971507
mg26 0.0002914429236065249
mg27 7.495558628456903e-10
mg28 4.0564154032574644e-11
mg29 3.443576415516241e-21
mg30 1.2495593123254018e-31
mg31 9.519475150617427e-46
mg32 8.206239940034042e-57
mg33 1.9344226385881287e-71
mg34 6.244911110575141e-84
mg35 0.0
al22 8.856689901449383e-63
al23 6.385507835365263e-41
al24 3.110049609465667e-24
al25 2.6548228926911265e-14
al26 1.0159733769585677e-07
al27 0.0001461664933522885
al28 1.932751176115214e-09
al29 7.638399737033375e-13
al30 1.6904095660757092e-21
al31 4.59412841677571e-31
al32 8.91169140705726e-43
al33 3.534344097783604e-54
al34 2.4751817170014434e-68
al35 2.7686304364677953e-78
al36 6.976636317513445e-94
al37 0.0
al38 0.0
si23 6.551180296296355e-81
si24 2.6778534049422994e-53
si25 8.848619565778168e-35
si26 5.561444163243087e-23
si27 1.5683186154475057e-13
si28 0.00013271669928636038
si29 2.3026668673117693e-05
si30 1.0435264538215732e-05
si31 2.7804111301480193e-08
si32 3.452725201627903e-09
si33 1.2222393134180626e-17
si34 1.3027583527712588e-25
si35 3.889034944718124e-39
si36 8.757306347987873e-50
si37 7.919881851304224e-65
si38 3.307901888656914e-73
si39 1.7456290848425945e-88
si40 0.0
si41 0.0
p25 3.096940936735794e-81
p26 9.178447246486053e-56
p27 2.459798233178899e-40
p28 6.391512150681242e-26
p29 2.454475461752696e-14
p30 3.0957124849835874e-10
p31 4.563780938221321e-06
p32 6.201114175747253e-08
p33 1.202977384207318e-08
p34 8.749435021345582e-16
p35 4.2295962263029036e-20
p36 7.80843190034101e-30
p37 3.348462655666494e-38
p38 2.835647717506482e-48
p39 1.756471127296332e-58
p40 5.031763262550459e-69
p41 5.182110108941015e-80
p42 2.658384532375352e-96
p43 0.0
p44 0.0
s27 1.6447263455770212e-74
s28 2.1326815336635226e-54
s29 3.6056487882521205e-36
s30 1.7472940256639147e-24
s31 4.554733972535045e-18
s32 8.343561468766098e-06
s33 1.0801313488127542e-07
s34 1.0437562852740412e-06
s35 2.5688004826875763e-08
s36 9.022230908560846e-08
s37 2.315530320692727e-14
s38 2.9824514607310025e-17
s39 2.800279869234037e-25
s40 7.842985503521145e-32
s41 3.3158243222763357e-40
s42 3.9025631755033165e-50
s43 4.8265092605598343e-64
s44 8.780323578956124e-76
s45 5.932013045341406e-91
s46 0.0
s47 0.0
cl29 1.1016844895412498e-83
cl30 1.7107665218659524e-59
cl31 2.8237484827914417e-44
cl32 1.8447096765971583e-32
cl33 8.174641126807998e-17
cl34 2.5100261431626483e-16
cl35 1.1424582350953619e-07
cl36 5.730237099238158e-09
cl37 9.210547758930125e-07
cl38 1.1508791221022368e-10
cl39 1.3263459374129856e-13
cl40 3.191587152742542e-19
cl41 4.053680809794545e-24
cl42 8.354559924114253e-31
cl43 2.36932135530908e-33
cl44 2.1364948251728887e-43
cl45 3.498494782440854e-53
cl46 7.363532299299387e-65
cl47 1.0633462412259945e-75
cl48 5.096306745311774e-91
cl49 0.0
cl50 0.0
ar31 2.2048583254502957e-79
ar32 5.710169299078058e-59
ar33 7.273178773345414e-44
ar34 1.4807310589332904e-26
ar35 4.313213426018389e-24
ar36 9.330979754064069e-07
ar37 7.91778132911329e-09
ar38 1.1853132462303969e-06
ar39 1.221882976194504e-07
ar40 5.369304249566863e-08
ar41 3.0576025384360444e-11
ar42 1.6652466672631496e-11
ar43 4.778872774775793e-16
ar44 1.6039040266957988e-19
ar45 2.5820727597995214e-26
ar46 1.1094369717041976e-32
ar47 1.4114963390430258e-42
ar48 2.0064281553293056e-53
ar49 2.9484761656868212e-67
ar50 1.0035460695501882e-78
ar51 1.6714800891610222e-97
ar52 0.0
k32 0.0
k33 1.065436785085974e-87
k34 7.237088812131262e-79
k35 2.6600517943942127e-47
k36 2.8263064947917835e-38
k37 1.2714744719414455e-19
k38 1.6063428240147507e-16
k39 1.578132035663505e-07
k40 1.5608130754678637e-08
k41 3.925109478824368e-08
k42 2.011191267129211e-09
k43 8.39967820377423e-11
k44 1.222182659719974e-14
k45 1.943386146343833e-17
k46 4.3800994253452145e-23
k47 2.7783039499285494e-29
k48 9.823774700606827e-38
k49 2.356326389634003e-44
k50 2.9413694462877487e-56
k51 5.880505582549663e-66
k52 9.21780160694278e-81
k53 3.429558686270281e-92
k54 0.0
k55 0.0
ca35 2.0643993937603893e-95
ca36 9.302345115530345e-60
ca37 4.465519432150627e-49
ca38 5.66847495850084e-30
ca39 5.50907127708188e-26
ca40 8.158986521917144e-07
ca41 1.673451508664576e-08
ca42 6.909814869930538e-08
ca43 2.8868300274357416e-08
ca44 6.746412593449645e-08
ca45 1.538722030036981e-08
ca46 4.916343813933813e-09
ca47 2.0657257443459006e-10
ca48 2.831453526594682e-09
ca49 3.9325915997444985e-14
ca50 2.012756504340597e-21
ca51 2.250040440699541e-28
ca52 1.5717650660498133e-36
ca53 2.032697211282429e-48
ca54 7.756829649190459e-60
ca55 3.541925673739327e-74
ca56 3.985597351625468e-87
ca57 0.0
sc36 0.0
sc37 2.779602633818824e-89
sc38 5.563996934204292e-89
sc39 1.015322846736187e-53
sc40 6.573101456396467e-45
sc41 8.264769220653281e-23
sc42 2.815686161266366e-19
sc43 8.497400646031545e-12
sc44 7.493033804096948e-12
sc45 4.817627850982797e-09
sc46 2.287533232282652e-09
sc47 6.130998665355958e-10
sc48 8.027434748274854e-11
sc49 6.460454303574017e-13
sc50 1.7522271034233237e-18
sc51 4.986234967942663e-25
sc52 4.46328738527724e-31
sc53 4.653639122167219e-41
sc54 9.099165659571336e-52
sc55 3.097153820681869e-63
sc56 1.9519909008927393e-73
sc57 1.0471328153382874e-84
sc58 1.4560467786408813e-98
sc59 0.0
ti39 0.0
ti40 2.676924071744371e-67
ti41 1.0254036208625015e-56
ti42 4.3712619905394856e-34
ti43 2.3573640194640245e-29
ti44 4.5707411521787086e-14
ti45 2.6692510106868422e-15
ti46 7.117503854150842e-09
ti47 7.56945011740393e-09
ti48 1.0186668213918871e-08
ti49 2.4157382486107416e-08
ti50 4.83227634129723e-08
ti51 2.1044315886325515e-12
ti52 3.4561688449670015e-17
ti53 1.3256111666507303e-22
ti54 7.910042699254743e-28
ti55 5.362765762653912e-37
ti56 1.6122222349948585e-47
ti57 2.3842019299121115e-60
ti58 8.118033593588969e-70
ti59 2.4292087205138843e-83
ti60 1.1520382018196124e-93
ti61 0.0
ti62 0.0
v41 1.4172173790507943e-94
v42 2.771311975243882e-79
v43 1.354385869854632e-54
v44 6.995063270983323e-42
v45 1.755800283342697e-27
v46 1.1291774094924395e-25
v47 1.8824469546416574e-13
v48 9.997260530993876e-13
v49 1.4417140064679306e-10
v50 2.771463558262916e-10
v51 6.648571071928454e-09
v52 1.1133252403672765e-12
v53 3.1879461997428585e-17
v54 9.202623091279486e-23
v55 1.1129614336779495e-28
v56 4.06263324025338e-38
v57 4.4674104467417095e-47
v58 3.3427586020833063e-57
v59 4.8756679041736126e-60
v60 8.842564967768645e-70
v61 4.7466466418467566e-80
v62 8.102085491200754e-92
v63 0.0
v64 0.0
v65 0.0
cr43 1.5050022108324346e-95
cr44 7.934828640504895e-67
cr45 2.8481096285119644e-54
cr46 1.78386121543913e-38
cr47 5.094732059021345e-36
cr48 1.2711226518691396e-16
cr49 1.9110447126484956e-17
cr50 1.3520711801539238e-10
cr51 6.261378873565338e-11
cr52 1.2804288683366398e-07
cr53 2.9424373401500707e-08
cr54 1.4670632049512947e-07
cr55 5.5194715036940805e-12
cr56 2.7773875664190077e-15
cr57 1.0434180296824033e-21
cr58 4.539832807831179e-28
cr59 2.4838706111185428e-37
cr60 2.818096314563406e-46
cr61 6.917223578812578e-56
cr62 6.755640319010031e-65
cr63 1.2756944373098242e-75
cr64 8.376772593134628e-85
cr65 1.0203018649634934e-97
cr66 0.0
cr67 0.0
cr68 0.0
mn45 2.3665763323783147e-92
mn46 1.1399038548142915e-72
mn47 5.258386072084415e-59
mn48 1.9803319108885846e-48
mn49 1.0772257695036575e-28
mn50 4.729974271359578e-28
mn51 1.9107653393759954e-15
mn52 6.267101722577329e-15
mn53 7.75036896033749e-11
mn54 7.227967916670695e-11
mn55 1.5475720214450007e-07
mn56 3.762799276946473e-11
mn57 4.3153156266432975e-15
mn58 1.844524963081585e-21
mn59 1.8667280045435105e-26
mn60 1.1035009354625589e-35
mn61 1.3503715763395747e-42
mn62 5.53982171838165e-49
mn63 2.0174322999329215e-57
mn64 4.0500646237484137e-67
mn65 3.738386864312574e-76
mn66 2.5476111572818614e-86
mn67 6.861165825946904e-96
mn68 0.0
mn69 0.0
mn70 0.0
mn71 0.0
fe47 9.150775334790138e-88
fe48 1.7439255524389794e-71
fe49 3.893604644248959e-61
fe50 2.4597851612695706e-44
fe51 3.2300733680201604e-39
fe52 9.960535494115297e-20
fe53 1.1301181408879505e-19
fe54 7.09187037381025e-08
fe55 3.926138996265956e-08
fe56 6.507198593398153e-06
fe57 3.2648525556523554e-06
fe58 6.982263762079962e-06
fe59 1.1915549622416685e-06
fe60 4.6187411835690395e-07
fe61 2.749731490098495e-11
fe62 4.278905764505082e-16
fe63 2.7377321362720446e-23
fe64 1.5029175534893014e-30
fe65 4.873452508279015e-40
fe66 4.1163661553854173e-48
fe67 1.8533176508024273e-55
fe68 2.0978122988359214e-65
fe69 6.532124345165158e-76
fe70 3.732338053165983e-83
fe71 3.6626251450838987e-94
fe72 0.0
fe73 0.0
fe74 0.0
co48 0.0
co49 0.0
co50 3.6394057048460006e-83
co51 1.0277494780254006e-64
co52 9.097729046619291e-57
co53 1.923588317345736e-33
co54 3.7541826650470817e-31
co55 1.4752496893974647e-12
co56 8.865618376883002e-13
co57 1.716809674310949e-09
co58 1.2667486812223073e-09
co59 1.4366241870316813e-06
co60 2.6918206858113355e-07
co61 3.9533514081196994e-09
co62 5.397166240991658e-13
co63 1.0653335200348955e-17
co64 1.0689800887799082e-26
co65 1.041960887571251e-32
co66 8.731957807614005e-42
co67 5.596708663591533e-48
co68 5.939675727864392e-57
co69 9.617150240686009e-63
co70 1.985648525517344e-72
co71 2.3617772328499534e-79
co72 1.0754863837931017e-89
co73 3.533699366996717e-100
co74 0.0
co75 0.0
co76 0.0
co77 0.0
ni51 1.6598081703359816e-98
ni52 4.051547704425086e-78
ni53 1.1770324566577867e-69
ni54 6.0341521441915884e-46
ni55 3.030895231625019e-43
ni56 9.494383015871826e-17
ni57 5.3382903597095786e-18
ni58 1.3060720931040304e-08
ni59 8.786632090898938e-09
ni60 9.47076097053734e-07
ni61 9.74498571247457e-07
ni62 9.95506816191212e-07
ni63 1.1304883924862044e-06
ni64 1.0367637986671673e-06
ni65 4.612584219307508e-09
ni66 1.1492491269209397e-09
ni67 3.809260640565264e-16
ni68 1.1423667775087457e-20
ni69 4.178914038603933e-27
ni70 2.609448943319596e-33
ni71 4.4682818486418e-41
ni72 2.3989518952121232e-48
ni73 4.474136049344182e-57
ni74 6.697850766696891e-64
ni75 2.7664391748929102e-73
ni76 1.9344534440970256e-83
ni77 3.353205248942087e-93
ni78 0.0
ni79 0.0
cu52 0.0
cu53 0.0
cu54 5.353830979762535e-93
cu55 1.2281649499897039e-68
cu56 1.9751494071387395e-62
cu57 9.105999581872939e-35
cu58 1.5505136380002052e-29
cu59 1.0123847456454425e-16
cu60 8.690718705041696e-16
cu61 3.441296033994954e-12
cu62 9.279077922249623e-13
cu63 2.2784316635201987e-08
cu64 3.5541239897411796e-09
cu65 2.1590033922826424e-07
cu66 7.916201568374881e-11
cu67 1.2926289675314117e-09
cu68 6.978983637289025e-15
cu69 3.6255644360058504e-17
cu70 1.005053123349306e-23
cu71 5.2851623868836465e-27
cu72 9.097432406411232e-33
cu73 7.590106640389508e-38
cu74 1.0169544336849861e-44
cu75 1.4433435096611729e-50
cu76 1.841483841062539e-58
cu77 8.622897328266869e-66
cu78 4.449391887730793e-74
cu79 1.9169917044645915e-83
cu80 7.30411039577185e-99
cu81 0.0
cu82 0.0
zn55 0.0
zn56 1.863220663941655e-84
zn57 1.5378062864215371e-77
zn58 6.80953528620266e-48
zn59 5.966206536546463e-42
zn60 2.362529398039486e-23
zn61 1.6341701133499689e-23
zn62 8.329896256767505e-17
zn63 3.700567075613267e-18
zn64 1.5494244679184566e-08
zn65 4.756256362853685e-09
zn66 1.6353296330225999e-07
zn67 5.5907767334419244e-08
zn68 1.7415776337874986e-07
zn69 3.7187163924421675e-10
zn70 4.962456209357842e-09
zn71 1.0995634421940672e-12
zn72 4.0638529168563596e-12
zn73 4.036853235377495e-18
zn74 3.0008845381107574e-21
zn75 5.780833181366231e-28
zn76 9.079111644430382e-34
zn77 3.258311203477495e-41
zn78 2.6667156490189573e-48
zn79 6.735552391889238e-56
zn80 2.9999347342037783e-65
zn81 8.889902661597825e-80
zn82 3.003139640656796e-90
zn83 0.0
zn84 0.0
ga57 0.0
ga58 0.0
ga59 3.4457905396297847e-73
ga60 1.9800670823622284e-63
ga61 1.3427609798375785e-43
ga62 3.4316455688956245e-36
ga63 1.504704253043025e-26
ga64 1.6537093423546938e-25
ga65 4.745886372893631e-15
ga66 3.230443680166821e-14
ga67 1.1199540362676438e-11
ga68 4.581757130903132e-13
ga69 3.115237607702303e-08
ga70 1.737641597916075e-10
ga71 7.636569565868863e-09
ga72 1.5519996225168519e-09
ga73 3.785560574362015e-10
ga74 6.35411400048395e-14
ga75 4.5758486632337515e-17
ga76 3.451849129432585e-22
ga77 1.1031093767377194e-26
ga78 5.7367380857150286e-33
ga79 1.2105037304753497e-38
ga80 1.0605039786212027e-45
ga81 1.2966261276623722e-51
ga82 3.795816670174959e-63
ga83 1.9067098689744076e-72
ga84 2.898486484153092e-85
ga85 2.354769790640685e-95
ga86 0.0
ge59 0.0
ge60 5.198757057550197e-91
ge61 1.2369048580628323e-80
ge62 8.145608025992403e-56
ge63 3.388876035929913e-49
ge64 1.6922060017775795e-35
ge65 4.140381943449804e-34
ge66 1.2815257077348157e-20
ge67 1.8400707210988948e-20
ge68 6.641589213712168e-16
ge69 9.118201783725465e-16
ge70 2.4043755452154192e-08
ge71 7.924468264492361e-09
ge72 2.4820116579220886e-08
ge73 1.4674007265157611e-08
ge74 3.038021504618405e-08
ge75 2.7305891703882434e-10
ge76 1.7476571917024287e-09
ge77 2.914826871240652e-12
ge78 1.341904356974941e-13
ge79 1.2153581301110517e-19
ge80 6.712339036896003e-24
ge81 2.6213009112612264e-30
ge82 1.998249350769266e-36
ge83 2.8104072830556683e-46
ge84 2.220886039398335e-55
ge85 2.1914583741396985e-67
ge86 2.795762159711051e-77
ge87 6.595743226777296e-91
ge88 0.0
ge89 0.0
as61 0.0
as62 0.0
as63 8.550331563727244e-82
as64 5.376826267594201e-71
as65 7.341313378625568e-57
as66 1.0375534648549438e-47
as67 1.2245231484933874e-31
as68 2.9842865301702484e-28
as69 5.342451634004853e-23
as70 7.361627260662319e-22
as71 2.8711163540074794e-13
as72 1.0310433830805707e-13
as73 2.0429381536103242e-12
as74 9.361754492530948e-13
as75 6.0840881216264676e-09
as76 2.8150943772421626e-09
as77 2.3111904570664694e-09
as78 3.008127169582607e-11
as79 2.397392704588946e-13
as80 6.865506392377067e-19
as81 1.0741917476404145e-21
as82 1.8573734792165873e-26
as83 1.2888137452672384e-30
as84 1.3864217004076719e-38
as85 3.070998482448752e-45
as86 4.008081407588988e-54
as87 1.3260510179038524e-62
as88 2.2460712265420777e-73
as89 2.83274979012725e-83
as90 1.4188121822290455e-97
as91 0.0
se64 9.647843217128397e-99
se65 7.524900964069133e-90
se66 6.056755969704065e-71
se67 2.2314742878403478e-61
se68 5.120275500669464e-41
se69 5.940324044539946e-37
se70 3.1596745325447545e-29
se71 8.41407659266559e-29
se72 7.281105059716635e-18
se73 9.434399188216e-19
se74 1.7728003374634844e-14
se75 5.5068353440399775e-14
se76 3.3057631726147516e-09
se77 4.080313211635232e-09
se78 9.943160725484715e-09
se79 6.3441358869059856e-09
se80 1.639884942384318e-08
se81 3.389422942682277e-11
se82 6.067965223802533e-10
se83 2.059856961969232e-13
se84 3.2649353958723693e-17
se85 2.0207838125955935e-23
se86 1.764757879117851e-29
se87 8.0362515809033e-37
se88 4.2886307421893904e-45
se89 3.4185051396554756e-55
se90 4.452958843714273e-65
se91 1.4969055851972322e-78
se92 6.600685301749564e-89
se93 0.0
br66 0.0
br67 9.66284976725253e-99
br68 4.654076540169349e-85
br69 1.2083616561224517e-63
br70 3.268560821056272e-51
br71 3.3738816488315296e-40
br72 1.946503076998936e-37
br73 2.5031388718988465e-26
br74 3.52115815033842e-25
br75 9.68101316312757e-21
br76 1.2456013680363538e-19
br77 4.7301104729692445e-14
br78 6.267369101370803e-16
br79 2.383343779728982e-13
br80 5.3258105803545594e-15
br81 3.1201091808925394e-09
br82 9.656662322557288e-10
br83 1.602199804641465e-10
br84 7.424573158771911e-13
br85 6.66085866492867e-16
br86 9.15533043882822e-21
br87 5.032707530531442e-25
br88 1.3079941318065085e-30
br89 2.281710228211099e-36
br90 5.488785585590048e-44
br91 1.7369644541683976e-52
br92 2.048621962700964e-63
br93 1.0852048198864778e-72
br94 2.3729003449445867e-85
br95 1.818224925180488e-95
kr69 0.0
kr70 6.161996208686351e-78
kr71 7.950469639805846e-65
kr72 2.4733836821426657e-50
kr73 1.6968582338345026e-45
kr74 1.396327272208232e-32
kr75 8.44551261728943e-30
kr76 3.019766083357111e-22
kr77 1.0132544336969805e-21
kr78 1.7893946779149725e-17
kr79 7.35635650766603e-19
kr80 2.402937816240534e-13
kr81 1.1262325441048079e-13
kr82 2.4933736313683646e-09
kr83 3.273494030974547e-09
kr84 1.045723280877282e-08
kr85 5.719110733433287e-09
kr86 7.201493879410426e-09
kr87 2.6274069977173635e-12
kr88 1.181464679799687e-13
kr89 3.1919358826110864e-18
kr90 1.2262662379940795e-23
kr91 2.2159070986475913e-30
kr92 3.3540455203242944e-38
kr93 3.765437555801969e-48
kr94 2.1369115803726346e-57
kr95 9.212926465741436e-69
kr96 2.432868219867098e-78
kr97 5.033559679666978e-90
rb72 0.0
rb73 7.3611457299788e-74
rb74 9.464379989368856e-60
rb75 4.246271282597843e-44
rb76 1.278265122259855e-38
rb77 1.6887952743344838e-30
rb78 2.3275404893602374e-29
rb79 4.731205366080401e-24
rb80 1.39681810985767e-26
rb81 2.325801221000378e-19
rb82 3.427947409085525e-21
rb83 1.583164897785691e-14
rb84 1.0054510520398453e-14
rb85 2.0279844065830556e-10
rb86 1.866544925402186e-10
rb87 2.1883919006129023e-09
rb88 1.223119188205912e-12
rb89 5.43492878181255e-15
rb90 2.7328977902826235e-18
rb91 3.555384079504503e-22
rb92 9.089096455213158e-29
rb93 2.2458500313841538e-33
rb94 3.3561801710517447e-41
rb95 1.3880102185171217e-49
rb96 1.0794059312581435e-59
rb97 1.3920593473797025e-68
rb98 4.855893557635379e-78
rb99 5.294864792404625e-88
sr75 1.0690701905492022e-73
sr76 1.1279811366189435e-56
sr77 2.769064073827284e-48
sr78 3.0532732852575354e-35
sr79 2.476076874615713e-32
sr80 1.9117953269702187e-25
sr81 1.6039880778907068e-24
sr82 8.24342295537471e-20
sr83 1.193828773469901e-20
sr84 2.005407652508686e-17
sr85 1.0040154635882231e-16
sr86 2.412560240214639e-10
sr87 3.6253520320040107e-10
sr88 6.212189891088269e-09
sr89 9.096067073532641e-10
sr90 2.5614639019137365e-10
sr91 3.8138202454624e-12
sr92 9.719656541076118e-14
sr93 1.9036425433667516e-17
sr94 7.481250280210603e-22
sr95 1.782722841317718e-28
sr96 7.68857379160597e-37
sr97 3.8610286190318416e-46
sr98 3.4881073860937747e-54
sr99 6.864577858104358e-64
sr100 1.9778558531334086e-73
sr101 1.9955004516133825e-84
y77 7.667680708076425e-78
y78 2.596687692172736e-63
y79 1.4343179707445804e-46
y80 1.007195680289464e-41
y81 7.742060542012257e-35
y82 3.4087949540881903e-35
y83 2.8938258316428935e-27
y84 1.465466872119002e-31
y85 1.0581638506295042e-22
y86 1.3888813740355447e-22
y87 2.596134742651678e-16
y88 6.784826541332899e-16
y89 5.549681671947049e-10
y90 3.211055552200311e-11
y91 8.886560094354465e-11
y92 4.541405729784501e-12
y93 7.076458791449415e-12
y94 4.517543255692962e-14
y95 3.1093729006162485e-16
y96 9.659042937657983e-23
y97 5.092064851341341e-28
y98 2.861355893498775e-36
y99 1.2262213115837105e-40
y100 3.542278289679323e-48
y101 6.38579261217591e-56
y102 1.4461142861321178e-64
y103 1.0785727322497823e-73
zr80 4.065358363022445e-62
zr81 4.499380663781545e-55
zr82 1.1671853090896539e-45
zr83 1.0289866858595942e-36
zr84 2.0877129859947883e-29
zr85 1.048552460964219e-28
zr86 1.5810959706700065e-23
zr87 6.192135651413401e-23
zr88 2.1025991416875973e-19
zr89 1.5512562189583374e-19
zr90 2.793229525771196e-10
zr91 1.5073806703508997e-10
zr92 3.062546629173872e-10
zr93 1.3996541695878065e-10
zr94 2.455194181637706e-10
zr95 7.356207818068167e-11
zr96 1.1842256599475633e-10
zr97 2.7284303534127056e-13
zr98 8.745445948411029e-19
zr99 2.2548201437943004e-26
zr100 7.141800604758736e-31
zr101 1.1055281024046875e-37
zr102 1.468254137047116e-45
zr103 1.533048298678606e-54
zr104 7.347786181310819e-64
zr105 2.5640741094671994e-74
nb83 3.7974256741899696e-60
nb84 2.4402636758161844e-47
nb85 1.0735718449881884e-39
nb86 1.1163612800465639e-36
nb87 2.480733861356518e-31
nb88 4.836939036421816e-30
nb89 7.913586849514569e-25
nb90 7.369324219138099e-24
nb91 3.4933750421617334e-16
nb92 2.9277128039901165e-16
nb93 1.5488972887174765e-15
nb94 1.4715045873408466e-15
nb95 8.490259605649285e-13
nb96 8.241432935600589e-13
nb97 7.270741555357815e-14
nb98 4.2158852820624833e-19
nb99 2.1238494794407053e-22
nb100 4.446078829285735e-29
nb101 5.8967601213154275e-31
nb102 2.178648089144847e-37
nb103 1.2537299678490226e-41
nb104 2.049246440180135e-49
nb105 4.068881977952268e-57
nb106 2.580161225729091e-66
nb107 2.2358701689701235e-75
mo85 6.568214744509326e-63
mo86 5.738362423906159e-54
mo87 1.2290883384162612e-43
mo88 1.489286901227143e-34
mo89 1.6822409013320387e-32
mo90 1.354127450835173e-26
mo91 3.4103511234729136e-25
mo92 1.5425228172585147e-14
mo93 4.3900270022663404e-15
mo94 4.074991420052824e-14
mo95 5.330584547105233e-13
mo96 3.923899459722375e-12
mo97 4.808966464966323e-12
mo98 2.4295692228798475e-11
mo99 1.6137460081417493e-12
mo100 1.4803455030865053e-11
mo101 3.006565525407821e-14
mo102 1.2669051169574235e-16
mo103 5.409078384553176e-21
mo104 2.7102370427407277e-24
mo105 4.4460362279122516e-32
mo106 4.1497588119221615e-40
mo107 3.3744811199359603e-49
mo108 1.1870269467306737e-58
mo109 4.697981594283677e-69
tc88 8.631248007241092e-59
tc89 1.4850038755421774e-48
tc90 1.976597268836698e-43
tc91 1.190259146067079e-35
tc92 1.6581630916780496e-32
tc93 6.453090307684151e-22
tc94 5.6109278869443085e-22
tc95 1.3583723716411495e-20
tc96 9.220384910134433e-20
tc97 1.346104073591197e-18
tc98 1.0326960080413595e-18
tc99 9.17015495795332e-13
tc100 2.4007408548494257e-17
tc101 2.799739133753126e-14
tc102 1.0317618396234267e-18
tc103 9.965174348741664e-21
tc104 1.6071478010954725e-21
tc105 2.5928217407975908e-23
tc106 8.095070741924114e-28
tc107 2.8798440234720875e-31
tc108 1.1095605054713572e-36
tc109 1.8750075729613412e-44
tc110 3.428178542683444e-53
ru91 3.4289771640448575e-58
ru92 3.6694348909741113e-48
ru93 7.527023810353978e-34
ru94 2.3469150796879293e-23
ru95 1.2958060784642407e-22
ru96 2.4256571053013397e-20
ru97 5.422161278881217e-21
ru98 6.011938604292072e-19
ru99 1.1874265235438056e-16
ru100 4.4201482205189705e-12
ru101 2.033084086206837e-12
ru102 1.0682276371560545e-11
ru103 5.666325046878573e-12
ru104 1.645195811215011e-11
ru105 7.732665743450075e-13
ru106 6.4223668098131045e-12
ru107 2.0729571308466053e-15
ru108 1.5726359614378265e-17
ru109 2.7362670130426637e-22
ru110 2.0837058972503224e-26
ru111 1.3077490950770233e-35
ru112 9.466616769008832e-45
rh93 8.80188685686443e-64
rh94 4.1589532710983366e-44
rh95 1.3008186596997768e-32
rh96 4.978169251950289e-31
rh97 2.906563788830515e-27
rh98 3.3009770038425186e-25
rh99 1.612930662114517e-23
rh100 1.3500118974166396e-23
rh101 2.294374282637251e-19
rh102 1.4453753663308617e-19
rh103 1.0269926753261314e-13
rh104 2.8995587346195354e-17
rh105 1.2677020085951193e-12
rh106 5.611786241350442e-16
rh107 1.8881815075770878e-14
rh108 1.5055390656421852e-18
rh109 2.923616566510093e-20
rh110 5.959678596063773e-26
rh111 2.593322416814969e-28
rh112 2.9209645653990272e-33
rh113 3.359970525518036e-37
rh114 1.9201985856113342e-42
pd96 1.5370459859929115e-34
pd97 1.0416307534814736e-30
pd98 1.585891500476848e-24
pd99 2.3421017645173606e-23
pd100 9.805943471704071e-21
pd101 2.5343965039843673e-22
pd102 1.9617671575518846e-20
pd103 2.3547892373223535e-21
pd104 5.479884675058685e-13
pd105 4.3487103658718417e-13
pd106 4.6044133594016505e-12
pd107 1.5385305400905124e-12
pd108 1.0597673108076467e-11
pd109 2.282322497684311e-12
pd110 9.653150562859721e-12
pd111 8.54279769063451e-14
pd112 2.590060214008034e-13
pd113 2.3969874880862675e-17
pd114 1.0788474969144247e-19
pd115 2.8463539087728163e-24
ag98 1.008311618277089e-41
ag99 8.396774383665706e-35
ag100 3.117567614686361e-33
ag101 4.6658312466215255e-29
ag102 3.763331109046028e-27
ag103 1.8260458904696978e-24
ag104 7.119947218734769e-23
ag105 6.963830969272725e-21
ag106 8.086872445925491e-22
ag107 1.100178713285219e-18
ag108 3.1752142643535908e-21
ag109 1.1087516780583786e-12
ag110 6.557099388740078e-16
ag111 8.765714865653162e-13
ag112 1.4945471263681443e-13
ag113 1.263337032431928e-15
ag114 6.31817226275071e-21
ag115 9.115894415213648e-23
ag116 2.1620135300270988e-26
cd101 4.6954476481119463e-35
cd102 3.612019228426478e-27
cd103 9.769102823556251e-26
cd104 8.4919683114716e-22
cd105 7.047306443170607e-23
cd106 2.140840656436219e-20
cd107 2.160824595966355e-22
cd108 9.095864669903713e-18
cd109 1.8945957378662416e-18
cd110 2.3525289748944703e-12
cd111 7.169766814209168e-13
cd112 5.049144311635979e-12
cd113 2.110636041857099e-12
cd114 1.7148112218223645e-11
cd115 3.3468264524632124e-12
cd116 2.478822007515975e-11
cd117 3.0238327855247456e-13
in102 2.0324684958014691e-47
in103 1.0710488287506996e-38
in104 1.3813561853867175e-36
in105 6.611954278571073e-32
in106 3.924136976002333e-31
in107 3.744143510712462e-27
in108 6.714551689850256e-25
in109 1.8203080132447096e-23
in110 9.681727201271555e-23
in111 7.3906344713408e-21
in112 4.622640248319686e-22
in113 2.976317939829931e-16
in114 2.7368183754910083e-19
in115 4.4761095819891017e-13
in116 6.517356560390996e-17
in117 5.832197315062765e-14
in118 3.899254640112504e-17
