n 3.640941758308611e-20
h1 8.355412437290961e-17
he4 1.1508355862175482e-12
h2 1.9406361399969567e-31
h3 2.969484042454034e-23
he3 2.6954034912432584e-23
li6 7.169180359539464e-36
li7 9.937950862521111e-30
li8 1.2725677945770998e-45
li9 1.3103904821654324e-56
be7 1.7020984394588975e-33
be9 4.368139031219814e-44
be10 5.173485663109067e-37
be11 3.3618744597172765e-59
be12 1.9657760068342307e-72
b8 4.7456714788738566e-54
b10 5.560691452830954e-26
b11 2.4535991417602026e-16
b12 1.0960568481399938e-28
b13 5.356427530664762e-41
b14 2.007851995257787e-61
c10 0.0
c11 3.471420225250571e-23
c12 0.0009646744245067413
c13 1.6666419095310355e-15
c14 5.635242982817606e-10
c15 3.724887050789367e-29
c16 1.872841226609171e-40
c17 3.368286165497146e-61
c18 0.0
n11 0.0
n12 5.0961596780615105e-42
n13 1.784511032690718e-16
n14 2.945668217662226e-09
n15 2.5645719302546076e-10
n16 5.2014235017923674e-24
n17 1.3259657190402244e-33
n18 5.525576026595084e-46
n19 6.1146707410308525e-58
n20 2.240067092951405e-74
n21 0.0
o13 9.868791999886107e-57
o14 3.688024706260172e-21
o15 1.48853208587257e-14
o16 0.041641039791269964
o17 1.532240797702451e-09
o18 7.23413337101695e-11
o19 7.622446626357213e-19
o20 2.651001675265682e-26
o21 1.0033613105990696e-35
o22 1.497226954020423e-46
f16 3.8389379861968945e-42
f17 4.623359773136685e-20
f18 1.2168374738726553e-11
f19 4.1411547015982835e-10
f20 3.787267301924081e-26
f21 1.0726949394483342e-31
f22 2.287625715973539e-37
f23 8.656124668235803e-42
f24 6.877963171560956e-55
f25 4.896461013636542e-67
f26 0.0
ne16 6.30301897779136e-64
ne17 3.4951049418565965e-62
ne18 1.0292550600408042e-29
ne19 2.5307829213707017e-18
ne20 0.011992666074766397
ne21 2.1767254162755146e-05
ne22 2.9198192833669284e-05
ne23 1.2029926694313258e-12
ne24 4.917220327617105e-17
ne25 5.920338264484321e-27
ne26 1.2315045020126211e-37
ne27 1.2579710089651241e-55
ne28 2.490708262841203e-91
ne29 0.0
na19 1.2541855523704621e-51
na20 6.689015501001255e-30
na21 5.250314983102903e-13
na22 9.250437378676953e-08
na23 0.00026098131510784593
na24 1.812253828130601e-07
na25 3.4988694499052074e-13
na26 1.5280366597109762e-22
na27 3.3424810043036486e-32
na28 2.0124775499612702e-43
na29 1.5042717894937585e-54
na30 4.893185152046157e-69
na31 1.3414125521395484e-80
na32 7.493595819896795e-99
mg20 5.767181516320442e-65
mg21 2.0165991753123927e-40
mg22 4.6542740451572864e-20
mg23 1.2777669496795557e-10
mg24 0.0018996495647898668
mg25 0.0004475167760048395
mg26 0.00029146514500779627
mg27 8.522529636028964e-10
mg28 4.045400394629447e-11
mg29 1.3360151248780048e-20
mg30 1.9629677359242575e-30
mg31 2.0569535843475682e-44
mg32 6.751468349397633e-55
mg33 2.2899784006756934e-69
mg34 2.667178840423644e-81
mg35 0.0
al22 2.165124217891761e-61
al23 5.072850643513198e-40
al24 1.2711490631774698e-23
al25 2.521816652435112e-14
al26 1.1171637122658703e-07
al27 0.00014619318633230332
al28 2.6417614048863856e-09
al29 8.703182010561167e-13
al30 7.920414276037249e-21
al31 8.885807453965964e-30
al32 6.728299507151692e-41
al33 9.78182411914383e-52
al34 8.899498904574015e-66
al35 2.5859342886896746e-75
al36 9.384900941552796e-91
al37 0.0
al38 0.0
si23 5.659484863996499e-79
si24 6.83823112175235e-52
si25 1.1947559496912548e-33
si26 1.8673792652136436e-22
si27 7.230674411252367e-13
si28 0.00013274497944165017
si29 2.3032128158451613e-05
si30 1.043678535975045e-05
si31 2.8116378288621646e-08
si32 3.4518126436072586e-09
si33 4.591750424570393e-17
si34 1.15846769565216e-24
si35 4.5760897228942266e-38
si36 3.997720017771836e-48
si37 5.352653607046654e-63
si38 1.9657950701627306e-71
si39 1.5882184779792104e-86
si40 3.752620756627245e-98
si41 0.0
p25 9.214989165575495e-79
p26 2.9761828141394604e-54
p27 1.4835894354691453e-39
p28 3.1236042247052236e-25
p29 3.781059411760373e-14
p30 4.463605991023321e-10
p31 4.564025234838877e-06
p32 6.202455210798477e-08
p33 1.2030736843499209e-08
p34 2.9246444007583625e-15
p35 9.159473407269097e-20
p36 2.1501532515377047e-29
p37 2.9464104558581724e-37
p38 8.699033508825977e-47
p39 1.9784072421735116e-56
p40 8.580090511369879e-67
p41 2.7365479862818777e-77
p42 2.292014996903747e-93
p43 0.0
p44 0.0
s27 9.78397185945412e-73
s28 4.957084667394862e-53
s29 5.85267449829476e-35
s30 8.326724391341186e-24
s31 2.5698993085290902e-17
s32 8.343511762198343e-06
s33 1.0801240272108511e-07
s34 1.043819991562211e-06
s35 2.569029644918153e-08
s36 9.022512359340227e-08
s37 2.9977049986843185e-14
s38 3.006702172213498e-17
s39 8.943993404176548e-25
s40 3.954584705618714e-31
s41 3.691669246998089e-39
s42 1.5910987889450825e-48
s43 2.6952147880890523e-62
s44 1.7953823304389104e-73
s45 1.7414232312997543e-88
s46 0.0
s47 0.0
cl29 2.1052919174328108e-81
cl30 8.070544650817345e-58
cl31 3.1071032797815313e-43
cl32 1.3729871574323394e-31
cl33 7.784467710687858e-17
cl34 9.34083582652651e-16
cl35 1.1426282110542772e-07
cl36 5.730046771291437e-09
cl37 9.209981457530179e-07
cl38 1.2265640752813377e-10
cl39 1.3765772673958114e-13
cl40 5.686441415333871e-19
cl41 9.74472500061573e-24
cl42 4.844269903242343e-30
cl43 3.6141702973440484e-33
cl44 1.4456755934740664e-42
cl45 9.615271777615237e-52
cl46 7.719709624372086e-63
cl47 3.8833666802543137e-73
cl48 2.6574001849750293e-88
cl49 0.0
cl50 0.0
ar31 2.1324109990328057e-77
ar32 2.380869694443646e-57
ar33 1.888036015481471e-42
ar34 5.276181551078732e-26
ar35 4.779828609756202e-23
ar36 9.330508398891144e-07
ar37 7.917605052232934e-09
ar38 1.1853375387825296e-06
ar39 1.221956038275736e-07
ar40 5.3696131053737615e-08
ar41 3.126993929023753e-11
ar42 1.665229771424361e-11
ar43 5.739058587827143e-16
ar44 1.7474913127751246e-19
ar45 7.321651439119151e-26
ar46 5.83274592078442e-32
ar47 3.0045779834026093e-41
ar48 1.6217046326306044e-51
ar49 3.2346067442087007e-65
ar50 3.9393877438786817e-76
ar51 1.3077981859437427e-94
ar52 0.0
k32 0.0
k33 2.1423251294968277e-85
k34 1.5561609174027483e-76
k35 2.4314279108584802e-46
k36 3.94359595285885e-37
k37 1.4655891483661868e-19
k38 4.025020475053218e-16
k39 1.5782738002216455e-07
k40 1.5608728882763755e-08
k41 3.9250366783860054e-08
k42 2.0156830150482024e-09
k43 8.361597214957899e-11
k44 1.3860840016958786e-14
k45 2.072882344431825e-17
k46 8.00689412672571e-23
k47 1.00919649093155e-28
k48 1.092148107038012e-36
k49 3.623751856208492e-43
k50 4.918035780952497e-55
k51 3.6458614019618825e-64
k52 8.089392424629392e-79
k53 1.0789364134628102e-89
k54 0.0
k55 0.0
ca35 6.46678914930366e-93
ca36 2.746497321055896e-58
ca37 2.114493746639178e-47
ca38 2.5083587367469992e-29
ca39 5.121539964459413e-25
ca40 8.158653827732949e-07
ca41 1.6733825060885718e-08
ca42 6.90930788745298e-08
ca43 2.88693283030277e-08
ca44 6.746579140468369e-08
ca45 1.5389658262716845e-08
ca46 4.917406263577851e-09
ca47 2.0674211849167982e-10
ca48 2.831362450032807e-09
ca49 4.5429245812578455e-14
ca50 6.926341287571886e-21
ca51 1.050054712356211e-27
ca52 1.2613446333942646e-35
ca53 6.6147914147542505e-47
ca54 9.562093560607218e-58
ca55 6.362461728568148e-72
ca56 2.463996341079816e-84
ca57 0.0
sc36 0.0
sc37 4.6047492055324705e-87
sc38 2.7628339387145006e-84
sc39 1.5481380722600672e-52
sc40 1.2517160835414746e-43
sc41 1.3655263351380886e-22
sc42 1.0791185592606738e-18
sc43 8.677625756606698e-12
sc44 7.645150972812827e-12
sc45 4.817637868126805e-09
sc46 2.2875599982911854e-09
sc47 6.135751134461471e-10
sc48 8.035164794359818e-11
sc49 6.78451218775125e-13
sc50 2.99306180358937e-18
sc51 2.0358018305060294e-24
sc52 2.5131846609351374e-30
sc53 1.079193883612622e-39
sc54 8.118125275992141e-50
sc55 8.903031855372331e-61
sc56 9.948595168918298e-71
sc57 1.605307273905397e-81
sc58 3.003278555807006e-95
sc59 0.0
ti39 0.0
ti40 4.524650525523548e-66
ti41 4.1086342889517056e-55
ti42 2.73601175202414e-33
ti43 3.442719858497417e-28
ti44 4.573616576180186e-14
ti45 2.7174483515179702e-15
ti46 7.1168234633970595e-09
ti47 7.568915709605201e-09
ti48 1.018624307798501e-08
ti49 2.4156916810265314e-08
ti50 4.832419164538381e-08
ti51 2.5507370415843396e-12
ti52 5.414762172893291e-17
ti53 2.947253500472618e-22
ti54 1.9378223758135598e-27
ti55 4.542680770405251e-36
ti56 5.503129299279188e-46
ti57 1.026934417241994e-58
ti58 8.543064625035422e-68
ti59 3.3886435851348035e-81
ti60 4.933669769927233e-91
ti61 0.0
ti62 0.0
v41 1.0827216285729629e-92
v42 3.01787526171784e-77
v43 2.0506224177911138e-53
v44 1.179058866062965e-40
v45 2.4075065920708518e-27
v46 4.897859301525416e-25
v47 2.0157590936066684e-13
v48 1.0016500404556497e-12
v49 1.4421805985330155e-10
v50 2.772302310142579e-10
v51 6.648284620359178e-09
v52 1.4424983436012016e-12
v53 5.597922819696192e-17
v54 2.659656389056033e-22
v55 7.100090266866202e-28
v56 1.0475353189444875e-36
v57 4.229307463822764e-45
v58 1.1025529259540767e-54
v59 2.214205691517358e-58
v60 6.229889540377137e-68
v61 1.176694590785415e-77
v62 4.005259531045883e-89
v63 1.443894111958146e-99
v64 0.0
v65 0.0
cr43 2.3542571291097853e-93
cr44 4.20541399459044e-65
cr45 5.367993233772729e-53
cr46 9.72360905884316e-38
cr47 8.453761906397815e-35
cr48 1.273596521363313e-16
cr49 2.1656562703670814e-17
cr50 1.3518284260308246e-10
cr51 6.2608929611898e-11
cr52 1.2803580195571526e-07
cr53 2.9423708746556475e-08
cr54 1.467087582971401e-07
cr55 7.302744708336502e-12
cr56 3.1894558561104467e-15
cr57 3.1674551229503556e-21
cr58 2.9089119777167134e-27
cr59 5.723921309851859e-36
cr60 2.1644158039174462e-44
cr61 1.3949669611079972e-53
cr62 3.3192167954905784e-62
cr63 9.8995369596556e-73
cr64 8.415764494006004e-82
cr65 1.2519357855492007e-94
cr66 0.0
cr67 0.0
cr68 0.0
mn45 4.710853741944084e-90
mn46 4.041203680337243e-71
mn47 7.291437643274671e-58
mn48 4.1954100903052583e-47
mn49 2.1369131094164015e-28
mn50 2.38012048897588e-27
mn51 2.0316195674892705e-15
mn52 6.267719992150046e-15
mn53 7.752858014104932e-11
mn54 7.23011829204066e-11
mn55 1.5473988027986142e-07
mn56 4.251675699807692e-11
mn57 6.671988920765571e-15
mn58 8.493857898990296e-21
mn59 1.2251447517186363e-25
mn60 3.08132227775004e-34
mn61 6.35432567702714e-41
mn62 2.6137395356402163e-47
mn63 3.162811254824499e-55
mn64 2.1704338722883372e-64
mn65 6.031682610699388e-73
mn66 9.267221121846089e-83
mn67 6.398434891725274e-92
mn68 0.0
mn69 0.0
mn70 0.0
mn71 0.0
fe47 4.610258746951409e-86
fe48 8.678199203294653e-70
fe49 3.1714821294247885e-59
fe50 2.4767175133715235e-43
fe51 7.041061171502094e-38
fe52 1.1068670026975963e-19
fe53 1.8278886985616635e-19
fe54 7.090422248356829e-08
fe55 3.92598509869806e-08
fe56 6.50669834909644e-06
fe57 3.2647943306467626e-06
fe58 6.982302381260928e-06
fe59 1.1915572041145323e-06
fe60 4.6197670998104487e-07
fe61 3.318937451488496e-11
fe62 7.712920025423642e-16
fe63 1.496043964693634e-22
fe64 2.0646727996819343e-29
fe65 2.532269981931898e-38
fe66 4.1361893880696675e-46
fe67 1.4299816576578423e-53
fe68 5.941012714903339e-63
fe69 3.468735226535978e-73
fe70 9.430309784965612e-81
fe71 1.821763625432266e-91
fe72 0.0
fe73 0.0
fe74 0.0
co48 0.0
co49 1.0859256421572498e-96
co50 7.394548327479313e-81
co51 2.546821714830561e-63
co52 3.3084255915075995e-55
co53 2.8667663761398624e-33
co54 2.8264134681682663e-30
co55 1.4822031478959353e-12
co56 8.87616455111441e-13
co57 1.7173603873199528e-09
co58 1.2672523857822475e-09
co59 1.4367798253439108e-06
co60 2.689495032809052e-07
co61 4.0511979707889195e-09
co62 7.166435969388871e-13
co63 2.792790686577008e-17
co64 1.213367373957111e-25
co65 2.413677828030082e-31
co66 7.668168072895598e-40
co67 4.651857521518229e-46
co68 1.6836747068303312e-54
co69 1.6532553102986254e-60
co70 7.1006406331452e-70
co71 7.101549572016613e-77
co72 6.512372735411386e-87
co73 7.706740056431962e-97
co74 0.0
co75 0.0
co76 0.0
co77 0.0
ni51 5.208709343752704e-96
ni52 3.487820444071544e-76
ni53 1.5660288755433334e-67
ni54 3.668624436620253e-45
ni55 8.733649293839309e-42
ni56 9.501402826778325e-17
ni57 5.5396734014037665e-18
ni58 1.3056669500832487e-08
ni59 8.78408799848031e-09
ni60 9.472818382688057e-07
ni61 9.744389961962234e-07
ni62 9.955499493056204e-07
ni63 1.130600442527238e-06
ni64 1.036833587289491e-06
ni65 4.666560951371885e-09
ni66 1.1496540140064643e-09
ni67 1.0802126002107134e-15
ni68 3.032786165277324e-20
ni69 1.8401713127054875e-26
ni70 1.8185443005307213e-32
ni71 5.114403640016904e-40
ni72 4.54779956956501e-47
ni73 1.6750525517734985e-55
ni74 2.3604888484732633e-62
ni75 1.6852276907089228e-71
ni76 3.8187621966194647e-81
ni77 3.694154894525163e-91
ni78 0.0
ni79 0.0
cu52 0.0
cu53 0.0
cu54 1.9894642453180854e-90
cu55 2.2250121972682107e-67
cu56 1.1375999183074412e-60
cu57 1.8048758255139296e-34
cu58 6.03369166532806e-29
cu59 1.67941031598721e-16
cu60 1.0176039531523265e-15
cu61 3.510607124011079e-12
cu62 1.054211724113571e-12
cu63 2.2772621714778553e-08
cu64 3.5613866012259888e-09
cu65 2.15858886928117e-07
cu66 9.744460317658931e-11
cu67 1.2926036665343153e-09
cu68 1.693303509948502e-14
cu69 4.8654936605438245e-17
cu70 4.9193184165412564e-23
cu71 1.7543790644995204e-26
cu72 5.755015213063766e-32
cu73 7.361253120480811e-37
cu74 2.0037527987032904e-43
cu75 3.910297586179311e-49
cu76 1.0241776352590063e-56
cu77 7.057128049512357e-64
cu78 6.098962171489264e-72
cu79 7.572830797346904e-81
cu80 4.2538084397442946e-96
cu81 0.0
cu82 0.0
zn55 0.0
zn56 4.787286130153059e-83
zn57 1.1880518502793093e-75
zn58 3.980436791388528e-47
zn59 9.522989835097417e-41
zn60 2.992282163724348e-23
zn61 2.687893557066904e-23
zn62 8.330319040925422e-17
zn63 3.901174734207626e-18
zn64 1.548736214969655e-08
zn65 4.756503711420479e-09
zn66 1.6352646784869017e-07
zn67 5.591108030129394e-08
zn68 1.7417232374724626e-07
zn69 3.918978571430798e-10
zn70 4.961967307448121e-09
zn71 1.3861971812457582e-12
zn72 4.064414692370831e-12
zn73 1.0943149357751957e-17
zn74 4.840485847911959e-21
zn75 2.501660285430654e-27
zn76 6.447764369919608e-33
zn77 4.856078317670298e-40
zn78 5.903948042605753e-47
zn79 2.2175678590564443e-54
zn80 2.0723335776162258e-63
zn81 8.398150416676565e-78
zn82 8.780281351779684e-88
zn83 0.0
zn84 0.0
ga57 0.0
ga58 0.0
ga59 7.692538083985028e-72
ga60 8.097815988783862e-62
ga61 4.233316207734271e-43
ga62 2.5315070798584266e-35
ga63 2.3631528075284928e-26
ga64 2.3247660357472086e-25
ga65 5.224836698513277e-15
ga66 3.2494644070242004e-14
ga67 1.120786871341082e-11
ga68 4.811381838888599e-13
ga69 3.113424063374103e-08
ga70 1.8828224378064925e-10
ga71 7.632544954699351e-09
ga72 1.555147937032327e-09
ga73 3.801826184625503e-10
ga74 8.764481279794946e-14
ga75 6.710437111374562e-17
ga76 8.363104394119364e-22
ga77 4.42014127904361e-26
ga78 4.3338165433130573e-32
ga79 1.4876856342793501e-37
ga80 1.9984753350627997e-44
ga81 3.4641299581882676e-50
ga82 1.0426713492580164e-61
ga83 1.8605146270004128e-70
ga84 3.341943886377482e-83
ga85 9.079326123434204e-93
ga86 0.0
ge59 0.0
ge60 1.9598604428208213e-89
ge61 7.999736744693031e-79
ge62 6.3829115869712855e-55
ge63 7.976187565482206e-48
ge64 3.1527879585242505e-35
ge65 1.034498732859348e-33
ge66 1.3024438304005786e-20
ge67 1.9989940053654767e-20
ge68 6.644290057049752e-16
ge69 9.089352956758637e-16
ge70 2.4035356078243842e-08
ge71 7.927140493146503e-09
ge72 2.481956145957683e-08
ge73 1.4673086174134062e-08
ge74 3.0383314906793374e-08
ge75 2.825388844936192e-10
ge76 1.7474225491755623e-09
ge77 3.113251957012045e-12
ge78 1.3504490857337654e-13
ge79 3.2870908705287403e-19
ge80 1.75841624042336e-23
ge81 1.4621307703100857e-29
ge82 1.7040124138358885e-35
ge83 2.942075099257022e-45
ge84 6.448348626557134e-54
ge85 7.26753081966696e-66
ge86 3.3775253463140156e-75
ge87 1.0646636003076618e-88
ge88 0.0
ge89 0.0
as61 0.0
as62 0.0
as63 2.826594260571735e-80
as64 3.3272857546818014e-69
as65 3.8711522808468057e-56
as66 1.1870496332651954e-46
as67 1.8911178404188381e-31
as68 4.2935824123604825e-28
as69 6.000116667660742e-23
as70 7.7634342771088245e-22
as71 2.8731663046659423e-13
as72 1.0323308285321976e-13
as73 2.0432713657695392e-12
as74 9.366724476874287e-13
as75 6.070324713244009e-09
as76 2.8254870993635923e-09
as77 2.314521225552047e-09
as78 3.11664842549247e-11
as79 2.739357863669255e-13
as80 2.2724871287562274e-18
as81 2.6535481737243948e-21
as82 6.117513999141775e-26
as83 5.318617060752905e-30
as84 1.069453392620361e-37
as85 4.1729615238666535e-44
as86 1.1110238579376523e-52
as87 9.712099262385183e-61
as88 3.7766339431258705e-71
as89 1.3618112313349325e-80
as90 9.062235924669922e-95
as91 0.0
se64 4.697690047195935e-97
se65 8.484735300259122e-88
se66 8.874627964006111e-70
se67 1.1050781583654841e-59
se68 1.2034074957587615e-40
se69 1.580404714323696e-36
se70 3.382647676920042e-29
se71 1.0762255213042908e-28
se72 7.28637872906661e-18
se73 9.545011251954513e-19
se74 1.7718698079357568e-14
se75 5.5122225259816754e-14
se76 3.302205572060077e-09
se77 4.0766928399119364e-09
se78 9.943268271633123e-09
se79 6.3447303206242125e-09
se80 1.640092402865572e-08
se81 3.6914706891252763e-11
se82 6.067854984870049e-10
se83 2.2442834996642054e-13
se84 4.3771484426952553e-17
se85 4.743406438829634e-23
se86 6.355418789785829e-29
se87 4.6287571237295595e-36
se88 6.516818342799823e-44
se89 1.1770078881092565e-53
se90 5.399011932231276e-63
se91 2.3867301625118246e-76
se92 3.533471153489844e-86
se93 0.0
br66 0.0
br67 7.12930371616879e-97
br68 7.12636526658139e-83
br69 9.397196317925759e-63
br70 3.953303484665947e-50
br71 6.10537764903556e-40
br72 3.3545201918312756e-37
br73 3.441397243373697e-26
br74 3.732931968828836e-25
br75 1.0115066346807447e-20
br76 1.248320639305545e-19
br77 4.729680314152809e-14
br78 7.467933267551132e-16
br79 2.3821919622406713e-13
br80 5.81549197720353e-15
br81 3.1167858759461998e-09
br82 9.682270250714316e-10
br83 1.6217833227116335e-10
br84 7.956764864034369e-13
br85 9.107468374395358e-16
br86 1.772844021979343e-20
br87 9.74211516441682e-25
br88 4.342536973217779e-30
br89 1.7088385225308841e-35
br90 6.8110549422761166e-43
br91 6.949892033056613e-51
br92 8.28133133678268e-62
br93 1.5503305162884387e-70
br94 3.898494218458839e-83
br95 1.0142414780193397e-92
kr69 0.0
kr70 2.1762902471588384e-76
kr71 4.4452350787928567e-63
kr72 8.074565348247085e-50
kr73 3.947202650852498e-45
kr74 1.8053949375806905e-32
kr75 1.2516071429843308e-29
kr76 4.257331980923812e-22
kr77 1.4209795862923385e-21
kr78 2.4617381737220257e-17
kr79 9.171030544131104e-19
kr80 2.401582227617315e-13
kr81 1.1277538099308653e-13
kr82 2.492044407923926e-09
kr83 3.2714152959044166e-09
kr84 1.0458346325091916e-08
kr85 5.719890461354986e-09
kr86 7.203035727392199e-09
kr87 2.7581524701197424e-12
kr88 1.184011893765733e-13
kr89 4.392407816702126e-18
kr90 3.002927781714016e-23
kr91 1.0027737548683877e-29
kr92 4.304581822402432e-37
kr93 4.927422575472501e-47
kr94 1.0844726272918297e-55
kr95 4.9962523523201803e-67
kr96 4.8026050161274627e-76
kr97 1.6937035026329e-87
rb72 0.0
rb73 8.544245512177702e-73
rb74 1.0545681327747768e-58
rb75 7.671188768858336e-44
rb76 2.9873022222092963e-38
rb77 2.750651438416865e-30
rb78 3.6057553254393574e-29
rb79 6.402176169867131e-24
rb80 2.6091405774372275e-26
rb81 2.39637335265672e-19
rb82 4.618840555617358e-21
rb83 1.5826519100267508e-14
rb84 1.0059661991707165e-14
rb85 2.0272620755250159e-10
rb86 1.866767105244851e-10
rb87 2.1884772509150647e-09
rb88 1.3335750235852261e-12
rb89 5.932794319871931e-15
rb90 3.535289632245741e-18
rb91 6.714737635678269e-22
rb92 5.333798686614052e-28
rb93 1.562442153893165e-32
rb94 3.125539997293622e-40
rb95 4.6307810696997493e-48
rb96 4.494517074638484e-58
rb97 1.930656937685072e-66
rb98 2.12884006908356e-75
rb99 7.577823427990297e-85
sr75 4.333879344248392e-72
sr76 9.371253877687714e-56
sr77 1.6305359987921487e-47
sr78 4.5110115983940597e-35
sr79 3.8882724743092415e-32
sr80 2.801201622721549e-25
sr81 2.4145000155435018e-24
sr82 1.2238106662836184e-19
sr83 1.7421773701739718e-20
sr84 2.4853959343851533e-17
sr85 1.0037638105374969e-16
sr86 2.411543963249721e-10
sr87 3.624406360352446e-10
sr88 6.212197527394011e-09
sr89 9.097712431462846e-10
sr90 2.562015256573722e-10
sr91 3.842180878979289e-12
sr92 9.788673536602634e-14
sr93 2.2603885667765897e-17
sr94 1.3084803865906984e-21
sr95 4.181469319210104e-28
sr96 7.282215419393073e-36
sr97 1.305376143984437e-44
sr98 2.3622004161478043e-52
sr99 1.1687133348209077e-61
sr100 1.1413866334590297e-70
sr101 2.7896637032976156e-81
y77 1.6368047907875003e-76
y78 6.813154646382909e-62
y79 6.605336100352954e-46
y80 2.4684376811921094e-41
y81 1.5524351128409906e-34
y82 1.7436700194225025e-34
y83 4.203715437801917e-27
y84 6.219875249169556e-31
y85 1.49607740244269e-22
y86 1.7987391085301232e-22
y87 2.594635913684847e-16
y88 6.77773449974513e-16
y89 5.549039009590007e-10
y90 3.213415983066327e-11
y91 8.885778277444709e-11
y92 4.57903938366055e-12
y93 7.078942314643818e-12
y94 4.912356352440999e-14
y95 3.471666557732108e-16
y96 4.369290531525559e-22
y97 4.622242374712088e-27
y98 1.0030471622201226e-34
y99 2.7875168871950307e-39
y100 2.617351672187513e-46
y101 1.642694723958031e-53
y102 1.2599777368338244e-61
y103 3.0195722802101965e-70
zr80 8.88129151436498e-61
zr81 5.577439479875471e-54
zr82 1.612251596835727e-44
zr83 2.193905479700069e-36
zr84 3.247522015498466e-29
zr85 1.6973908353987053e-28
zr86 2.5106600571870389e-23
zr87 9.909724095440836e-23
zr88 3.2284269536260947e-19
zr89 2.0163339508741993e-19
zr90 2.7928534098414537e-10
zr91 1.5073128722632815e-10
zr92 3.062379774073323e-10
zr93 1.3996589380485525e-10
zr94 2.455414919597327e-10
zr95 7.357605908464508e-11
zr96 1.1844709612907713e-10
zr97 2.777795890525341e-13
zr98 2.149162722923259e-18
zr99 1.9208092880083982e-25
zr100 7.148211271936828e-30
zr101 2.437914995187934e-36
zr102 1.1321555030386007e-43
zr103 4.2219898271554025e-52
zr104 6.866592007611353e-61
zr105 7.96461574410731e-71
nb83 2.6171373063347063e-58
nb84 9.677911644491746e-47
nb85 3.449680885618012e-39
nb86 1.9001148853596666e-36
nb87 3.9421804901783763e-31
nb88 7.169179896066213e-30
nb89 1.1677381427685533e-24
nb90 1.0830170127396864e-23
nb91 3.4929650465441608e-16
nb92 2.9283731235402433e-16
nb93 1.5482632868194119e-15
nb94 1.471209606803371e-15
nb95 8.463840600553356e-13
nb96 8.241708620518374e-13
nb97 7.495769514709807e-14
nb98 1.2849588394539083e-18
nb99 8.112924753002917e-22
nb100 6.219783810041683e-28
nb101 4.0925415452083386e-30
nb102 4.628722649626556e-36
nb103 2.8835234173597684e-40
nb104 1.7581471470541864e-47
nb105 1.2217830132925348e-54
nb106 2.6569826633216366e-63
nb107 7.497201345370385e-72
mo85 1.3981814817929937e-61
mo86 1.0128496060173951e-52
mo87 5.609557123637377e-43
mo88 2.407169826923721e-34
mo89 3.3553328756215343e-32
mo90 2.1245457316438938e-26
mo91 4.809652680891245e-25
mo92 1.541834274593495e-14
mo93 4.388103925042214e-15
mo94 4.073349323677601e-14
mo95 5.324030774062176e-13
mo96 3.921934785872588e-12
mo97 4.803860823209815e-12
mo98 2.429239155006162e-11
mo99 1.6236709519447917e-12
mo100 1.4799152284358953e-11
mo101 3.3779214694105204e-14
mo102 1.4128087638928472e-16
mo103 9.762365604255698e-21
mo104 5.097612952232045e-24
mo105 3.6860106551411137e-31
mo106 1.3970035706696398e-38
mo107 4.37318383041623e-47
mo108 5.4672450672568145e-56
mo109 7.533916097219687e-66
tc88 2.1454229205123692e-57
tc89 1.3487435582939718e-47
tc90 1.0917402850946014e-42
tc91 1.9955636078814348e-35
tc92 2.331641209710424e-32
tc93 6.540328021067319e-22
tc94 5.644186708225757e-22
tc95 1.3573359939570296e-20
tc96 9.215883902558687e-20
tc97 1.345068148508376e-18
tc98 1.0319465359680403e-18
tc99 9.139890242883428e-13
tc100 7.525896615194548e-17
tc101 2.9162567843984136e-14
tc102 1.266574993916515e-18
tc103 1.6290804055442992e-20
tc104 1.6882115600475266e-21
tc105 2.9395459794744193e-23
tc106 1.8453334727647366e-27
tc107 8.750112325833163e-31
tc108 7.061824580210521e-36
tc109 4.750192916758748e-43
tc110 3.2796423876156857e-51
ru91 1.0413593883015426e-56
ru92 8.610813632254345e-47
ru93 1.1631850665990145e-33
ru94 3.131857440814426e-23
ru95 1.7241405967583718e-22
ru96 2.824242173581766e-20
ru97 5.475880878331659e-21
ru98 6.024934175513069e-19
ru99 1.1842487118429523e-16
ru100 4.417634238649769e-12
ru101 2.0314466939585264e-12
ru102 1.0679142901449096e-11
ru103 5.668722559004197e-12
ru104 1.644664341629118e-11
ru105 7.860284656511388e-13
ru106 6.421122330694763e-12
ru107 2.7267173157386424e-15
ru108 1.902848997433168e-17
ru109 6.360718819075452e-22
ru110 7.79698764725157e-26
ru111 2.101047583447674e-34
ru112 5.997803232051456e-43
rh93 1.0717107869518633e-61
rh94 9.77955706554151e-44
rh95 1.88140586020438e-32
rh96 6.650068397876763e-31
rh97 3.849437468136125e-27
rh98 4.285102697819228e-25
rh99 2.1222955863093795e-23
rh100 1.6214297853454077e-23
rh101 2.29024712336394e-19
rh102 1.4446369182689024e-19
rh103 1.0217823253459149e-13
rh104 6.244175392575593e-17
rh105 1.2639133785615073e-12
rh106 1.0460565571827554e-15
rh107 1.9875335639387983e-14
rh108 2.7174325393369186e-18
rh109 4.9410609500752464e-20
rh110 3.8056294293046555e-25
rh111 1.261412412213862e-27
rh112 2.9703788106319447e-32
rh113 4.4124633250228164e-36
rh114 3.46461989865e-41
pd96 2.175008544392497e-34
pd97 1.4343394422340776e-30
pd98 2.125492766077517e-24
pd99 3.128012177657218e-23
pd100 1.3026661731472316e-20
pd101 3.4857566942534766e-22
pd102 2.6025458009476342e-20
pd103 2.4193369346968625e-21
pd104 5.474130237104684e-13
pd105 4.331673655860137e-13
pd106 4.6032278354340445e-12
pd107 1.5363623441995364e-12
pd108 1.0594674890725785e-11
pd109 2.2903647638719423e-12
pd110 9.650176350860633e-12
pd111 9.18502393253571e-14
pd112 2.5913151583013225e-13
pd113 3.9518267239884207e-17
pd114 1.5279658551575323e-19
pd115 6.76825011130914e-24
ag98 1.9728464337080825e-41
ag99 1.3438123815679257e-34
ag100 4.4973560110366416e-33
ag101 6.164460357499565e-29
ag102 4.9509718116364805e-27
ag103 2.4326831978296356e-24
ag104 9.25069636381677e-23
ag105 6.956390126184105e-21
ag106 8.53858974858992e-22
ag107 1.0936442371792029e-18
ag108 4.624783828624766e-21
ag109 1.1028146422599049e-12
ag110 1.2713827984432262e-15
ag111 8.747738504543942e-13
ag112 1.5192403585097585e-13
ag113 1.5891032478651315e-15
ag114 1.8916200181425603e-20
ag115 2.3187842604736166e-22
ag116 7.535609317144469e-26
cd101 6.890464985675907e-35
cd102 4.958551125113102e-27
cd103 1.3271711485680145e-25
cd104 1.1358158084995647e-21
cd105 9.561801178929108e-23
cd106 2.852336158438271e-20
cd107 3.0738105308231935e-22
cd108 9.089181776344021e-18
cd109 1.8938725957874065e-18
cd110 2.353643229801983e-12
cd111 7.16148816907941e-13
cd112 5.045794547543269e-12
cd113 2.1091407773309425e-12
cd114 1.7144584230567023e-11
cd115 3.3549769903116606e-12
cd116 2.4784713164242728e-11
cd117 3.11213526823472e-13
in102 5.171642040161454e-47
in103 2.0005606602592762e-38
in104 2.2593135056768217e-36
in105 9.056526203838159e-32
in106 5.28422791209903e-31
in107 5.060433424084585e-27
in108 8.873287643259444e-25
in109 2.436973092826996e-23
in110 1.2631886428738818e-22
in111 7.370107576244918e-21
in112 5.08709748750433e-22
in113 2.9580422612271924e-16
in114 4.8880719113667e-19
in115 4.450548203158211e-13
in116 1.6458887551804174e-16
in117 5.846973050060692e-14
in118 4.6157175813584094e-17
