n 1.8618907904290359e-19
h1 1.1158020116005983e-13
he4 1.952907303248118e-11
h2 3.5283631447434784e-31
h3 3.1644188953599482e-27
he3 1.3705056878851258e-24
li6 1.6944177332580828e-35
li7 7.992144466839844e-35
li8 1.113692456493746e-51
li9 1.1640063494565273e-60
be7 1.0166272378531377e-33
be9 6.283768493849257e-38
be10 6.331883727361242e-33
be11 5.6602528176034005e-55
be12 5.36872559511571e-71
b8 7.419295264128248e-51
b10 1.592118839859871e-30
b11 4.343346926001741e-20
b12 1.9482105778694007e-35
b13 6.239672370215187e-47
b14 4.8675441511987385e-68
c10 0.0
c11 3.160557110628936e-20
c12 2.111009836819974e-07
c13 8.723821161220126e-16
c14 4.5015251199939e-15
c15 2.3060963687571844e-35
c16 1.0425959316068414e-48
c17 1.0000076234665228e-69
c18 0.0
n11 0.0
n12 1.122786015204198e-36
n13 4.288333208655501e-20
n14 1.431329644757984e-12
n15 1.0775227531303921e-14
n16 1.0103510719001951e-31
n17 3.6655111599025527e-41
n18 2.3145935829560125e-57
n19 1.2557435514376278e-66
n20 2.654702251752111e-85
n21 0.0
o13 1.3367166101353234e-50
o14 1.0573898345722363e-26
o15 5.295891534282029e-13
o16 0.01887030337643147
o17 1.0264757343100566e-13
o18 4.9360656780453684e-17
o19 6.700759034215902e-30
o20 1.4516726210309783e-34
o21 4.052866963452663e-48
o22 5.664390497501025e-54
f16 5.739582303463791e-29
f17 5.1125263717026966e-18
f18 1.1518891971120963e-17
f19 6.811218953355029e-20
f20 7.725421154701169e-25
f21 4.736247440046163e-27
f22 1.0590002084203907e-37
f23 2.386495619714013e-41
f24 4.2766033759645624e-58
f25 3.8119204011330545e-71
f26 6.719460858992333e-95
ne16 2.9194380010878333e-46
ne17 1.8448444841289627e-43
ne18 7.211576762778668e-27
ne19 2.7947975772542225e-20
ne20 1.1425086050278384e-06
ne21 3.7738782897863634e-10
ne22 2.1818310949205694e-10
ne23 2.579810108427308e-20
ne24 1.3600881005477876e-23
ne25 2.086537582898163e-36
ne26 1.7164067300081352e-46
ne27 5.517122282557572e-66
ne28 4.050606660038355e-86
ne29 0.0
na19 1.0700899302981469e-44
na20 2.9928880314213416e-32
na21 9.106144679862533e-18
na22 1.0643772284802088e-11
na23 9.475126730383182e-09
na24 2.367262266819853e-13
na25 7.381212579368645e-18
na26 1.4564342096820938e-27
na27 5.499323321213845e-36
na28 4.6873269325202324e-51
na29 1.3058038332250537e-63
na30 3.251331342161108e-81
na31 2.0973181847660477e-95
na32 0.0
mg20 9.530256901874314e-57
mg21 3.630047377950981e-42
mg22 1.3648308200312074e-22
mg23 4.169565737729894e-11
mg24 2.5249438501677845e-05
mg25 7.997022060228409e-08
mg26 1.0663841394263878e-07
mg27 1.2998255100653104e-14
mg28 4.527818931947492e-15
mg29 7.781701330057731e-29
mg30 8.840780298478112e-38
mg31 7.049467636190594e-55
mg32 1.7942276732674044e-63
mg33 7.412086384662366e-81
mg34 6.041523810630588e-95
mg35 0.0
al22 1.0390787906058883e-59
al23 2.4695925657978713e-39
al24 5.809604584253445e-24
al25 1.0095262777648536e-16
al26 9.73170112723917e-10
al27 5.552563892342437e-07
al28 5.1796454355602897e-11
al29 4.0936229353716967e-13
al30 2.154245324008147e-22
al31 3.952466820829425e-28
al32 1.971229559455075e-41
al33 1.9744916577885616e-51
al34 9.779944051378027e-69
al35 3.194867717867559e-79
al36 2.016472964873567e-97
al37 0.0
al38 0.0
si23 2.046644713032074e-73
si24 9.823060438429288e-50
si25 1.770678919502497e-33
si26 6.265319934320124e-20
si27 1.199393320233939e-08
si28 0.013548604948052006
si29 2.0027611392972206e-05
si30 1.1329311170577293e-05
si31 3.5707215587137993e-12
si32 2.790250021685004e-13
si33 3.664373076361292e-25
si34 4.8244004792106264e-32
si35 9.462742574918905e-49
si36 4.591470533397868e-56
si37 1.010759051101563e-73
si38 1.1552015240723027e-78
si39 2.0622303246995228e-96
si40 0.0
si41 0.0
p25 2.7158377305354486e-69
p26 6.864763395102571e-51
p27 4.3484961214994036e-35
p28 3.8680552005032335e-21
p29 2.713564241152467e-13
p30 4.242546734316915e-09
p31 1.7011055441898705e-05
p32 1.4170374180580632e-09
p33 5.386011931065112e-10
p34 8.70362441014975e-18
p35 2.8861437748725793e-22
p36 8.526753266602712e-37
p37 5.116681055714336e-44
p38 1.2442376806136879e-57
p39 2.428110810461602e-64
p40 2.6693012546164925e-79
p41 2.3780333067105292e-85
p42 0.0
p43 0.0
p44 0.0
s27 3.2519330091881406e-67
s28 3.0708094561571895e-47
s29 5.443499344508847e-31
s30 2.4147397933407023e-19
s31 5.565124643239298e-10
s32 0.0076230184261988744
s33 2.6473874523654504e-05
s34 0.0004720405278450455
s35 1.3419983461395843e-09
s36 8.036099496077893e-11
s37 7.541557210249455e-23
s38 6.831914999665134e-22
s39 4.930749601415148e-34
s40 3.366910066071516e-39
s41 1.6060963201864382e-51
s42 1.7586400094092432e-56
s43 2.295385379867722e-73
s44 5.451720080845351e-82
s45 2.6121719264025e-100
s46 0.0
s47 0.0
cl29 7.798319874633239e-69
cl30 7.732691722934578e-50
cl31 7.983594378425494e-36
cl32 1.6812878799780178e-23
cl33 2.065240013763044e-14
cl34 2.52841196205384e-10
cl35 1.917900899608079e-05
cl36 1.3807626470942828e-08
cl37 1.3103877480666377e-08
cl38 6.482835661830516e-17
cl39 1.6033883092113307e-18
cl40 1.72968592141448e-27
cl41 4.122202743942633e-32
cl42 3.406395508085476e-41
cl43 4.39160688743976e-42
cl44 1.0817650283176883e-54
cl45 2.0248289689030394e-60
cl46 2.922571245953746e-73
cl47 2.8462664759498276e-87
cl48 0.0
cl49 0.0
cl50 0.0
ar31 9.59994817017408e-67
ar32 2.6327757794549113e-48
ar33 2.6452731027222537e-33
ar34 3.0643627588814845e-21
ar35 1.241618723807442e-13
ar36 0.0006999856743732058
ar37 4.141052687026914e-06
ar38 0.0004039708416099261
ar39 2.460666733215131e-10
ar40 2.2174758345233932e-11
ar41 1.5336945640992914e-17
ar42 2.861040025280392e-15
ar43 3.506049111645013e-24
ar44 5.480644088133754e-25
ar45 1.9172522830605077e-35
ar46 6.464010483016457e-40
ar47 2.3520245849523847e-52
ar48 3.9298426785761426e-59
ar49 4.0129424189377763e-76
ar50 3.153530780702987e-89
ar51 0.0
ar52 0.0
k32 6.053659720128401e-89
k33 5.486482198835122e-70
k34 1.659219380877863e-51
k35 2.89571434776765e-38
k36 3.825812020138608e-27
k37 1.7165539037943653e-16
k38 7.865501920542395e-11
k39 1.730418245411533e-05
k40 1.62057543635409e-09
k41 1.2467314824729712e-10
k42 3.4115786584902066e-13
k43 5.555315731129635e-15
k44 1.2209717840660752e-19
k45 1.1992077523099402e-22
k46 3.117160687515056e-29
k47 2.4585993618585558e-32
k48 2.9902689958250123e-44
k49 1.025834984454873e-51
k50 8.004999010027001e-68
k51 1.0633013354769468e-79
k52 2.6885221213206597e-97
k53 0.0
k54 0.0
k55 0.0
ca35 1.3675124765931736e-66
ca36 2.4428234535440452e-50
ca37 1.341109500426034e-37
ca38 1.3238244109628055e-23
ca39 6.697799983728798e-15
ca40 0.0002803976507297118
ca41 6.406322936103392e-07
ca42 7.701352715671809e-06
ca43 3.806744685366481e-09
ca44 7.208639390984132e-10
ca45 1.6414166154456358e-12
ca46 1.2613717508314578e-12
ca47 2.2354835250758587e-14
ca48 6.724849894338472e-13
ca49 3.868896516920192e-23
ca50 2.697199732453183e-30
ca51 1.7050117998330764e-42
ca52 1.1394527422721314e-53
ca53 3.2353302428332265e-68
ca54 1.9541985780993347e-82
ca55 5.176480934017305e-100
ca56 0.0
ca57 0.0
sc36 9.693469388691019e-89
sc37 3.4127534733705705e-72
sc38 1.518112690746127e-53
sc39 2.632712095930232e-42
sc40 5.436075436597968e-31
sc41 1.6427204148327146e-18
sc42 7.725663277948077e-15
sc43 2.2226427408631667e-10
sc44 3.1484238053914616e-10
sc45 9.333240069218177e-10
sc46 1.6427740021847526e-12
sc47 8.474498941041112e-13
sc48 3.123323838892499e-13
sc49 4.0798905964889816e-14
sc50 1.7969029699465404e-22
sc51 1.2633958298408762e-29
sc52 2.9690309155195734e-40
sc53 1.1150690718386276e-50
sc54 9.645126600182098e-63
sc55 9.84008178863183e-78
sc56 6.660694700046367e-92
sc57 0.0
sc58 0.0
sc59 0.0
ti39 1.0054601989423522e-69
ti40 7.344914052817579e-56
ti41 4.613600164027578e-43
ti42 7.250651850327502e-28
ti43 8.693627800065183e-21
ti44 5.135427236382994e-08
ti45 8.102964703901882e-09
ti46 2.4239454670451397e-06
ti47 3.5673134766242e-08
ti48 7.843598598483123e-09
ti49 1.2931636868107065e-11
ti50 3.430030287063862e-11
ti51 4.04108591570973e-18
ti52 8.080362308166266e-22
ti53 2.4622939947613368e-31
ti54 2.9550764010897997e-36
ti55 2.8567512857507396e-49
ti56 9.431335077037242e-58
ti57 3.230843575416055e-74
ti58 9.35001956262373e-79
ti59 1.1491921773630471e-95
ti60 0.0
ti61 0.0
ti62 0.0
v41 1.3329883009396651e-76
v42 2.6945824805610682e-61
v43 7.930846193535948e-45
v44 2.2186075648361616e-33
v45 1.2729084031772468e-20
v46 1.6209849159986024e-14
v47 3.65807996398682e-10
v48 4.389160085039475e-09
v49 6.492896411189106e-09
v50 5.378967292522149e-11
v51 4.692088963313308e-10
v52 3.65754547964399e-15
v53 3.7669501935581403e-19
v54 1.1399726094277684e-27
v55 1.8440319254458525e-33
v56 9.792579304572634e-45
v57 2.0603239440078816e-52
v58 8.834820196921982e-66
v59 5.7949057839825886e-77
v60 3.765674573231781e-91
v61 5.887596198430967e-100
v62 0.0
v63 0.0
v64 0.0
v65 0.0
cr43 3.413804502757252e-76
cr44 2.9078852328297465e-56
cr45 4.9664279813274484e-46
cr46 1.6776706693833877e-27
cr47 7.242426342420889e-20
cr48 4.295665322354131e-09
cr49 8.895541228455744e-09
cr50 2.295765233123425e-06
cr51 1.4466718012028712e-07
cr52 7.936573357058494e-07
cr53 1.5461432920445615e-10
cr54 7.638324947862725e-11
cr55 3.448130824505024e-18
cr56 2.3371070677025327e-20
cr57 4.3366604649372575e-30
cr58 3.1461835733187295e-35
cr59 7.60147748486537e-48
cr60 4.65358362508322e-52
cr61 1.3152241497803442e-65
cr62 5.86029611477605e-68
cr63 9.067471949229453e-83
cr64 1.1257881337222294e-87
cr65 0.0
cr66 0.0
cr67 0.0
cr68 0.0
mn45 6.476655410920302e-76
mn46 6.5792587633455835e-62
mn47 2.734615142539781e-44
mn48 2.6244537056493316e-32
mn49 7.204355106787155e-21
mn50 1.902187514402484e-15
mn51 5.017679905213428e-10
mn52 6.5393056104740484e-09
mn53 2.0151097618051e-07
mn54 1.222893674222599e-09
mn55 6.250456916727158e-10
mn56 3.6808682290398085e-15
mn57 5.4127293983942015e-18
mn58 1.6687591828724988e-25
mn59 1.134725908505255e-28
mn60 1.105757175579194e-37
mn61 2.162761397087709e-45
mn62 1.5170705582976805e-57
mn63 2.3824746793343474e-61
mn64 5.27154604751831e-74
mn65 1.462811403020898e-76
mn66 6.429436478743648e-91
mn67 0.0
mn68 0.0
mn69 0.0
mn70 0.0
mn71 0.0
fe47 4.2799552899703044e-76
fe48 4.9671788879337914e-55
fe49 8.109350051354411e-44
fe50 2.1520723074385884e-29
fe51 5.8482260503813174e-21
fe52 2.45626641557296e-10
fe53 1.861840594311472e-09
fe54 1.2663429236390093e-05
fe55 7.700900519299619e-07
fe56 1.0106997040542986e-05
fe57 2.231607499983227e-09
fe58 5.359479741165753e-09
fe59 1.4474707276114323e-12
fe60 9.913188293030667e-11
fe61 7.416671494915296e-20
fe62 3.1195926279101406e-24
fe63 2.779888624508824e-35
fe64 3.728089143891582e-37
fe65 5.436791097949973e-50
fe66 6.785206827141077e-53
fe67 1.26202391512908e-65
fe68 8.034710572287695e-73
fe69 1.3279802822840573e-87
fe70 1.3301127958773319e-87
fe71 0.0
fe72 0.0
fe73 0.0
fe74 0.0
co48 3.0480351689094527e-96
co49 2.1519664571005282e-66
co50 7.410388329359406e-62
co51 4.25848790276744e-46
co52 1.5844783742638276e-36
co53 2.736488555855671e-23
co54 1.3528556543947713e-16
co55 8.558620545763991e-10
co56 1.8204935648857271e-09
co57 1.654368867148078e-07
co58 7.617551055876613e-10
co59 5.0153589057774355e-09
co60 1.5106261591630177e-11
co61 2.083854720450421e-12
co62 3.0364904870218677e-19
co63 7.107959929525469e-23
co64 1.2483270223491901e-31
co65 3.682164392658367e-34
co66 4.4777769519648465e-45
co67 5.380426852743263e-50
co68 2.085557795999525e-62
co69 3.916320709694052e-65
co70 1.788379138950851e-79
co71 6.791067272631561e-81
co72 1.0998176092400024e-95
co73 0.0
co74 0.0
co75 0.0
co76 0.0
co77 0.0
ni51 3.544621166130386e-76
ni52 3.511150010843369e-58
ni53 2.6997413655197103e-47
ni54 2.0175470840116297e-32
ni55 4.671849734539721e-23
ni56 2.224172880599565e-10
ni57 9.346145313122847e-10
ni58 1.004307112030403e-06
ni59 4.245328558687129e-08
ni60 7.699783759204444e-06
ni61 3.3802253353580584e-09
ni62 2.6404667519628723e-07
ni63 8.480515554464869e-12
ni64 7.837217947230041e-10
ni65 1.625915489946537e-16
ni66 9.435212965883965e-13
ni67 1.261286680988788e-21
ni68 1.3032324868775753e-26
ni69 7.491538020111947e-38
ni70 1.983536891955247e-40
ni71 3.3684900018267717e-53
ni72 8.727284854220965e-55
ni73 1.0214090434161888e-67
ni74 1.1552131862153862e-69
ni75 1.8515491891977844e-83
ni76 1.8160843449397182e-88
ni77 0.0
ni78 0.0
ni79 0.0
cu52 8.708306758293588e-98
cu53 1.9835546571334835e-80
cu54 4.910027654489912e-66
cu55 1.1608334944313603e-50
cu56 2.170378443720843e-39
cu57 7.141098074757364e-26
cu58 1.8423744222923604e-20
cu59 2.0164894767830385e-15
cu60 1.7275937989812154e-14
cu61 4.618592345320155e-11
cu62 3.4602833447305442e-12
cu63 3.277460200527422e-09
cu64 2.6327967045123247e-12
cu65 2.713727173580324e-10
cu66 9.759586606728625e-16
cu67 1.0608747135941964e-12
cu68 2.0850451830817826e-20
cu69 2.5115595596343624e-22
cu70 2.842294875214823e-32
cu71 2.0916221836557605e-33
cu72 5.012728298369418e-44
cu73 9.202537389118476e-45
cu74 2.5516318437498757e-55
cu75 2.924281707553178e-59
cu76 5.244379193232729e-70
cu77 1.1950337796898787e-74
cu78 2.869876789760226e-87
cu79 7.514149233671801e-88
cu80 0.0
cu81 0.0
cu82 0.0
zn55 1.1607619387533112e-82
zn56 2.4480831210900166e-65
zn57 1.376079008183668e-53
zn58 1.254406169321938e-38
zn59 4.711906712210759e-31
zn60 1.0666797981800011e-20
zn61 1.131452224817079e-18
zn62 7.268935140619207e-13
zn63 3.515439459031908e-13
zn64 2.001372954828813e-09
zn65 8.898827400604121e-12
zn66 8.790017432076106e-09
zn67 1.5511210257982678e-12
zn68 3.446201804860932e-10
zn69 6.244241145803457e-17
zn70 3.001938034721245e-12
zn71 1.8370665050046266e-20
zn72 9.804229179209288e-16
zn73 2.330938208311318e-25
zn74 4.833249868749825e-28
zn75 8.554488577231367e-39
zn76 9.463945079903663e-41
zn77 5.625746428383998e-52
zn78 1.6245195803784696e-54
zn79 8.174590649420819e-67
zn80 3.4478078895758286e-70
zn81 1.2241754818496727e-87
zn82 0.0
zn83 0.0
zn84 0.0
ga57 6.097141983320007e-89
ga58 4.0850856731230694e-75
ga59 2.396953485571633e-58
ga60 1.36312565096168e-48
ga61 1.8953468072429487e-37
ga62 2.3640088790723942e-29
ga63 2.6190723752329558e-23
ga64 4.860966076726501e-21
ga65 1.4435214527849702e-16
ga66 8.971405043522337e-17
ga67 1.465683016446706e-12
ga68 2.052118997276885e-14
ga69 5.309591639351605e-11
ga70 6.004746998636771e-15
ga71 8.258448051378167e-12
ga72 2.307045944347068e-17
ga73 3.8306803719428157e-13
ga74 2.6322005303482908e-20
ga75 2.6944871101734046e-22
ga76 2.5268802866594617e-31
ga77 3.092781160727533e-34
ga78 1.6933022557001492e-43
ga79 2.3404175467996345e-45
ga80 2.0099302135177826e-57
ga81 1.6678567760713252e-57
ga82 2.301403336561914e-73
ga83 3.444782662238759e-86
ga84 0.0
ga85 0.0
ga86 0.0
ge59 2.9580678164627956e-92
ge60 3.829942653372139e-74
ge61 4.511893942149496e-64
ge62 8.6591727599852e-50
ge63 7.232974259115561e-42
ge64 3.715585605235255e-28
ge65 9.625990237697682e-27
ge66 6.532943467439277e-19
ge67 1.3930165378192535e-18
ge68 1.9679684550576925e-12
ge69 1.1211667056722595e-13
ge70 1.6687064967675079e-09
ge71 6.226409856489296e-13
ge72 2.6967518432947147e-09
ge73 1.287934247172709e-13
ge74 2.8747889791067407e-11
ge75 9.181143543976757e-17
ge76 1.1565680985168503e-12
ge77 3.5924164693436106e-20
ge78 3.981611190455461e-17
ge79 7.62090541968876e-26
ge80 9.618378045577127e-31
ge81 2.406256556032077e-41
ge82 2.836605671549194e-43
ge83 9.107486467939769e-58
ge84 7.184540738028646e-67
ge85 7.975586884717898e-83
ge86 2.2784578647785924e-94
ge87 0.0
ge88 0.0
ge89 0.0
as61 1.819304006218589e-97
as62 2.711377130568078e-85
as63 1.2020802503044055e-69
as64 1.442170292501607e-59
as65 2.0582155608611054e-45
as66 1.9147144099499073e-38
as67 3.400821475398405e-30
as68 1.648665334451322e-27
as69 9.084796462702576e-21
as70 5.303499250309922e-20
as71 7.890310784994114e-15
as72 3.0665904264509934e-16
as73 1.020008686333712e-11
as74 8.275110107680278e-15
as75 1.2875113196530922e-11
as76 1.438468454862773e-14
as77 2.1816329871369945e-12
as78 6.597702180834777e-18
as79 9.829424470071379e-18
as80 6.919351402694505e-25
as81 1.1564856667170848e-28
as82 1.3082416877760492e-37
as83 3.776477906592086e-38
as84 3.177800707586038e-51
as85 4.515489055194871e-61
as86 9.578276705568505e-75
as87 1.1009674719210894e-81
as88 8.951073294762121e-97
as89 0.0
as90 0.0
as91 0.0
se64 3.3756245545855644e-85
se65 5.775034292069897e-76
se66 6.1259518827881895e-59
se67 7.647055200913922e-51
se68 3.481098101334449e-36
se69 9.520824131345517e-34
se70 5.54838129508932e-23
se71 1.3204588801408404e-21
se72 4.2350180739500633e-13
se73 1.0660561172358287e-13
se74 3.3421796030536956e-09
se75 9.461125966852378e-12
se76 7.237302961943369e-09
se77 1.0896345234266018e-12
se78 6.607472199913213e-11
se79 5.905946182193248e-14
se80 1.2859354023762301e-11
se81 4.6490513495091134e-17
se82 3.3248282214989354e-13
se83 2.28640057817078e-21
se84 4.94517911433887e-24
se85 1.6846950532773557e-35
se86 1.7598372578935017e-40
se87 5.848678338523055e-53
se88 7.054614249716053e-61
se89 3.025661913336487e-75
se90 1.0213338344598268e-87
se91 0.0
se92 0.0
se93 0.0
br66 1.7893158148166726e-97
br67 1.117301656198052e-79
br68 1.4307841651905045e-69
br69 5.115590040064307e-54
br70 3.449004232862184e-45
br71 4.684187596093675e-34
br72 2.4824318532816864e-31
br73 2.7542957477274174e-22
br74 1.6564280855421048e-20
br75 2.622844068976532e-15
br76 1.0128906630632002e-15
br77 5.207617442566958e-12
br78 6.997815628056495e-15
br79 6.879734969880497e-12
br80 3.578187358826655e-15
br81 4.986332760036652e-12
br82 3.545679484172746e-14
br83 1.535455650361458e-13
br84 1.667761704244294e-19
br85 5.105679018902855e-21
br86 1.2460184859342962e-31
br87 2.7317953399519868e-36
br88 2.0438486460616494e-47
br89 2.697724433916571e-49
br90 2.6880781033684225e-62
br91 2.4055212835814822e-73
br92 6.04901085737233e-89
br93 1.0810060607735566e-100
br94 0.0
br95 0.0
kr69 3.7826347918415036e-85
kr70 1.2798255578652874e-66
kr71 3.089812869757653e-56
kr72 1.8668173597757558e-42
kr73 4.704927588133296e-37
kr74 4.958135209191244e-25
kr75 1.4779681325934356e-21
kr76 3.110633310871661e-14
kr77 1.0295918728945108e-13
kr78 1.0577624216985274e-09
kr79 9.818114468022805e-12
kr80 8.22241142062441e-09
kr81 1.264185728449477e-11
kr82 3.438057277785294e-10
kr83 4.606737871612534e-13
kr84 2.201469999389329e-11
kr85 1.5319181479280194e-13
kr86 5.101286789740067e-12
kr87 4.247736232793586e-21
kr88 3.13542806345553e-20
kr89 2.4767758571258867e-30
kr90 1.0820233441013302e-35
kr91 1.2061837501322759e-47
kr92 3.254054908282139e-53
kr93 9.165583780115485e-68
kr94 6.473835727041397e-76
kr95 1.1645101428381978e-91
kr96 2.472921385957979e-99
kr97 0.0
rb72 2.0417535464036986e-70
rb73 8.337427838140698e-61
rb74 3.394750578267867e-48
rb75 1.1618207081248481e-36
rb76 5.781585436281441e-31
rb77 2.2732718672490942e-23
rb78 8.117339426799894e-22
rb79 1.6403728615927485e-16
rb80 2.7540605942502566e-17
rb81 4.2650508275695026e-13
rb82 8.69889452984213e-15
rb83 4.60667198941884e-12
rb84 2.1956025460342512e-14
rb85 7.750663603891073e-12
rb86 1.4523557736766555e-13
rb87 3.5062261572025527e-12
rb88 3.893159884782306e-20
rb89 1.9591338870650843e-22
rb90 1.139333413940804e-31
rb91 5.8521340420702976e-34
rb92 3.921949034726936e-45
rb93 1.1515320365512525e-45
rb94 5.233712383382379e-59
rb95 1.4718872638058702e-65
rb96 1.494178850083295e-80
rb97 2.1105002038884817e-84
rb98 4.0481644605306964e-98
rb99 0.0
sr75 2.9938026777055985e-61
sr76 3.6973952341085784e-44
sr77 3.9563977430787836e-37
sr78 5.02329625902359e-27
sr79 9.929824821318015e-24
sr80 4.5033496981658093e-17
sr81 6.742013611105517e-16
sr82 2.137100404287426e-11
sr83 1.563999297907568e-12
sr84 1.7538213836756232e-09
sr85 2.33752600429658e-11
sr86 1.7833853447771816e-09
sr87 1.3973013002336566e-11
sr88 1.0501875010558658e-09
sr89 9.725995830393854e-16
sr90 1.0917844585863927e-14
sr91 4.92971516183776e-22
sr92 3.303557275985182e-20
sr93 6.951824640072852e-30
sr94 3.7114483284368874e-32
sr95 1.296393222050798e-44
sr96 4.9900310192042015e-49
sr97 3.2219358525781644e-62
sr98 1.9163771304549356e-61
sr99 1.0828452684317616e-75
sr100 2.3244303409980187e-84
sr101 1.8118009619079664e-99
y77 1.5334821793140632e-61
y78 1.118007620971575e-49
y79 4.876761479751342e-38
y80 9.16960302513913e-34
y81 1.5250688414023783e-26
y82 4.271565319179602e-24
y83 6.779441164988582e-19
y84 2.994877590032559e-19
y85 8.335113084534262e-15
y86 5.655636843786113e-15
y87 4.3912480470807136e-12
y88 1.4176097289623578e-12
y89 4.435942983063486e-10
y90 1.6231430688386043e-15
y91 2.7049084131422877e-15
y92 1.213315496471113e-18
y93 1.1955694219670818e-17
y94 2.466574338930966e-25
y95 1.0660961257207924e-26
y96 1.2737416531638381e-36
y97 3.5330592020053745e-43
y98 4.258848009914817e-55
y99 2.888288075171631e-54
y100 5.056405612592056e-65
y101 1.5044405270730415e-65
y102 2.305403005225566e-76
y103 1.637998886510394e-87
zr80 6.092747212169924e-47
zr81 3.738638282220932e-41
zr82 6.818617624900838e-31
zr83 6.53710717382366e-27
zr84 9.049406488131157e-21
zr85 1.0489827770845421e-19
zr86 1.6368905413807857e-14
zr87 7.40376779911379e-14
zr88 1.135692803345586e-10
zr89 2.5208319737166177e-11
zr90 5.9263118295320565e-09
zr91 9.591432657125733e-14
zr92 1.648425424874892e-13
zr93 8.708463563029971e-16
zr94 2.872680925555644e-14
zr95 6.466895266276479e-17
zr96 2.300843134318938e-15
zr97 7.671765386756777e-25
zr98 4.958007595143907e-30
zr99 1.6821402884810982e-41
zr100 2.5331602635055995e-38
zr101 4.7674084145030255e-49
zr102 4.641843519374524e-52
zr103 1.7082070135329504e-63
zr104 7.50011672537495e-72
zr105 8.272131442956281e-85
nb83 1.3184079201274441e-42
nb84 1.471017229127725e-37
nb85 2.9497398209915946e-30
nb86 2.60431146186933e-27
nb87 3.941424475310239e-22
nb88 3.264438134115587e-21
nb89 2.0510243411944225e-16
nb90 1.5148524016850401e-15
nb91 1.9451603850760942e-12
nb92 4.00230958864576e-16
nb93 1.246354947726431e-16
nb94 8.157968808643022e-19
nb95 6.50524059941145e-17
nb96 9.600313679781945e-21
nb97 5.936704292319318e-19
nb98 1.5570208779225018e-27
nb99 3.121611235891752e-32
nb100 1.4535167195870643e-41
nb101 1.6102804324428106e-38
nb102 4.143840880124662e-48
nb103 3.9327580168168166e-48
nb104 3.4463844674599267e-59
nb105 1.3539958987964413e-62
nb106 4.606095229327996e-75
nb107 1.7530496852179943e-84
mo85 7.572512814158184e-46
mo86 1.970363127138521e-37
mo87 5.707164003892481e-32
mo88 1.3739742278071256e-25
mo89 1.0469576890165983e-22
mo90 1.2837975076661349e-17
mo91 1.1162942233771083e-16
mo92 2.1171478624943278e-12
mo93 4.392118430773183e-15
mo94 3.1079011101416374e-14
mo95 1.2026470346375353e-16
mo96 1.802473586770748e-14
mo97 2.5297336201102634e-17
mo98 7.423127046918115e-15
mo99 6.018346894274741e-20
mo100 6.231463272961919e-16
mo101 7.063157165213466e-25
mo102 2.755378855436038e-23
mo103 8.296455431295938e-33
mo104 5.469853154781558e-33
mo105 2.8920200023678155e-43
mo106 6.064368860685023e-47
mo107 4.193051091001891e-58
mo108 1.2722501918874372e-66
mo109 8.832336198780711e-80
tc88 9.681420066559696e-44
tc89 1.4946597790090258e-36
tc90 2.264186123449162e-32
tc91 1.1974182702053491e-26
tc92 4.605364171022911e-24
tc93 1.088420867710099e-18
tc94 8.378734401418593e-18
tc95 2.1588942203158702e-16
tc96 3.6294765697559887e-19
tc97 2.6099009719752887e-17
tc98 1.360342973802293e-20
tc99 1.3221680351489818e-17
tc100 3.062283802798597e-23
tc101 1.1853046613246752e-19
tc102 8.955027211239095e-28
tc103 3.151792658617001e-29
tc104 3.857001551899945e-36
tc105 1.5448087415297067e-32
tc106 5.3169027289061276e-42
tc107 5.814183749664689e-40
tc108 1.2466734240062727e-50
tc109 5.075188893341352e-58
tc110 4.5573697701583244e-70
ru91 3.997428315529909e-39
ru92 5.4639766159894934e-30
ru93 4.651991234511917e-25
ru94 6.318307611765078e-16
ru95 3.3320280637248456e-15
ru96 2.7443320474261647e-13
ru97 1.5781375988571848e-15
ru98 1.339893592841221e-13
ru99 5.09899546718389e-17
ru100 1.443269674853114e-14
ru101 2.9931766479658144e-18
ru102 8.32169435145823e-15
ru103 2.324210492412647e-19
ru104 4.1124427892420874e-15
ru105 1.6048194783644226e-20
ru106 2.43170557930556e-16
ru107 4.758096403946354e-25
ru108 4.288890731094196e-25
ru109 7.128212980328128e-35
ru110 2.0993882987400698e-35
ru111 2.434669457459024e-46
ru112 7.283296615603308e-54
rh93 7.981206638708598e-42
rh94 2.777791709809192e-35
rh95 4.21814571315013e-25
rh96 1.355488593409138e-23
rh97 4.338599983219235e-20
rh98 4.680345415549926e-19
rh99 2.458181055946342e-16
rh100 2.9392066437540506e-17
rh101 2.0883247889287137e-16
rh102 1.7499594906931762e-20
rh103 4.953807049645957e-17
rh104 4.8960150164003114e-21
rh105 4.493769072980426e-17
rh106 2.2720066390437476e-23
rh107 1.37537699715528e-19
rh108 3.263320098727432e-27
rh109 5.932175636729997e-29
rh110 1.5744602172836979e-37
rh111 6.025156785172931e-36
rh112 1.5412393673065512e-45
rh113 2.0276953215368446e-45
rh114 1.9458031431444428e-56
pd96 9.567109126073781e-27
pd97 6.858358375965761e-23
pd98 5.149471093274689e-17
pd99 7.376477021342789e-16
pd100 2.220493828760216e-13
pd101 3.182297263513143e-15
pd102 4.2850947250681877e-13
pd103 2.416765409946056e-16
pd104 1.2722960424220767e-14
pd105 2.2181312784605502e-18
pd106 5.3231473249863695e-15
pd107 3.836930500029402e-19
pd108 4.2638721848582796e-15
pd109 8.994859375066064e-20
pd110 1.1910614846870678e-15
pd111 1.8908889988301386e-22
pd112 3.421122001242243e-18
pd113 3.0381638986884094e-27
pd114 2.8859214389807725e-28
pd115 2.2293784892615366e-38
ag98 7.648435034167316e-34
ag99 6.393882193408458e-27
ag100 3.7167816335588386e-25
ag101 8.00260993312894e-22
ag102 1.729631318637661e-20
ag103 5.4923942507148756e-17
ag104 3.3630571331415516e-16
ag105 8.524350660815555e-16
ag106 5.009796494097263e-19
ag107 1.2316453728039814e-16
ag108 3.2947902397138824e-20
ag109 1.2599655621828647e-16
ag110 2.8860963049264447e-21
ag111 3.228049484343183e-17
ag112 5.0988939248452055e-24
ag113 2.5008644543588546e-22
ag114 1.3607358035321446e-30
ag115 8.287157531685262e-31
ag116 4.006288925045304e-40
cd101 5.886538206366398e-27
cd102 2.0958212239856273e-19
cd103 4.84295146003532e-18
cd104 2.3776843868121015e-14
cd105 1.4773409747600692e-15
cd106 5.134696959703309e-13
cd107 1.029421427977694e-15
cd108 7.891723837602289e-14
cd109 1.4939016291292453e-17
cd110 1.3195001171505676e-14
cd111 1.6428881979817526e-18
cd112 8.826189287659947e-15
cd113 5.5236842566420065e-19
cd114 7.149005658190177e-15
cd115 1.6924616742650192e-19
cd116 2.3267244304638424e-15
cd117 2.0154047085035308e-23
in102 6.009643241834799e-39
in103 1.1131104519622465e-30
in104 1.8258967509548623e-28
in105 3.22644522940696e-24
in106 5.018641477489909e-24
in107 9.70018870245806e-20
in108 3.970508344071044e-18
in109 6.493876295554359e-16
in110 3.309454457950153e-16
in111 3.7636149188076637e-16
in112 3.768193855044311e-20
in113 1.4795737080708785e-17
in114 2.636888809795922e-21
in115 1.3527471563038418e-17
in116 1.003198498986582e-22
in117 6.921685221807142e-19
in118 6.237034825219741e-26
