n 2.8923287253742944e-22
h1 1.111545068300709e-16
he4 2.3823851682080807e-13
h2 5.639673047414999e-35
h3 6.2945003797778044e-27
he3 5.084308090711671e-24
li6 1.8587720523769075e-37
li7 6.274569923674765e-37
li8 8.062634591611338e-57
li9 1.461522580567629e-64
be7 2.3603506623014467e-36
be9 2.081857315417947e-43
be10 7.167269630005175e-32
be11 1.3248880607395017e-56
be12 5.606358425618077e-74
b8 1.0679408486472685e-56
b10 4.56202381391427e-31
b11 5.3788975975641075e-20
b12 1.3133576205164179e-36
b13 6.775208668445186e-49
b14 1.6434942928505765e-72
c10 0.0
c11 4.169049061882743e-20
c12 1.9048661220651428e-07
c13 7.6671026877436105e-16
c14 1.4675013527251846e-14
c15 3.4970429384280586e-37
c16 1.0364039159457604e-42
c17 2.3308163128567506e-66
c18 0.0
n11 0.0
n12 2.241705177149895e-39
n13 2.6663128184108664e-22
n14 1.5645999699006296e-12
n15 5.700258986908139e-14
n16 1.0757469566414615e-32
n17 9.50253170484055e-37
n18 1.6522551443541928e-54
n19 1.16068340116886e-58
n20 2.2962458253401633e-79
n21 0.0
o13 1.2517899654245744e-55
o14 6.053879729903213e-26
o15 4.2800407812643295e-13
o16 0.02094863456927206
o17 1.52784578936346e-13
o18 1.003312179845426e-15
o19 3.2230412535317773e-27
o20 3.601796981676316e-30
o21 3.874718964715603e-41
o22 1.2676359667129875e-48
f16 1.7797154721635829e-29
f17 8.564522688051383e-21
f18 7.528300858997398e-17
f19 1.5618554010122927e-15
f20 3.0680410507434715e-25
f21 1.6373528503659008e-27
f22 3.71585123835466e-38
f23 6.902511135732754e-42
f24 3.0856609322296775e-60
f25 5.905595204616203e-69
f26 0.0
ne16 7.00748569868458e-47
ne17 3.2502336297572383e-46
ne18 1.3823722969906744e-30
ne19 1.1906001190505605e-20
ne20 2.331522121263634e-06
ne21 9.49210872428421e-10
ne22 5.345477010532555e-10
ne23 5.0185159439322786e-17
ne24 5.56390911102575e-22
ne25 4.929984398355878e-32
ne26 1.0133247707802348e-38
ne27 1.8131397467489806e-60
ne28 3.1162415521584125e-89
ne29 0.0
na19 1.1743409129570273e-51
na20 1.1880389108892628e-34
na21 2.0893226948764013e-19
na22 1.5874455498538387e-11
na23 2.3761689368454906e-08
na24 1.4275707210288306e-12
na25 2.0016210502841263e-17
na26 5.342782007760667e-25
na27 1.1253069812217689e-32
na28 5.9275319995601475e-49
na29 4.348496562622051e-57
na30 1.6967064770167118e-76
na31 9.731568345050828e-89
na32 0.0
mg20 2.124772998726368e-65
mg21 4.486989113841882e-46
mg22 2.890466828923811e-23
mg23 1.9519415319461737e-11
mg24 2.9302074457292777e-05
mg25 1.5143087683359617e-07
mg26 1.8265968159121547e-07
mg27 3.98266078017849e-14
mg28 1.302726169107947e-14
mg29 1.696990753614574e-29
mg30 4.703398908267837e-33
mg31 5.9870535444025384e-52
mg32 2.9766499410189927e-55
mg33 1.846008371114305e-74
mg34 4.7778119491306255e-88
mg35 0.0
al22 1.210917492739659e-66
al23 4.446941237183458e-43
al24 1.7829257796285396e-26
al25 1.1581494425338405e-18
al26 1.629535197738689e-09
al27 7.498619759486803e-07
al28 1.0757029405737356e-10
al29 8.010667158819266e-13
al30 1.047719397926054e-22
al31 6.178151956464394e-30
al32 3.996703778537681e-44
al33 1.6521450703990908e-54
al34 1.4922215827359613e-73
al35 4.464606646543945e-70
al36 3.605482174516764e-90
al37 0.0
al38 0.0
si23 1.2297252396954426e-82
si24 3.1076845268572844e-54
si25 2.09177963831855e-37
si26 9.124993485538191e-21
si27 3.910950729780979e-09
si28 0.01326289423662802
si29 2.2195426328942652e-05
si30 1.2377545913990862e-05
si31 8.488351406311858e-12
si32 6.59639376244084e-13
si33 1.365456810936962e-21
si34 2.1966771777515346e-27
si35 7.844031015102828e-46
si36 2.5704403087012177e-48
si37 7.466998575697696e-68
si38 2.7487629084940128e-70
si39 6.2156756230388265e-90
si40 2.0447018318628178e-98
si41 0.0
p25 2.0973061103365888e-77
p26 8.735278185653694e-58
p27 1.2836477368407648e-38
p28 9.814932749512901e-24
p29 4.5633056590130825e-15
p30 4.1927565442081906e-09
p31 1.8965705335074566e-05
p32 1.7506215967881125e-09
p33 7.532316288920537e-10
p34 7.895496927296919e-18
p35 3.4931992029041343e-22
p36 5.996653019183183e-38
p37 8.438129092350512e-40
p38 1.7610664507507003e-54
p39 2.5631210036673103e-56
p40 1.3903506676994839e-72
p41 4.3440507126462657e-75
p42 2.03726095567426e-95
p43 0.0
p44 0.0
s27 9.778074279856294e-77
s28 1.3252155884004754e-52
s29 4.722226019748144e-35
s30 5.375495159807538e-21
s31 1.103476472954907e-10
s32 0.006995478743035928
s33 2.6432308150436493e-05
s34 0.0004811735307563752
s35 1.922805662760945e-09
s36 1.1865625492752111e-10
s37 4.162531155224972e-20
s38 1.5664529848824125e-21
s39 1.1096015113634388e-30
s40 1.3289748236607592e-34
s41 3.2142038834719327e-43
s42 4.663162848883578e-49
s43 9.900592710095735e-68
s44 6.220201344165065e-72
s45 1.1704226190823801e-91
s46 0.0
s47 0.0
cl29 4.715165740334764e-78
cl30 4.317714933397324e-57
cl31 1.932084462746074e-40
cl32 1.4659797720738186e-26
cl33 1.9034333777728606e-16
cl34 8.5461731533866e-11
cl35 1.934037149361696e-05
cl36 1.558938411731332e-08
cl37 1.6151984885172306e-08
cl38 8.002562020921437e-16
cl39 3.8941148364405315e-18
cl40 1.3757089572047463e-23
cl41 5.8449561981629745e-28
cl42 2.8266238168558383e-33
cl43 7.072702197770743e-38
cl44 5.269347111987603e-50
cl45 2.0071619589717474e-52
cl46 4.905447991489051e-62
cl47 5.08468128025492e-77
cl48 6.919848986561539e-97
cl49 0.0
cl50 0.0
ar31 9.30222883483151e-77
ar32 8.507348400071111e-55
ar33 8.287629451784762e-38
ar34 1.408576345299999e-23
ar35 1.5546141235745867e-14
ar36 0.0006202272165119257
ar37 3.882396928167942e-06
ar38 0.00039577992495425405
ar39 3.926292956892962e-10
ar40 3.612095689535844e-11
ar41 2.797258036919169e-16
ar42 5.481667046757381e-15
ar43 4.342433707465898e-21
ar44 1.9821652805963037e-24
ar45 4.947926595474659e-30
ar46 2.617905592236992e-35
ar47 2.605253523453926e-45
ar48 4.644816054364258e-51
ar49 8.859277932931704e-70
ar50 2.1441138152096058e-78
ar51 0.0
ar52 0.0
k32 0.0
k33 2.9375332971976452e-80
k34 1.5972669942093775e-56
k35 1.1691146901556984e-43
k36 2.3758625480026202e-30
k37 9.523789487719283e-19
k38 4.557408502728823e-11
k39 1.6563221636415445e-05
k40 1.89118860776912e-09
k41 1.4779752071650288e-10
k42 7.415626687003807e-13
k43 1.0518476168875697e-14
k44 3.8981894897820133e-19
k45 3.26563067746745e-22
k46 2.3383180503614076e-27
k47 3.3652777048130235e-32
k48 1.0850402666941216e-40
k49 5.28864059479058e-45
k50 1.3855095656818554e-62
k51 6.987537681688739e-65
k52 2.498053967404627e-84
k53 1.8270422951883036e-99
k54 0.0
k55 0.0
ca35 4.776770329770163e-74
ca36 1.5761777454773864e-57
ca37 2.1486930298955596e-42
ca38 1.880127181571922e-26
ca39 2.9002697131211166e-16
ca40 0.0002240188724200534
ca41 5.718100382369294e-07
ca42 7.402112175335956e-06
ca43 4.3950234065602295e-09
ca44 7.633412363658866e-10
ca45 3.2722544885996277e-12
ca46 2.146576692955814e-12
ca47 4.619573661978916e-14
ca48 1.2203148569137566e-12
ca49 2.9302914115239035e-19
ca50 8.78808997809283e-25
ca51 1.0539899585670969e-32
ca52 7.912377697485127e-39
ca53 1.6640256846234583e-54
ca54 2.2852936203107108e-68
ca55 2.334510098433598e-87
ca56 0.0
ca57 0.0
sc36 3.518504306979374e-100
sc37 2.663034615912555e-83
sc38 1.6433188435545104e-58
sc39 1.5994935934314304e-48
sc40 3.4045403085973467e-35
sc41 3.434243393123718e-21
sc42 4.392880520489167e-16
sc43 1.825230210057362e-10
sc44 3.4777630513192315e-10
sc45 9.284332852586021e-10
sc46 2.383507626000789e-12
sc47 1.179464897137817e-12
sc48 4.79436221199605e-13
sc49 6.202329358047669e-14
sc50 4.1463189322269477e-22
sc51 4.4844805099300535e-28
sc52 1.2306703790850183e-33
sc53 1.77207909417569e-41
sc54 1.4604293542022581e-49
sc55 9.284975563054289e-66
sc56 1.484864847141925e-80
sc57 6.817956075487634e-96
sc58 0.0
sc59 0.0
ti39 2.6653230044428946e-77
ti40 3.9234052099199046e-64
ti41 4.076386306383619e-49
ti42 8.708388834132987e-32
ti43 6.25426655732248e-23
ti44 3.862207001657821e-08
ti45 6.176965583469598e-09
ti46 1.7498343898042829e-06
ti47 2.9342030715846518e-08
ti48 6.290366726919378e-09
ti49 1.7811296316703216e-11
ti50 5.187097049643876e-11
ti51 3.793582913973468e-17
ti52 2.475740161749183e-21
ti53 1.4036113360462104e-26
ti54 1.337084542822119e-31
ti55 1.8907348155309714e-45
ti56 3.1125603518200267e-47
ti57 3.0833001157175744e-65
ti58 1.6967097311905064e-66
ti59 5.497810724139914e-85
ti60 2.0311330605202125e-91
ti61 0.0
ti62 0.0
v41 1.7297434423216348e-88
v42 1.8206574479949362e-70
v43 1.0273798218326634e-51
v44 1.3041361112470297e-37
v45 4.4311325093738494e-23
v46 3.203456896897262e-16
v47 2.6354874549730934e-10
v48 3.436298030831899e-09
v49 4.9428600579060525e-09
v50 4.1410732592213334e-11
v51 3.687230206655268e-10
v52 3.87517662277928e-15
v53 3.5810737224478495e-19
v54 2.813771083207755e-26
v55 5.618262438505492e-31
v56 2.086723658005432e-38
v57 3.587494566863137e-44
v58 1.9195843347205818e-58
v59 2.336363552413219e-59
v60 4.775574461206937e-75
v61 1.725004195575137e-81
v62 1.470579920393028e-98
v63 0.0
v64 0.0
v65 0.0
cr43 1.0533419847757392e-87
cr44 8.09844308688311e-65
cr45 2.9351667647137485e-52
cr46 1.0123115842415702e-30
cr47 7.224113147932622e-22
cr48 2.6857133545080935e-09
cr49 5.8232413207959206e-09
cr50 1.34826057900148e-06
cr51 9.26050984093886e-08
cr52 4.844431838545526e-07
cr53 1.1874017471958603e-10
cr54 1.2134808915289746e-10
cr55 9.137085517470492e-17
cr56 6.450668390759222e-20
cr57 2.816571503691349e-25
cr58 2.249714875086867e-30
cr59 7.6337772562936e-44
cr60 3.5062823288383266e-44
cr61 7.604672684637453e-59
cr62 1.2958839671973122e-59
cr63 8.26250716891821e-76
cr64 1.944192615845534e-77
cr65 1.5606355125484027e-95
cr66 0.0
cr67 0.0
cr68 0.0
mn45 6.554083131787585e-88
mn46 8.367438155156676e-71
mn47 1.5464474391665105e-50
mn48 2.192209292109676e-36
mn49 3.572782824715659e-23
mn50 9.426013042817638e-17
mn51 3.031795628654639e-10
mn52 4.046246859482673e-09
mn53 1.1764576852637187e-07
mn54 8.049636005215982e-10
mn55 5.802787681198774e-10
mn56 6.085828741962582e-15
mn57 7.078301430764745e-18
mn58 2.5211823322581458e-24
mn59 1.7485817832156197e-28
mn60 2.6570850751862546e-35
mn61 1.493520082820467e-40
mn62 3.248681422486278e-52
mn63 3.1113381184152106e-53
mn64 1.0046881100134302e-66
mn65 4.77615659289659e-68
mn66 1.4263496035246756e-83
mn67 9.838606269232492e-87
mn68 0.0
mn69 0.0
mn70 0.0
mn71 0.0
fe47 3.2804575805878042e-87
fe48 9.540799921703667e-63
fe49 1.0191201172157763e-49
fe50 4.04403430740336e-33
fe51 1.6627082550010053e-23
fe52 1.3232786114901462e-10
fe53 9.897519549833705e-10
fe54 7.097923522878923e-06
fe55 5.04374345045347e-07
fe56 1.0493870336676233e-05
fe57 3.3248838673191352e-09
fe58 8.263826124101506e-09
fe59 1.4558314094844402e-11
fe60 1.6883241939920474e-10
fe61 2.578905909238493e-16
fe62 2.0110523753546008e-20
fe63 1.693143433718473e-26
fe64 1.797902873653987e-31
fe65 3.1930202933375705e-45
fe66 3.878455337315333e-45
fe67 8.98739424335422e-59
fe68 1.3425502712839633e-60
fe69 1.3697372727653544e-76
fe70 8.30496457391577e-77
fe71 3.618297955776354e-93
fe72 2.796984639619941e-96
fe73 0.0
fe74 0.0
co48 0.0
co49 5.341078041137575e-71
co50 8.571459534525947e-71
co51 7.927318190874194e-53
co52 1.105037194137145e-41
co53 7.12036734098843e-26
co54 4.9707459356695394e-18
co55 4.988038033680818e-10
co56 1.1692133963215903e-09
co57 1.6097225976649706e-07
co58 8.923451293846785e-10
co59 6.9055495595548454e-09
co60 3.642698157676098e-11
co61 3.3667889068415896e-12
co62 9.031716495472609e-18
co63 1.9519984036460577e-21
co64 6.999570861021604e-28
co65 2.231076899353048e-32
co66 6.022348348211498e-40
co67 2.443658542607514e-44
co68 1.3784856143474636e-57
co69 3.639333566648391e-57
co70 1.1982577022422986e-72
co71 9.203472539637789e-73
co72 8.995373836572498e-89
co73 6.798460528337495e-95
co74 0.0
co75 0.0
co76 0.0
co77 0.0
ni51 2.3812380579969366e-87
ni52 1.229476136041832e-66
ni53 3.9753644466602617e-54
ni54 2.8353371412411024e-36
ni55 3.4378695430145946e-26
ni56 1.1554535669810921e-10
ni57 6.119200569730321e-10
ni58 9.317725777812649e-07
ni59 4.692357936991577e-08
ni60 9.572768152758267e-06
ni61 5.164776641966467e-09
ni62 3.656423548012093e-07
ni63 4.332126032595108e-11
ni64 1.2277240810516617e-09
ni65 2.623585407618155e-14
ni66 1.5656736944355952e-12
ni67 8.129997793875652e-20
ni68 2.635050663829468e-24
ni69 1.8723765344470897e-30
ni70 1.9694333128707697e-35
ni71 4.1736449139988655e-49
ni72 1.280801641309142e-48
ni73 1.7928917081236354e-62
ni74 1.1130774172054975e-62
ni75 1.222057770836217e-77
ni76 2.08351227062453e-79
ni77 1.9210428664233473e-95
ni78 2.2143146555344805e-97
ni79 0.0
cu52 0.0
cu53 1.0100005035033858e-92
cu54 4.864598331100959e-76
cu55 1.0747094513258152e-57
cu56 2.403987700015826e-45
cu57 6.291099178460353e-29
cu58 2.2325008543119993e-22
cu59 7.300117511077433e-17
cu60 1.0908946334250575e-14
cu61 5.485342257893573e-11
cu62 5.093837733334753e-12
cu63 4.430991733492413e-09
cu64 4.605681699954309e-12
cu65 3.9933054060561556e-10
cu66 3.77253921770552e-15
cu67 1.7340025975026438e-12
cu68 8.92004864809249e-19
cu69 1.097186196882719e-21
cu70 1.1477910378396705e-26
cu71 3.0815115289252757e-30
cu72 1.2759117145842483e-35
cu73 2.2217621716384792e-39
cu74 3.028442311835376e-45
cu75 4.798815192331153e-50
cu76 1.2197319999034634e-56
cu77 1.2298951125308027e-62
cu78 2.9208742909042973e-75
cu79 2.8135026972672518e-77
cu80 4.116560093782459e-97
cu81 0.0
cu82 0.0
zn55 2.4049012083602566e-95
zn56 1.1297309006739663e-74
zn57 8.207288170960759e-62
zn58 1.21578270105909e-43
zn59 1.2573896661592134e-34
zn60 9.573367880362801e-21
zn61 1.016560565722033e-18
zn62 8.265169801119959e-13
zn63 4.3129888838535417e-13
zn64 2.5975800412569814e-09
zn65 1.3156341561593739e-11
zn66 1.2062545125598139e-08
zn67 4.9545998938232306e-12
zn68 4.976415768677065e-10
zn69 2.4119632851427488e-15
zn70 4.879997048284627e-12
zn71 1.2021528073581903e-17
zn72 1.6902597412778914e-15
zn73 6.478020564836693e-22
zn74 1.1077841123719398e-25
zn75 3.4171304790465904e-31
zn76 7.080037968024857e-36
zn77 1.7513885664531715e-42
zn78 3.205651685132766e-48
zn79 3.180979266894054e-60
zn80 9.304352564587141e-63
zn81 5.0405221146677213e-82
zn82 1.882180652843631e-87
zn83 0.0
zn84 0.0
ga57 0.0
ga58 5.088858179798173e-87
ga59 8.606552801777462e-67
ga60 3.030672659801218e-55
ga61 1.6428610913484974e-40
ga62 3.9201220098643383e-31
ga63 4.379752304674025e-25
ga64 5.395631075535217e-22
ga65 3.5915817379853287e-17
ga66 1.328234754161701e-16
ga67 2.0907042994179036e-12
ga68 3.0065300527286644e-14
ga69 7.559876427033457e-11
ga70 1.4032602494048211e-14
ga71 1.3180665346826193e-11
ga72 8.332628088439584e-15
ga73 6.367930398690973e-13
ga74 1.164064203372874e-18
ga75 1.533030358955497e-21
ga76 4.8717029347165956e-26
ga77 1.0142252163717876e-29
ga78 5.724682766507492e-35
ga79 9.527054007499178e-40
ga80 1.6233494497557805e-49
ga81 4.055065867813659e-51
ga82 1.982238039506848e-68
ga83 3.0425483618123898e-78
ga84 2.4112189165301194e-96
ga85 0.0
ga86 0.0
ge59 0.0
ge60 4.3078592077239455e-85
ge61 3.547276097795351e-73
ge62 9.886514978613598e-55
ge63 1.2958849999478385e-45
ge64 4.88802527164953e-28
ge65 7.679481626779451e-27
ge66 7.903755548602406e-19
ge67 1.8189049363355795e-18
ge68 2.4880333598215837e-12
ge69 1.463884657835976e-13
ge70 2.2385096962873047e-09
ge71 1.5224626732021034e-12
ge72 3.668556711661009e-09
ge73 6.238841999705304e-13
ge74 4.3660426146164186e-11
ge75 2.497261449956492e-15
ge76 1.855557543241303e-12
ge77 1.630865710367251e-17
ge78 7.26080854866407e-17
ge79 2.1258901276981958e-23
ge80 1.4362723142891462e-27
ge81 4.841038589372808e-33
ge82 3.3719274716719627e-38
ge83 5.251940378568166e-54
ge84 6.974768139786727e-55
ge85 2.7001565915928964e-72
ge86 4.984358600302524e-76
ge87 1.7062884927093826e-94
ge88 0.0
ge89 0.0
as61 0.0
as62 4.574291189415292e-98
as63 3.6666803661737335e-78
as64 2.0158147832125064e-66
as65 1.7801777754909406e-48
as66 1.5747269443174121e-40
as67 4.3036560253486334e-32
as68 9.007096086007398e-29
as69 4.502023492279411e-22
as70 3.4507474553725973e-20
as71 9.66002624330573e-15
as72 6.080424106759303e-16
as73 1.3591233706568993e-11
as74 1.508338591983338e-14
as75 1.876089562797688e-11
as76 8.113683947700847e-14
as77 3.396398897614144e-12
as78 2.6932361340737005e-16
as79 1.8348610836805584e-17
as80 2.597370234251359e-22
as81 1.9966233341550596e-25
as82 9.222440791998106e-30
as83 1.516994273980482e-33
as84 1.6345878852149246e-47
as85 1.915283308451302e-46
as86 4.272000256270489e-61
as87 4.6189450269944805e-63
as88 3.065312716452342e-79
as89 1.5955551748653908e-94
as90 0.0
as91 0.0
se64 4.650713655004702e-96
se65 1.8718935256703177e-85
se66 4.7409464225721264e-64
se67 7.093482932712947e-55
se68 4.857633136610053e-36
se69 6.009800582879374e-34
se70 6.704221653034005e-23
se71 1.7448606560188553e-21
se72 5.343370730480755e-13
se73 1.3651178098063779e-13
se74 4.443391799367465e-09
se75 1.5609344261157932e-11
se76 9.755288926917018e-09
se77 2.425184519201691e-12
se78 9.211261688773242e-11
se79 2.7783619121415275e-13
se80 1.9983930098803695e-11
se81 4.082691319729202e-16
se82 5.422812857075219e-13
se83 1.2425745402546804e-18
se84 4.977044796584785e-22
se85 3.150141889568192e-29
se86 9.435304494629867e-33
se87 3.787043046591237e-46
se88 3.9578291952316735e-46
se89 1.1204050496453957e-61
se90 2.088716072175634e-68
se91 9.613817991077654e-87
se92 1.0336579672243523e-96
se93 0.0
br66 0.0
br67 1.383765656408016e-88
br68 6.4277915827807676e-77
br69 3.165786387996141e-57
br70 2.296841658556446e-47
br71 5.5965056940677e-36
br72 9.229424886851138e-33
br73 7.333596406127263e-24
br74 8.0188104654146e-21
br75 2.30248970008662e-15
br76 1.791116306174979e-15
br77 6.945660948895995e-12
br78 1.2160098583553708e-14
br79 9.085223630015192e-12
br80 6.7758905843530485e-15
br81 7.382618811594726e-12
br82 1.0454196825848435e-13
br83 2.465216579666516e-13
br84 5.847661243383962e-18
br85 1.9431729067253772e-20
br86 1.3969737406077338e-25
br87 3.3531895728339573e-29
br88 4.5172101378759496e-36
br89 1.7946928574094151e-38
br90 2.3349337139251195e-52
br91 1.3297792335887826e-54
br92 2.1807278956418414e-71
br93 9.65045019041518e-81
br94 9.407956140335172e-99
br95 0.0
kr69 5.6743694732185394e-95
kr70 1.0505585379315966e-71
kr71 4.0420848931394626e-60
kr72 9.301732414531967e-43
kr73 1.6163092409340752e-36
kr74 6.217539878317365e-25
kr75 1.7817357135055253e-21
kr76 3.747729595747732e-14
kr77 1.2458172042863117e-13
kr78 1.3946396531944263e-09
kr79 1.5078244272446955e-11
kr80 1.1092175478980972e-08
kr81 2.261956479409642e-11
kr82 4.712663069198595e-10
kr83 1.0122735348643515e-12
kr84 3.197275703896022e-11
kr85 4.604242270795338e-13
kr86 7.70070115173493e-12
kr87 1.2838345810125457e-17
kr88 8.301373141426309e-19
kr89 3.670895024243471e-23
kr90 1.7262248169887504e-27
kr91 2.274245062065668e-37
kr92 2.0321141362106656e-39
kr93 3.031711404945294e-55
kr94 1.2616186728276267e-57
kr95 1.2822256561397336e-74
kr96 3.0209087104657496e-80
kr97 2.5997757200243734e-97
rb72 2.4717619598330525e-78
rb73 1.4007675646350714e-64
rb74 1.4984556464728428e-49
rb75 1.3170003232325187e-38
rb76 2.4842319164985373e-32
rb77 7.400563609509661e-25
rb78 1.305679822766962e-22
rb79 9.193509473001078e-17
rb80 2.5065824575309906e-17
rb81 5.868185426513847e-13
rb82 1.3447518958228735e-14
rb83 5.988248323289214e-12
rb84 3.7085489879787816e-14
rb85 1.0679664273180427e-11
rb86 2.5386336588882777e-13
rb87 5.1809967254108595e-12
rb88 7.402532243601967e-18
rb89 3.4011474036115135e-20
rb90 2.9595566593721005e-23
rb91 1.9970760159981346e-26
rb92 3.791721396588766e-34
rb93 1.4216097855145155e-35
rb94 7.369297599441253e-50
rb95 8.508804837194217e-50
rb96 6.208485795151754e-66
rb97 5.407618085434022e-67
rb98 1.390723514696108e-81
rb99 2.2649261815652074e-91
sr75 1.1527984475329006e-64
sr76 4.476704207514757e-45
sr77 2.5540225588548585e-37
sr78 5.4325870364667616e-27
sr79 1.0763449263979999e-23
sr80 5.10797126277593e-17
sr81 7.490876050509472e-16
sr82 2.546481676772736e-11
sr83 2.0171273561066657e-12
sr84 2.192690600226095e-09
sr85 3.3062052509142704e-11
sr86 2.3404497006485067e-09
sr87 2.0362512575784586e-11
sr88 1.4342960132942376e-09
sr89 1.1014662404245638e-14
sr90 2.825298655237019e-14
sr91 1.5621756729715558e-17
sr92 7.006144844976499e-19
sr93 1.32392692488735e-22
sr94 3.126505255636992e-26
sr95 1.689816957012059e-39
sr96 1.6403027092223643e-38
sr97 1.0317623577467311e-52
sr98 1.7211656235645136e-52
sr99 7.474470119237696e-68
sr100 1.3112838836157903e-73
sr101 5.335819594548489e-90
y77 1.5657930417077513e-65
y78 5.0667518977565916e-52
y79 7.201236246014732e-40
y80 2.4114577961308376e-35
y81 5.3212315480928285e-28
y82 5.429467462620846e-25
y83 2.21689083957633e-19
y84 8.046861968309633e-20
y85 1.0695774910981762e-14
y86 7.850783283195617e-15
y87 5.501077661132173e-12
y88 1.892149074868974e-12
y89 5.902344649529562e-10
y90 5.092738349304282e-15
y91 8.506702559965857e-15
y92 2.818753016580407e-17
y93 1.4765257115310877e-16
y94 2.6238887961060343e-19
y95 2.067687335825745e-21
y96 3.264277768218596e-26
y97 8.469688762469382e-30
y98 1.5854047888417317e-42
y99 1.0988333009995889e-40
y100 1.8720640589197764e-47
y101 1.6581695202994893e-51
y102 2.5517547545472077e-61
y103 5.933447287609846e-71
zr80 1.5013954154902505e-52
zr81 1.2215377931899145e-43
zr82 4.650223207864569e-31
zr83 6.065447859135673e-27
zr84 9.865923915853656e-21
zr85 1.099036285823819e-19
zr86 1.6752357730792847e-14
zr87 7.568101937483821e-14
zr88 1.265725218179112e-10
zr89 3.030751235733362e-11
zr90 7.483708352279078e-09
zr91 1.8637883101397973e-13
zr92 2.8905728208494455e-13
zr93 3.8501761740160724e-15
zr94 6.518105706140255e-14
zr95 6.187551011254816e-16
zr96 7.690976357977505e-15
zr97 1.0933921522344162e-18
zr98 1.1407036391037008e-22
zr99 2.177246848317098e-33
zr100 9.849443135102914e-33
zr101 1.1183860326569466e-38
zr102 1.8031389622797464e-43
zr103 1.2819889781238306e-52
zr104 2.346656358683973e-60
zr105 3.710207585077932e-74
nb83 7.164458930219486e-45
nb84 1.9949678824826238e-39
nb85 9.089158516713522e-32
nb86 9.398795816913697e-28
nb87 1.450318358256895e-22
nb88 1.5919362221249516e-21
nb89 2.362944258447862e-16
nb90 1.798516922807097e-15
nb91 2.3656962432625228e-12
nb92 7.33827487421412e-16
nb93 2.000388637528549e-16
nb94 1.5117236251247837e-18
nb95 1.4220927319830066e-16
nb96 3.663282322036245e-18
nb97 2.1969721252301524e-18
nb98 1.4510861581752366e-22
nb99 1.7972939959220634e-25
nb100 3.267710446258816e-30
nb101 5.47436434007691e-33
nb102 1.0169987478681311e-37
nb103 1.880378154894152e-41
nb104 1.9606096037687966e-49
nb105 1.508855670559591e-53
nb106 7.737760492329634e-67
nb107 7.453308831022845e-74
mo85 1.166483061511838e-51
mo86 1.3185957211356907e-41
mo87 4.3421366107613685e-32
mo88 1.3487717309689964e-25
mo89 9.496628699178105e-23
mo90 1.27823014116926e-17
mo91 1.1563690093406156e-16
mo92 2.7892080064344583e-12
mo93 6.760942909586936e-15
mo94 4.333705704278085e-14
mo95 2.0053115772075295e-16
mo96 2.842208214688401e-14
mo97 1.126251389385288e-16
mo98 1.529019137430152e-14
mo99 6.554225441072636e-18
mo100 1.5593749854586027e-15
mo101 1.5918832008129083e-19
mo102 9.135883862393925e-22
mo103 1.8834547478597447e-25
mo104 1.6351775821291863e-28
mo105 6.7501654747799356e-34
mo106 6.541324830598502e-39
mo107 4.5872712504765086e-49
mo108 1.6577720799118758e-57
mo109 1.2178810019036885e-71
tc88 6.294150642794157e-46
tc89 1.6093212713444007e-38
tc90 8.983338724377208e-34
tc91 9.149455062538367e-28
tc92 3.001274099143104e-24
tc93 1.4185298083136192e-18
tc94 1.8759259457159817e-17
tc95 3.1310125788549223e-16
tc96 6.75388532025567e-19
tc97 3.838997136486641e-17
tc98 2.338920849184326e-20
tc99 2.868371709382678e-17
tc100 7.163737266589695e-21
tc101 3.833503101909092e-19
tc102 4.705486860367648e-23
tc103 3.4415486585516494e-25
tc104 7.365047651637954e-27
tc105 1.8234755845017893e-28
tc106 5.300675474796824e-32
tc107 9.601780315184753e-35
tc108 1.0086704530020724e-42
tc109 5.80506936667437e-48
tc110 9.644960436933963e-61
ru91 1.600455414324695e-44
ru92 2.1873891314746078e-30
ru93 4.473316367039505e-25
ru94 8.301879370872708e-16
ru95 4.441576756358175e-15
ru96 3.7915457478088844e-13
ru97 2.4782803279088355e-15
ru98 1.8625899181631926e-13
ru99 9.410293799081548e-17
ru100 2.088825566289359e-14
ru101 2.0058764878139408e-17
ru102 1.4486195420313882e-14
ru103 2.3269959293257282e-17
ru104 8.007959765080895e-15
ru105 3.28923599684129e-18
ru106 5.826749670871983e-16
ru107 2.6915725393365568e-20
ru108 1.5915840533160127e-22
ru109 1.7635803333177115e-26
ru110 1.4444409362432815e-29
ru111 7.874610805080822e-41
ru112 1.546494381010443e-50
rh93 2.441175832439978e-44
rh94 5.549819955043485e-37
rh95 5.0525942753856636e-26
rh96 5.052062634079969e-24
rh97 5.183376825382885e-20
rh98 2.021529824127365e-18
rh99 3.5162393777763e-16
rh100 7.003333515067708e-17
rh101 2.9346843581052283e-16
rh102 4.215175691053304e-20
rh103 7.560763304103417e-17
rh104 6.323782105818086e-21
rh105 9.070612075875049e-17
rh106 2.684260247777345e-20
rh107 3.941686268413748e-19
rh108 1.4328262069931686e-22
rh109 1.2720552968131257e-24
rh110 3.4754469191241135e-28
rh111 6.139013780726819e-31
rh112 2.63007457055846e-35
rh113 3.716273484319571e-38
rh114 3.6611301168113817e-48
pd96 1.1967087537843188e-26
pd97 8.024667647220596e-23
pd98 6.537140191623589e-17
pd99 9.46232104609509e-16
pd100 3.061432315698824e-13
pd101 4.901226027081598e-15
pd102 5.988907113939618e-13
pd103 5.233477204773297e-16
pd104 1.769946991532013e-14
pd105 7.422168531611098e-18
pd106 8.159715326662468e-15
pd107 7.11436851288534e-18
pd108 7.885012294961064e-15
pd109 9.314535035308065e-18
pd110 2.528913622972676e-15
pd111 4.468060434378013e-19
pd112 9.91300666347532e-18
pd113 6.400772547766803e-22
pd114 2.16784937797731e-24
pd115 4.322007805181877e-29
ag98 1.299769944394111e-35
ag99 3.1470257504003815e-28
ag100 7.632188060554715e-26
ag101 5.502619810953375e-22
ag102 3.992861303673279e-20
ag103 7.2439875297631e-17
ag104 7.156216682010118e-16
ag105 1.1697765552145389e-15
ag106 1.133330266944218e-18
ag107 1.8257421603277774e-16
ag108 4.314421022756579e-20
ag109 2.292873226998616e-16
ag110 3.7717886349065e-20
ag111 6.813583754356735e-17
ag112 6.421327029008575e-19
ag113 1.4779839855219755e-20
ag114 5.752237482715998e-24
ag115 2.1580785975320838e-26
ag116 6.976402471040728e-30
cd101 7.043792895750273e-27
cd102 2.459584069701543e-19
cd103 5.845405422440494e-18
cd104 3.175730529386293e-14
cd105 2.067712333852306e-15
cd106 7.110405335754074e-13
cd107 1.8914942899133996e-15
cd108 1.0767526374678886e-13
cd109 3.029010218627243e-17
cd110 1.8811817232274883e-14
cd111 7.877564900317911e-18
cd112 1.394053910204156e-14
cd113 9.385320272624996e-18
cd114 1.3527375929384636e-14
cd115 1.354723509778869e-17
cd116 5.078550152898404e-15
cd117 1.3455839504485326e-18
in102 6.76403487935622e-41
in103 1.3338226350676523e-32
in104 8.30993422045799e-30
in105 4.264360390909253e-25
in106 5.640965872850435e-24
in107 1.2585043047875082e-19
in108 8.812177008611976e-18
in109 8.565242668287046e-16
in110 8.765703802337132e-16
in111 5.458076719751312e-16
in112 1.200122759710408e-19
in113 2.304627625322728e-17
in114 2.8468025038240693e-21
in115 2.7010345151275255e-17
in116 8.859937377517207e-21
in117 1.707880123375788e-18
in118 9.080839946511375e-22
