mass element = 1.54074074074 M_sun
   t [s]      T [K]      rho [g/cm^3]      r [cm]      Ye    enue [MeV]   enua [MeV]   fnue [erg/cm^2/s/1e-51]    fnua [erg/cm^2/s/1e-51]
  0.0000000000E+00	  2.0798064244E+09	  7.1018869686E+05	  3.4687500000E+08	  4.9899337057E-01  6.6315160232E+00  6.6315160232E+00  0.0000000000E+00  0.0000000000E+00
  1.0000615727E-02	  2.0801222990E+09	  7.1054432646E+05	  3.4687500000E+08	  4.9899337057E-01  2.7573993998E+00  6.5201405183E+00  2.9870911942E-21  3.8731441031E-22
  2.0001675152E-02	  2.0803459788E+09	  7.1078817482E+05	  3.4687500000E+08	  4.9899337057E-01  2.4376139776E+00  1.4372318050E+01  1.1358694140E-19  4.4803374615E-24
  3.0000780099E-02	  2.0807673638E+09	  7.1123225438E+05	  3.4687500000E+08	  4.9899337058E-01  2.4718195113E+00  4.3913468841E+00  1.2307340515E-19  7.5903353918E-25
  4.0001839524E-02	  2.0814058074E+09	  7.1189945513E+05	  3.4687500000E+08	  4.9899337058E-01  2.5178051233E+00  3.9685027839E+00  1.3621023909E-19  7.2712338172E-25
  5.0000944471E-02	  2.0820470393E+09	  7.1256236445E+05	  3.4687500000E+08	  4.9899337058E-01  2.5708940065E+00  3.9723882234E+00  1.5278613704E-19  7.8147490245E-25
  6.0000049419E-02	  2.0825104558E+09	  7.1303050969E+05	  3.4687500000E+08	  4.9899337058E-01  2.6310395258E+00  3.9963777079E+00  1.7401670100E-19  8.4717841623E-25
  7.0001108844E-02	  2.0828715284E+09	  7.1341693209E+05	  3.4062500000E+08	  4.9899337058E-01  2.7027662962E+00  4.0257791777E+00  2.0121930255E-19  9.2580049945E-25
  8.0000213791E-02	  2.0833864234E+09	  7.1403700059E+05	  3.4062500000E+08	  4.9899337058E-01  2.7827072744E+00  4.0621085059E+00  2.3705114890E-19  1.0291495204E-24
  9.0001273216E-02	  2.0840049723E+09	  7.1476092439E+05	  3.4062500000E+08	  4.9899337058E-01  2.8798005624E+00  4.1049692685E+00  2.8875935722E-19  1.1591972983E-24
  1.0000037816E-01	  2.0846407906E+09	  7.1549069139E+05	  3.4062500000E+08	  4.9899337058E-01  2.9899440955E+00  4.1496789208E+00  3.5713365069E-19  1.3076479240E-24
  1.1000143759E-01	  2.0852309783E+09	  7.1615495115E+05	  3.4062500000E+08	  4.9899337058E-01  3.1346796103E+00  4.2026935245E+00  4.5082833080E-19  1.4976153829E-24
  1.2000054254E-01	  2.0857620625E+09	  7.1673816433E+05	  3.4062500000E+08	  4.9899337058E-01  3.3128611973E+00  4.2615305219E+00  5.7551935084E-19  1.7171132468E-24
  1.3000160196E-01	  2.0862499775E+09	  7.1725819617E+05	  3.4062500000E+08	  4.9899337058E-01  3.5313360673E+00  4.3270457306E+00  7.7111540566E-19  1.9754569482E-24
  1.4000070691E-01	  2.0867290038E+09	  7.1775358272E+05	  3.4062500000E+08	  4.9899337058E-01  3.7902593852E+00  4.4096766868E+00  1.0714946894E-18  2.3206308753E-24
  1.5000176633E-01	  2.0872256474E+09	  7.1825622207E+05	  3.4062500000E+08	  4.9899337058E-01  4.1647193776E+00  4.5150482090E+00  1.5907686540E-18  2.7609798764E-24
  1.6000087128E-01	  2.0877235193E+09	  7.1875465267E+05	  3.4062500000E+08	  4.9899337059E-01  4.7725159245E+00  4.6462138683E+00  2.7281822348E-18  3.3041723926E-24
  1.7000095347E-01	  2.0882688069E+09	  7.1936587930E+05	  3.3437500000E+08	  4.9899337059E-01  5.4270824988E+00  4.8264805780E+00  5.4728945989E-18  3.9612178798E-24
  1.8000005841E-01	  2.0888093492E+09	  7.2001123027E+05	  3.3437500000E+08	  4.9899337058E-01  6.7147689214E+00  5.0962655903E+00  1.4124608819E-17  4.6953793619E-24
  1.9000014060E-01	  2.0892829330E+09	  7.2056867676E+05	  3.3437500000E+08	  4.9899337057E-01  8.7181128805E+00  6.2874809359E+00  7.5975942173E-17  5.0900975186E-23
  2.0000022278E-01	  2.0897105556E+09	  7.2105558422E+05	  3.3437500000E+08	  4.9899337056E-01  1.1671262917E+01  1.1030389638E+01  1.0761696222E-16  6.0239466037E-18
  2.1000030497E-01	  2.0901212201E+09	  7.2150038848E+05	  3.3437500000E+08	  4.9899337054E-01  9.5800464399E+00  1.1618455188E+01  4.8770988948E-17  1.5408308030E-17
  2.2000038716E-01	  2.0905255992E+09	  7.2191570544E+05	  3.3437500000E+08	  4.9899337052E-01  8.9078333521E+00  1.1916616062E+01  3.5410012156E-17  2.1747769214E-17
  2.3000046934E-01	  2.0909022498E+09	  7.2228483249E+05	  3.3437500000E+08	  4.9899337049E-01  8.7871195474E+00  1.2144138214E+01  3.1706545551E-17  2.5841037627E-17
  2.4000006291E-01	  2.0912850760E+09	  7.2269183274E+05	  3.2812500000E+08	  4.9899337049E-01  8.9479449900E+00  1.2351394448E+01  3.2137862020E-17  2.9537943996E-17
  2.5000014509E-01	  2.0917023646E+09	  7.2320170930E+05	  3.2812500000E+08	  4.9899337053E-01  9.1524584546E+00  1.2541035953E+01  3.3077715893E-17  3.1929121176E-17
  2.6000022728E-01	  2.0919990976E+09	  7.2356653625E+05	  3.2812500000E+08	  4.9899337058E-01  9.3591492505E+00  1.2708209956E+01  3.3746653882E-17  3.3478556025E-17
  2.7000030947E-01	  2.0922001311E+09	  7.2380299958E+05	  3.2812500000E+08	  4.9899337063E-01  9.5744026891E+00  1.2857509572E+01  3.4202949579E-17  3.4510307960E-17
  2.8000039165E-01	  2.0923909675E+09	  7.2399985259E+05	  3.2812500000E+08	  4.9899337066E-01  9.7947767856E+00  1.3001016566E+01  3.4510936947E-17  3.5184533324E-17
  2.9000047384E-01	  2.0926403815E+09	  7.2423714858E+05	  3.2812500000E+08	  4.9899337068E-01  1.0017537726E+01  1.3149441547E+01  3.4742827910E-17  3.5621632427E-17
  3.0000006741E-01	  2.0930277746E+09	  7.2467147081E+05	  3.2187500000E+08	  4.9899337066E-01  1.0243831062E+01  1.3307115432E+01  3.4902463464E-17  3.5862622702E-17
  3.1000014959E-01	  2.0931707581E+09	  7.2487528070E+05	  3.2187500000E+08	  4.9899337064E-01  1.0459911402E+01  1.3464115537E+01  3.4934800902E-17  3.5915839030E-17
  3.2000023178E-01	  2.0929597759E+09	  7.2467995488E+05	  3.2187500000E+08	  4.9899337065E-01  1.0670552012E+01  1.3623271088E+01  3.4863455922E-17  3.5800929141E-17
  3.3000031397E-01	  2.0926248178E+09	  7.2432031741E+05	  3.2187500000E+08	  4.9899337067E-01  1.0865845530E+01  1.3776693695E+01  3.4645827813E-17  3.5539923958E-17
  3.4000039615E-01	  2.0924193664E+09	  7.2407478754E+05	  3.2187500000E+08	  4.9899337070E-01  1.1029566162E+01  1.3908969577E+01  3.4045702970E-17  3.4934126678E-17
  3.5000047834E-01	  2.0929108425E+09	  7.2462628691E+05	  3.1562500000E+08	  4.9899337066E-01  1.1003577007E+01  1.3899878952E+01  3.1064116527E-17  3.2377609355E-17
  3.6000007191E-01	  2.0933595325E+09	  7.2513702869E+05	  3.1562500000E+08	  4.9899337065E-01  1.1019963748E+01  1.3932430907E+01  2.8646770423E-17  3.0118225015E-17
  3.7000015409E-01	  2.0935409263E+09	  7.2534291795E+05	  3.1562500000E+08	  4.9899337067E-01  1.1130683460E+01  1.4027642670E+01  2.7522914844E-17  2.8899616184E-17
  3.8000023628E-01	  2.0933756077E+09	  7.2515419767E+05	  3.0937500000E+08	  4.9899337070E-01  1.1246987050E+01  1.4130200568E+01  2.6782368330E-17  2.8047436154E-17
  3.9000031846E-01	  2.0931604614E+09	  7.2494363622E+05	  3.0937500000E+08	  4.9899337066E-01  1.1349340235E+01  1.4226248835E+01  2.6129939885E-17  2.7335481518E-17
  4.0000028199E-01	  2.0926498172E+09	  7.2441539695E+05	  3.0937500000E+08	  4.9899337067E-01  1.1456731333E+01  1.4325157456E+01  2.5687833033E-17  2.6826156224E-17
  4.1000037133E-01	  2.0918853713E+09	  7.2359020985E+05	  3.0937500000E+08	  4.9899337072E-01  1.1576693738E+01  1.4441632933E+01  2.5460686944E-17  2.6546658613E-17
  4.2000028086E-01	  2.0912948240E+09	  7.2295551715E+05	  3.0312500000E+08	  4.9899337068E-01  1.1666716360E+01  1.4527939356E+01  2.5206448427E-17  2.6270674520E-17
  4.3000005580E-01	  2.0909301695E+09	  7.2258167715E+05	  3.0312500000E+08	  4.9899337064E-01  1.1762790957E+01  1.4614435348E+01  2.5102559640E-17  2.6106940791E-17
  4.4000033296E-01	  2.0906630004E+09	  7.2229634178E+05	  3.0312500000E+08	  4.9899337067E-01  1.1850435037E+01  1.4700518553E+01  2.5014567706E-17  2.5993827963E-17
  4.5000035246E-01	  2.0908547607E+09	  7.2250007658E+05	  2.9687500000E+08	  4.9899337064E-01  1.1932773586E+01  1.4781769659E+01  2.4982424996E-17  2.5939235327E-17
  4.6000002996E-01	  2.0910149439E+09	  7.2268892236E+05	  2.9687500000E+08	  4.9899337061E-01  1.2006914252E+01  1.4855557973E+01  2.4988149758E-17  2.5927196022E-17
  4.7000002504E-01	  2.0908074702E+09	  7.2246897607E+05	  2.9062500000E+08	  4.9899337063E-01  1.2080388759E+01  1.4930484919E+01  2.5026711551E-17  2.5955056695E-17
  4.8000026749E-01	  2.0904173531E+09	  7.2205739767E+05	  2.9062500000E+08	  4.9899337059E-01  1.2141734587E+01  1.4993941492E+01  2.5086337532E-17  2.6008025331E-17
  4.9000010819E-01	  2.0896711963E+09	  7.2126429553E+05	  2.9062500000E+08	  4.9899337058E-01  1.2201953667E+01  1.5058707229E+01  2.5149174021E-17  2.6074434166E-17
  5.0000002879E-01	  2.0891069300E+09	  7.2065431633E+05	  2.8437500000E+08	  4.9899337058E-01  1.2249879526E+01  1.5112015890E+01  2.5211217307E-17  2.6137124178E-17
  5.1000016235E-01	  2.0886711555E+09	  7.2019651478E+05	  2.8437500000E+08	  4.9899337056E-01  1.2288191885E+01  1.5157265494E+01  2.5249263001E-17  2.6186997396E-17
  5.2000034769E-01	  2.0886235500E+09	  7.2014029746E+05	  2.7812500000E+08	  4.9899337057E-01  1.2318665476E+01  1.5197883047E+01  2.5264119312E-17  2.6217152298E-17
  5.3000022949E-01	  2.0888378424E+09	  7.2038292111E+05	  2.7812500000E+08	  4.9899337055E-01  1.2330025196E+01  1.5222327097E+01  2.5200778029E-17  2.6180109419E-17
  5.4000031482E-01	  2.0893315887E+09	  7.2091149967E+05	  2.7187500000E+08	  4.9899337055E-01  1.2332732188E+01  1.5240866242E+01  2.5115114609E-17  2.6125410568E-17
  5.5000017386E-01	  2.0899445129E+09	  7.2158557982E+05	  2.7187500000E+08	  4.9899337054E-01  1.2320884663E+01  1.5248764398E+01  2.4953749271E-17  2.6004275324E-17
  5.6000008950E-01	  2.0910002436E+09	  7.2271778235E+05	  2.6562500000E+08	  4.9899337054E-01  1.2293957158E+01  1.5246105185E+01  2.4748142630E-17  2.5850675307E-17
  5.7000033035E-01	  2.0922852670E+09	  7.2410788701E+05	  2.5937500000E+08	  4.9899337054E-01  1.2251575781E+01  1.5233558053E+01  2.4467934147E-17  2.5626549213E-17
  5.8000001179E-01	  2.0943172109E+09	  7.2629516458E+05	  2.5937500000E+08	  4.9899337053E-01  1.2193842240E+01  1.5209414770E+01  2.4177181932E-17  2.5394727456E-17
  5.9000032777E-01	  2.0971199500E+09	  7.2929614871E+05	  2.5312500000E+08	  4.9899337052E-01  1.2122807177E+01  1.5178436343E+01  2.3849115500E-17  2.5137005569E-17
  6.0000020793E-01	  2.1006769323E+09	  7.3311080508E+05	  2.4687500000E+08	  4.9899337051E-01  1.2027585080E+01  1.5134279090E+01  2.3431905141E-17  2.4802435381E-17
  6.1000023161E-01	  2.1053238016E+09	  7.3808307685E+05	  2.4687500000E+08	  4.9899337053E-01  1.1933235404E+01  1.5094496324E+01  2.3119439221E-17  2.4573447544E-17
  6.2000008696E-01	  2.1112715292E+09	  7.4439550377E+05	  2.4062500000E+08	  4.9899337055E-01  1.1821404446E+01  1.5045404409E+01  2.2800161123E-17  2.4346717898E-17
  6.3000016914E-01	  2.1184504102E+09	  7.5198885109E+05	  2.3437500000E+08	  4.9899337054E-01  1.1702782093E+01  1.4995163493E+01  2.2543771285E-17  2.4187052935E-17
  6.4000025133E-01	  2.1269405028E+09	  7.6111209492E+05	  2.2812500000E+08	  4.9899337054E-01  1.1589568294E+01  1.4951416880E+01  2.2419520163E-17  2.4171091184E-17
  6.5000033351E-01	  2.1368974755E+09	  7.7202338603E+05	  2.2187500000E+08	  4.9899337053E-01  1.1483131935E+01  1.4913997773E+01  2.2446815699E-17  2.4311820395E-17
  6.6000041570E-01	  2.1485959759E+09	  7.8488480236E+05	  2.1718750000E+08	  4.9899337050E-01  1.1390904256E+01  1.4889770327E+01  2.2647447339E-17  2.4628623259E-17
  6.7000000927E-01	  2.1613301096E+09	  8.0064105818E+05	  2.0781250000E+08	  4.9899337050E-01  1.1309461190E+01  1.4872227249E+01  2.3059570989E-17  2.5178683951E-17
  6.8000009145E-01	  2.1766358315E+09	  8.1941420220E+05	  2.0156250000E+08	  4.9899337050E-01  1.1241595593E+01  1.4865808998E+01  2.3679570990E-17  2.5941442360E-17
  6.9000017364E-01	  2.1952858532E+09	  8.4205475238E+05	  1.9453125000E+08	  4.9899337050E-01  1.1182199180E+01  1.4865422880E+01  2.4527771948E-17  2.6960621093E-17
  7.0000025582E-01	  2.2179662739E+09	  8.6921536479E+05	  1.8710937500E+08	  4.9899337050E-01  1.1132519199E+01  1.4869294585E+01  2.5674570907E-17  2.8292790233E-17
  7.1000033801E-01	  3.7827298022E+09	  2.5850694875E+06	  1.8085937500E+08	  4.9899333470E-01  1.0769324600E+01  1.4445142694E+01  2.6838838343E-17  2.9654061549E-17
  7.2000042019E-01	  4.4933043393E+09	  4.0005084417E+06	  1.8867187500E+08	  4.9901479320E-01  1.0487216529E+01  1.4114080679E+01  2.4018345069E-17  2.6580458818E-17
  7.3000001376E-01	  4.3717300292E+09	  3.6217972595E+06	  1.9726562500E+08	  4.9903123235E-01  1.0464684594E+01  1.4122236387E+01  2.1607422797E-17  2.3940255686E-17
  7.4000009594E-01	  4.2433224171E+09	  3.2208261900E+06	  2.0546875000E+08	  4.9905247223E-01  1.0450863207E+01  1.4132990880E+01  1.9535171479E-17  2.1658464018E-17
  7.5000017813E-01	  4.1358968012E+09	  2.9407230595E+06	  2.1484375000E+08	  4.9907327283E-01  1.0451292399E+01  1.4154484424E+01  1.7780794742E-17  1.9712113691E-17
  7.6000026031E-01	  4.0272433963E+09	  2.6773979413E+06	  2.2265625000E+08	  4.9909544432E-01  1.0457876880E+01  1.4177219760E+01  1.6268016784E-17  1.8025564785E-17
  7.7000034250E-01	  3.9226578064E+09	  2.4388896875E+06	  2.3046875000E+08	  4.9911854128E-01  1.0466603563E+01  1.4200339205E+01  1.4945346424E-17  1.6559500964E-17
  7.8000042468E-01	  3.8231107047E+09	  2.2263906765E+06	  2.3984375000E+08	  4.9914134931E-01  1.0479319601E+01  1.4223750018E+01  1.3794715131E-17  1.5271531730E-17
  7.9000001825E-01	  3.7284920676E+09	  2.0354146959E+06	  2.4765625000E+08	  4.9916357427E-01  1.0492522418E+01  1.4246502413E+01  1.2773287327E-17  1.4130996901E-17
  8.0000010044E-01	  3.6374266473E+09	  1.8654396163E+06	  2.5546875000E+08	  4.9918582969E-01  1.0506539832E+01  1.4269218619E+01  1.1865575709E-17  1.3120861025E-17
  8.0848644009E-01	  3.5640891561E+09	  1.7353989290E+06	  2.6328125000E+08	  4.9920440550E-01  1.0517128599E+01  1.4286635113E+01  1.1164219951E-17  1.2337200200E-17
  8.1000018262E-01	  3.5512210345E+09	  1.7133914686E+06	  2.6328125000E+08	  4.9920765469E-01  1.0518814998E+01  1.4289256567E+01  1.1046442220E-17  1.2204580830E-17
  8.2000026481E-01	  3.4695615809E+09	  1.5776391053E+06	  2.7109375000E+08	  4.9922851773E-01  1.0530458170E+01  1.4307838069E+01  1.0316147256E-17  1.1386127109E-17
  8.3000034699E-01	  3.3910020597E+09	  1.4556470111E+06	  2.7968750000E+08	  4.9924854521E-01  1.0542825696E+01  1.4327934401E+01  9.6572294698E-18  1.0646633519E-17
  8.4000042918E-01	  3.3178257118E+09	  1.3468311411E+06	  2.8906250000E+08	  4.9926774493E-01  1.0554344060E+01  1.4347566743E+01  9.0601513051E-18  9.9888280197E-18
  8.5000002274E-01	  3.2462938843E+09	  1.2485909826E+06	  2.9531250000E+08	  4.9929129189E-01  1.0566339095E+01  1.4365650820E+01  8.5224770869E-18  9.3951002038E-18
  8.6000010493E-01	  3.1793235471E+09	  1.1601014420E+06	  3.0234375000E+08	  4.9931402891E-01  1.0579054894E+01  1.4385735252E+01  8.0382724120E-18  8.8494571504E-18
  8.7000018711E-01	  3.1148669838E+09	  1.0800823428E+06	  3.1093750000E+08	  4.9933568252E-01  1.0592714513E+01  1.4407077276E+01  7.5999094957E-18  8.3656959884E-18
  8.8000026930E-01	  3.0534879386E+09	  1.0077231187E+06	  3.1718750000E+08	  4.9935548917E-01  1.0603503850E+01  1.4424145691E+01  7.1921785159E-18  7.9146478517E-18
  8.9000035148E-01	  2.9950625770E+09	  9.4219038525E+05	  3.2656250000E+08	  4.9937390293E-01  1.0614057436E+01  1.4441263152E+01  6.8212930954E-18  7.5028634289E-18
  9.0000043367E-01	  2.9396560316E+09	  8.8258786366E+05	  3.3281250000E+08	  4.9939134413E-01  1.0626416964E+01  1.4460251627E+01  6.4840840906E-18  7.1224703992E-18
  9.1000002723E-01	  2.8861403760E+09	  8.2840225873E+05	  3.3906250000E+08	  4.9940751834E-01  1.0637094948E+01  1.4478463055E+01  6.1689071052E-18  6.7770938084E-18
  9.2000010942E-01	  2.8363170304E+09	  7.7904012911E+05	  3.4531250000E+08	  4.9942258305E-01  1.0647505326E+01  1.4495694088E+01  5.8798194594E-18  6.4603804895E-18
  9.3000019160E-01	  2.7881430995E+09	  7.3402582765E+05	  3.5078125000E+08	  4.9943647967E-01  1.0656820676E+01  1.4511545309E+01  5.6134654517E-18  6.1662088026E-18
  9.4000027379E-01	  2.7425046354E+09	  6.9307538139E+05	  3.5859375000E+08	  4.9944962965E-01  1.0669094403E+01  1.4530335700E+01  5.3711223969E-18  5.8927630665E-18
  9.5000035598E-01	  2.6996879777E+09	  6.5568948771E+05	  3.6484375000E+08	  4.9946200161E-01  1.0678571505E+01  1.4546327110E+01  5.1404888393E-18  5.6391035386E-18
  9.6000043816E-01	  2.6589350775E+09	  6.2157360778E+05	  3.7109375000E+08	  4.9947368693E-01  1.0687520838E+01  1.4561580084E+01  4.9279841108E-18  5.4047046310E-18
  9.7000003173E-01	  2.6197880706E+09	  5.9042810550E+05	  3.7734375000E+08	  4.9948455499E-01  1.0696672039E+01  1.4576166724E+01  4.7309329562E-18  5.1860193457E-18
  9.8000011391E-01	  2.5827712203E+09	  5.6205474869E+05	  3.8359375000E+08	  4.9949436652E-01  1.0705799951E+01  1.4591472111E+01  4.5447298127E-18  4.9806026423E-18
  9.9000019610E-01	  2.5481507759E+09	  5.3624285318E+05	  3.8828125000E+08	  4.9950403019E-01  1.0714679352E+01  1.4607039540E+01  4.3721288278E-18  4.7897768611E-18
  1.0000002783E+00	  2.5161571445E+09	  5.1328934269E+05	  3.9453125000E+08	  4.9951387474E-01  1.0724980174E+01  1.4623751673E+01  4.2138296109E-18  4.6137180055E-18
  1.0100003605E+00	  2.4793469698E+09	  4.8741333931E+05	  4.0156250000E+08	  4.9952492958E-01  1.0731251030E+01  1.4634604567E+01  4.0646423914E-18  4.4499610411E-18
  1.0200004427E+00	  2.4370624218E+09	  4.5619077979E+05	  4.0781250000E+08	  4.9953927293E-01  1.0735371524E+01  1.4642314950E+01  3.9215263499E-18  4.2918040919E-18
  1.0300000362E+00	  2.4063417349E+09	  4.3514356908E+05	  4.1093750000E+08	  4.9954739206E-01  1.0741601168E+01  1.4653830976E+01  3.7836840795E-18  4.1400939406E-18
  1.0400001184E+00	  2.3811006531E+09	  4.1955897305E+05	  4.1718750000E+08	  4.9955384764E-01  1.0750041541E+01  1.4667922468E+01  3.6558604767E-18  3.9974699324E-18
  1.0500002006E+00	  2.3549590703E+09	  4.0366566543E+05	  4.2343750000E+08	  4.9956266356E-01  1.0759453232E+01  1.4680973046E+01  3.5368482635E-18  3.8648772669E-18
  1.0600002828E+00	  2.3294544114E+09	  3.8811761833E+05	  4.2968750000E+08	  4.9957108893E-01  1.0764843116E+01  1.4692400806E+01  3.4194019864E-18  3.7383661632E-18
  1.0700003650E+00	  2.3048988765E+09	  3.7363087027E+05	  4.3593750000E+08	  4.9957916665E-01  1.0769309719E+01  1.4701785141E+01  3.3094154006E-18  3.6170847899E-18
  1.0800004472E+00	  2.2813726537E+09	  3.5997287097E+05	  4.3906250000E+08	  4.9958720534E-01  1.0778542479E+01  1.4715792475E+01  3.2102508853E-18  3.5055289400E-18
  1.0900000407E+00	  2.2585491998E+09	  3.4704102341E+05	  4.4531250000E+08	  4.9959494855E-01  1.0784900339E+01  1.4725691427E+01  3.1138564629E-18  3.3973374736E-18
  1.1000001229E+00	  2.2360705739E+09	  3.3483619029E+05	  4.5156250000E+08	  4.9960235183E-01  1.0788570074E+01  1.4735417494E+01  3.0188570898E-18  3.2964270199E-18
  1.1100002051E+00	  2.2140843313E+09	  3.2330367855E+05	  4.5468750000E+08	  4.9960959190E-01  1.0797761056E+01  1.4748288715E+01  2.9338638756E-18  3.2000912074E-18
  1.1200002873E+00	  2.1930588405E+09	  3.1237373607E+05	  4.6093750000E+08	  4.9961652177E-01  1.0803763540E+01  1.4757798440E+01  2.8502700569E-18  3.1084792033E-18
  1.1300003695E+00	  2.1729419121E+09	  3.0201636119E+05	  4.6718750000E+08	  4.9962304893E-01  1.0809036029E+01  1.4767407979E+01  2.7710452508E-18  3.0218811606E-18
  1.1400004517E+00	  2.1537599035E+09	  2.9223626747E+05	  4.7031250000E+08	  4.9962946692E-01  1.0814645154E+01  1.4778203509E+01  2.6946562217E-18  2.9396289981E-18
  1.1500000452E+00	  2.1342809181E+09	  2.8298226344E+05	  4.7656250000E+08	  4.9963553764E-01  1.0823080680E+01  1.4790016991E+01  2.6212468598E-18  2.8605551804E-18
  1.1600001274E+00	  2.1152287725E+09	  2.7418817931E+05	  4.8437500000E+08	  4.9964153317E-01  1.0828912157E+01  1.4799432466E+01  2.5506492409E-18  2.7839480573E-18
  1.1700002096E+00	  2.0969121921E+09	  2.6579742832E+05	  4.8437500000E+08	  4.9964704252E-01  1.0831911446E+01  1.4806505572E+01  2.4819483790E-18  2.7084652268E-18
  1.1800002918E+00	  2.0793281501E+09	  2.5776002632E+05	  4.9062500000E+08	  4.9965268170E-01  1.0835219907E+01  1.4815082448E+01  2.4171323568E-18  2.6378762920E-18
  1.1900003740E+00	  2.0620598863E+09	  2.5004400940E+05	  4.9687500000E+08	  4.9965796877E-01  1.0845127979E+01  1.4828636566E+01  2.3573323215E-18  2.5721497941E-18
  1.2000004562E+00	  2.0451189208E+09	  2.4264453578E+05	  5.0312500000E+08	  4.9966290092E-01  1.0853334737E+01  1.4840660139E+01  2.2978264967E-18  2.5069700858E-18
  1.2100000497E+00	  2.0284995534E+09	  2.3556821789E+05	  5.0937500000E+08	  4.9966748648E-01  1.0856273048E+01  1.4847683172E+01  2.2384829103E-18  2.4433943856E-18
  1.2200001319E+00	  2.0119370515E+09	  2.2881574956E+05	  5.0937500000E+08	  4.9967223824E-01  1.0857516936E+01  1.4852371208E+01  2.1821284147E-18  2.3803472944E-18
  1.2300002141E+00	  1.9960933833E+09	  2.2238606212E+05	  5.1562500000E+08	  4.9967675092E-01  1.0861981993E+01  1.4861713354E+01  2.1289739371E-18  2.3241082136E-18
  1.2400002963E+00	  1.9805116538E+09	  2.1626010152E+05	  5.2187500000E+08	  4.9968096523E-01  1.0871195396E+01  1.4873821884E+01  2.0799160169E-18  2.2706947099E-18
  1.2500003785E+00	  1.9654171872E+09	  2.1040125442E+05	  5.2812500000E+08	  4.9968490289E-01  1.0878243891E+01  1.4883855364E+01  2.0303885049E-18  2.2160900485E-18
  1.2600004607E+00	  1.9508988281E+09	  2.0477157033E+05	  5.2812500000E+08	  4.9968906899E-01  1.0881654693E+01  1.4892797813E+01  1.9807673633E-18  2.1629384353E-18
  1.2700000542E+00	  1.9368758598E+09	  1.9936400110E+05	  5.3437500000E+08	  4.9969304171E-01  1.0883487223E+01  1.4899138311E+01  1.9333748735E-18  2.1107918424E-18
  1.2800001364E+00	  1.9230875533E+09	  1.9415865972E+05	  5.4062500000E+08	  4.9969673699E-01  1.0886988214E+01  1.4906059877E+01  1.8884742494E-18  2.0609139662E-18
  1.2900002186E+00	  1.9087497312E+09	  1.8914299824E+05	  5.4062500000E+08	  4.9970022314E-01  1.0892820172E+01  1.4914416810E+01  1.8458963940E-18  2.0133750600E-18
  1.3000003008E+00	  1.8948557848E+09	  1.8431978605E+05	  5.4687500000E+08	  4.9970393106E-01  1.0897513681E+01  1.4923178705E+01  1.8040051938E-18  1.9690809224E-18
  1.3100003830E+00	  1.8814652104E+09	  1.7969428641E+05	  5.5312500000E+08	  4.9970735303E-01  1.0901362888E+01  1.4931111353E+01  1.7632718249E-18  1.9255984042E-18
  1.3200004652E+00	  1.8685705135E+09	  1.7526561185E+05	  5.5937500000E+08	  4.9971050484E-01  1.0905243007E+01  1.4938631047E+01  1.7238269209E-18  1.8821186547E-18
  1.3300000588E+00	  1.8562033800E+09	  1.7102961536E+05	  5.5937500000E+08	  4.9971370658E-01  1.0909635477E+01  1.4948511137E+01  1.6854870712E-18  1.8423977194E-18
  1.3400001409E+00	  1.8441937101E+09	  1.6695703074E+05	  5.6562500000E+08	  4.9971688829E-01  1.0914765440E+01  1.4957963424E+01  1.6493512979E-18  1.8015978408E-18
  1.3500002231E+00	  1.8322185231E+09	  1.6302919767E+05	  5.7187500000E+08	  4.9971981903E-01  1.0917915451E+01  1.4963583900E+01  1.6126652117E-18  1.7606463695E-18
  1.3600003053E+00	  1.8202528743E+09	  1.5923330655E+05	  5.7187500000E+08	  4.9972259658E-01  1.0919700503E+01  1.4969055750E+01  1.5774696798E-18  1.7219430591E-18
  1.3700003875E+00	  1.8081901448E+09	  1.5555972072E+05	  5.7812500000E+08	  4.9972557059E-01  1.0923305943E+01  1.4975190074E+01  1.5447303483E-18  1.6852639046E-18
  1.3800004697E+00	  1.7964918823E+09	  1.5200698819E+05	  5.8437500000E+08	  4.9972829499E-01  1.0927496986E+01  1.4982242273E+01  1.5134752435E-18  1.6511456883E-18
  1.3900000633E+00	  1.7851364284E+09	  1.4856808438E+05	  5.9062500000E+08	  4.9973078035E-01  1.0932188041E+01  1.4990449270E+01  1.4825494744E-18  1.6169781004E-18
  1.4000001454E+00	  1.7740660699E+09	  1.4523411468E+05	  5.9062500000E+08	  4.9973347112E-01  1.0936307469E+01  1.4999362319E+01  1.4525255572E-18  1.5845659716E-18
  1.4100002276E+00	  1.7630637383E+09	  1.4201749857E+05	  5.9687500000E+08	  4.9973597190E-01  1.0939887198E+01  1.5006792361E+01  1.4224319599E-18  1.5517069776E-18
  1.4200003098E+00	  1.7524041472E+09	  1.3892010910E+05	  6.0312500000E+08	  4.9973823835E-01  1.0941921531E+01  1.5010783220E+01  1.3935736501E-18  1.5188849120E-18
  1.4300003920E+00	  1.7421350236E+09	  1.3594082456E+05	  6.0312500000E+08	  4.9974062211E-01  1.0944933943E+01  1.5016739732E+01  1.3665716896E-18  1.4891988375E-18
  1.4400004742E+00	  1.7321843000E+09	  1.3306610770E+05	  6.0937500000E+08	  4.9974292706E-01  1.0949221849E+01  1.5024548904E+01  1.3410389123E-18  1.4605011924E-18
  1.4500000678E+00	  1.7219729848E+09	  1.3028465192E+05	  6.1562500000E+08	  4.9974501945E-01  1.0954343171E+01  1.5032426993E+01  1.3157758644E-18  1.4329653438E-18
  1.4600001500E+00	  1.7118308538E+09	  1.2758548161E+05	  6.1562500000E+08	  4.9974718976E-01  1.0959119563E+01  1.5041644541E+01  1.2911784847E-18  1.4069179658E-18
  1.4700002321E+00	  1.7016958994E+09	  1.2496120105E+05	  6.2187500000E+08	  4.9974933451E-01  1.0963238654E+01  1.5048956890E+01  1.2666251014E-18  1.3792629352E-18
  1.4800003143E+00	  1.6917651163E+09	  1.2241228716E+05	  6.2812500000E+08	  4.9975127301E-01  1.0965983882E+01  1.5054908262E+01  1.2419805058E-18  1.3517797900E-18
  1.4900003965E+00	  1.6821297972E+09	  1.1993606946E+05	  6.2812500000E+08	  4.9975326942E-01  1.0967886866E+01  1.5060847134E+01  1.2175009567E-18  1.3260633439E-18
  1.5000004787E+00	  1.6727647613E+09	  1.1752902945E+05	  6.3437500000E+08	  4.9975525149E-01  1.0970235757E+01  1.5067026111E+01  1.1940777498E-18  1.3007996719E-18
  1.5100000723E+00	  1.6636401480E+09	  1.1519240058E+05	  6.4062500000E+08	  4.9975703366E-01  1.0971663587E+01  1.5070664429E+01  1.1716553659E-18  1.2753104765E-18
  1.5200001545E+00	  1.6548039896E+09	  1.1292854743E+05	  6.4062500000E+08	  4.9975888278E-01  1.0972668681E+01  1.5073592926E+01  1.1507864760E-18  1.2518445556E-18
  1.5300002366E+00	  1.6462173880E+09	  1.1074138734E+05	  6.4687500000E+08	  4.9976070879E-01  1.0975264769E+01  1.5079030238E+01  1.1309633678E-18  1.2301057766E-18
  1.5400003188E+00	  1.6375673077E+09	  1.0862577809E+05	  6.5312500000E+08	  4.9976234901E-01  1.0978980382E+01  1.5085780905E+01  1.1122540956E-18  1.2091038034E-18
  1.5500004010E+00	  1.6284759946E+09	  1.0657533933E+05	  6.5312500000E+08	  4.9976409622E-01  1.0983774915E+01  1.5093464107E+01  1.0943233262E-18  1.1890355833E-18
  1.5600004832E+00	  1.6196512716E+09	  1.0458459655E+05	  6.5937500000E+08	  4.9976579402E-01  1.0989063937E+01  1.5101558833E+01  1.0766083769E-18  1.1695370016E-18
  1.5700000768E+00	  1.6110548061E+09	  1.0264989798E+05	  6.6562500000E+08	  4.9976731444E-01  1.0993588429E+01  1.5109720108E+01  1.0577924953E-18  1.1498413231E-18
  1.5800001590E+00	  1.6027250650E+09	  1.0076713005E+05	  6.6562500000E+08	  4.9976898581E-01  1.0996726506E+01  1.5116578331E+01  1.0390331104E-18  1.1301934173E-18
  1.5900002412E+00	  1.5946169483E+09	  9.8936508850E+04	  6.7187500000E+08	  4.9977055605E-01  1.0998985524E+01  1.5122933444E+01  1.0207819855E-18  1.1103640377E-18
  1.6000003233E+00	  1.5867141599E+09	  9.7157763689E+04	  6.7812500000E+08	  4.9977194966E-01  1.1000308777E+01  1.5126575784E+01  1.0030917862E-18  1.0911626392E-18
  1.6100004055E+00	  1.5788955496E+09	  9.5428370969E+04	  6.7812500000E+08	  4.9977354044E-01  1.1002141158E+01  1.5130204789E+01  9.8668526537E-19  1.0730178037E-18
  1.6200004877E+00	  1.5711495226E+09	  9.3745064807E+04	  6.8437500000E+08	  4.9977495600E-01  1.1004925582E+01  1.5134872572E+01  9.7107105491E-19  1.0561351234E-18
  1.6300000813E+00	  1.5635929647E+09	  9.2106987130E+04	  6.8437500000E+08	  4.9977623752E-01  1.1008521713E+01  1.5140885446E+01  9.5615479426E-19  1.0395507770E-18
  1.6400001635E+00	  1.5562795200E+09	  9.0517994973E+04	  6.9062500000E+08	  4.9977763232E-01  1.1013546351E+01  1.5147780748E+01  9.4219781776E-19  1.0239094517E-18
  1.6500002457E+00	  1.5488928170E+09	  8.8979083583E+04	  6.9687500000E+08	  4.9977883562E-01  1.1018821873E+01  1.5154792808E+01  9.2823837174E-19  1.0083594500E-18
  1.6600003278E+00	  1.5413456125E+09	  8.7489705788E+04	  6.9687500000E+08	  4.9977999783E-01  1.1022740794E+01  1.5162700457E+01  9.1349608393E-19  9.9262858577E-19
  1.6700004100E+00	  1.5340370600E+09	  8.6047279966E+04	  7.0156250000E+08	  4.9978114527E-01  1.1026345781E+01  1.5169873446E+01  8.9838543026E-19  9.7638678213E-19
  1.6800000036E+00	  1.5269607637E+09	  8.4655086251E+04	  7.0468750000E+08	  4.9978220817E-01  1.1027421657E+01  1.5174002238E+01  8.8287397801E-19  9.5958662899E-19
  1.6900000858E+00	  1.5199546387E+09	  8.3304298437E+04	  7.1093750000E+08	  4.9978326314E-01  1.1028534785E+01  1.5178714458E+01  8.6828970581E-19  9.4370818227E-19
  1.7000001680E+00	  1.5130328882E+09	  8.1994892070E+04	  7.1406250000E+08	  4.9978433308E-01  1.1031674837E+01  1.5184548553E+01  8.5503256420E-19  9.2926135183E-19
  1.7100002502E+00	  1.5062913422E+09	  8.0723226609E+04	  7.1718750000E+08	  4.9978536429E-01  1.1034402785E+01  1.5190337915E+01  8.4185885674E-19  9.1581625155E-19
  1.7200003324E+00	  1.4997213197E+09	  7.9489362347E+04	  7.2031250000E+08	  4.9978635338E-01  1.1037954629E+01  1.5196463387E+01  8.2900038058E-19  9.0250504923E-19
  1.7300004145E+00	  1.4933190395E+09	  7.8291980303E+04	  7.2656250000E+08	  4.9978733161E-01  1.1040403721E+01  1.5201738000E+01  8.1651358258E-19  8.8927273229E-19
  1.7400000081E+00	  1.4870772853E+09	  7.7131116279E+04	  7.2968750000E+08	  4.9978834550E-01  1.1044263943E+01  1.5207353827E+01  8.0516866115E-19  8.7618963142E-19
  1.7500000903E+00	  1.4810864069E+09	  7.6030518412E+04	  7.3281250000E+08	  4.9978936453E-01  1.1049843682E+01  1.5216584168E+01  7.9423586143E-19  8.6435301279E-19
  1.7600001725E+00	  1.4750183288E+09	  7.4910212104E+04	  7.3593750000E+08	  4.9979039637E-01  1.1055373862E+01  1.5227236741E+01  7.8369202750E-19  8.5323401475E-19
  1.7700002547E+00	  1.4690575614E+09	  7.3845085000E+04	  7.4218750000E+08	  4.9979144562E-01  1.1061651706E+01  1.5236530197E+01  7.7309268868E-19  8.4117864592E-19
  1.7800003369E+00	  1.4630885896E+09	  7.2894431215E+04	  7.4531250000E+08	  4.9979260393E-01  1.1065673869E+01  1.5242940775E+01  7.6161115190E-19  8.2814800609E-19
  1.7900004190E+00	  1.4539888047E+09	  7.1289175579E+04	  7.4843750000E+08	  4.9979369218E-01  1.1065271208E+01  1.5244848490E+01  7.4966547605E-19  8.1495742299E-19
  1.8000000126E+00	  1.4474048584E+09	  7.0221826728E+04	  7.5156250000E+08	  4.9979459551E-01  1.1068099174E+01  1.5251918368E+01  7.3886156054E-19  8.0343332245E-19
  1.8100000948E+00	  1.4426434864E+09	  6.9554172167E+04	  7.5468750000E+08	  4.9979562747E-01  1.1072759815E+01  1.5257854024E+01  7.2854293732E-19  7.9153660245E-19
  1.8200001770E+00	  1.4326513096E+09	  6.7732643986E+04	  7.6093750000E+08	  4.9979664914E-01  1.1071931367E+01  1.5258186854E+01  7.1774912287E-19  7.7966218136E-19
  1.8300002592E+00	  1.4260958318E+09	  6.6643334313E+04	  7.6406250000E+08	  4.9979737421E-01  1.1073984438E+01  1.5262074906E+01  7.0723500038E-19  7.6776006011E-19
  1.8400003414E+00	  1.4221150873E+09	  6.6127178094E+04	  7.6718750000E+08	  4.9979836795E-01  1.1079549342E+01  1.5270673942E+01  6.9781609107E-19  7.5764074561E-19
  1.8500004236E+00	  1.4135886521E+09	  6.4607899917E+04	  7.7031250000E+08	  4.9979931861E-01  1.1080944279E+01  1.5274266616E+01  6.8850672270E-19  7.4813670406E-19
  1.8600000171E+00	  1.4058458942E+09	  6.3264228230E+04	  7.7656250000E+08	  4.9979994925E-01  1.1082893556E+01  1.5279248359E+01  6.7914786820E-19  7.3879424278E-19
  1.8700000993E+00	  1.4002163450E+09	  6.2404781023E+04	  7.7968750000E+08	  4.9980054871E-01  1.1086053964E+01  1.5284225462E+01  6.7012950986E-19  7.2883637937E-19
  1.8800001815E+00	  1.3947714455E+09	  6.1617069484E+04	  7.8281250000E+08	  4.9980073355E-01  1.1090012111E+01  1.5291564714E+01  6.6162239264E-19  7.1979094304E-19
  1.8900002637E+00	  1.3884377544E+09	  6.0725073611E+04	  7.8593750000E+08	  4.9980003959E-01  1.1095133061E+01  1.5299061402E+01  6.5332861970E-19  7.1051022540E-19
  1.9000003459E+00	  1.3828422611E+09	  5.9942895094E+04	  7.9218750000E+08	  4.9980016036E-01  1.1099525634E+01  1.5306597318E+01  6.4484328575E-19  7.0088821466E-19
  1.9100004281E+00	  1.3780806866E+09	  5.9308329862E+04	  7.9531250000E+08	  4.9980050756E-01  1.1105006255E+01  1.5315391655E+01  6.3661618755E-19  6.9154579389E-19
  1.9200000216E+00	  1.3723399030E+09	  5.8520531699E+04	  7.9843750000E+08	  4.9980402209E-01  1.1109296796E+01  1.5323879063E+01  6.2810184901E-19  6.8225107022E-19
  1.9300001038E+00	  1.3646358849E+09	  5.7346842946E+04	  8.0312500000E+08	  4.9980369060E-01  1.1111316090E+01  1.5327583576E+01  6.1963717127E-19  6.7256970654E-19
  1.9356930070E+00	  1.3599513147E+09	  5.6637949323E+04	  8.0312500000E+08	  4.9980576686E-01  1.1112161447E+01  1.5328267323E+01  6.1488549930E-19  6.6696296233E-19
  1.9356934957E+00	  1.3599509293E+09	  5.6637890438E+04	  8.0312500000E+08	  4.9980576704E-01  1.1112161543E+01  1.5328267399E+01  6.1488508717E-19  6.6696248218E-19
  1.9356939843E+00	  1.3599505438E+09	  5.6637831554E+04	  8.0312500000E+08	  4.9980576721E-01  1.1112161640E+01  1.5328267475E+01  6.1488467503E-19  6.6696200202E-19
