n 4.830142356477272e-30
h1 2.1328176255200118e-24
he4 1.6698932883872157e-17
h2 1.479988315940575e-32
h3 3.0680822646333364e-23
he3 2.6000358811783346e-23
li6 2.6899362859231033e-39
li7 3.337250385457098e-28
li8 2.0569183594780622e-44
li9 2.604111367558374e-66
be7 2.4808154936624946e-32
be9 2.153113611851902e-40
be10 2.7994371176507333e-36
be11 2.047303418095753e-66
be12 2.3301279886981953e-90
b8 3.18214109569319e-60
b10 9.078386655438158e-26
b11 1.802773000059917e-16
b12 2.294342264231815e-39
b13 1.7018654943037972e-62
b14 9.000710003398048e-89
c10 0.0
c11 4.0478703140352696e-24
c12 0.0010004419054536887
c13 9.530957277954226e-15
c14 5.691549553098798e-10
c15 7.580144556201536e-34
c16 2.768081972869326e-56
c17 6.343115105411567e-84
c18 0.0
n11 0.0
n12 3.5940847757163405e-48
n13 1.0010654595827497e-16
n14 2.883260957409943e-09
n15 3.29637490909011e-10
n16 1.7908900907001617e-30
n17 2.3012298608818045e-51
n18 5.596161280908942e-74
n19 7.008087404631051e-97
n20 0.0
n21 0.0
o13 2.3864752314467447e-68
o14 5.560851789688224e-26
o15 5.241725171533602e-18
o16 0.041649564322681965
o17 1.9049245765274637e-09
o18 9.076093605440065e-11
o19 3.4715110444789584e-27
o20 2.809426498264109e-38
o21 2.3712601845434888e-58
o22 2.6463439772446643e-78
f16 3.809284224529759e-44
f17 2.7414342368737135e-25
f18 3.840207817202641e-12
f19 3.6598797529132745e-10
f20 1.2850817760964813e-37
f21 1.2386420721782786e-52
f22 3.673696352710499e-58
f23 2.9768400160773747e-69
f24 5.103485989957675e-91
f25 0.0
f26 0.0
ne16 0.0
ne17 0.0
ne18 3.0200209475288656e-45
ne19 1.8081414292584347e-28
ne20 0.011973970655218828
ne21 2.1835388215206804e-05
ne22 2.9844857890010852e-05
ne23 1.535760713292203e-19
ne24 3.7712250510607106e-19
ne25 8.322867645447955e-40
ne26 4.414746525316933e-61
ne27 2.292224306579776e-84
ne28 0.0
ne29 0.0
na19 1.3165788359134358e-76
na20 2.1610817990063678e-49
na21 1.0663916257202032e-20
na22 8.3992768729812e-08
na23 0.0002608630490615605
na24 2.1298321958127567e-07
na25 1.7985495808933546e-18
na26 4.011195210991067e-38
na27 2.8610100404037458e-58
na28 1.164909896833971e-80
na29 0.0
na30 0.0
na31 0.0
na32 0.0
mg20 0.0
mg21 8.518038313938181e-70
mg22 6.301116764038326e-37
mg23 2.146917894101417e-23
mg24 0.0018935059998918178
mg25 0.0004471297836232295
mg26 0.0002909400159225423
mg27 3.307125623964818e-11
mg28 4.240798808117682e-11
mg29 3.6445889707233068e-31
mg30 1.473213141645605e-51
mg31 3.565035538192911e-73
mg32 3.0455417672348706e-94
mg33 0.0
mg34 0.0
mg35 0.0
al22 0.0
al23 3.109777029425692e-64
al24 1.0736271712068274e-41
al25 1.7539837438109738e-19
al26 1.87191665504725e-08
al27 0.00014572243923523983
al28 2.0574227444203803e-12
al29 2.614891090873778e-14
al30 3.573162978161451e-33
al31 1.0460464683377849e-52
al32 2.0492375306207718e-74
al33 7.882459671232575e-96
al34 0.0
al35 0.0
al36 0.0
al37 0.0
al38 0.0
si23 0.0
si24 3.8199315863150026e-85
si25 1.7510730531636334e-61
si26 2.66407475616435e-37
si27 5.983604899779198e-25
si28 0.0001322126557960837
si29 2.292814406121208e-05
si30 1.0406021410250134e-05
si31 2.2598542106945945e-08
si32 3.467389078118233e-09
si33 3.0255473927884015e-28
si34 1.9075374170575718e-47
si35 2.0472160713647204e-68
si36 2.06479147564606e-88
si37 0.0
si38 0.0
si39 0.0
si40 0.0
si41 0.0
p25 0.0
p26 2.9050199002979827e-91
p27 2.5540174939076775e-58
p28 1.4840712059328963e-44
p29 5.60589486506354e-23
p30 4.044457114681261e-13
p31 4.5594498295207425e-06
p32 6.17546311247044e-08
p33 1.2009729167045648e-08
p34 1.6841538752747494e-26
p35 1.2796007167354887e-25
p36 1.0932632758048224e-44
p37 9.231474455532383e-63
p38 1.2106183697738896e-82
p39 0.0
p40 0.0
p41 0.0
p42 0.0
p43 0.0
p44 0.0
s27 0.0
s28 7.587767761830726e-83
s29 2.4914551504713908e-64
s30 1.7611443093701643e-42
s31 5.837209673185236e-31
s32 8.344635374479812e-06
s33 1.0803697989685098e-07
s34 1.0426427615369676e-06
s35 2.5641928757481235e-08
s36 9.016839298875363e-08
s37 2.0156026752279312e-16
s38 2.56883183877531e-17
s39 6.655853323771298e-36
s40 5.4091760544527244e-46
s41 1.544544719914102e-64
s42 1.7615186337128084e-84
s43 0.0
s44 0.0
s45 0.0
s46 0.0
s47 0.0
cl29 0.0
cl30 1.559324905305693e-96
cl31 1.6391045503057253e-68
cl32 2.981288321234249e-52
cl33 2.268089653672041e-24
cl34 1.8199097776314628e-26
cl35 1.1396764029946308e-07
cl36 5.7327400293164015e-09
cl37 9.220258019112204e-07
cl38 1.4129299856472588e-11
cl39 6.960617064294881e-14
cl40 2.618906394719788e-23
cl41 2.3098947663893006e-30
cl42 1.1314100850246853e-46
cl43 9.946985215071996e-54
cl44 1.4481682377224566e-73
cl45 4.0995681968695326e-92
cl46 0.0
cl47 0.0
cl48 0.0
cl49 0.0
cl50 0.0
ar31 0.0
ar32 7.30912792290815e-94
ar33 5.516093506163074e-74
ar34 7.533330437913216e-44
ar35 1.8876298211365014e-44
ar36 9.339468345308956e-07
ar37 7.923095715014294e-09
ar38 1.1848673011642932e-06
ar39 1.220573589749878e-07
ar40 5.363764584592363e-08
ar41 2.0089333914999258e-11
ar42 1.6655154643779628e-11
ar43 7.950724640819864e-18
ar44 9.29346640981833e-21
ar45 4.671610242206161e-35
ar46 4.433966512416493e-47
ar47 4.408835645700473e-67
ar48 5.343542151210751e-88
ar49 0.0
ar50 0.0
ar51 0.0
ar52 0.0
k32 0.0
k33 0.0
k34 0.0
k35 9.410973603178157e-72
k36 2.65578915862634e-66
k37 5.982519147173205e-26
k38 2.477737457871655e-22
k39 1.5757313803098264e-07
k40 1.5598568468019936e-08
k41 3.926245430181756e-08
k42 1.9202720713372524e-09
k43 9.412376847536181e-11
k44 1.7243359534599562e-15
k45 1.643183672912149e-18
k46 2.237938644117426e-26
k47 5.2681178822806495e-39
k48 1.168902500202207e-53
k49 2.342172436667199e-72
k50 5.753139815461724e-93
k51 0.0
k52 0.0
k53 0.0
k54 0.0
k55 0.0
ca35 0.0
ca36 8.758099321103906e-95
ca37 3.0670680729450554e-87
ca38 1.950681841616383e-46
ca39 4.7608742423147044e-42
ca40 8.164900229182412e-07
ca41 1.6746148456324764e-08
ca42 6.91997970757621e-08
ca43 2.8846035841809755e-08
ca44 6.743500300444804e-08
ca45 1.5349460319183774e-08
ca46 4.897595372562405e-09
ca47 2.0357970228873138e-10
ca48 2.833042337004995e-09
ca49 1.531928915950457e-15
ca50 1.4271617135899236e-32
ca51 1.1875721652866528e-41
ca52 1.3154927885707563e-55
ca53 1.5894040970235518e-77
ca54 5.433254185278664e-99
ca55 0.0
ca56 0.0
ca57 0.0
sc36 0.0
sc37 0.0
sc38 0.0
sc39 2.7977067511160295e-80
sc40 2.6719228396415714e-66
sc41 7.877751363196676e-29
sc42 2.4164722645659954e-29
sc43 5.565827609955172e-12
sc44 4.833983099560966e-12
sc45 4.811982513381226e-09
sc46 2.291465292728493e-09
sc47 6.046822036577142e-10
sc48 7.927110894532747e-11
sc49 1.334498899046221e-13
sc50 3.80064244032028e-22
sc51 6.384201331067227e-37
sc52 1.1445313666519838e-45
sc53 1.2991083279153433e-65
sc54 2.145787201759453e-86
sc55 0.0
sc56 0.0
sc57 0.0
sc58 0.0
sc59 0.0
ti39 0.0
ti40 0.0
ti41 2.3976765650744588e-88
ti42 2.442325041475278e-50
ti43 7.661869521557813e-50
ti44 4.5568505995297606e-14
ti45 1.934861585330316e-15
ti46 7.125238019904696e-09
ti47 7.578730743025394e-09
ti48 1.0193935368506522e-08
ti49 2.4165408527984018e-08
ti50 4.829755739225111e-08
ti51 4.3219826596113166e-14
ti52 1.5575084263737988e-20
ti53 2.4600788846235313e-29
ti54 1.926425978193224e-34
ti55 9.317760071129516e-55
ti56 2.133524923097041e-75
ti57 5.606291305059104e-97
ti58 0.0
ti59 0.0
ti60 0.0
ti61 0.0
ti62 0.0
v41 0.0
v42 0.0
v43 1.550751014411517e-77
v44 5.121683600484319e-72
v45 2.0796480071398288e-36
v46 8.813436242803133e-37
v47 2.2981235024670336e-14
v48 1.0313032039878413e-12
v49 1.4332225481237157e-10
v50 2.7573172349952453e-10
v51 6.647732191471045e-09
v52 7.732503550021439e-15
v53 1.040361651489725e-20
v54 4.5261389881498715e-28
v55 1.1379211149565308e-44
v56 2.146613898296568e-64
v57 2.33035363588826e-83
v58 0.0
v59 0.0
v60 0.0
v61 0.0
v62 0.0
v63 0.0
v64 0.0
v65 0.0
cr43 0.0
cr44 0.0
cr45 1.951652832637109e-94
cr46 6.697607530851949e-58
cr47 1.6689177342669872e-57
cr48 1.3220037029176476e-16
cr49 2.1473952319123214e-18
cr50 1.3560739248674942e-10
cr51 6.27100354564538e-11
cr52 1.2816367908808212e-07
cr53 2.9435735455586102e-08
cr54 1.4666330765256156e-07
cr55 3.117360524306092e-14
cr56 8.142870873333423e-17
cr57 1.7013668733369907e-30
cr58 9.064399719784328e-44
cr59 3.104852077424491e-63
cr60 5.364953726814663e-82
cr61 0.0
cr62 0.0
cr63 0.0
cr64 0.0
cr65 0.0
cr66 0.0
cr67 0.0
cr68 0.0
mn45 0.0
mn46 0.0
mn47 1.128158401172457e-86
mn48 5.117000751500642e-81
mn49 5.8226881875254046e-39
mn50 3.246114617812712e-40
mn51 2.819588697970812e-16
mn52 6.348458455569397e-15
mn53 7.70572401924407e-11
mn54 7.189172589961987e-11
mn55 1.5503531703958362e-07
mn56 1.447884886487787e-11
mn57 6.874878489441352e-19
mn58 1.65424514870582e-36
mn59 2.426328443340835e-45
mn60 2.980947153637349e-41
mn61 1.1746868606066064e-59
mn62 1.6254341312878658e-78
mn63 2.3407460374907087e-97
mn64 0.0
mn65 0.0
mn66 0.0
mn67 0.0
mn68 0.0
mn69 0.0
mn70 0.0
mn71 0.0
fe47 0.0
fe48 0.0
fe49 0.0
fe50 1.715441387725229e-66
fe51 8.690590427332801e-63
fe52 8.129359928437818e-20
fe53 2.0454366634774993e-22
fe54 7.117527316342743e-08
fe55 3.928841828722792e-08
fe56 6.5159849244099274e-06
fe57 3.265841691912252e-06
fe58 6.981604073037236e-06
fe59 1.1929051493788852e-06
fe60 4.600672603482106e-07
fe61 5.973952426862299e-13
fe62 1.5753814242743752e-20
fe63 1.7386838009082197e-38
fe64 1.7998498161240149e-56
fe65 4.460385306212346e-76
fe66 2.8661134559181774e-89
fe67 3.5918477438434505e-96
fe68 0.0
fe69 0.0
fe70 0.0
fe71 0.0
fe72 0.0
fe73 0.0
fe74 0.0
co48 0.0
co49 0.0
co50 0.0
co51 5.40781874893925e-94
co52 8.971477798368852e-87
co53 1.7287301803999758e-42
co54 1.976795563495563e-45
co55 1.3498533168537028e-12
co56 8.692197381413863e-13
co57 1.7069695861405926e-09
co58 1.2576590369374317e-09
co59 1.4324802039558637e-06
co60 2.7427577898104375e-07
co61 2.3454009408337077e-09
co62 2.525418890415744e-15
co63 2.656394445358326e-25
co64 2.5163276728906243e-44
co65 1.1664955437555918e-61
co66 1.0955914028793747e-80
co67 1.0664129500187517e-89
co68 0.0
co69 0.0
co70 0.0
co71 0.0
co72 0.0
co73 0.0
co74 0.0
co75 0.0
co76 0.0
co77 0.0
ni51 0.0
ni52 0.0
ni53 0.0
ni54 5.22018202889842e-66
ni55 2.0140217907530716e-68
ni56 9.39944786452571e-17
ni57 4.760793099759622e-18
ni58 1.3132553879353591e-08
ni59 8.832264573074286e-09
ni60 9.42462042278897e-07
ni61 9.753432126109806e-07
ni62 9.947556433717093e-07
ni63 1.1284991505974769e-06
ni64 1.035537267702549e-06
ni65 3.726847386643146e-09
ni66 1.14194187527383e-09
ni67 4.0473809821180213e-25
ni68 5.167876988851727e-28
ni69 1.7343646594263077e-39
ni70 3.7146447844037443e-50
ni71 7.0524072540492e-66
ni72 4.902934927634575e-78
ni73 1.2946597130989044e-92
ni74 0.0
ni75 0.0
ni76 0.0
ni77 0.0
ni78 0.0
ni79 0.0
cu52 0.0
cu53 0.0
cu54 0.0
cu55 1.7680530490613201e-97
cu56 5.775939896526244e-93
cu57 2.1468102953431166e-40
cu58 4.658124291329692e-40
cu59 5.923979006482575e-21
cu60 1.3634891640104927e-16
cu61 2.2651053970279397e-12
cu62 4.31430415861326e-14
cu63 2.2991363787254888e-08
cu64 3.427389396347559e-09
cu65 2.1656483302887783e-07
cu66 3.019468356637553e-12
cu67 1.2924867877387003e-09
cu68 4.063412442523929e-22
cu69 2.090392300178297e-19
cu70 7.587173343038353e-37
cu71 5.7266946766346196e-36
cu72 7.670517198519883e-49
cu73 1.863253119364591e-58
cu74 2.7905244479312212e-74
cu75 5.9820951365856664e-83
cu76 7.745341480478123e-97
cu77 0.0
cu78 0.0
cu79 0.0
cu80 0.0
cu81 0.0
cu82 0.0
zn55 0.0
zn56 0.0
zn57 0.0
zn58 1.1646216675099296e-64
zn59 6.016254067817248e-64
zn60 3.379010356124191e-26
zn61 3.1815472118529777e-27
zn62 8.352537501960794e-17
zn63 4.1280965610478323e-19
zn64 1.5615536990936344e-08
zn65 4.751422560005683e-09
zn66 1.6340294589305345e-07
zn67 5.584560370605504e-08
zn68 1.739032797053479e-07
zn69 7.900188340958751e-11
zn70 4.9709345562044304e-09
zn71 5.139255021710263e-15
zn72 4.051259216884723e-12
zn73 1.4613398888099627e-26
zn74 1.044176023147427e-24
zn75 4.800231776686596e-41
zn76 5.315782188453863e-51
zn77 4.5403619384618465e-68
zn78 8.018355972724895e-79
zn79 3.450754219883734e-90
zn80 0.0
zn81 0.0
zn82 0.0
zn83 0.0
zn84 0.0
ga57 0.0
ga58 0.0
ga59 0.0
ga60 6.1773270273204214e-93
ga61 4.0557310173448695e-53
ga62 1.1476584778185774e-51
ga63 8.048743538058912e-34
ga64 3.749311145534814e-28
ga65 3.477352039423477e-16
ga66 2.87701912597806e-14
ga67 1.1042635755540507e-11
ga68 1.0773513580545373e-13
ga69 3.1410607213977813e-08
ga70 1.5674798451327717e-11
ga71 7.70364858475711e-09
ga72 1.4973832683485163e-09
ga73 3.508892137475657e-10
ga74 4.2279026161441254e-16
ga75 6.71927561047835e-20
ga76 5.945330545310936e-29
ga77 5.53069963933419e-38
ga78 4.1460341265792764e-51
ga79 1.7711865998596172e-62
ga80 9.31105422725844e-75
ga81 5.355974561840487e-84
ga82 0.0
ga83 0.0
ga84 0.0
ga85 0.0
ga86 0.0
ge59 0.0
ge60 0.0
ge61 0.0
ge62 1.2716264122520727e-76
ge63 5.060672962249579e-76
ge64 2.5912009064498973e-40
ge65 3.599466176405577e-41
ge66 8.873660993735822e-21
ge67 1.5582677734051308e-21
ge68 6.592597730098734e-16
ge69 9.571521853525715e-16
ge70 2.4094658050362467e-08
ge71 7.876136522492038e-09
ge72 2.4830043454664272e-08
ge73 1.4687785788652298e-08
ge74 3.032626924284873e-08
ge75 1.261553641253119e-10
ge76 1.7518621255669232e-09
ge77 5.076991659711516e-13
ge78 1.208559865455857e-13
ge79 1.3843258738643797e-28
ge80 3.74888936053945e-31
ge81 2.0373057648458727e-45
ge82 1.678544825756744e-55
ge83 1.9642587521308416e-73
ge84 3.414430888702213e-89
ge85 0.0
ge86 0.0
ge87 0.0
ge88 0.0
ge89 0.0
as61 0.0
as62 0.0
as63 0.0
as64 0.0
as65 1.3951788542920126e-69
as66 8.752939157373627e-67
as67 6.193705314594053e-38
as68 4.320002825076526e-31
as69 3.82921399563576e-24
as70 1.163083753727153e-22
as71 2.8283598703545326e-13
as72 1.0053010717149268e-13
as73 2.035083464663481e-12
as74 9.270342350135041e-13
as75 6.306330228047115e-09
as76 2.6318953206009097e-09
as77 2.2524313130686003e-09
as78 1.3170525590553022e-11
as79 9.420542049751278e-15
as80 1.6457013886594065e-29
as81 2.2417967693308937e-28
as82 1.4427416289878917e-35
as83 9.23442215008667e-42
as84 7.658336523557581e-60
as85 2.603147983933106e-72
as86 4.382863429272061e-88
as87 0.0
as88 0.0
as89 0.0
as90 0.0
as91 0.0
se64 0.0
se65 0.0
se66 1.0277606370779806e-95
se67 8.551159516122487e-93
se68 1.0815000187773273e-47
se69 1.4419274956690099e-44
se70 3.4869354817582444e-30
se71 9.53388846839331e-31
se72 7.21366280593743e-18
se73 7.639030252182637e-19
se74 1.8230208289877374e-14
se75 5.3917304031726886e-14
se76 3.3672624202660873e-09
se77 4.143520156549251e-09
se78 9.939722041306515e-09
se79 6.332589402725049e-09
se80 1.636288132249446e-08
se81 2.786370345963912e-12
se82 6.069945377074239e-10
se83 1.928242446073457e-14
se84 1.566977175650067e-19
se85 1.680173449031884e-30
se86 5.600549743671893e-40
se87 1.055727875468913e-54
se88 4.4001136844921287e-73
se89 4.022728691834705e-93
se90 0.0
se91 0.0
se92 0.0
se93 0.0
br66 0.0
br67 0.0
br68 0.0
br69 8.378060229503132e-80
br70 8.39185874650465e-71
br71 2.9105561238207444e-49
br72 9.903549498901316e-42
br73 7.232598406733718e-29
br74 4.6943132207083887e-26
br75 2.9408680283081647e-21
br76 1.191801711381069e-19
br77 4.728523942811134e-14
br78 1.6022127634825784e-17
br79 2.3995393943058175e-13
br80 4.2904633394155644e-16
br81 3.1562402451769195e-09
br82 9.254571347516253e-10
br83 1.281180268941447e-10
br84 8.68960028735457e-14
br85 2.391137288974306e-18
br86 7.47368495734059e-26
br87 6.498199026587427e-30
br88 1.022490983065552e-40
br89 8.894300109570703e-56
br90 3.0191614598872733e-71
br91 3.443970959939099e-89
br92 0.0
br93 0.0
br94 0.0
br95 0.0
kr69 0.0
kr70 0.0
kr71 5.860614434053833e-97
kr72 1.6132408256876793e-62
kr73 1.0663433505914492e-53
kr74 3.236780539403049e-34
kr75 1.5805820371383936e-34
kr76 1.9767379093238863e-25
kr77 7.596161608381723e-26
kr78 7.391827489329854e-19
kr79 3.002782933473385e-19
kr80 2.4021580988427917e-13
kr81 1.098808825057255e-13
kr82 2.5119589072600035e-09
kr83 3.307480521423303e-09
kr84 1.043752308430597e-08
kr85 5.7073888344639435e-09
kr86 7.174223967307488e-09
kr87 6.35659115304416e-13
kr88 1.142464903210274e-13
kr89 1.0015244875319301e-20
kr90 1.2957541558949298e-30
kr91 1.0235509340244176e-44
kr92 6.171018688402788e-63
kr93 1.2362938758308543e-78
kr94 8.167913389879554e-98
kr95 0.0
kr96 0.0
kr97 0.0
rb72 0.0
rb73 2.9940003251205798e-96
rb74 2.8560832274311853e-80
rb75 1.4236064237868588e-54
rb76 3.6511769031715954e-47
rb77 2.9737633143618277e-36
rb78 2.8915404711690734e-34
rb79 7.625394039881572e-27
rb80 5.951938410594543e-34
rb81 1.8290229607317512e-19
rb82 7.499354172077328e-24
rb83 1.5882336685118552e-14
rb84 9.945893165793334e-15
rb85 2.018998524989701e-10
rb86 1.8626452626223673e-10
rb87 2.1865732586725855e-09
rb88 1.1036594072640169e-13
rb89 3.3256647816436277e-16
rb90 1.455039458182503e-20
rb91 5.5281873598552414e-27
rb92 3.9693011124811306e-44
rb93 2.1985800345031205e-50
rb94 3.219626515139174e-65
rb95 3.4774236442232026e-83
rb96 0.0
rb97 0.0
rb98 0.0
rb99 0.0
sr75 0.0
sr76 3.0983666740698126e-79
sr77 3.5542844889964036e-69
sr78 2.8757062067109167e-42
sr79 2.9557006975521884e-39
sr80 7.836174258531761e-32
sr81 3.6530421633532186e-31
sr82 1.0399207418695423e-24
sr83 5.261758856359304e-23
sr84 9.826713005633701e-18
sr85 1.031730519764544e-16
sr86 2.430593224402529e-10
sr87 3.6420688388433597e-10
sr88 6.211203513216214e-09
sr89 9.067018413439268e-10
sr90 2.5515669088983806e-10
sr91 3.336888069027138e-12
sr92 8.588984358852543e-14
sr93 5.423149123289653e-19
sr94 4.5646986475870293e-26
sr95 8.186321200153642e-37
sr96 2.7952230884154273e-55
sr97 8.916452832597334e-75
sr98 3.621355885567528e-93
sr99 0.0
sr100 0.0
sr101 0.0
y77 0.0
y78 1.9168070621707934e-96
y79 8.669830993970924e-66
y80 1.142911169423929e-50
y81 9.572225461945244e-43
y82 4.660492746681024e-50
y83 6.188063861614427e-34
y84 7.977573837254272e-39
y85 1.3919067143991753e-24
y86 4.272274224920486e-23
y87 2.616451837108094e-16
y88 6.893698669772939e-16
y89 5.561073983103438e-10
y90 3.169019161389202e-11
y91 8.90017950223549e-11
y92 3.909631739063254e-12
y93 7.032469648328205e-12
y94 3.8258276380158055e-15
y95 1.4326346660782404e-17
y96 1.245509863594017e-34
y97 4.9860875697903946e-49
y98 1.429848781503767e-67
y99 5.6341418871810025e-78
y100 5.461590883347283e-94
y101 0.0
y102 0.0
y103 0.0
zr80 7.36169888186778e-94
zr81 1.1248041327629918e-76
zr82 1.872513349526134e-66
zr83 9.408606352394062e-45
zr84 2.687055259248851e-36
zr85 1.6981471209856788e-35
zr86 6.846083979638703e-30
zr87 3.640379710646567e-29
zr88 4.842026031621022e-22
zr89 6.176315490313818e-20
zr90 2.799888026025506e-10
zr91 1.508522557758803e-10
zr92 3.0651704777415834e-10
zr93 1.3995271992943422e-10
zr94 2.4510057957985755e-10
zr95 7.331449497233978e-11
zr96 1.1797875644190749e-10
zr97 1.96339372861583e-13
zr98 4.5208542740506595e-26
zr99 4.476497702740027e-44
zr100 9.998572595758955e-60
zr101 2.1641192700707603e-75
zr102 1.0362238778044783e-92
zr103 0.0
zr104 0.0
zr105 0.0
nb83 5.449684885483521e-94
nb84 1.897669717862971e-61
nb85 3.6391229697752334e-50
nb86 4.042148514997455e-44
nb87 1.7902524977296983e-38
nb88 5.849907914430826e-37
nb89 6.523195829027814e-30
nb90 1.4355210546423165e-26
nb91 3.496858934173721e-16
nb92 2.9140578566893833e-16
nb93 1.5595608904415717e-15
nb94 1.476385426968542e-15
nb95 8.957228839683266e-13
nb96 8.238939539484945e-13
nb97 3.7492241803388473e-14
nb98 8.554951844361006e-27
nb99 4.827619148829913e-33
nb100 4.093542994538434e-50
nb101 1.4750863522425774e-46
nb102 2.2954689687953872e-63
nb103 4.2365258311137936e-72
nb104 8.37183406448999e-90
nb105 0.0
nb106 0.0
nb107 0.0
mo85 3.8214212058443675e-90
mo86 1.1730092597587128e-77
mo87 1.521376702917402e-62
mo88 1.1305758249810188e-41
mo89 7.512456324252182e-40
mo90 2.5014891215477242e-33
mo91 1.1810279285585487e-31
mo92 1.5547808496761944e-14
mo93 4.423880541326163e-15
mo94 4.10415988763571e-14
mo95 5.446789281425773e-13
mo96 3.958697562495479e-12
mo97 4.893336149115562e-12
mo98 2.4343604373139132e-11
mo99 1.4486095376364757e-12
mo100 1.486816168333956e-11
mo101 2.045655737900755e-15
mo102 6.763993500222163e-18
mo103 1.6490302638781168e-25
mo104 5.763442222257575e-29
mo105 8.702459382417975e-47
mo106 8.393121207181068e-65
mo107 5.270451553927753e-84
mo108 0.0
mo109 0.0
tc88 5.807706940782396e-91
tc89 9.061952587661592e-69
tc90 2.4705894590015128e-58
tc91 6.8695521049928756e-43
tc92 2.4338803370891485e-39
tc93 4.922668846793612e-22
tc94 5.229433358160504e-22
tc95 1.3777645053937303e-20
tc96 9.269507435396391e-20
tc97 1.3600030632892024e-18
tc98 1.044724699437789e-18
tc99 9.70243653888109e-13
tc100 1.2610975449243156e-27
tc101 3.929752452967597e-15
tc102 5.3088773551121865e-20
tc103 5.946080119449233e-25
tc104 1.2231912819701175e-22
tc105 7.606923338247451e-25
tc106 2.312729813353418e-34
tc107 6.591769590752826e-40
tc108 1.1059863111425342e-54
tc109 2.880068869370367e-72
tc110 6.330793558687125e-91
ru91 1.608963315014496e-86
ru92 2.0893526562399248e-68
ru93 1.0686480577647724e-40
ru94 1.2198719766632127e-29
ru95 7.617745068196492e-29
ru96 1.241965539238513e-20
ru97 5.3434120313760124e-21
ru98 6.060766727551892e-19
ru99 1.2439706125181433e-16
ru100 4.4638981454455594e-12
ru101 2.0382930897067506e-12
ru102 1.0736054104905305e-11
ru103 5.625647659922504e-12
ru104 1.654272634270023e-11
ru105 5.606193981987642e-13
ru106 6.444152928848054e-12
ru107 1.4013926765941823e-17
ru108 2.8752712974533376e-19
ru109 6.753415290925269e-29
ru110 4.2581106857618905e-37
ru111 2.2951296144339722e-56
ru112 1.6907350096455897e-75
rh93 2.5893980279111284e-97
rh94 1.006383037179226e-52
rh95 1.9983115618738775e-39
rh96 1.0626992147024457e-37
rh97 4.007293845342781e-30
rh98 4.001310660804099e-31
rh99 7.971902279196748e-26
rh100 4.849798439694844e-24
rh101 2.3614467190841216e-19
rh102 1.4565258009602785e-19
rh103 1.1195610098162559e-13
rh104 2.3017915670954134e-23
rh105 1.324311972904532e-12
rh106 7.657685804364646e-18
rh107 1.9404620815326136e-15
rh108 1.885424106725253e-20
rh109 3.924093983023646e-24
rh110 1.1978766974847604e-37
rh111 8.083787038810774e-41
rh112 4.4660638976018776e-55
rh113 2.7932525339838242e-61
rh114 9.755171884381024e-71
pd96 3.3041839416807033e-41
pd97 3.118643509504367e-37
pd98 6.4142726952750475e-31
pd99 9.802286140331273e-30
pd100 4.4222976792073e-27
pd101 3.0426332193273884e-28
pd102 8.817365961276047e-23
pd103 2.267294245239506e-21
pd104 5.576920987248614e-13
pd105 4.649924063390377e-13
pd106 4.618750080590249e-12
pd107 1.5665748659568773e-12
pd108 1.0648776776173423e-11
pd109 2.143681528013823e-12
pd110 9.703406094210994e-12
pd111 8.585047318552618e-15
pd112 2.569578026278541e-13
pd113 3.602435064341379e-21
pd114 2.7085927055212005e-22
pd115 1.9674293634185931e-31
ag98 1.5378664643625296e-49
ag99 6.911979464981586e-42
ag100 3.934855662655739e-40
ag101 1.1204443794535676e-35
ag102 1.6900882676612523e-33
ag103 8.151452521589812e-31
ag104 8.085340803232069e-29
ag105 7.247438689511539e-21
ag106 1.177146688640548e-22
ag107 1.21807938604384e-18
ag108 4.3508105602382874e-24
ag109 1.2107965334365866e-12
ag110 4.020871232809132e-22
ag111 8.728728353095916e-13
ag112 1.0885592629712198e-13
ag113 1.771057134325621e-17
ag114 8.861681449622932e-24
ag115 2.5001673980202005e-29
ag116 1.1632083968958321e-34
cd101 6.544862595935504e-42
cd102 1.1715351254308806e-33
cd103 3.5443290773786884e-32
cd104 3.7220672312883862e-28
cd105 2.8881985366915593e-29
cd106 1.9427197786389528e-23
cd107 3.154664629911431e-24
cd108 9.204187639034964e-18
cd109 1.9064601999885085e-18
cd110 2.3240639929282843e-12
cd111 7.317875795758743e-13
cd112 5.105913035381983e-12
cd113 2.1327527776816337e-12
cd114 1.7205318978267416e-11
cd115 3.2005651957236047e-12
cd116 2.4849178371310634e-11
cd117 1.5612246742175794e-13
in102 1.0094148767881412e-56
in103 2.7338034514532722e-46
in104 9.19305685142013e-44
in105 1.2763674206854593e-38
in106 8.310061063512737e-38
in107 1.555611296844611e-33
in108 3.5572279327148133e-31
in109 6.4051331896269785e-27
in110 2.215121832555297e-26
in111 7.82631876608578e-21
in112 3.391087122979046e-23
in113 3.2943314513303753e-16
in114 9.59095304072693e-24
in115 4.991315668510863e-13
in116 7.351359911762253e-26
in117 4.87564226267917e-14
in118 5.681400262569611e-18
