n 7.751041484408566e-27
h1 6.008875641581369e-22
he4 0.24518740575502673
h2 1.771172085149801e-38
h3 4.989677058599147e-53
he3 3.817272557415903e-49
li6 3.921822719861822e-36
li7 1.966857972989088e-44
li8 8.562255447238881e-64
li9 1.0161298873053264e-84
be7 6.644008416102329e-43
be9 2.4819439536632184e-28
be10 1.417652731299753e-45
be11 2.314862030077002e-65
be12 3.520221259393849e-88
b8 1.5276364349886593e-65
b10 1.83107310418505e-33
b11 3.492758049732556e-35
b12 1.322075573790499e-56
b13 7.828845583619352e-79
b14 0.0
c10 0.0
c11 3.9903195292204425e-49
c12 0.00019965279414421567
c13 7.823406955355108e-18
c14 1.5190749940988878e-12
c15 7.585435787938371e-34
c16 7.9172764370256685e-56
c17 1.4975724908759199e-78
c18 0.0
n11 0.0
n12 8.21704346141619e-75
n13 5.721327606316835e-24
n14 0.00017230809297244268
n15 9.708370149174556e-09
n16 8.325434732652093e-29
n17 1.3260650312239624e-49
n18 6.419085231006193e-72
n19 1.6157421953707672e-94
n20 0.0
n21 0.0
o13 3.642274140745061e-99
o14 2.1680343436193808e-45
o15 8.524745733772474e-26
o16 1.638527047762042e-05
o17 1.210822627856489e-08
o18 0.00032757378899069803
o19 1.394842608458316e-23
o20 1.5066255267227276e-41
o21 1.6833573815377386e-62
o22 1.7749919190356527e-85
f16 0.0
f17 4.588136625804873e-28
f18 1.0559190746667756e-13
f19 7.108871018706081e-08
f20 1.2439317081065863e-41
f21 4.595006589107183e-59
f22 7.43097640346082e-81
f23 0.0
f24 0.0
f25 0.0
f26 0.0
ne16 0.0
ne17 0.0
ne18 7.829491609518156e-54
ne19 3.934440605195118e-38
ne20 5.6935874011500655e-05
ne21 3.2195062757722e-07
ne22 0.00014707747455692486
ne23 1.0634930232742335e-22
ne24 9.773347119617003e-39
ne25 3.8272398537793586e-58
ne26 4.618305462181521e-78
ne27 0.0
ne28 0.0
ne29 0.0
na19 3.0487185751343653e-93
na20 7.135828623068456e-67
na21 1.5641323860309604e-29
na22 3.788644809259947e-21
na23 7.1532285494392786e-06
na24 2.709264691308692e-19
na25 1.5189774590381946e-35
na26 6.521635836591897e-54
na27 9.728185043888163e-73
na28 8.36131185740053e-94
na29 0.0
na30 0.0
na31 0.0
na32 0.0
mg20 0.0
mg21 4.677220195028895e-91
mg22 5.848981300252346e-52
mg23 6.043717776689781e-43
mg24 2.335628994635792e-05
mg25 3.0175549243482233e-07
mg26 5.775596908211423e-06
mg27 1.7187130093834868e-22
mg28 8.39671945020815e-36
mg29 1.0465826428635596e-54
mg30 1.0147684647208806e-73
mg31 3.154663818132364e-94
mg32 0.0
mg33 0.0
mg34 0.0
mg35 0.0
al22 0.0
al23 5.251479313266026e-82
al24 6.544504052064056e-71
al25 7.5488663511726e-27
al26 1.657829555242135e-21
al27 2.85086302359473e-06
al28 5.979409976604502e-22
al29 9.544511923131003e-37
al30 1.7240724086538588e-54
al31 8.844178218794617e-73
al32 3.5937194045818883e-93
al33 0.0
al34 0.0
al35 0.0
al36 0.0
al37 0.0
al38 0.0
si23 0.0
si24 0.0
si25 8.447113230105332e-98
si26 1.690832110595413e-55
si27 1.69343694499153e-44
si28 2.6789852241058036e-05
si29 1.5444755194998464e-06
si30 9.738493846762034e-07
si31 2.1271627688148092e-20
si32 3.396079933683515e-30
si33 2.861328496466225e-48
si34 1.8215139662144938e-66
si35 1.5593077863239536e-86
si36 0.0
si37 0.0
si38 0.0
si39 0.0
si40 0.0
si41 0.0
p25 0.0
p26 0.0
p27 1.171685138502979e-83
p28 1.4152913355675761e-70
p29 3.4144954168071914e-33
p30 2.9391740111201014e-30
p31 2.617584419000529e-07
p32 2.532255755650544e-19
p33 4.760025688090268e-20
p34 6.14445940459581e-37
p35 7.04186432005771e-52
p36 3.192734589699231e-70
p37 6.036263261547664e-88
p38 0.0
p39 0.0
p40 0.0
p41 0.0
p42 0.0
p43 0.0
p44 0.0
s27 0.0
s28 0.0
s29 2.6350643486717783e-97
s30 5.570925137994644e-62
s31 7.435005403233007e-56
s32 1.224343318627928e-05
s33 1.7150973362850185e-07
s34 5.491031036256756e-07
s35 6.558278937418211e-19
s36 2.4384018602981653e-09
s37 4.0835469118605243e-26
s38 1.9994082992862933e-40
s39 4.318268810941687e-58
s40 2.4394105596000103e-75
s41 4.579119658111917e-94
s42 0.0
s43 0.0
s44 0.0
s45 0.0
s46 0.0
s47 0.0
cl29 0.0
cl30 0.0
cl31 4.102741541203275e-91
cl32 5.582935157564648e-85
cl33 3.337632025203727e-36
cl34 6.638474362759805e-34
cl35 1.1351693363014528e-07
cl36 2.182340932667793e-09
cl37 8.490394201570684e-08
cl38 1.6019674717303955e-22
cl39 2.0144777372814497e-36
cl40 2.115154412718996e-52
cl41 3.552538868029677e-68
cl42 2.3951833853930172e-85
cl43 0.0
cl44 0.0
cl45 0.0
cl46 0.0
cl47 0.0
cl48 0.0
cl49 0.0
cl50 0.0
ar31 0.0
ar32 0.0
ar33 0.0
ar34 8.762622376785523e-64
ar35 1.096864011761858e-60
ar36 2.488311248652803e-06
ar37 2.459135909457137e-17
ar38 4.6317512243512494e-07
ar39 2.2831105348664437e-16
ar40 7.241493128429747e-10
ar41 3.770049980491556e-24
ar42 2.3996041378173437e-34
ar43 6.660470929917274e-50
ar44 1.006124590609707e-64
ar45 1.1044085474568925e-81
ar46 1.0284471094068535e-98
ar47 0.0
ar48 0.0
ar49 0.0
ar50 0.0
ar51 0.0
ar52 0.0
k32 0.0
k33 0.0
k34 0.0
k35 6.859134017680571e-99
k36 1.9534785293884717e-88
k37 1.1042833328640346e-33
k38 2.017384970624084e-42
k39 1.0104699609999206e-07
k40 3.0574422603395484e-09
k41 1.4800969713610135e-08
k42 4.7526567702834496e-21
k43 4.592454807967575e-33
k44 3.4311080093990285e-47
k45 3.9171145075740254e-61
k46 5.017482980349552e-77
k47 6.768207393990218e-86
k48 0.0
k49 0.0
k50 0.0
k51 0.0
k52 0.0
k53 0.0
k54 0.0
k55 0.0
ca35 0.0
ca36 0.0
ca37 0.0
ca38 6.876128946280757e-63
ca39 3.636820233741453e-71
ca40 1.7552305233772744e-06
ca41 1.2871615426310363e-08
ca42 1.2731087550886424e-08
ca43 2.5531510814568022e-09
ca44 3.798064666676956e-08
ca45 1.0764537489666364e-18
ca46 7.22156089181753e-11
ca47 3.660230279989118e-23
ca48 3.451538954724425e-09
ca49 5.445497526297117e-25
ca50 3.57883384496663e-42
ca51 4.7717546896240274e-60
ca52 8.807490133521652e-79
ca53 1.5867330642423942e-99
ca54 0.0
ca55 0.0
ca56 0.0
ca57 0.0
sc36 0.0
sc37 0.0
sc38 0.0
sc39 0.0
sc40 0.0
sc41 1.1979567925861391e-42
sc42 6.884753353335624e-38
sc43 4.5271448756901465e-32
sc44 1.959019855714257e-34
sc45 1.5433963248520734e-09
sc46 2.596819889588614e-19
sc47 3.4577513480282754e-23
sc48 4.317484004072529e-35
sc49 2.9288304573311937e-24
sc50 3.460001150111179e-40
sc51 5.290587525703876e-57
sc52 3.890561584392219e-74
sc53 7.929161247900979e-93
sc54 0.0
sc55 0.0
sc56 0.0
sc57 0.0
sc58 0.0
sc59 0.0
ti39 0.0
ti40 0.0
ti41 0.0
ti42 3.453964569388363e-73
ti43 5.182211519325884e-68
ti44 8.499723325320047e-53
ti45 7.207354004729621e-58
ti46 5.756715832215209e-09
ti47 4.6973205538385145e-09
ti48 4.984478718827047e-08
ti49 6.8683016559722085e-09
ti50 3.965321753459859e-09
ti51 1.5647689288196006e-24
ti52 3.2748246794759127e-40
ti53 8.149604465609851e-57
ti54 2.5539087346638594e-73
ti55 1.9381472051592554e-92
ti56 0.0
ti57 0.0
ti58 0.0
ti59 0.0
ti60 0.0
ti61 0.0
ti62 0.0
v41 0.0
v42 0.0
v43 0.0
v44 1.9324361401159753e-99
v45 1.7786871714964153e-82
v46 8.995609211347848e-89
v47 4.711526983972189e-36
v48 5.659538477015686e-31
v49 9.966963235198572e-29
v50 1.8341023918288448e-11
v51 9.13332742963341e-09
v52 2.933191943814268e-23
v53 3.1962384561953426e-38
v54 5.112962695933715e-54
v55 2.307819866240537e-70
v56 7.228658412016732e-89
v57 0.0
v58 0.0
v59 0.0
v60 0.0
v61 0.0
v62 0.0
v63 0.0
v64 0.0
v65 0.0
cr43 0.0
cr44 0.0
cr45 0.0
cr46 0.0
cr47 0.0
cr48 9.468942870564262e-62
cr49 2.8664620625483776e-59
cr50 1.4749992735181738e-08
cr51 5.995631546988243e-19
cr52 3.1073813081404587e-07
cr53 3.575278661444649e-08
cr54 1.4195237344600795e-08
cr55 5.7932578006624785e-24
cr56 1.02425815176055e-38
cr57 2.5577478264342297e-55
cr58 3.880582040124878e-72
cr59 1.3205752700711341e-90
cr60 0.0
cr61 0.0
cr62 0.0
cr63 0.0
cr64 0.0
cr65 0.0
cr66 0.0
cr67 0.0
cr68 0.0
mn45 0.0
mn46 0.0
mn47 0.0
mn48 0.0
mn49 7.857016009247948e-95
mn50 7.0229736823939825e-93
mn51 9.183010445948458e-40
mn52 1.1235900535888549e-45
mn53 4.932734713146277e-21
mn54 1.7227922021028473e-30
mn55 3.1929333039240385e-07
mn56 3.83467610526071e-20
mn57 7.036775824573436e-35
mn58 1.3302743955286576e-51
mn59 7.4003435958432e-68
mn60 1.0652121726753342e-83
mn61 0.0
mn62 0.0
mn63 0.0
mn64 0.0
mn65 0.0
mn66 0.0
mn67 0.0
mn68 0.0
mn69 0.0
mn70 0.0
mn71 0.0
fe47 0.0
fe48 0.0
fe49 0.0
fe50 0.0
fe51 0.0
fe52 1.956554642480478e-68
fe53 3.3153633171573105e-76
fe54 1.3506064313911636e-06
fe55 2.3317801544458853e-16
fe56 2.204149848746244e-05
fe57 9.153691040061594e-07
fe58 1.5819027996040187e-07
fe59 2.2273835697163314e-18
fe60 1.0068022726223755e-15
fe61 5.902548125056231e-31
fe62 1.6126490984961866e-46
fe63 8.405500600256363e-64
fe64 4.172379837364991e-81
fe65 9.940418514419406e-100
fe66 0.0
fe67 0.0
fe68 0.0
fe69 0.0
fe70 0.0
fe71 0.0
fe72 0.0
fe73 0.0
fe74 0.0
co48 0.0
co49 0.0
co50 0.0
co51 0.0
co52 0.0
co53 0.0
co54 0.0
co55 3.619808848927252e-36
co56 3.1584641568101636e-43
co57 5.234322287321827e-32
co58 2.4462390649294004e-26
co59 9.488158483936937e-08
co60 3.677321474145349e-17
co61 1.3107729083733144e-29
co62 1.4343908863004786e-44
co63 4.215981214679871e-59
co64 6.426765726341106e-77
co65 1.0104909931546493e-93
co66 0.0
co67 0.0
co68 0.0
co69 0.0
co70 0.0
co71 0.0
co72 0.0
co73 0.0
co74 0.0
co75 0.0
co76 0.0
co77 0.0
ni51 0.0
ni52 0.0
ni53 0.0
ni54 0.0
ni55 0.0
ni56 1.0411469837528005e-63
ni57 3.521235988698067e-72
ni58 8.763225840587792e-07
ni59 3.713517492829524e-08
ni60 3.59186654058714e-07
ni61 3.145265757027982e-08
ni62 5.257500832784557e-08
ni63 8.667017926005983e-17
ni64 1.4271364425867709e-08
ni65 2.9803585836907276e-22
ni66 2.941609011738274e-34
ni67 7.472238606624423e-51
ni68 9.35464645863941e-55
ni69 3.67715136069563e-72
ni70 2.5276216230875212e-89
ni71 0.0
ni72 0.0
ni73 0.0
ni74 0.0
ni75 0.0
ni76 0.0
ni77 0.0
ni78 0.0
ni79 0.0
cu52 0.0
cu53 0.0
cu54 0.0
cu55 0.0
cu56 0.0
cu57 2.279713013026111e-99
cu58 0.0
cu59 1.9665450336039788e-39
cu60 8.863276164863725e-40
cu61 1.6531523650229238e-37
cu62 2.761639310727819e-40
cu63 1.1685414463170102e-08
cu64 1.4868829293136343e-20
cu65 6.488700838218374e-09
cu66 2.9036040163765435e-23
cu67 1.7145862669886837e-34
cu68 6.222981445292965e-50
cu69 7.334293673532283e-45
cu70 1.9246780234541686e-61
cu71 8.596808845995445e-77
cu72 2.5038021759873105e-93
cu73 0.0
cu74 0.0
cu75 0.0
cu76 0.0
cu77 0.0
cu78 0.0
cu79 0.0
cu80 0.0
cu81 0.0
cu82 0.0
zn55 0.0
zn56 0.0
zn57 0.0
zn58 0.0
zn59 0.0
zn60 1.1478963356715602e-72
zn61 1.6937044097343156e-73
zn62 1.2179013289501284e-68
zn63 1.4960263942671437e-72
zn64 1.646791647204963e-08
zn65 3.298120947059574e-18
zn66 9.846537064120857e-09
zn67 1.6227855697102714e-09
zn68 7.0066265885013205e-09
zn69 1.2118883488494495e-22
zn70 2.1433932828894947e-10
zn71 1.9829379873204937e-25
zn72 3.3365563104326657e-37
zn73 2.0585762088148557e-53
zn74 1.62469957553377e-68
zn75 1.2512847586590156e-85
zn76 0.0
zn77 0.0
zn78 0.0
zn79 0.0
zn80 0.0
zn81 0.0
zn82 0.0
zn83 0.0
zn84 0.0
ga57 0.0
ga58 0.0
ga59 0.0
ga60 0.0
ga61 0.0
ga62 0.0
ga63 0.0
ga64 0.0
ga65 9.164960761930523e-42
ga66 1.1332276583157676e-49
ga67 1.9907441863437494e-39
ga68 9.784475938837773e-42
ga69 6.847180885746385e-10
ga70 4.289905661325428e-23
ga71 4.4600983106760827e-10
ga72 7.54736498414787e-22
ga73 1.0387587524248226e-33
ga74 1.079192165691105e-47
ga75 7.633569033539807e-62
ga76 1.6008572451685305e-77
ga77 7.382868992954394e-93
ga78 0.0
ga79 0.0
ga80 0.0
ga81 0.0
ga82 0.0
ga83 0.0
ga84 0.0
ga85 0.0
ga86 0.0
ge59 0.0
ge60 0.0
ge61 0.0
ge62 0.0
ge63 0.0
ge64 0.0
ge65 0.0
ge66 1.3159370433875941e-74
ge67 3.3856763581752965e-83
ge68 1.1874280715902698e-68
ge69 4.0927589095631996e-73
ge70 8.152539759910273e-10
ge71 2.3338316082982677e-20
ge72 9.554184149782006e-10
ge73 2.6143119674457416e-10
ge74 1.2783181251665276e-09
ge75 9.009934784534015e-23
ge76 2.454604459475554e-10
ge77 8.710121558668495e-23
ge78 6.99128988082748e-36
ge79 2.67905958233714e-52
ge80 5.613208677896581e-68
ge81 4.2986350666707283e-85
ge82 0.0
ge83 0.0
ge84 0.0
ge85 0.0
ge86 0.0
ge87 0.0
ge88 0.0
ge89 0.0
as61 0.0
as62 0.0
as63 0.0
as64 0.0
as65 0.0
as66 0.0
as67 0.0
as68 0.0
as69 0.0
as70 0.0
as71 1.0104680602560866e-41
as72 2.125794790758793e-52
as73 7.91883392089443e-40
as74 7.980806466473447e-41
as75 1.4160960310036702e-10
as76 1.5600184699163417e-21
as77 1.8682034083009107e-22
as78 4.662790358182636e-35
as79 3.1447226850586936e-48
as80 1.2769593103892535e-63
as81 2.380699784813006e-78
as82 3.4609477434027184e-94
as83 0.0
as84 0.0
as85 0.0
as86 0.0
as87 0.0
as88 0.0
as89 0.0
as90 0.0
as91 0.0
se64 0.0
se65 0.0
se66 0.0
se67 0.0
se68 0.0
se69 0.0
se70 0.0
se71 0.0
se72 7.204956864591456e-73
se73 1.5310371660525932e-84
se74 1.0086858994738115e-11
se75 6.266293733925151e-21
se76 2.861360966676126e-10
se77 1.3945218800178448e-10
se78 4.59814009843582e-10
se79 7.608724701304541e-11
se80 9.017779571559528e-10
se81 1.449083421668983e-23
se82 1.6493951839467852e-10
se83 6.740082661685617e-25
se84 1.3041309634924373e-39
se85 3.2161530191000215e-56
se86 4.493233738328702e-73
se87 1.597266928776127e-90
se88 0.0
se89 0.0
se90 0.0
se91 0.0
se92 0.0
se93 0.0
br66 0.0
br67 0.0
br68 0.0
br69 0.0
br70 0.0
br71 0.0
br72 0.0
br73 0.0
br74 0.0
br75 3.398870244596671e-46
br76 2.42249559362683e-54
br77 3.1989417479089385e-43
br78 5.967063175738934e-46
br79 6.026175790071249e-11
br80 1.1695041331710993e-23
br81 1.5142400314131887e-10
br82 1.1425030767054268e-21
br83 3.562981977395969e-24
br84 2.3365272841788337e-37
br85 2.5084056888132944e-51
br86 6.683386417989762e-67
br87 1.8465042073142028e-82
br88 1.8305763596332375e-98
br89 0.0
br90 0.0
br91 0.0
br92 0.0
br93 0.0
br94 0.0
br95 0.0
kr69 0.0
kr70 0.0
kr71 0.0
kr72 0.0
kr73 0.0
kr74 0.0
kr75 0.0
kr76 5.1065634698409325e-80
kr77 1.9489116227848506e-89
kr78 3.436760048674597e-12
kr79 2.3478373100832158e-23
kr80 1.0058706812920021e-10
kr81 2.2754882496729173e-11
kr82 2.639811279684616e-10
kr83 1.427228506670249e-10
kr84 9.317810407700333e-10
kr85 4.653743923258505e-19
kr86 2.757753656818912e-10
kr87 1.2201938618887027e-24
kr88 9.334652848249466e-38
kr89 4.486386645109628e-53
kr90 6.17464790373539e-69
kr91 4.422478778173696e-86
kr92 0.0
kr93 0.0
kr94 0.0
kr95 0.0
kr96 0.0
kr97 0.0
rb72 0.0
rb73 0.0
rb74 0.0
rb75 0.0
rb76 0.0
rb77 0.0
rb78 0.0
rb79 2.765996513322292e-48
rb80 4.8214660791875626e-61
rb81 6.549049507864444e-46
rb82 7.695213611624072e-49
rb83 1.0146794505702847e-42
rb84 3.62369884792049e-43
rb85 1.5639065454491098e-10
rb86 1.9131715403399608e-20
rb87 5.699610204095782e-11
rb88 3.5722885018015687e-25
rb89 1.4871239327825653e-38
rb90 4.780727130508972e-53
rb91 1.0145100559721396e-67
rb92 6.294493750252236e-84
rb93 0.0
rb94 0.0
rb95 0.0
rb96 0.0
rb97 0.0
rb98 0.0
rb99 0.0
sr75 0.0
sr76 0.0
sr77 0.0
sr78 0.0
sr79 0.0
sr80 2.313910381536815e-84
sr81 7.605657734604099e-97
sr82 5.809492662183239e-79
sr83 1.1697288968055057e-83
sr84 1.9560043122884124e-12
sr85 1.1004232373661074e-21
sr86 1.1544278773118625e-10
sr87 5.092700264455067e-11
sr88 5.698277966521898e-10
sr89 5.222965749467691e-21
sr90 6.823862744167701e-28
sr91 1.4219409211792904e-40
sr92 1.9608114652033627e-47
sr93 4.441599053617633e-62
sr94 6.025249700013365e-66
sr95 2.9564264035972166e-82
sr96 0.0
sr97 0.0
sr98 0.0
sr99 0.0
sr100 0.0
sr101 0.0
y77 0.0
y78 0.0
y79 0.0
y80 0.0
y81 0.0
y82 0.0
y83 0.0
y84 0.0
y85 7.241857218992508e-49
y86 1.7590399949445335e-57
y87 8.559116614842533e-46
y88 1.7645437974160776e-44
y89 1.3739398230548485e-10
y90 1.3357077845157695e-22
y91 5.206179545227195e-28
y92 1.8195699433126484e-40
y93 7.341301119498593e-52
y94 7.177049909259171e-57
y95 1.2926934081505559e-65
y96 1.21158474773552e-81
y97 2.0326275114219183e-97
y98 0.0
y99 0.0
y100 0.0
y101 0.0
y102 0.0
y103 0.0
zr80 0.0
zr81 0.0
zr82 0.0
zr83 0.0
zr84 0.0
zr85 0.0
zr86 3.2045876430760046e-85
zr87 7.87460518744833e-95
zr88 2.0011293272027076e-79
zr89 6.536327228024298e-34
zr90 1.6750232569088667e-10
zr91 4.016765395863398e-11
zr92 5.803443988749223e-11
zr93 3.6551606861900855e-12
zr94 5.469010897959e-11
zr95 2.6780534577860955e-21
zr96 9.053954782671087e-12
zr97 1.5835768614764019e-24
zr98 2.613228221354469e-40
zr99 2.1800663255355567e-57
zr100 1.8209813953326246e-73
zr101 1.1256561244016816e-90
zr102 0.0
zr103 0.0
zr104 0.0
zr105 0.0
nb83 0.0
nb84 0.0
nb85 0.0
nb86 0.0
nb87 0.0
nb88 0.0
nb89 0.0
nb90 1.6180990691929104e-69
nb91 3.820630667808965e-43
nb92 3.5485006699463866e-35
nb93 1.5049863499096487e-11
nb94 8.743953968748341e-13
nb95 1.5887852506374147e-21
nb96 1.9353302620464946e-32
nb97 1.1249844719341242e-25
nb98 4.966594318152184e-41
nb99 1.0723078371876909e-55
nb100 8.939350521718213e-72
nb101 6.982906107982804e-87
nb102 0.0
nb103 0.0
nb104 0.0
nb105 0.0
nb106 0.0
nb107 0.0
mo85 0.0
mo86 0.0
mo87 0.0
mo88 0.0
mo89 0.0
mo90 0.0
mo91 0.0
mo92 9.951549768230812e-12
mo93 2.776228546294467e-16
mo94 1.1306510935412036e-11
mo95 1.1571403926398243e-11
mo96 1.6249056367381648e-11
mo97 6.2948370701014814e-12
mo98 1.9082624213038496e-11
mo99 1.035812202190012e-22
mo100 5.735564588938626e-12
mo101 1.990296601391021e-25
mo102 8.507395311736945e-39
mo103 6.739187071957024e-54
mo104 1.9829596636730478e-68
mo105 3.453262564081541e-85
mo106 0.0
mo107 0.0
mo108 0.0
mo109 0.0
tc88 0.0
tc89 0.0
tc90 0.0
tc91 0.0
tc92 0.0
tc93 1.8089231999537425e-50
tc94 1.2513492729416391e-54
tc95 1.3688810812405769e-49
tc96 8.245809154651137e-39
tc97 4.1172710717634757e-13
tc98 2.3328354490470356e-13
tc99 1.941580161021408e-12
tc100 7.180882974513666e-27
tc101 1.9139619912215693e-25
tc102 1.8584347987330897e-40
tc103 7.79724422144481e-54
tc104 1.5018744534676554e-66
tc105 2.3009639994743248e-79
tc106 5.757416022390382e-94
tc107 0.0
tc108 0.0
tc109 0.0
tc110 0.0
ru91 0.0
ru92 0.0
ru93 0.0
ru94 2.5592400408069574e-90
ru95 4.461359749263859e-94
ru96 2.0506919344605486e-12
ru97 2.182670855705466e-23
ru98 7.283284407384836e-13
ru99 3.148966735800126e-12
ru100 1.0072792493357066e-11
ru101 3.7921834634583886e-12
ru102 2.0766912599067012e-11
ru103 4.517439171104718e-21
ru104 7.439252145678494e-12
ru105 5.716950379196905e-24
ru106 8.362218175413694e-33
ru107 3.5098506322122174e-47
ru108 2.6512229224976567e-54
ru109 1.1034474392337699e-69
ru110 9.526769216241225e-85
ru111 0.0
ru112 0.0
rh93 0.0
rh94 0.0
rh95 0.0
rh96 0.0
rh97 6.776849548304208e-53
rh98 2.3493057896813616e-64
rh99 5.367355949873598e-51
rh100 4.475538030417286e-53
rh101 2.4858644899116294e-50
rh102 6.704884431255679e-51
rh103 7.647815535993325e-12
rh104 7.069651120138013e-26
rh105 2.816204069373471e-23
rh106 1.8008392016102886e-37
rh107 2.225290300667421e-46
rh108 1.638468762300392e-55
rh109 7.546450739857428e-61
rh110 3.7243976193435983e-76
rh111 8.83984229725815e-91
rh112 0.0
rh113 0.0
rh114 0.0
pd96 0.0
pd97 0.0
pd98 9.653295573009773e-96
pd99 0.0
pd100 2.0811862532713288e-91
pd101 1.1271931773238998e-94
pd102 2.1200845128784033e-13
pd103 3.9472818310603246e-23
pd104 1.1239036302364312e-11
pd105 5.288271766766096e-12
pd106 1.622556705649008e-11
pd107 2.77924863041976e-12
pd108 1.1204540319996651e-11
pd109 2.790145209867645e-23
pd110 3.674930829887819e-12
pd111 2.4369627020148305e-25
pd112 1.8287411368840517e-36
pd113 3.308921317653505e-51
pd114 3.102827908878708e-59
pd115 1.1501904825224729e-74
ag98 0.0
ag99 0.0
ag100 0.0
ag101 0.0
ag102 0.0
ag103 9.6445432384555e-57
ag104 1.3543474506007302e-66
ag105 6.77941280868601e-52
ag106 1.2276802788317269e-41
ag107 2.640530093188099e-12
ag108 7.21087741331618e-26
ag109 4.7486853132712374e-12
ag110 2.5092232353504622e-26
ag111 9.985464648560021e-23
ag112 1.8542194744889575e-34
ag113 1.0432493395879134e-46
ag114 1.0388396050088872e-60
ag115 3.863712561088061e-70
ag116 4.80359504134441e-84
cd101 0.0
cd102 0.0
cd103 0.0
cd104 0.0
cd105 0.0
cd106 3.6669509532055207e-13
cd107 6.308702292229993e-25
cd108 4.307019483386369e-12
cd109 3.654453959765393e-21
cd110 9.627025970704551e-12
cd111 3.2389846719021556e-12
cd112 1.3290849237521915e-11
cd113 4.585787766045124e-12
cd114 1.622577545780013e-11
cd115 7.608152594153574e-23
cd116 3.123659353708942e-12
cd117 4.446056491943126e-25
in102 0.0
in103 0.0
in104 0.0
in105 0.0
in106 0.0
in107 5.6789110716081994e-58
in108 1.6584348858258732e-69
in109 4.611528637835691e-56
in110 4.707879511665355e-65
in111 7.463941013568829e-55
in112 3.5717053400174734e-57
in113 2.529704138699486e-13
in114 3.4376550078396345e-27
in115 3.6690843652412245e-12
in116 1.0200784556322265e-26
in117 1.2539199984759892e-25
in118 2.939701275390078e-40
