n 1.281601322043058e-19
h1 1.0077950197631582e-15
he4 4.393682778369793e-12
h2 1.9761690953129644e-31
h3 6.370970093353061e-24
he3 1.1066896535093926e-23
li6 2.397012852504992e-34
li7 1.2086817284995867e-31
li8 2.3443631401996263e-48
li9 1.2179991686677674e-55
be7 1.925547604814861e-34
be9 3.65283106370155e-40
be10 9.428328058318453e-32
be11 1.0768728191769379e-53
be12 5.387379000666349e-67
b8 6.860105782545115e-54
b10 1.0471935416706781e-26
b11 1.1279766926149022e-16
b12 3.864791764295447e-29
b13 9.693687513549544e-40
b14 4.595421303589422e-60
c10 0.0
c11 3.253254495373981e-20
c12 0.00020676951224676062
c13 6.624742226536219e-16
c14 1.2130708317860077e-10
c15 4.408342653217231e-30
c16 1.6094307487909014e-37
c17 3.715662070723999e-58
c18 0.0
n11 0.0
n12 2.444168613364524e-38
n13 1.7670041033435588e-17
n14 6.390401441914346e-10
n15 5.25605141813434e-11
n16 5.848928074981737e-26
n17 5.03365293907907e-32
n18 7.907376241384112e-46
n19 6.377241386392837e-54
n20 4.090469107944806e-71
n21 0.0
o13 4.622094405733891e-53
o14 4.412505258524823e-21
o15 3.0861762792535377e-13
o16 0.026048836997337035
o17 3.1561663027424043e-10
o18 1.5038291955143175e-11
o19 2.8735677479791144e-19
o20 1.925845271530312e-25
o21 3.907533121070875e-34
o22 6.698831548215224e-44
f16 5.321739048389951e-30
f17 1.5104037829643745e-19
f18 3.0146741225498253e-12
f19 9.141722551246491e-11
f20 2.566936789418678e-25
f21 7.283867782817692e-28
f22 3.285510903303755e-35
f23 4.5290655301730846e-39
f24 1.4063813936893799e-53
f25 3.9034999990395165e-63
f26 0.0
ne16 1.1803158847236472e-47
ne17 3.749397525171967e-49
ne18 1.5343208867314233e-27
ne19 8.027221874972876e-18
ne20 0.00259021806856394
ne21 4.69398787764385e-06
ne22 6.273160986429322e-06
ne23 2.6931062798971797e-12
ne24 2.793278560237166e-17
ne25 2.8825109079085886e-25
ne26 6.375746131149798e-34
ne27 2.458215353768712e-52
ne28 2.3069708479784032e-81
ne29 0.0
na19 5.719091996405455e-48
na20 6.327571716335502e-30
na21 2.3074170714091965e-14
na22 2.0419674249473946e-08
na23 5.633093155828802e-05
na24 3.899690508865798e-08
na25 5.355477342198549e-13
na26 2.952305594081706e-20
na27 6.566679034670474e-28
na28 7.075573949512246e-40
na29 8.75925108488936e-49
na30 2.9108111893318663e-64
na31 1.427035759712022e-73
na32 3.618801910929847e-92
mg20 7.91367769505191e-60
mg21 6.313399333663303e-39
mg22 3.976802576030572e-19
mg23 9.512764323455092e-10
mg24 0.000434352282322044
mg25 9.670257780185054e-05
mg26 6.306139944898327e-05
mg27 2.9214626731596833e-10
mg28 8.656311451905426e-12
mg29 4.487321610105984e-22
mg30 2.669332665106443e-28
mg31 1.9256326345700397e-43
mg32 1.9725764529207392e-50
mg33 6.315121626588817e-66
mg34 9.133091059856854e-76
mg35 2.0632307077063588e-96
al22 1.1507686673578198e-58
al23 5.523473288234944e-38
al24 4.912837565658633e-23
al25 1.4702962014189793e-15
al26 3.697897793664082e-08
al27 3.221012792053012e-05
al28 1.6924240692780378e-09
al29 1.0783501764172468e-12
al30 2.0095995231978678e-19
al31 2.4880194547888252e-26
al32 1.4537719459455217e-36
al33 4.22761266338047e-46
al34 3.4957977152725674e-61
al35 2.423392490891854e-65
al36 8.620310817389692e-82
al37 1.0354920591184671e-92
al38 0.0
si23 2.9338761154000155e-74
si24 5.803349293087698e-48
si25 2.2471704609166367e-31
si26 5.136402086917128e-21
si27 1.5384114775852944e-09
si28 0.010345066386930236
si29 2.3068318135419084e-05
si30 1.2269214755281469e-05
si31 6.315972654080756e-09
si32 7.4464116800131e-10
si33 3.165399859762536e-16
si34 1.1652402625167046e-22
si35 2.5694674003344737e-37
si36 1.3645601532766594e-43
si37 1.7704297230387284e-59
si38 1.414457565071928e-65
si39 1.2849505607966923e-81
si40 2.8530065144524884e-91
si41 0.0
p25 7.179467048527265e-71
p26 7.174803477826926e-51
p27 1.310867963582582e-37
p28 2.403781614927525e-22
p29 4.650021451605997e-13
p30 3.5812938812970048e-09
p31 1.6486031410898765e-05
p32 1.4862463849059128e-08
p33 3.2548169227612377e-09
p34 1.770112789550613e-14
p35 2.626246275925169e-19
p36 7.605260145291207e-31
p37 4.458339473602821e-35
p38 6.64078778912825e-45
p39 1.602805114790223e-51
p40 1.3456364845476907e-63
p41 2.8117332460106048e-70
p42 4.385182966492623e-87
p43 3.0892481262479926e-100
p44 0.0
s27 1.076663721421099e-68
s28 1.1461400199949808e-49
s29 2.382040931242347e-31
s30 1.5508886630025497e-21
s31 3.4331129080071864e-11
s32 0.005294020910015595
s33 2.0718330133734942e-05
s34 0.0003802540379535861
s35 7.241495523704514e-09
s36 1.9572611835904226e-08
s37 1.081982635488709e-14
s38 6.673492816434606e-18
s39 2.226872741434785e-24
s40 7.086262490852899e-30
s41 5.8061865218588575e-37
s42 2.53285454656831e-44
s43 2.9479282660642492e-59
s44 4.013508746545447e-67
s45 3.724036142005118e-83
s46 3.654952858939363e-92
s47 0.0
cl29 3.266041557592103e-75
cl30 9.65339633972946e-53
cl31 5.378636393374911e-40
cl32 1.6582206855949808e-25
cl33 1.1637307975930792e-14
cl34 3.7812441770901645e-11
cl35 1.5218918293493452e-05
cl36 1.3987654274208565e-08
cl37 2.1228850299313263e-07
cl38 3.281561907882601e-11
cl39 3.4374588565383436e-14
cl40 7.40604171841726e-19
cl41 3.1284132148758785e-23
cl42 1.5125399226121453e-28
cl43 3.793624684372284e-33
cl44 4.522537889592209e-41
cl45 1.105307226895555e-47
cl46 8.605735253107958e-57
cl47 3.598927249340482e-67
cl48 3.370276528617781e-83
cl49 3.3264040213942386e-96
cl50 0.0
ar31 1.9163804633030492e-71
ar32 1.3306453189915972e-52
ar33 5.822738940791803e-35
ar34 1.0435458533290509e-22
ar35 3.313039302433513e-15
ar36 0.0004619781357263574
ar37 2.959510728003408e-06
ar38 0.00030797067956526357
ar39 2.6726584583317344e-08
ar40 1.1619440124755532e-08
ar41 7.336394066675218e-12
ar42 3.5975079631106396e-12
ar43 2.3417490503260256e-16
ar44 5.099203913174345e-20
ar45 2.9587025205388555e-25
ar46 1.3934115704117163e-30
ar47 4.0716774345051945e-38
ar48 2.710815064434262e-46
ar49 3.1840255478239095e-61
ar50 1.0770433732618686e-69
ar51 2.1807720742990574e-88
ar52 0.0
k32 1.2769302016012252e-97
k33 4.051450234265213e-78
k34 1.6009314471629593e-60
k35 6.668653404279165e-42
k36 2.0378371505644358e-29
k37 3.694510983077679e-17
k38 2.773474722283931e-11
k39 1.27659352971778e-05
k40 4.93785784341107e-09
k41 8.590146663766036e-09
k42 4.386054299495864e-10
k43 1.8001026264876467e-11
k44 5.4035737945263195e-15
k45 5.790217796600798e-18
k46 1.2305733382420396e-22
k47 9.017415378285148e-28
k48 2.287712139680429e-34
k49 2.831664035831743e-40
k50 7.99736997773872e-54
k51 2.9544160075824246e-59
k52 5.362186149500828e-75
k53 3.7946180275075e-85
k54 0.0
k55 0.0
ca35 1.0388386026898758e-76
ca36 9.401583851568767e-54
ca37 3.038309841288254e-39
ca38 1.48859076612502e-25
ca39 2.2451043323571263e-17
ca40 0.00015862530271757864
ca41 4.294051568782668e-07
ca42 5.7210086175072924e-06
ca43 9.863952915148117e-09
ca44 1.5166265523370104e-08
ca45 3.325256356833811e-09
ca46 1.0636301377192842e-09
ca47 4.477363874020978e-11
ca48 6.118937081432718e-10
ca49 1.6423214240057615e-14
ca50 4.6967346776575755e-20
ca51 1.329690448304101e-26
ca52 9.537482529187107e-34
ca53 4.013200669595816e-45
ca54 3.027580710109181e-54
ca55 2.58799929942265e-69
ca56 6.344351312116077e-82
ca57 6.039451643443841e-99
sc36 0.0
sc37 9.681658657405008e-80
sc38 1.6627024844582426e-62
sc39 4.437193445508788e-47
sc40 3.179397573415392e-35
sc41 5.616222318519458e-20
sc42 4.121486089112922e-16
sc43 1.4356931357495736e-10
sc44 2.847378298767579e-10
sc45 1.7615754207010597e-09
sc46 4.95867393930861e-10
sc47 1.3376102969719748e-10
sc48 1.7847254251827395e-11
sc49 2.2674544609281103e-13
sc50 3.528303818455717e-18
sc51 2.3257881790529243e-23
sc52 7.915169770150936e-29
sc53 1.4777241939435699e-36
sc54 3.0588329154598137e-44
sc55 3.8978421472120428e-56
sc56 1.592549875205634e-65
sc57 3.0547288040808107e-77
sc58 6.101286443142213e-92
sc59 0.0
ti39 3.9873472026089854e-80
ti40 5.780023740066703e-61
ti41 3.4035395357289484e-47
ti42 4.1759943789265256e-29
ti43 4.1851628416385594e-24
ti44 2.630137113505652e-08
ti45 4.233568554710568e-09
ti46 1.1683741698551883e-06
ti47 2.2612221023695547e-08
ti48 6.642429545172446e-09
ti49 5.226733242283791e-09
ti50 1.0472883693938802e-08
ti51 1.0992658036481652e-12
ti52 5.244136286108303e-17
ti53 7.635421437064983e-22
ti54 7.151007147479497e-27
ti55 3.321922468293425e-35
ti56 1.9716400325805493e-42
ti57 1.5356294612823144e-56
ti58 1.038978810123272e-61
ti59 2.157258268072331e-76
ti60 4.192746800542841e-83
ti61 7.151748250751986e-100
ti62 0.0
v41 2.833776798096829e-85
v42 6.43701883425937e-68
v43 3.649295857575626e-48
v44 5.395998913390011e-37
v45 1.1810698361813376e-21
v46 3.128547570135519e-17
v47 1.7473404004548796e-10
v48 2.3912071246018833e-09
v49 3.4197968000529904e-09
v50 8.848782492658178e-11
v51 1.692690595405229e-09
v52 7.797270425925369e-13
v53 7.754772045302551e-17
v54 1.4542796069479045e-21
v55 2.98044379974688e-26
v56 4.257041532874623e-33
v57 1.9988777756393826e-39
v58 6.793688165729589e-49
v59 2.8148887412023373e-53
v60 1.042750241365175e-64
v61 1.4326171722997865e-72
v62 2.31760060888309e-85
v63 1.13297305261012e-92
v64 0.0
v65 0.0
cr43 8.240123524228236e-84
cr44 3.3333471400465305e-59
cr45 8.302142156184491e-50
cr46 2.1578673829209308e-30
cr47 1.8474472433424304e-23
cr48 1.6212933301049455e-09
cr49 3.6516753506035363e-09
cr50 7.891093982673448e-07
cr51 5.7579114048369504e-08
cr52 3.2204636552635707e-07
cr53 6.430296756686562e-09
cr54 3.176233419275895e-08
cr55 4.0989631689993176e-12
cr56 1.156997468324052e-15
cr57 1.5762216410354158e-20
cr58 1.1949748234071291e-25
cr59 9.52991451924504e-34
cr60 1.9118169446842883e-39
cr61 1.1262205938430826e-49
cr62 7.281354719287395e-55
cr63 5.706729717536457e-67
cr64 1.09879689760762e-72
cr65 6.63611494684695e-87
cr66 7.744296017144782e-94
cr67 0.0
cr68 0.0
mn45 4.2598810140912326e-82
mn46 3.053521259122479e-67
mn47 2.286821895236343e-49
mn48 3.39111978414822e-36
mn49 1.3744630041435432e-21
mn50 1.474787511149158e-17
mn51 1.7504093198301743e-10
mn52 2.4436227647008585e-09
mn53 6.881642802871895e-08
mn54 5.263496717453344e-10
mn55 3.381375133541564e-08
mn56 1.8096038194813343e-11
mn57 6.024623986825727e-15
mn58 1.2760646912666906e-19
mn59 5.8355860291750605e-24
mn60 1.4994814878388849e-30
mn61 7.852710050168966e-36
mn62 1.1183794926713037e-42
mn63 1.701110203468227e-48
mn64 3.4063762670455e-57
mn65 3.2391968672613e-63
mn66 2.0435052915239513e-74
mn67 8.084243270145662e-81
mn68 4.30792755390409e-93
mn69 0.0
mn70 0.0
mn71 0.0
fe47 3.9720623950066293e-82
fe48 1.1052654804950146e-59
fe49 1.4730805934896182e-47
fe50 3.362510760316771e-34
fe51 1.7619050762560044e-25
fe52 7.113895853781079e-11
fe53 5.356232834224559e-10
fe54 4.095965704771058e-06
fe55 3.3109747695043327e-07
fe56 9.765949042939127e-06
fe57 7.072592482332722e-07
fe58 1.5138119432706868e-06
fe59 2.572049473989895e-07
fe60 9.989680099811235e-08
fe61 1.405677192016886e-11
fe62 1.079338123480105e-15
fe63 3.352236679175227e-21
fe64 9.527102346872476e-27
fe65 2.084310460582118e-35
fe66 2.0708411789825167e-40
fe67 9.358355730846414e-49
fe68 1.1005108850004482e-55
fe69 1.922796983054881e-67
fe70 4.470724230633426e-72
fe71 2.45331830011888e-84
fe72 1.867772632547116e-91
fe73 0.0
fe74 0.0
co48 0.0
co49 6.139692420963882e-75
co50 6.5132350926156385e-68
co51 4.657147337175736e-53
co52 2.131382278643513e-42
co53 1.523795218984318e-24
co54 5.06372894310935e-19
co55 2.8485245721896383e-10
co56 7.275319497885936e-10
co57 1.2497742566130411e-07
co58 1.015731467192172e-09
co59 3.159897937908426e-07
co60 5.79956959543894e-08
co61 9.516722693650368e-10
co62 4.094430946162816e-13
co63 1.015476189777403e-16
co64 4.1990133616038396e-23
co65 1.1658166133242584e-27
co66 2.2150054405726438e-34
co67 1.2829365600497332e-39
co68 6.584467779148618e-48
co69 1.897672318740419e-52
co70 1.2943081960463156e-63
co71 4.7639401581350695e-68
co72 7.98655255254588e-80
co73 7.499766959678998e-88
co74 0.0
co75 0.0
co76 0.0
co77 0.0
ni51 5.380986875545126e-83
ni52 6.955550507662723e-65
ni53 4.386637504788498e-53
ni54 1.1971981418024396e-34
ni55 1.8892261051747287e-28
ni56 6.094606469387733e-11
ni57 3.87063099155375e-10
ni58 7.117904429069144e-07
ni59 4.0065082777716755e-08
ni60 8.295164070487356e-06
ni61 2.148217517389354e-07
ni62 5.360695685388216e-07
ni63 2.440367290740468e-07
ni64 2.2484656602410816e-07
ni65 1.0487824944266187e-09
ni66 2.497626830973928e-10
ni67 4.283306738067512e-15
ni68 1.398627530227369e-19
ni69 2.7373085153714765e-25
ni70 1.0451112272293665e-30
ni71 5.7199716182057843e-39
ni72 6.756644540638991e-44
ni73 2.1200904746612305e-52
ni74 5.828735622589795e-58
ni75 1.976052067326892e-68
ni76 1.1407786724862296e-74
ni77 1.4947677464511593e-86
ni78 1.1573098324398085e-92
ni79 0.0
cu52 0.0
cu53 3.4994384341450036e-91
cu54 1.8353212911693005e-74
cu55 2.0030932560642413e-55
cu56 1.4461668606604064e-46
cu57 5.038433751693629e-28
cu58 1.522251004808568e-20
cu59 3.741995316875295e-16
cu60 9.313631659715001e-15
cu61 4.737384394182978e-11
cu62 4.8971813471691096e-12
cu63 8.767075086199543e-09
cu64 7.78133796028964e-10
cu65 4.68919942552139e-08
cu66 4.4335135106733055e-11
cu67 2.804127960061765e-10
cu68 4.587866914306384e-14
cu69 3.341868654329725e-17
cu70 9.019125491145855e-22
cu71 1.64151560654584e-25
cu72 2.445157147457936e-30
cu73 1.1756451093446327e-34
cu74 3.622478578121969e-40
cu75 2.536641532547613e-45
cu76 1.1560902526805874e-51
cu77 7.155735746562581e-58
cu78 1.2494254534397558e-65
cu79 1.6296105672147948e-72
cu80 9.913121213822108e-89
cu81 0.0
cu82 0.0
zn55 8.129704453305805e-93
zn56 5.53633182396204e-71
zn57 1.4823600282699916e-61
zn58 7.378405084615949e-41
zn59 7.1320155024487145e-31
zn60 6.5610772399052905e-21
zn61 7.18806669482888e-19
zn62 6.722764345742889e-13
zn63 3.626026896136727e-13
zn64 5.574018982890446e-09
zn65 1.038091811490159e-09
zn66 4.5831199596863866e-08
zn67 1.2069415841237101e-08
zn68 3.8027897040269626e-08
zn69 1.0091601730998175e-10
zn70 1.0745551282108938e-09
zn71 6.502964549534847e-13
zn72 8.787516941818142e-13
zn73 3.836776986544258e-17
zn74 5.89675614207342e-21
zn75 3.274930860727996e-26
zn76 3.7577570886638693e-31
zn77 3.0120441309114496e-37
zn78 1.686753172096725e-43
zn79 7.234833280618508e-51
zn80 4.9276985711443354e-58
zn81 1.4039822668430307e-73
zn82 2.4550876214309836e-80
zn83 2.812322894711814e-97
zn84 0.0
ga57 2.623333640981675e-99
ga58 8.207029561575466e-87
ga59 1.1683966714584232e-63
ga60 1.0379079748937742e-50
ga61 1.01790542487459e-39
ga62 2.5421321421332924e-29
ga63 3.951355079766828e-23
ga64 5.65545004146712e-22
ga65 1.6351691168551463e-15
ga66 7.281691411518772e-15
ga67 4.265858532058543e-12
ga68 1.4917463775614277e-13
ga69 6.768671942432378e-09
ga70 5.384879966022039e-11
ga71 1.6554497577043185e-09
ga72 3.3789556253199754e-10
ga73 8.384804048210483e-11
ga74 5.722950158088049e-14
ga75 5.5496352769850025e-17
ga76 2.6325461943485e-21
ga77 5.407254616306474e-25
ga78 3.0684174419570986e-30
ga79 5.033143486582607e-35
ga80 1.6234897810267493e-41
ga81 2.1337471677504883e-46
ga82 1.1876502212612633e-59
ga83 3.2968298564761e-66
ga84 2.9868925213996545e-80
ga85 3.264703306955905e-89
ga86 0.0
ge59 0.0
ge60 9.004270077183996e-81
ge61 2.358625200390725e-67
ge62 5.512280054294371e-52
ge63 6.690547102684747e-42
ge64 3.9897716527036015e-28
ge65 5.195231014792744e-27
ge66 6.611565844020706e-19
ge67 1.5619967813050078e-18
ge68 2.12078104991589e-12
ge69 1.260300945338501e-13
ge70 7.1231609263309575e-09
ge71 1.7136838399428337e-09
ge72 8.558376220943087e-09
ge73 3.165412591518869e-09
ge74 6.596318773605255e-09
ge75 6.851902724287809e-11
ge76 3.7849460971590876e-10
ge77 8.692129846607044e-13
ge78 2.9858545086715657e-14
ge79 1.1409398622707538e-18
ge80 7.671670238768036e-23
ge81 4.1539810095569445e-28
ge82 1.7861704739618615e-33
ge83 4.2425297994339924e-45
ge84 4.060926558311837e-50
ge85 1.362547516239044e-63
ge86 1.9800633544302554e-69
ge87 4.0623414615617954e-84
ge88 8.886425976892603e-95
ge89 0.0
as61 0.0
as62 2.653593313786183e-92
as63 3.308920699015879e-75
as64 5.755613392983469e-62
as65 9.424523844770885e-48
as66 8.11980046678572e-39
as67 2.881766168473308e-30
as68 6.67987184245296e-28
as69 7.341951692269196e-22
as70 3.056978697940152e-20
as71 7.062705978322397e-14
as72 2.2958589543814814e-14
as73 1.2207425085930684e-11
as74 2.166680043746773e-13
as75 1.3155261856590987e-09
as76 6.174780458207292e-10
as77 5.048677506087856e-10
as78 7.583298783304842e-12
as79 9.591520115730209e-14
as80 1.3844298731683571e-17
as81 1.066650404602969e-20
as82 4.991899079440255e-25
as83 8.077261602983703e-29
as84 9.915911776068737e-38
as85 1.7058789134811938e-41
as86 1.2393096744375517e-51
as87 3.2144648490933826e-56
as88 3.3099896390045708e-68
as89 8.54133479828677e-79
as90 7.078739232007536e-94
as91 0.0
se64 9.311235491781766e-92
se65 6.790206372191028e-80
se66 1.5200725655470196e-61
se67 2.981627744755984e-51
se68 3.966988726759223e-36
se69 4.504868531952537e-34
se70 5.549267560891418e-23
se71 1.488301367602888e-21
se72 4.5463628386497464e-13
se73 1.1653886794054985e-13
se74 3.8522118715450515e-09
se75 1.4390982484063052e-11
se76 9.205236951427216e-09
se77 8.791240235633696e-10
se78 2.2261723725905973e-09
se79 1.3694996109574307e-09
se80 3.5578871998813136e-09
se81 1.0779949796531484e-11
se82 1.3139211540086233e-10
se83 6.663335305959448e-14
se84 2.6319832649861057e-17
se85 6.977697502057328e-23
se86 5.050296883315729e-28
se87 5.0683432378176443e-36
se88 3.4193727929380844e-41
se89 1.4990879962481137e-52
se90 7.601785100329008e-59
se91 2.479062096512309e-73
se92 3.420044493266476e-81
se93 1.2768227487888357e-96
br66 0.0
br67 4.077565177955087e-86
br68 8.999846855984074e-73
br69 1.1530936166160978e-56
br70 7.262462992343713e-46
br71 3.576239932110793e-34
br72 1.6185885222256466e-31
br73 5.87495964908285e-23
br74 7.093365514090808e-21
br75 2.020037394890725e-15
br76 1.6721156901683067e-15
br77 6.009704940955181e-12
br78 1.1648610967492546e-14
br79 7.910359605838988e-12
br80 8.155769749037236e-15
br81 6.759636352455111e-10
br82 2.1098785750906433e-10
br83 3.673091766389476e-11
br84 2.212844493806758e-13
br85 5.764746288219016e-16
br86 2.5917528257989006e-20
br87 1.7998670419350645e-24
br88 1.8591340011592107e-29
br89 9.865276392516691e-34
br90 4.7882900656728364e-43
br91 1.9892500754048105e-47
br92 4.211539551840781e-60
br93 1.1180275490047849e-66
br94 1.5119274749137325e-80
br95 2.409667782080384e-89
kr69 1.4547004322428404e-89
kr70 3.2320485912034055e-69
kr71 7.628907528022139e-57
kr72 1.4373522570538203e-42
kr73 1.7076248326540948e-36
kr74 5.174074546014866e-25
kr75 1.475267414920163e-21
kr76 3.1352086569136016e-14
kr77 1.0439972245775048e-13
kr78 1.2056490498055577e-09
kr79 1.3629975972224044e-11
kr80 9.6618074925893e-09
kr81 2.127545284563962e-11
kr82 9.490140599947264e-10
kr83 7.051206076201503e-10
kr84 2.285509085452179e-09
kr85 1.2350779399203247e-09
kr86 1.5620184032657383e-09
kr87 6.996736763929315e-13
kr88 2.5743939344831833e-14
kr89 2.6497049948032938e-18
kr90 9.268560806319414e-23
kr91 4.844379157064996e-29
kr92 1.4012604233102076e-34
kr93 2.615022236718753e-46
kr94 2.1631249138198294e-51
kr95 2.4300233122961622e-64
kr96 2.023197473719173e-70
kr97 2.733860263612884e-83
rb72 1.4643560535856057e-86
rb73 8.074599792862599e-64
rb74 4.9725061246891235e-48
rb75 7.794859442314144e-37
rb76 1.1400155748604648e-31
rb77 1.7298785407386944e-24
rb78 1.226564342233633e-22
rb79 8.132484067435379e-17
rb80 1.9151699265293283e-17
rb81 5.093928471958137e-13
rb82 1.2160593346540161e-14
rb83 5.149732401420766e-12
rb84 3.655271557547147e-14
rb85 5.2990002715867593e-11
rb86 4.052622572548025e-11
rb87 4.768205847432541e-10
rb88 3.9116092824297795e-13
rb89 1.7384198534054855e-15
rb90 1.8449203379924044e-18
rb91 1.0730503466072527e-21
rb92 9.238916115583957e-27
rb93 7.6810598447900485e-31
rb94 1.1879287480597055e-40
rb95 1.1199729789931956e-44
rb96 1.3463138077947412e-56
rb97 2.9825310322449832e-61
rb98 2.3451973671150902e-71
rb99 7.239656320008286e-79
sr75 2.4791645090988953e-61
sr76 3.2670046096166426e-46
sr77 1.7944727990186598e-37
sr78 4.1929388582039025e-27
sr79 8.510355623181238e-24
sr80 4.1501855330728814e-17
sr81 6.038708875298473e-16
sr82 2.1171332288054358e-11
sr83 1.7235336007431566e-12
sr84 1.8568436802635007e-09
sr85 2.9130126174157956e-11
sr86 2.0701891667386503e-09
sr87 9.624859735109288e-11
sr88 2.5938283076911198e-09
sr89 1.964021841305848e-10
sr90 5.534060240860821e-11
sr91 8.504160073999846e-13
sr92 2.165437801772638e-14
sr93 8.80337546947589e-18
sr94 1.6791470050954982e-21
sr95 2.7695241686142617e-29
sr96 9.026384083870058e-34
sr97 1.7041791136236637e-43
sr98 9.139138509788003e-48
sr99 8.299906029616053e-59
sr100 3.7314010220514136e-65
sr101 3.3999890750155203e-77
y77 8.426082597817236e-66
y78 1.7648820793407583e-50
y79 4.045174521354514e-38
y80 3.513495651467193e-34
y81 6.105491672884288e-28
y82 3.2979467491617473e-25
y83 1.929113846252686e-19
y84 3.6347587806431953e-20
y85 9.022722724879652e-15
y86 6.850384626743484e-15
y87 4.661007483008335e-12
y88 1.6391892700404789e-12
y89 6.311712986385854e-10
y90 6.955501006953669e-12
y91 1.9172221691966477e-11
y92 1.0170202682078394e-12
y93 1.5291579200879773e-12
y94 1.4255318844685835e-14
y95 1.1137239648209009e-16
y96 6.55580185495218e-21
y97 5.218442413513997e-25
y98 1.0443289551861732e-32
y99 7.122213917541525e-36
y100 2.4339885314592053e-41
y101 1.2396843374315028e-46
y102 1.4229714647198084e-53
y103 6.935906262868867e-61
zr80 1.1093875560001076e-50
zr81 2.9533558798443386e-45
zr82 2.5069485319777543e-31
zr83 4.404562682870143e-27
zr84 7.847332863681384e-21
zr85 8.602347806639034e-20
zr86 1.3042438996661228e-14
zr87 5.887148728096655e-14
zr88 1.0239750560674281e-10
zr89 2.5237934886711852e-11
zr90 6.417810016313762e-09
zr91 3.268989263587607e-11
zr92 6.632226252333117e-11
zr93 3.0199454005472845e-11
zr94 5.305095903245803e-11
zr95 1.588389066715007e-11
zr96 2.5579308018742292e-11
zr97 6.35350114974114e-14
zr98 6.1192796602649425e-18
zr99 4.480605888912678e-24
zr100 5.228562444169637e-28
zr101 2.2118355767574215e-33
zr102 9.493072273902174e-39
zr103 1.4986409355360496e-45
zr104 5.220836374191092e-53
zr105 9.77176574638962e-62
nb83 2.198826112417713e-43
nb84 3.517610184588463e-38
nb85 9.934935162431644e-32
nb86 7.482326839216512e-28
nb87 1.1621643960538928e-22
nb88 1.2837815194698241e-21
nb89 1.8988975301450594e-16
nb90 1.475303933767169e-15
nb91 1.9741646323017955e-12
nb92 7.551419450710039e-16
nb93 5.168486265716794e-16
nb94 3.1860242923440965e-16
nb95 1.8073371210400255e-13
nb96 1.778336294338397e-13
nb97 1.795844862036398e-14
nb98 8.465311395948434e-18
nb99 9.582272447763499e-21
nb100 4.1068399899618034e-25
nb101 2.896239184651053e-28
nb102 1.1583592199977895e-32
nb103 9.864508218502368e-37
nb104 4.350699048554889e-42
nb105 5.811150829228151e-48
nb106 5.3233835354405805e-56
nb107 1.1002644594815735e-62
mo85 1.7524438234831715e-50
mo86 5.051750314489144e-43
mo87 2.7842022331532484e-32
mo88 1.0033319284254205e-25
mo89 6.892004654611665e-23
mo90 9.807715204776137e-18
mo91 9.057041649074125e-17
mo92 2.4138555839322414e-12
mo93 7.062354883752281e-15
mo94 4.6926313642825564e-14
mo95 1.145469309241313e-13
mo96 8.705099815572283e-13
mo97 1.032505059323122e-12
mo98 5.2529870356423306e-12
mo99 3.5770660807208013e-13
mo100 3.1909447368164318e-12
mo101 1.076994577466582e-14
mo102 4.533413417952832e-17
mo103 1.2964414428980694e-20
mo104 8.767827588482362e-24
mo105 9.406946632625728e-29
mo106 3.7393014267481923e-34
mo107 2.481890645307695e-41
mo108 1.1089559351560157e-48
mo109 6.788017230514226e-58
tc88 2.0167604100447695e-44
tc89 2.836148929841947e-37
tc90 7.914503798553386e-34
tc91 7.971067815114397e-28
tc92 2.3758593967011975e-24
tc93 1.2188912935535427e-18
tc94 1.8279449695752975e-17
tc95 2.7741761684479325e-16
tc96 6.590905368131912e-19
tc97 3.4625407246170614e-17
tc98 2.4409807630212807e-19
tc99 1.949178737576564e-13
tc100 3.825618848230932e-16
tc101 6.834675689308909e-15
tc102 2.572590499779421e-18
tc103 1.8447378004044238e-20
tc104 4.186377339653264e-22
tc105 9.835026191510393e-24
tc106 4.270506656493388e-27
tc107 5.131074071165057e-30
tc108 1.2659273154041777e-34
tc109 1.4210359894897886e-40
tc110 4.670369381139758e-48
ru91 2.1096947303989478e-45
ru92 6.30623991416652e-31
ru93 3.3108294753596193e-25
ru94 7.16441223974078e-16
ru95 3.853856264488913e-15
ru96 3.329647091168421e-13
ru97 2.2542594504176377e-15
ru98 1.6388342329871716e-13
ru99 1.1409121871203276e-16
ru100 9.693774003602753e-13
ru101 4.3669199866494793e-13
ru102 2.314996539739475e-12
ru103 1.224753406169444e-12
ru104 3.5517214646422186e-12
ru105 1.793510478796686e-13
ru106 1.3848641502759558e-12
ru107 1.5127147498560258e-15
ru108 8.473674828280288e-18
ru109 1.6021726634984076e-21
ru110 7.708212916328405e-25
ru111 2.469004123083627e-32
ru112 1.0286804517268044e-39
rh93 1.795902555980393e-43
rh94 9.297616721203475e-37
rh95 4.737296563158207e-26
rh96 4.49963555533793e-24
rh97 4.458913341436862e-20
rh98 2.1284532609572364e-18
rh99 3.0979681361258216e-16
rh100 6.925742446661748e-17
rh101 2.5893717878697843e-16
rh102 7.347623679461565e-20
rh103 2.1718759552822234e-14
rh104 1.2611290935931632e-16
rh105 2.6970581863453275e-13
rh106 1.4347970953782546e-15
rh107 4.793353008106646e-15
rh108 7.77036123661859e-18
rh109 6.82119813346e-20
rh110 2.3002004233308982e-23
rh111 3.2604770460315724e-26
rh112 5.527085438399486e-30
rh113 1.96072065088238e-33
rh114 1.506471272336153e-38
pd96 9.839330230207127e-27
pd97 6.534404134720692e-23
pd98 5.57201349643535e-17
pd99 8.100555186359242e-16
pd100 2.686645162632983e-13
pd101 4.4358798004561405e-15
pd102 5.278205672862418e-13
pd103 5.113055965066837e-16
pd104 1.3314326495641846e-13
pd105 9.217381163353686e-14
pd106 9.987115638287198e-13
pd107 3.296454377727199e-13
pd108 2.2907935516125076e-12
pd109 5.002275404377881e-13
pd110 2.082030080713864e-12
pd111 2.5245608968498804e-14
pd112 5.600614496231031e-14
pd113 4.049699570427886e-17
pd114 1.1648008137491633e-19
pd115 1.558386448080789e-23
ag98 2.789158550948716e-35
ag99 2.9240197406623872e-28
ag100 6.757853908630012e-26
ag101 4.845755018228667e-22
ag102 3.8840206763593703e-20
ag103 6.238978410793339e-17
ag104 6.94758195414344e-16
ag105 1.0231696202167158e-15
ag106 1.1152899153402423e-18
ag107 1.638599614800403e-16
ag108 4.205761498911351e-20
ag109 2.335885691415123e-13
ag110 1.905311655124768e-15
ag111 1.8682557582258045e-13
ag112 3.4699050246088e-14
ag113 7.635961652831033e-16
ag114 3.2939646204359834e-19
ag115 1.1515914327231382e-21
ag116 7.480543319425167e-25
cd101 5.630355709061918e-27
cd102 2.0273752892675272e-19
cd103 4.879434552245697e-18
cd104 2.758016982026562e-14
cd105 1.8193624110221582e-15
cd106 6.248908712909067e-13
cd107 1.7877785203046824e-15
cd108 9.419220853538963e-14
cd109 2.949172840596239e-17
cd110 5.241225278813111e-13
cd111 1.5389146523645655e-13
cd112 1.0986629800365307e-12
cd113 4.537072502233574e-13
cd114 3.708843862595762e-12
cd115 7.29830818166905e-13
cd116 5.349168692871357e-12
cd117 7.393531996955485e-14
in102 7.972218384208263e-40
in103 2.645398564979014e-32
in104 7.555916767188883e-30
in105 3.9985190223819023e-25
in106 5.130893962148965e-24
in107 1.068610800868771e-19
in108 8.581991148494135e-18
in109 7.419146475839863e-16
in110 8.785280651824951e-16
in111 4.862291102635401e-16
in112 1.2589164047043724e-19
in113 8.336034021515364e-17
in114 6.30404845916893e-19
in115 9.419326852752052e-14
in116 4.715473611419321e-16
in117 1.258525295548964e-14
in118 4.6121407088976903e-17
