n 1.058332542189751e-24
h1 2.0312179520648552e-19
he4 0.18568038217900035
h2 4.0373454449747004e-34
h3 1.5876275896605095e-48
he3 4.496052257725639e-44
li6 2.0103901463860766e-33
li7 3.4572006111232426e-35
li8 1.3926702577395392e-53
li9 1.9594316845065222e-72
be7 2.5879220451642446e-30
be9 7.35588824028656e-27
be10 2.153227441830154e-43
be11 1.0067659318500859e-60
be12 4.279958749529234e-81
b8 2.0380026683561185e-51
b10 1.6677398817959992e-24
b11 1.739555093607145e-32
b12 1.6553436262781236e-51
b13 2.7832617405852288e-71
b14 1.6449563509115708e-93
c10 0.0
c11 6.072525892000959e-34
c12 0.01819434722644791
c13 2.2035309282006154e-13
c14 2.2430415115801067e-14
c15 3.8287521908312496e-33
c16 1.4102807850367746e-52
c17 9.717340959293205e-73
c18 0.0
n11 0.0
n12 5.918790461827922e-56
n13 1.6607572099927555e-17
n14 3.983485549457442e-15
n15 4.706517512059813e-13
n16 1.4057580830865617e-30
n17 7.300944051793693e-49
n18 1.2994917799506631e-68
n19 1.2409827875036964e-88
n20 0.0
n21 0.0
o13 1.6290591983148288e-76
o14 6.474329849104327e-35
o15 6.382306357741132e-32
o16 0.0012293846146787895
o17 1.3499435524964908e-10
o18 9.611367715981631e-09
o19 1.4597061259173215e-25
o20 4.4643444294102076e-41
o21 1.8806927291047336e-59
o22 7.840987883307747e-80
f16 5.05719184973494e-53
f17 2.730518242202791e-22
f18 6.375342091697264e-18
f19 2.672211312530873e-08
f20 3.8360138716425864e-41
f21 3.8718992714576056e-56
f22 2.573283579668623e-75
f23 3.261842837534326e-84
f24 0.0
f25 0.0
f26 0.0
ne16 0.0
ne17 0.0
ne18 4.53528201279456e-44
ne19 3.3899397836101845e-38
ne20 5.723609761171178e-05
ne21 4.221701859136286e-07
ne22 0.0006461334118805818
ne23 1.2298268888965672e-19
ne24 5.150359652736862e-29
ne25 5.196854587170844e-46
ne26 1.6188613522321564e-63
ne27 3.465630198554309e-83
ne28 0.0
ne29 0.0
na19 4.412793115221924e-78
na20 7.725293332851557e-63
na21 1.6844014654822109e-25
na22 6.800088004668877e-14
na23 6.7272290632570455e-06
na24 2.0345861295292786e-12
na25 2.966753229354077e-26
na26 3.1144835508279894e-42
na27 1.169784812063806e-58
na28 2.613228894488749e-77
na29 4.2241257464020915e-95
na30 0.0
na31 0.0
na32 0.0
mg20 0.0
mg21 3.373863111694699e-83
mg22 2.2001287101007926e-43
mg23 3.3632139479053154e-31
mg24 2.334930812017732e-05
mg25 4.554298933731547e-07
mg26 6.500203383476894e-06
mg27 1.4770371330816095e-18
mg28 3.1943551724280312e-18
mg29 9.560793633128902e-35
mg30 2.2175696067953965e-51
mg31 1.864745287802248e-69
mg32 8.260699407461432e-87
mg33 0.0
mg34 0.0
mg35 0.0
al22 0.0
al23 3.8565943976069575e-69
al24 8.493983721496926e-55
al25 2.5620464355617058e-22
al26 9.186438606725778e-15
al27 2.601173653377186e-06
al28 1.7140809180141316e-19
al29 3.3001079505191983e-26
al30 1.5022806274626158e-41
al31 1.9858412961938758e-57
al32 2.125253922205505e-75
al33 4.174970832063039e-93
al34 0.0
al35 0.0
al36 0.0
al37 0.0
al38 0.0
si23 0.0
si24 5.352531331599507e-89
si25 2.540690912666004e-77
si26 8.092519583626781e-46
si27 1.7504734098865034e-33
si28 2.6769285873389716e-05
si29 1.5614131242864542e-06
si30 9.826742686271989e-07
si31 1.1104937097308514e-13
si32 5.324966623430472e-13
si33 1.0969311520171931e-28
si34 1.7335551078023036e-44
si35 3.985732118227109e-62
si36 2.652211249403565e-79
si37 7.715788621194814e-98
si38 0.0
si39 0.0
si40 0.0
si41 0.0
p25 0.0
p26 0.0
p27 3.002760166280249e-68
p28 1.9938713565719266e-55
p29 1.3478970786471122e-27
p30 6.724441726738654e-25
p31 2.6359432642426775e-07
p32 6.945480471021881e-12
p33 3.1310156926751425e-12
p34 9.942726685350264e-27
p35 2.068919857373249e-40
p36 2.6052265879367803e-56
p37 1.376700867604975e-71
p38 2.2571784565647916e-88
p39 0.0
p40 0.0
p41 0.0
p42 0.0
p43 0.0
p44 0.0
s27 0.0
s28 6.9813015051578505e-96
s29 1.37991793219486e-77
s30 8.560773361607347e-51
s31 6.305413664211257e-46
s32 1.2230491620036999e-05
s33 1.7701018393164598e-07
s34 5.494072445847529e-07
s35 8.75903575682685e-12
s36 2.4554993043967837e-09
s37 4.227762666336043e-23
s38 7.537012500986073e-23
s39 4.0882869301435176e-38
s40 6.0152899422565485e-53
s41 3.209577027329074e-69
s42 8.615163155274229e-86
s43 0.0
s44 0.0
s45 0.0
s46 0.0
s47 0.0
cl29 0.0
cl30 0.0
cl31 2.8271581459852044e-74
cl32 5.292131233076307e-71
cl33 3.1552440406972523e-31
cl34 2.8964155730191754e-29
cl35 1.1326764522745602e-07
cl36 1.9397924664311946e-09
cl37 8.89963783343653e-08
cl38 3.8999378813253425e-17
cl39 3.8337119613119385e-21
cl40 1.1218056653991865e-34
cl41 5.803215302536376e-48
cl42 1.1518700591458977e-62
cl43 1.689297235864825e-77
cl44 5.890283045564348e-94
cl45 0.0
cl46 0.0
cl47 0.0
cl48 0.0
cl49 0.0
cl50 0.0
ar31 0.0
ar32 0.0
ar33 1.2037330314985513e-96
ar34 4.486474286097096e-54
ar35 2.3700142595767825e-51
ar36 2.4843146916068446e-06
ar37 3.3801915182932386e-10
ar38 4.618228303818104e-07
ar39 1.1312596796294235e-10
ar40 7.332197261913409e-10
ar41 2.047646256128883e-17
ar42 2.033984119455177e-15
ar43 7.008333275986101e-28
ar44 4.548368044173782e-31
ar45 1.360418723606686e-45
ar46 3.5382522673955547e-60
ar47 9.86530759697263e-77
ar48 5.355103096406178e-94
ar49 0.0
ar50 0.0
ar51 0.0
ar52 0.0
k32 0.0
k33 0.0
k34 0.0
k35 2.1028897571826604e-84
k36 1.9272638222171382e-74
k37 2.9244709847926275e-28
k38 1.9084135197222935e-29
k39 1.0097312648617847e-07
k40 3.326546651076793e-09
k41 2.2097349407839202e-08
k42 6.077581530799698e-14
k43 5.005427263914038e-17
k44 1.504781704200476e-24
k45 1.959190377814266e-28
k46 1.7054213413287332e-41
k47 1.472482206252327e-55
k48 1.2605504056658776e-70
k49 5.68206312309574e-86
k50 0.0
k51 0.0
k52 0.0
k53 0.0
k54 0.0
k55 0.0
ca35 0.0
ca36 0.0
ca37 2.3264923395468827e-99
ca38 1.4620512101820721e-52
ca39 2.5085400524286143e-53
ca40 1.7524546422745604e-06
ca41 9.228696010702007e-09
ca42 1.287440750858818e-08
ca43 2.560061996807439e-09
ca44 3.7941757815061816e-08
ca45 1.2128362966595122e-11
ca46 7.301182890752359e-11
ca47 1.666496884173014e-14
ca48 3.4508236250000006e-09
ca49 3.487289698368809e-21
ca50 6.096664576337305e-36
ca51 2.4722104578745736e-51
ca52 1.2993435056484948e-67
ca53 6.75230446930284e-86
ca54 0.0
ca55 0.0
ca56 0.0
ca57 0.0
sc36 0.0
sc37 0.0
sc38 0.0
sc39 9.179286626297572e-95
sc40 2.3210737008455788e-79
sc41 4.462378918079512e-37
sc42 3.6071608270016676e-33
sc43 5.2451022480721654e-23
sc44 9.899849666346845e-25
sc45 1.5792226250545783e-09
sc46 2.824920069380817e-12
sc47 2.3211715204904708e-14
sc48 4.1728360384147103e-16
sc49 2.7090360627064364e-18
sc50 9.218557290091492e-32
sc51 3.826904161773694e-46
sc52 8.223645879211195e-61
sc53 4.56746472169344e-77
sc54 3.3361462060820084e-94
sc55 0.0
sc56 0.0
sc57 0.0
sc58 0.0
sc59 0.0
ti39 0.0
ti40 0.0
ti41 0.0
ti42 1.2720683751180795e-62
ti43 2.5282541956793195e-58
ti44 2.0743785144784835e-25
ti45 2.553809154426938e-29
ti46 5.749908093393393e-09
ti47 4.6445123123908095e-09
ti48 4.960337493382668e-08
ti49 7.154949904359174e-09
ti50 4.0049495426649525e-09
ti51 2.5178408106619134e-21
ti52 2.122030401947617e-33
ti53 3.501099820904914e-47
ti54 8.036937416067453e-57
ti55 1.8107739531409328e-73
ti56 2.3865793464696916e-90
ti57 0.0
ti58 0.0
ti59 0.0
ti60 0.0
ti61 0.0
ti62 0.0
v41 0.0
v42 0.0
v43 5.055783945937502e-94
v44 1.1599310620496087e-84
v45 2.840043782370947e-50
v46 3.0349565679915366e-55
v47 3.1829295655277427e-28
v48 9.396892766950208e-22
v49 9.018486980396609e-20
v50 1.806997328325697e-11
v51 9.187219492887845e-09
v52 1.4391568616584523e-20
v53 7.988480322807309e-32
v54 3.006971871664785e-43
v55 4.855212724786904e-57
v56 4.4104432742946956e-73
v57 1.7502314810324913e-88
v58 0.0
v59 0.0
v60 0.0
v61 0.0
v62 0.0
v63 0.0
v64 0.0
v65 0.0
cr43 0.0
cr44 0.0
cr45 0.0
cr46 9.049778040954832e-77
cr47 1.3118942854420962e-81
cr48 1.3236752584487561e-37
cr49 1.150191082697986e-39
cr50 1.4591056320511367e-08
cr51 8.643939668954297e-12
cr52 3.102734235143385e-07
cr53 3.5757357620051317e-08
cr54 1.4733342054459229e-08
cr55 2.9137437669296766e-21
cr56 3.832943443393462e-28
cr57 2.9881374428294304e-42
cr58 1.3375809208297028e-56
cr59 1.339704416227777e-72
cr60 4.2089104400578365e-88
cr61 0.0
cr62 0.0
cr63 0.0
cr64 0.0
cr65 0.0
cr66 0.0
cr67 0.0
cr68 0.0
mn45 0.0
mn46 0.0
mn47 0.0
mn48 0.0
mn49 5.482152601084156e-65
mn50 1.3003969195402464e-67
mn51 7.649987697791137e-30
mn52 1.8681588471304162e-26
mn53 2.4819380213627858e-21
mn54 2.3527355877689444e-22
mn55 3.228874383066183e-07
mn56 2.052844986295799e-13
mn57 1.0315326805844623e-25
mn58 5.128438663198296e-40
mn59 8.117734977002645e-54
mn60 1.909935602423612e-53
mn61 3.275365949143183e-68
mn62 1.5344779011845178e-83
mn63 8.550171375493603e-99
mn64 0.0
mn65 0.0
mn66 0.0
mn67 0.0
mn68 0.0
mn69 0.0
mn70 0.0
mn71 0.0
fe47 0.0
fe48 0.0
fe49 0.0
fe50 1.5111971015187306e-98
fe51 5.770918261326145e-96
fe52 2.27020553284329e-39
fe53 1.0884828104604856e-47
fe54 1.3422333301380747e-06
fe55 1.5852400067637721e-09
fe56 2.1994341469188574e-05
fe57 9.526372816061178e-07
fe58 1.704469612762914e-07
fe59 9.343224178735625e-11
fe60 8.659199235112264e-11
fe61 1.0161753199252836e-22
fe62 1.3927104945757957e-35
fe63 2.2710497038940355e-50
fe64 3.371581877451752e-65
fe65 2.4846504175788442e-81
fe66 7.16654193130404e-97
fe67 0.0
fe68 0.0
fe69 0.0
fe70 0.0
fe71 0.0
fe72 0.0
fe73 0.0
fe74 0.0
co48 0.0
co49 0.0
co50 0.0
co51 0.0
co52 0.0
co53 4.038740597074592e-69
co54 3.2583944320766564e-76
co55 9.705481135976042e-26
co56 1.020952500112583e-24
co57 1.576844876624367e-20
co58 2.5394049774984044e-18
co59 1.1629220761480128e-07
co60 2.335010499153617e-10
co61 5.310932168923933e-16
co62 2.1806335368456814e-28
co63 4.5236971294382103e-41
co64 1.8624549530776718e-56
co65 8.862101207647473e-71
co66 2.1804082452673778e-86
co67 0.0
co68 0.0
co69 0.0
co70 0.0
co71 0.0
co72 0.0
co73 0.0
co74 0.0
co75 0.0
co76 0.0
co77 0.0
ni51 0.0
ni52 0.0
ni53 0.0
ni54 0.0
ni55 0.0
ni56 1.17877089495575e-37
ni57 9.462284769117551e-39
ni58 8.686818845639727e-07
ni59 2.342730697470357e-08
ni60 3.5722401511440014e-07
ni61 3.2890125148159895e-08
ni62 5.2926855860505706e-08
ni63 1.5486175262990034e-10
ni64 1.4486297922971728e-08
ni65 2.7886680024735345e-15
ni66 3.685508984293686e-15
ni67 2.4793890175202385e-29
ni68 6.152520666770564e-43
ni69 7.49980495854911e-58
ni70 1.588272173331256e-72
ni71 6.73708128725309e-88
ni72 0.0
ni73 0.0
ni74 0.0
ni75 0.0
ni76 0.0
ni77 0.0
ni78 0.0
ni79 0.0
cu52 0.0
cu53 0.0
cu54 0.0
cu55 0.0
cu56 0.0
cu57 3.451747482209555e-67
cu58 1.4092246249343932e-67
cu59 7.885439489647713e-34
cu60 5.708115980740068e-31
cu61 1.1731457973777571e-26
cu62 1.4079554728611558e-32
cu63 1.1669115245380072e-08
cu64 1.3157571957272352e-13
cu65 6.6364411443012416e-09
cu66 5.800189138057531e-18
cu67 1.618893333570741e-15
cu68 1.4083207890084986e-28
cu69 8.434062849248377e-35
cu70 6.15560141905968e-49
cu71 1.1922592979126097e-61
cu72 1.300490801471879e-75
cu73 3.375563946730652e-89
cu74 0.0
cu75 0.0
cu76 0.0
cu77 0.0
cu78 0.0
cu79 0.0
cu80 0.0
cu81 0.0
cu82 0.0
zn55 0.0
zn56 0.0
zn57 0.0
zn58 6.70211951302155e-98
zn59 2.6356618817854635e-98
zn60 3.0436607134705177e-56
zn61 1.0594440611130865e-58
zn62 1.2012978242415186e-38
zn63 1.9401956221024513e-42
zn64 1.6372492727330007e-08
zn65 3.252996175013875e-11
zn66 9.851613858396073e-09
zn67 1.637777444949004e-09
zn68 7.0504302211232416e-09
zn69 1.0355651744004943e-16
zn70 2.1363469811190803e-10
zn71 6.79592358382874e-23
zn72 1.0094077835965399e-18
zn73 1.629530593583032e-32
zn74 7.22944378212419e-43
zn75 1.9062315842332018e-57
zn76 1.2612441954115626e-71
zn77 4.050965624632638e-87
zn78 0.0
zn79 0.0
zn80 0.0
zn81 0.0
zn82 0.0
zn83 0.0
zn84 0.0
ga57 0.0
ga58 0.0
ga59 0.0
ga60 0.0
ga61 1.2099981651335064e-87
ga62 7.646387967327625e-91
ga63 8.762451940998493e-68
ga64 1.0627735911879303e-67
ga65 3.315606246916563e-33
ga66 2.2797724248766013e-30
ga67 1.4785785438102643e-25
ga68 1.422680861643019e-29
ga69 6.925874426922597e-10
ga70 3.372095603745399e-18
ga71 4.4864516669953694e-10
ga72 8.161682357120394e-15
ga73 4.7668830204252477e-17
ga74 1.2787778561101922e-26
ga75 1.4367877277588351e-35
ga76 1.4339113193218948e-48
ga77 2.9005033024605053e-61
ga78 2.0023977723090777e-75
ga79 2.1812591084846836e-89
ga80 0.0
ga81 0.0
ga82 0.0
ga83 0.0
ga84 0.0
ga85 0.0
ga86 0.0
ge59 0.0
ge60 0.0
ge61 0.0
ge62 0.0
ge63 0.0
ge64 1.9980071121424326e-89
ge65 5.155218121232078e-97
ge66 4.2551055991165046e-46
ge67 6.852376590095067e-51
ge68 3.5901656739444655e-38
ge69 6.35507263740394e-40
ge70 8.241743883619568e-10
ge71 7.663096246650763e-13
ge72 9.562672577296368e-10
ge73 2.613808773134003e-10
ge74 1.2804661724383485e-09
ge75 2.0473905601629833e-16
ge76 2.437212202734314e-10
ge77 8.638869709200223e-16
ge78 2.32214475535208e-20
ge79 2.275057362132339e-34
ge80 1.369602113666882e-47
ge81 3.0692718116302016e-62
ge82 6.54506368705253e-77
ge83 4.399860703819189e-93
ge84 0.0
ge85 0.0
ge86 0.0
ge87 0.0
ge88 0.0
ge89 0.0
as61 0.0
as62 0.0
as63 0.0
as64 0.0
as65 0.0
as66 0.0
as67 1.0219995089829102e-76
as68 6.36906382981931e-75
as69 2.674647521280862e-61
as70 2.2429494411408587e-58
as71 1.4672318119001148e-27
as72 1.0762413500677448e-28
as73 3.129903936020344e-26
as74 1.362468669553215e-26
as75 1.39501016933162e-10
as76 2.1333353519594448e-14
as77 1.2953704264220619e-14
as78 1.881529264116261e-18
as79 8.663480892288477e-26
as80 9.739858132662906e-39
as81 2.2900436893941727e-50
as82 3.1807030707527265e-61
as83 6.651668409753566e-70
as84 8.374309562461729e-85
as85 4.153306753407796e-99
as86 0.0
as87 0.0
as88 0.0
as89 0.0
as90 0.0
as91 0.0
se64 0.0
se65 0.0
se66 0.0
se67 0.0
se68 0.0
se69 0.0
se70 6.593052415466396e-74
se71 1.9690911096731158e-82
se72 3.663975240219505e-41
se73 7.319948947839883e-44
se74 9.575487028409098e-12
se75 6.897944575143607e-14
se76 2.940496972391568e-10
se77 1.407717806593238e-10
se78 4.606749044587455e-10
se79 7.773865698401885e-11
se80 8.985132057217948e-10
se81 8.1779629271185335e-19
se82 1.6460170873026336e-10
se83 5.915190843682042e-20
se84 7.2686622105259234e-31
se85 7.123733330680845e-45
se86 3.805329823769267e-59
se87 4.889975438018122e-74
se88 1.653626873971576e-89
se89 0.0
se90 0.0
se91 0.0
se92 0.0
se93 0.0
br66 0.0
br67 0.0
br68 0.0
br69 0.0
br70 0.0
br71 0.0
br72 0.0
br73 3.638799842985886e-70
br74 1.4857435714147826e-62
br75 4.906391240800426e-35
br76 4.1468786925575615e-35
br77 3.7002630544763654e-29
br78 4.870414411193743e-38
br79 5.8094812312040724e-11
br80 6.451942439470659e-19
br81 1.5523271918648827e-10
br82 1.2924791697769051e-14
br83 4.6672455739648056e-17
br84 5.867843285448043e-22
br85 1.5801331073487876e-32
br86 1.192623522042229e-44
br87 5.107020223736642e-49
br88 2.6519875660806892e-62
br89 8.474254355940441e-76
br90 1.961121249070982e-90
br91 0.0
br92 0.0
br93 0.0
br94 0.0
br95 0.0
kr69 0.0
kr70 0.0
kr71 0.0
kr72 0.0
kr73 0.0
kr74 1.0798998534943354e-83
kr75 4.8224588194949844e-87
kr76 5.179834362880773e-51
kr77 7.290771992555359e-53
kr78 3.2684872987195967e-12
kr79 2.1955852464709029e-16
kr80 1.0254016794582799e-10
kr81 2.1029394494293262e-11
kr82 2.717879859107892e-10
kr83 1.4062566330247652e-10
kr84 9.32660405034321e-10
kr85 2.28246975308814e-12
kr86 2.764180873110664e-10
kr87 2.405877567120406e-18
kr88 3.0084465269495136e-20
kr89 7.310684079488823e-33
kr90 2.99160333982967e-46
kr91 6.555296841811032e-61
kr92 5.926602462469619e-76
kr93 1.1474875211890927e-91
kr94 0.0
kr95 0.0
kr96 0.0
kr97 0.0
rb72 0.0
rb73 0.0
rb74 0.0
rb75 0.0
rb76 0.0
rb77 1.5918114281595463e-78
rb78 1.4164545473635384e-74
rb79 1.4069063506119744e-38
rb80 3.728170436546404e-48
rb81 5.68323738957641e-34
rb82 7.327857408922511e-43
rb83 4.24985978294829e-29
rb84 4.186727200218622e-29
rb85 1.5612785960097905e-10
rb86 3.171195830361935e-13
rb87 5.708956394966405e-11
rb88 2.134469779406909e-20
rb89 3.8674378835099765e-26
rb90 1.1316787382787233e-35
rb91 8.552412182629958e-46
rb92 1.691106351776049e-59
rb93 8.532882439373061e-73
rb94 3.2023751048233697e-87
rb95 0.0
rb96 0.0
rb97 0.0
rb98 0.0
rb99 0.0
sr75 0.0
sr76 0.0
sr77 0.0
sr78 0.0
sr79 0.0
sr80 1.0591198926679264e-54
sr81 2.251303985436193e-59
sr82 6.449665873146348e-49
sr83 2.4631801403863103e-50
sr84 1.833427929692957e-12
sr85 1.3995120032342803e-14
sr86 1.196038700319256e-10
sr87 5.160321094815999e-11
sr88 5.698954003854179e-10
sr89 7.776706557275701e-14
sr90 7.505656594113493e-15
sr91 2.6761011115502544e-18
sr92 8.519431672770784e-21
sr93 1.3027436524120627e-30
sr94 5.125983932360257e-43
sr95 1.079325918119014e-56
sr96 1.2857901690485083e-71
sr97 1.3085284210594448e-87
sr98 0.0
sr99 0.0
sr100 0.0
sr101 0.0
y77 0.0
y78 0.0
y79 0.0
y80 0.0
y81 5.0234100421015065e-88
y82 3.0982434747925585e-93
y83 1.174960642528236e-76
y84 2.815616859863375e-84
y85 9.68550857893339e-37
y86 1.3370540587881802e-37
y87 7.380274295775607e-33
y88 6.609134281197638e-32
y89 1.3770569775280898e-10
y90 1.2750856690015253e-15
y91 2.119744356722641e-15
y92 5.440686111766093e-19
y93 2.7407392066690974e-19
y94 8.802055485879279e-26
y95 7.94433146835513e-30
y96 1.982620004965778e-43
y97 1.0955385271436005e-56
y98 9.640789339215711e-72
y99 6.499619466674162e-85
y100 0.0
y101 0.0
y102 0.0
y103 0.0
zr80 0.0
zr81 0.0
zr82 0.0
zr83 0.0
zr84 3.3628542154064044e-91
zr85 4.691504281751024e-97
zr86 5.297120174015961e-55
zr87 2.523784862886817e-56
zr88 1.0100739290442981e-48
zr89 7.654333501414433e-27
zr90 1.6716787358606226e-10
zr91 4.0539461615813615e-11
zr92 5.8168933013634756e-11
zr93 3.786872888884282e-12
zr94 5.448741993700084e-11
zr95 3.419473877329916e-14
zr96 9.043740119784972e-12
zr97 1.7310661767048738e-17
zr98 7.609905338477062e-31
zr99 1.6722641951131707e-45
zr100 3.9698667923419e-59
zr101 7.021070892390027e-74
zr102 2.6615327228227223e-88
zr103 0.0
zr104 0.0
zr105 0.0
nb83 0.0
nb84 0.0
nb85 0.0
nb86 0.0
nb87 2.8387981558378924e-86
nb88 4.058906460974962e-80
nb89 1.9726624562604999e-69
nb90 6.431854818841189e-46
nb91 7.615707965511632e-32
nb92 9.69374377527052e-31
nb93 1.4721741476287335e-11
nb94 6.484095587600132e-13
nb95 1.6414332970200958e-14
nb96 4.108612198495228e-18
nb97 1.3267210922037855e-18
nb98 1.4983951084168873e-31
nb99 9.159183896488659e-44
nb100 2.0942003718187992e-57
nb101 1.990504717733662e-67
nb102 3.696183111277783e-81
nb103 2.3453943077956002e-94
nb104 0.0
nb105 0.0
nb106 0.0
nb107 0.0
mo85 0.0
mo86 0.0
mo87 0.0
mo88 0.0
mo89 0.0
mo90 1.3010752834041512e-77
mo91 2.6811823878363758e-68
mo92 9.832108822678267e-12
mo93 6.62824763970989e-14
mo94 1.2431162478308093e-11
mo95 1.0941618880498539e-11
mo96 1.6412497364989993e-11
mo97 6.4416669744696094e-12
mo98 1.9153514262504484e-11
mo99 9.972651459243989e-16
mo100 5.602527600255683e-12
mo101 5.9551396847443424e-21
mo102 2.3919501392085178e-27
mo103 7.21209525404005e-40
mo104 1.556954327550139e-47
mo105 7.896731815384855e-62
mo106 4.060642764626767e-76
mo107 1.0790894452660043e-91
mo108 0.0
mo109 0.0
tc88 0.0
tc89 0.0
tc90 0.0
tc91 0.0
tc92 1.1077092689169906e-92
tc93 1.1769278667947222e-37
tc94 5.702359061044117e-38
tc95 1.56599550979813e-36
tc96 1.924078491133479e-30
tc97 2.426256414355146e-13
tc98 2.1409195436591089e-13
tc99 1.6951937723125707e-12
tc100 1.7059271645228526e-24
tc101 2.075651289784483e-20
tc102 1.8777102121608102e-29
tc103 9.751819912097583e-40
tc104 8.86182798292378e-33
tc105 5.141640359964537e-37
tc106 4.198101414771132e-49
tc107 9.669697150018256e-61
tc108 5.92046606889889e-74
tc109 7.230323571392106e-88
tc110 0.0
ru91 0.0
ru92 0.0
ru93 0.0
ru94 1.9308758119739773e-58
ru95 1.5883756512592376e-57
ru96 1.97858479595667e-12
ru97 2.2195586992079638e-16
ru98 7.077920281154622e-13
ru99 3.346279491605021e-12
ru100 1.0176659370390393e-11
ru101 3.624887513998579e-12
ru102 2.068626729950118e-11
ru103 6.22427113622213e-14
ru104 7.192619481260929e-12
ru105 4.72881784086594e-17
ru106 1.922054198218358e-16
ru107 4.139327368643581e-28
ru108 2.099197611270549e-32
ru109 3.051885059707065e-45
ru110 9.38841362692685e-58
ru111 2.0706490442510686e-73
ru112 7.165577960206102e-89
rh93 0.0
rh94 0.0
rh95 8.584947297441101e-87
rh96 4.376166764646586e-84
rh97 5.79070708690172e-42
rh98 9.804827194004471e-48
rh99 1.1032287147000297e-38
rh100 2.5572402379642813e-38
rh101 4.849157174605514e-35
rh102 3.0926786670116813e-35
rh103 7.451392806177593e-12
rh104 2.1195924315878173e-23
rh105 2.500586961663615e-16
rh106 1.7752401262444055e-22
rh107 1.735513202950918e-24
rh108 1.3777688793787116e-33
rh109 7.657142071909133e-42
rh110 1.1999638226139469e-54
rh111 1.4302756709983247e-66
rh112 1.643249638079338e-79
rh113 5.845830739454926e-92
rh114 0.0
pd96 0.0
pd97 0.0
pd98 4.1442442375364235e-66
pd99 1.271322557859058e-65
pd100 1.4420711224639502e-56
pd101 1.961736165214106e-58
pd102 1.9878491379673776e-13
pd103 5.746714951423502e-16
pd104 1.1606600321073826e-11
pd105 5.164802666576776e-12
pd106 1.6431019290230938e-11
pd107 2.8364854001459408e-12
pd108 1.1405859488559992e-11
pd109 2.831110336224694e-16
pd110 3.5751879184142576e-12
pd111 2.4126562800698535e-20
pd112 4.8787328709973957e-20
pd113 2.601314754339308e-32
pd114 4.0496418078742e-38
pd115 5.905476457997488e-51
ag98 0.0
ag99 2.0117131861149312e-95
ag100 2.7673480179203367e-96
ag101 5.945982479409816e-85
ag102 5.5291590041792e-85
ag103 1.2640129801054597e-42
ag104 2.1668564624747912e-44
ag105 1.4676977520550688e-36
ag106 6.104443380657186e-36
ag107 2.4559183316686466e-12
ag108 2.5286209019179823e-23
ag109 4.65645381000633e-12
ag110 7.087578312557678e-24
ag111 1.3531443235693334e-15
ag112 7.670702062370124e-20
ag113 8.132766117740597e-27
ag114 2.540566873827238e-39
ag115 1.7598687290204716e-44
ag116 1.8420914912519237e-44
cd101 0.0
cd102 0.0
cd103 0.0
cd104 4.14769095567863e-64
cd105 1.5428166590202793e-64
cd106 3.5222008109524587e-13
cd107 6.65354827644248e-18
cd108 4.4079125557176245e-12
cd109 3.368650759966944e-14
cd110 9.854466406949808e-12
cd111 3.171947507208365e-12
cd112 1.3344576250000001e-11
cd113 4.526857594933239e-12
cd114 1.6431524218436485e-11
cd115 7.591929880308494e-16
cd116 3.09526561225462e-12
cd117 2.6298827071875905e-18
in102 0.0
in103 0.0
in104 0.0
in105 5.09250747902116e-94
in106 8.583083722421051e-94
in107 1.396833869683073e-44
in108 6.12968885890696e-45
in109 2.2199386615334667e-40
in110 6.577248011015225e-41
in111 9.450529977324114e-38
in112 2.208352444884467e-44
in113 2.5280939479626257e-13
in114 1.1013941637366962e-24
in115 3.657484993797022e-12
in116 2.8620002083431273e-24
in117 1.0471160251368417e-18
in118 1.5190358862579002e-25
