n 2.845723402558595e-23
h1 6.150911184633574e-19
he4 2.610694001413341e-14
h2 2.505839231030836e-34
h3 2.9994338146084673e-23
he3 2.666480090267042e-23
li6 5.7640235219613293e-39
li7 8.527179389723203e-29
li8 1.172649069772713e-45
li9 4.264337689574237e-60
be7 1.669055174775834e-33
be9 2.1555173659799014e-45
be10 1.3047196177179016e-36
be11 1.81424829728103e-61
be12 4.4288872032633545e-78
b8 3.662554865858814e-56
b10 6.660725808259661e-26
b11 2.591749843893966e-16
b12 5.350705135812997e-32
b13 1.0053448257482126e-47
b14 2.6416068418056007e-70
c10 0.0
c11 2.742283366049629e-23
c12 0.0009747567511100276
c13 3.581892912614162e-15
c14 5.652415307771421e-10
c15 4.979447206728606e-31
c16 7.656821017160785e-46
c17 5.30097122159431e-69
c18 0.0
n11 0.0
n12 1.0431490312083273e-43
n13 1.4510788135106427e-16
n14 2.928733022122397e-09
n15 2.828534249680649e-10
n16 1.85288154638634e-24
n17 1.3106325688224524e-37
n18 1.1581048506859479e-52
n19 5.48783546591809e-68
n20 1.3222482059141383e-85
n21 0.0
o13 5.397634639555632e-59
o14 2.0341728038619104e-22
o15 1.9267980869165455e-15
o16 0.04164347479594094
o17 1.6365716997223357e-09
o18 7.969871108835286e-11
o19 6.591212347724447e-21
o20 2.00206191905402e-29
o21 4.027785672454703e-41
o22 2.3910410957403375e-53
f16 1.30142151627797e-43
f17 1.1934579408770959e-21
f18 9.67649350957587e-12
f19 4.0108645299226865e-10
f20 6.028162335669913e-29
f21 7.133892369525009e-37
f22 7.553940467487312e-43
f23 1.438250635943429e-48
f24 6.778662510259264e-63
f25 1.6604497880779624e-78
f26 0.0
ne16 3.9410164841421636e-77
ne17 4.16433032499064e-75
ne18 3.290451325429481e-34
ne19 9.069106659099773e-21
ne20 0.011987343338841515
ne21 2.1786306219735452e-05
ne22 2.937688765525127e-05
ne23 1.8619634461586112e-14
ne24 1.5865501018479874e-17
ne25 6.525137361424184e-31
ne26 5.883822515178242e-45
ne27 1.373536032530737e-64
ne28 0.0
ne29 0.0
na19 9.099863913611429e-59
na20 8.721812834234049e-34
na21 8.799917577531863e-14
na22 9.002720881504114e-08
na23 0.00026093651975439097
na24 1.8989623581504824e-07
na25 1.3942380831541873e-14
na26 5.315152178902036e-27
na27 6.398352521237657e-40
na28 4.415244787479528e-55
na29 2.420910491424522e-69
na30 6.324408280598466e-85
na31 0.0
na32 0.0
mg20 3.765190428246471e-75
mg21 4.3594233311091076e-47
mg22 3.1755280009375206e-23
mg23 9.618340326023268e-14
mg24 0.001897939924313066
mg25 0.00044741293577348567
mg26 0.00029133330836258797
mg27 4.534259314337649e-10
mg28 4.1000766874395445e-11
mg29 7.453527504620602e-24
mg30 5.171694879136099e-37
mg31 8.964170662760062e-52
mg32 1.341227678256205e-65
mg33 5.177322055005126e-81
mg34 2.654207085177353e-96
mg35 0.0
al22 1.1602639304014735e-70
al23 2.6458257982815854e-45
al24 6.276381151469137e-27
al25 3.828445018697377e-14
al26 7.539770091916905e-08
al27 0.00014605959241747104
al28 4.796740900755744e-10
al29 4.562633100744461e-13
al30 2.1391271460893243e-24
al31 1.3451007478163993e-36
al32 4.546987991318866e-51
al33 2.98329288511849e-65
al34 2.760762942690648e-80
al35 1.8402045793564762e-91
al36 0.0
al37 0.0
al38 0.0
si23 2.2680123223358449e-91
si24 4.5551140940443644e-60
si25 9.440379333482834e-40
si26 3.953313442500982e-25
si27 1.8730117133189058e-16
si28 0.00013259889934156752
si29 2.3003780696100834e-05
si30 1.0428598044965245e-05
si31 2.6533093822665556e-08
si32 3.4563135707383145e-09
si33 2.1965405894748147e-20
si34 2.4758564591401134e-30
si35 2.0199171556144102e-44
si36 1.0606898201349037e-57
si37 1.8695789439960595e-73
si38 8.524388347790864e-82
si39 7.359754740001917e-98
si40 0.0
si41 0.0
p25 2.2038265448145912e-93
p26 1.8538886838089851e-62
p27 1.6453020535709673e-43
p28 2.803176581762258e-29
p29 3.91756168546908e-16
p30 7.518868362955391e-11
p31 4.562786959368101e-06
p32 6.195204278590894e-08
p33 1.202532564434759e-08
p34 3.315886859921449e-18
p35 2.285691641915899e-21
p36 1.4782529621385762e-32
p37 8.281701078342496e-43
p38 2.1456256466501893e-55
p39 2.491382844638637e-68
p40 3.195961868693888e-80
p41 9.82101164641576e-94
p42 0.0
p43 0.0
p44 0.0
s27 2.1566730355790116e-82
s28 3.3397068003171757e-60
s29 8.723977111354583e-42
s30 1.8916262218121304e-28
s31 3.1702800191673302e-21
s32 8.343795606893141e-06
s33 1.0801766095608617e-07
s34 1.0434941919194613e-06
s35 2.5677627836874955e-08
s36 9.021011862452381e-08
s37 8.68705617522822e-15
s38 2.881455660625948e-17
s39 1.0460685654930755e-27
s40 5.399927705568464e-35
s41 2.987700858025901e-45
s42 8.270760756801672e-58
s43 2.3874539817983263e-72
s44 7.427038524727751e-87
s45 0.0
s46 0.0
s47 0.0
cl29 6.984506329731183e-95
cl30 2.9152138353165784e-67
cl31 8.189415990846487e-50
cl32 4.6928349873265067e-36
cl33 3.597914534140386e-17
cl34 7.904366712077427e-19
cl35 1.1417850304046307e-07
cl36 5.730910355081414e-09
cl37 9.212849245526712e-07
cl38 8.697785301706253e-11
cl39 1.1571681488675308e-13
cl40 3.806326850946713e-20
cl41 1.3818785162181446e-25
cl42 2.720182222080207e-34
cl43 5.4039182711276565e-36
cl44 1.4207429212802373e-48
cl45 9.925227609927336e-61
cl46 6.650809468070717e-75
cl47 2.1743004833679436e-88
cl48 0.0
cl49 0.0
cl50 0.0
ar31 1.3082554081408194e-88
ar32 3.944709350544714e-67
ar33 6.281822383003073e-50
ar34 2.821051460933038e-29
ar35 6.174956040931431e-29
ar36 9.332953503440065e-07
ar37 7.919316027278482e-09
ar38 1.1852116951630336e-06
ar39 1.2215799851687832e-07
ar40 5.36801537104151e-08
ar41 2.8010150007137006e-11
ar42 1.6653104810741213e-11
ar43 2.257813196115011e-16
ar44 1.107344351020925e-19
ar45 2.8152112606611176e-28
ar46 6.663250757410047e-36
ar47 1.4957189360093474e-48
ar48 3.602381339656083e-62
ar49 1.276681688515148e-77
ar50 7.523578105481963e-92
ar51 0.0
ar52 0.0
k32 0.0
k33 2.6811670671283042e-99
k34 8.978351541775274e-90
k35 8.806222766854511e-52
k36 9.351802248405595e-44
k37 7.100660667185704e-20
k38 3.4050571673427763e-18
k39 1.5775568559757994e-07
k40 1.5605785766800135e-08
k41 3.9253862075578994e-08
k42 1.9898837748571928e-09
k43 8.642177548593628e-11
k44 9.880988053767634e-15
k45 1.4902716738482903e-17
k46 7.082757649509161e-24
k47 1.3290642388417711e-31
k48 9.452436910569292e-42
k49 1.3110010713886864e-50
k50 9.92116515542883e-64
k51 2.1559710384569102e-75
k52 8.432356655212562e-91
k53 0.0
k54 0.0
k55 0.0
ca35 0.0
ca36 8.562383959351768e-67
ca37 5.522125350546544e-57
ca38 9.910523722282693e-33
ca39 3.403142347782199e-30
ca40 8.160368803295327e-07
ca41 1.6737271685461356e-08
ca42 6.912191918194539e-08
ca43 2.8863102414834688e-08
ca44 6.745727426714988e-08
ca45 1.537840572495982e-08
ca46 4.911948004683764e-09
ca47 2.058710661848058e-10
ca48 2.8318279868931705e-09
ca49 2.274753133477295e-14
ca50 7.786287592660262e-24
ca51 2.39178106633276e-31
ca52 9.505660645303567e-41
ca53 2.1283140690197486e-55
ca54 1.3338335521597393e-69
ca55 1.1651686174406222e-85
ca56 0.0
ca57 0.0
sc36 0.0
sc37 0.0
sc38 0.0
sc39 7.203761718071561e-59
sc40 1.7993921146821392e-50
sc41 1.2184058362398656e-23
sc42 9.758443181236256e-22
sc43 7.786823550125471e-12
sc44 6.864071746056554e-12
sc45 4.816287749091494e-09
sc46 2.288476761191334e-09
sc47 6.111215974590915e-10
sc48 8.004310804634515e-11
sc49 5.170182122678247e-13
sc50 2.463019689758173e-19
sc51 1.0397941928052638e-27
sc52 2.2164715346516e-34
sc53 4.2368700850650913e-47
sc54 1.3232049013333763e-60
sc55 8.101343349324863e-75
sc56 1.284952144088903e-88
sc57 0.0
sc58 0.0
sc59 0.0
ti39 0.0
ti40 5.805957419534204e-74
ti41 1.0041626065260847e-64
ti42 2.1592191777035514e-37
ti43 2.586871774980389e-34
ti44 4.564319161380357e-14
ti45 2.482944939763677e-15
ti46 7.1192823997075004e-09
ti47 7.571649794309169e-09
ti48 1.0188344383598983e-08
ti49 2.4159287359000353e-08
ti50 4.8316855717542096e-08
ti51 1.0347246456816512e-12
ti52 6.48606658483613e-18
ti53 4.555236160595519e-24
ti54 2.331984215760761e-29
ti55 2.1544109176176025e-42
ti56 9.036076051391274e-56
ti57 4.758635728989728e-70
ti58 6.39471283223906e-82
ti59 5.54975400865941e-97
ti60 0.0
ti61 0.0
ti62 0.0
v41 0.0
v42 2.1199561569664856e-89
v43 1.4177967056754088e-59
v44 1.0375935586664934e-48
v45 5.55071099700823e-29
v46 2.1689335273385223e-28
v47 1.4170929522319338e-13
v48 1.0108292944802204e-12
v49 1.4397498175719024e-10
v50 2.76816324114331e-10
v51 6.648966847541764e-09
v52 4.1485928159913424e-13
v53 4.922712469844915e-18
v54 3.0137790973625435e-24
v55 2.5564044737385056e-32
v56 8.468966844267381e-45
v57 2.366741625586066e-56
v58 8.650509114258354e-69
v59 7.429496710362068e-73
v60 2.2527483831416928e-81
v61 2.549160245288319e-94
v62 0.0
v63 0.0
v64 0.0
v65 0.0
cr43 0.0
cr44 2.1710652540562393e-74
cr45 4.9458413578355e-63
cr46 1.795318958106814e-42
cr47 2.577432067673139e-41
cr48 1.2763275016471198e-16
cr49 1.2901729624259348e-17
cr50 1.3529581810153202e-10
cr51 6.263723252014886e-11
cr52 1.2807158999798433e-07
cr53 2.9427074520530836e-08
cr54 1.4669623952236286e-07
cr55 1.9284791236890873e-12
cr56 1.5991905073598584e-15
cr57 9.522494607344002e-24
cr58 1.0847153768646095e-31
cr59 9.541088126139787e-44
cr60 1.6708011631394883e-54
cr61 1.54997801911818e-66
cr62 2.920490921782757e-77
cr63 3.975892839161428e-90
cr64 5.858919757328418e-98
cr65 0.0
cr66 0.0
cr67 0.0
cr68 0.0
mn45 0.0
mn46 1.2035260086719169e-82
mn47 8.941170198005454e-65
mn48 6.07499707524495e-56
mn49 4.646215921279231e-31
mn50 5.575079183178129e-31
mn51 1.471045977191297e-15
mn52 6.2831314669907754e-15
mn53 7.739957713031694e-11
mn54 7.218966636761694e-11
mn55 1.5482477316996498e-07
mn56 3.7856588583089896e-11
mn57 6.912913418963001e-16
mn58 6.776181376276519e-25
mn59 2.417516778687751e-30
mn60 1.0312671134254793e-38
mn61 8.527519787500554e-50
mn62 4.6869939217823073e-57
mn63 5.476160586056686e-68
mn64 1.9832514630394122e-80
mn65 6.306699344365108e-92
mn66 0.0
mn67 0.0
mn68 0.0
mn69 0.0
mn70 0.0
mn71 0.0
fe47 1.1949313369054055e-99
fe48 7.817629784328018e-80
fe49 1.903096475603881e-71
fe50 9.943011624927958e-50
fe51 5.4502824038316376e-45
fe52 8.329295824047282e-20
fe53 1.589888708490618e-20
fe54 7.097872785967164e-08
fe55 3.926781959483919e-08
fe56 6.509250049314882e-06
fe57 3.2650883906910886e-06
fe58 6.982107018944417e-06
fe59 1.1919360926438723e-06
fe60 4.614502868700553e-07
fe61 1.3703511652355788e-11
fe62 4.444409230207983e-17
fe63 1.0261378200620655e-26
fe64 5.257687437525025e-36
fe65 3.186522005178043e-48
fe66 3.945623424678249e-57
fe67 2.7984307168663367e-64
fe68 5.106713381983838e-77
fe69 7.090351524644118e-89
fe70 1.1388658815060922e-93
fe71 0.0
fe72 0.0
fe73 0.0
fe74 0.0
co48 0.0
co49 0.0
co50 1.930363155014257e-95
co51 7.113439528288539e-72
co52 1.7017843351013585e-63
co53 1.059426339273418e-34
co54 7.108039697074066e-35
co55 1.4461437281768492e-12
co56 8.825308796763535e-13
co57 1.7145158063782285e-09
co58 1.2646293357432303e-09
co59 1.435588874584822e-06
co60 2.704420895012366e-07
co61 3.557981195303732e-09
co62 1.8760432669130453e-13
co63 1.9597775588356904e-19
co64 3.4873901093154886e-31
co65 3.170952185098e-39
co66 4.603712428270181e-51
co67 3.999410076885076e-57
co68 9.151762237811595e-69
co69 5.522695248079712e-73
co70 5.310099668847852e-85
co71 2.375891707783381e-90
co72 0.0
co73 0.0
co74 0.0
co75 0.0
co76 0.0
co77 0.0
ni51 0.0
ni52 6.798030300296404e-88
ni53 4.114111116245618e-79
ni54 8.01484527669403e-50
ni55 1.2877106724150266e-49
ni56 9.470444993077123e-17
ni57 4.9778613351106156e-18
ni58 1.3077519473083373e-08
ni59 8.797343657649132e-09
ni60 9.459277797435904e-07
ni61 9.747240017361706e-07
ni62 9.953297475287957e-07
ni63 1.1300233390723705e-06
ni64 1.0364758323004281e-06
ni65 4.395867673372301e-09
ni66 1.1475528587559271e-09
ni67 3.905006345931722e-18
ni68 2.3236137778817785e-22
ni69 6.661895725886164e-30
ni70 4.035705484448797e-37
ni71 3.537236294766328e-46
ni72 1.738407072528432e-54
ni73 1.691874077914914e-64
ni74 2.6282503357554303e-71
ni75 1.1874473845459346e-81
ni76 2.0521418725949904e-94
ni77 0.0
ni78 0.0
ni79 0.0
cu52 0.0
cu53 0.0
cu54 0.0
cu55 1.258859675654012e-74
cu56 3.627529987312802e-70
cu57 5.924976980393537e-36
cu58 8.967522569542727e-32
cu59 1.2631448836663875e-17
cu60 7.037494238877447e-16
cu61 3.1596365506757154e-12
cu62 5.686017043601373e-13
cu63 2.2832749263635606e-08
cu64 3.5242201695793466e-09
cu65 2.1606522162615505e-07
cu66 3.724267403031478e-11
cu67 1.2926464606382323e-09
cu68 1.6499031457528408e-16
cu69 1.2735300935286275e-17
cu70 6.831140718868874e-27
cu71 4.226163750374074e-29
cu72 2.2168772348515608e-36
cu73 1.980501263924257e-42
cu74 6.857254296229022e-51
cu75 2.1680259792510106e-57
cu76 1.0586541534144751e-66
cu77 7.946477489124086e-75
cu78 6.075700999255654e-84
cu79 1.668002182832449e-95
cu80 0.0
cu81 0.0
cu82 0.0
zn55 0.0
zn56 1.0095370662356881e-91
zn57 1.328256992727004e-86
zn58 1.0585786314371704e-51
zn59 5.990498515879231e-47
zn60 6.744030519571393e-24
zn61 2.5159530060792637e-24
zn62 8.330311919957974e-17
zn63 2.8738190731537773e-18
zn64 1.5522710413340368e-08
zn65 4.755177860983674e-09
zn66 1.6352637850486655e-07
zn67 5.589357259394502e-08
zn68 1.7409785316142034e-07
zn69 2.951685681737706e-10
zn70 4.96444369870554e-09
zn71 4.365497544833854e-13
zn72 4.061137169253092e-12
zn73 5.2760350217943675e-20
zn74 5.24050776710538e-22
zn75 7.996684003654405e-31
zn76 1.1991261685958507e-37
zn77 8.12818618682194e-47
zn78 1.0142794302356419e-54
zn79 4.2396983185272397e-63
zn80 7.358428169618109e-74
zn81 6.562516729205768e-89
zn82 0.0
zn83 0.0
zn84 0.0
ga57 0.0
ga58 0.0
ga59 1.1722736133318606e-79
ga60 2.6885774886860168e-70
ga61 8.676588298237737e-46
ga62 7.972014183061416e-40
ga63 5.537936637742566e-28
ga64 4.689966812292253e-26
ga65 3.23050255088525e-15
ga66 3.149560188284207e-14
ga67 1.1163701757237072e-11
ga68 3.68702271046556e-13
ga69 3.12210723661405e-08
ga70 1.2446326163989474e-10
ga71 7.652625785652268e-09
ga72 1.5390799405741185e-09
ga73 3.7192820154815307e-10
ga74 2.0281628749712597e-14
ga75 1.1319352502390465e-17
ga76 9.745168101001083e-24
ga77 2.8995003196261345e-29
ga78 5.206093210950476e-37
ga79 8.582313896836858e-44
ga80 8.498957932962715e-52
ga81 2.041809178489367e-58
ga82 8.655853575042774e-71
ga83 2.0141555427520198e-82
ga84 3.3120049153110803e-96
ga85 0.0
ga86 0.0
ge59 0.0
ge60 1.6166106713697922e-98
ge61 2.2167022856852828e-88
ge62 1.3272234391313538e-60
ge63 1.3632364197219022e-55
ge64 1.4450427164467159e-36
ge65 1.0113327843181506e-35
ge66 1.1884025530897051e-20
ge67 1.306446612969032e-20
ge68 6.630151536159221e-16
ge69 9.229777144572995e-16
ge70 2.406793599646691e-08
ge71 7.9132763745489e-09
ge72 2.4822452157998922e-08
ge73 1.46775266328246e-08
ge74 3.036748497087577e-08
ge75 2.3587992414934115e-10
ge76 1.748629243063342e-09
ge77 2.2662493419829477e-12
ge78 1.307405924564187e-13
ge79 1.5237351817638191e-21
ge80 1.4363163440897854e-25
ge81 1.1310350988229888e-33
ge82 1.044301744772021e-40
ge83 1.2654225162099793e-51
ge84 2.4331809042104626e-62
ge85 3.80521247441745e-75
ge86 1.1488995939768132e-87
ge87 0.0
ge88 0.0
ge89 0.0
as61 0.0
as62 0.0
as63 1.703611768622514e-89
as64 2.2980273066030664e-79
as65 7.571148818764013e-60
as66 3.0633833070476182e-52
as67 6.289821095042153e-33
as68 7.57858861032225e-29
as69 3.4187077072433885e-23
as70 5.794392314291488e-22
as71 2.8617461559626307e-13
as72 1.0252935035773412e-13
as73 2.041287658291007e-12
as74 9.34070638466716e-13
as75 6.13886887102457e-09
as76 2.7722073734685895e-09
as77 2.297343154019537e-09
as78 2.5819129879624283e-11
as79 1.4341201616400543e-13
as80 3.2787594406383607e-21
as81 3.1043798505490114e-23
as82 1.3978241297394851e-28
as83 3.3873336483766726e-33
as84 6.064187715126946e-43
as85 9.672669979828467e-51
as86 4.502735475084106e-61
as87 2.307061505355222e-71
as88 8.783914239523601e-85
as89 2.452307935549142e-97
as90 0.0
as91 0.0
se64 0.0
se65 1.9437732834845433e-99
se66 8.40747145364072e-77
se67 5.871047098376927e-69
se68 1.571752099200598e-42
se69 1.0777986159161528e-38
se70 2.3669451822054327e-29
se71 3.322440930754292e-29
se72 7.262680772939379e-18
se73 8.995236914761993e-19
se74 1.7811400092677496e-14
se75 5.482020234126552e-14
se76 3.320357963039291e-09
se77 4.095197465859163e-09
se78 9.942596800848235e-09
se79 6.3415376000254495e-09
se80 1.6390353430761778e-08
se81 2.385609209586959e-11
se82 6.06839822111295e-10
se83 1.4703300742789605e-13
se84 1.1127874166499062e-17
se85 5.150376926540252e-25
se86 7.222616337036593e-32
se87 1.4292487592258217e-40
se88 7.62772811253702e-51
se89 1.8451011876969425e-63
se90 4.856407455748453e-76
se91 5.8910394474291225e-90
se92 0.0
se93 0.0
br66 0.0
br67 0.0
br68 4.799882557077884e-95
br69 2.067036324728437e-67
br70 7.527275865438464e-56
br71 5.791219403041058e-42
br72 2.1317019989900435e-38
br73 7.344086124298876e-27
br74 2.7167292417090137e-25
br75 7.988421460564772e-21
br76 1.2334450663608055e-19
br77 4.7306145563643997e-14
br78 3.269433114474631e-16
br79 2.3875259501856376e-13
br80 3.718893236358603e-15
br81 3.1313452704070624e-09
br82 9.55491194971481e-10
br83 1.5235463739203398e-10
br84 5.586095224672668e-13
br85 2.1030507242963995e-16
br86 6.73775984036456e-22
br87 4.051454199418882e-26
br88 6.718819962414201e-33
br89 1.6271665736988162e-40
br90 2.2547705025710708e-49
br91 2.705020764900527e-60
br92 4.94486135689509e-72
br93 6.4016911947665975e-84
br94 4.4014764272100516e-97
br95 0.0
kr69 0.0
kr70 9.813258966703952e-85
kr71 1.4317781366475906e-72
kr72 1.441153233005843e-52
kr73 3.824288439442573e-47
kr74 4.921636023827795e-33
kr75 1.2035053790487133e-30
kr76 5.047087700029212e-23
kr77 1.727975867529804e-22
kr78 3.680852560880474e-18
kr79 3.6918144005844596e-19
kr80 2.4059981263367504e-13
kr81 1.1198837744886266e-13
kr82 2.4984877707245526e-09
kr83 3.281820403471776e-09
kr84 1.0452621969904805e-08
kr85 5.7161086668781146e-09
kr86 7.1951067631683905e-09
kr87 2.118949122475391e-12
kr88 1.1713512325339928e-13
kr89 9.655231928128504e-19
kr90 3.1684824024941297e-25
kr91 1.7341529875991793e-33
kr92 1.4838261132725895e-43
kr93 4.844387235007641e-54
kr94 5.425726240752568e-66
kr95 9.115030721891074e-78
kr96 4.4082217693185305e-90
kr97 0.0
rb72 0.0
rb73 1.6054506130431112e-78
rb74 2.2182859458660128e-64
rb75 6.0230330493244894e-46
rb76 3.464719266523397e-40
rb77 1.7289223552930285e-31
rb78 2.8808244104565264e-30
rb79 8.650070887013835e-25
rb80 9.951656522437306e-28
rb81 2.1314442930365148e-19
rb82 1.0541449183769163e-21
rb83 1.5847400351422562e-14
rb84 1.003094381497296e-14
rb85 2.028552826794608e-10
rb86 1.8656340552147825e-10
rb87 2.188007551707785e-09
rb88 8.593237463092879e-13
rb89 3.7524853506785225e-15
rb90 1.034245072538001e-18
rb91 3.033999310502895e-23
rb92 2.1792293316855192e-32
rb93 3.2421951885873672e-37
rb94 5.46472624875457e-46
rb95 5.650566873550706e-57
rb96 2.8410539935030794e-69
rb97 1.1064016885282909e-80
rb98 8.953985536958768e-93
rb99 0.0
sr75 2.1091787515735343e-81
sr76 1.9072125944890432e-61
sr77 4.472844573993421e-52
sr78 4.00230941160394e-36
sr79 2.858171431958794e-33
sr80 2.8365446770206255e-26
sr81 2.3197072917953476e-25
sr82 1.2052129437342571e-20
sr83 1.8009226457929527e-21
sr84 1.1178307790020236e-17
sr85 1.0084166116108217e-16
sr86 2.416775633430616e-10
sr87 3.629266965628625e-10
sr88 6.212063613567629e-09
sr89 9.089259547711545e-10
sr90 2.5591603279926933e-10
sr91 3.6993291208839675e-12
sr92 9.44217435975961e-14
sr93 9.999177363941091e-18
sr94 8.80494651791764e-23
sr95 2.6346921604463026e-30
sr96 2.231517599740786e-41
sr97 2.076350028516346e-53
sr98 2.737703719787839e-63
sr99 1.142419109824041e-75
sr100 5.834109914677255e-88
sr101 0.0
y77 1.8320754611281976e-84
y78 4.4658444491588606e-70
y79 3.018275523602093e-50
y80 2.0575765960760742e-43
y81 4.001493664338225e-36
y82 2.036439514616349e-38
y83 4.19551536387848e-28
y84 7.533412378081284e-33
y85 1.7337962452925173e-23
y86 5.678992813062624e-23
y87 2.601497969749387e-16
y88 6.811873494461288e-16
y89 5.552346816282254e-10
y90 3.201242272160714e-11
y91 8.88981049531679e-11
y92 4.38887921645422e-12
y93 7.066076829478015e-12
y94 3.196946462063337e-14
y95 1.9959391986190814e-16
y96 1.1329011136100025e-25
y97 1.508042192821483e-32
y98 1.3978902135725092e-43
y99 1.4188260965469278e-47
y100 1.5075774989286432e-57
y101 5.162550852602908e-68
y102 2.0377426671054582e-79
y103 2.8969041668130456e-91
zr80 7.586859236378459e-69
zr81 7.214665405930323e-60
zr82 3.858015917636727e-50
zr83 3.7465608706871953e-38
zr84 2.5310230861600943e-30
zr85 1.2421593592983895e-29
zr86 1.984908466128938e-24
zr87 7.78580019691851e-24
zr88 2.8808654725371863e-20
zr89 7.317744538187633e-20
zr90 2.794788459147544e-10
zr91 1.5076531476224056e-10
zr92 3.063206184992803e-10
zr93 1.399629215093172e-10
zr94 2.454249232625152e-10
zr95 7.350412440379816e-11
zr96 1.1831951334861688e-10
zr97 2.5391167990093636e-13
zr98 1.9904431791105365e-20
zr99 1.0900252172745519e-30
zr100 2.702922711489021e-36
zr101 8.853640034589424e-45
zr102 2.974567599600979e-55
zr103 5.3826591479219906e-67
zr104 4.4826808078992317e-79
zr105 2.523413605660811e-92
nb83 7.201348513205179e-68
nb84 5.22725309848675e-50
nb85 7.573344302580975e-42
nb86 9.190721612631182e-38
nb87 2.6783364940414655e-32
nb88 6.576773197292464e-31
nb89 1.0833680286739993e-25
nb90 1.0373751064513013e-24
nb91 3.494569752542152e-16
nb92 2.9247063782010914e-16
nb93 1.551443494023309e-15
nb94 1.4726823120447944e-15
nb95 8.599524697439227e-13
nb96 8.24060446493253e-13
nb97 6.385948763231791e-14
nb98 5.8402995632214285e-21
nb99 7.755119614060291e-25
nb100 3.0673787428086125e-34
nb101 1.4391554929023652e-34
nb102 1.6245574099110361e-43
nb103 4.279799881157562e-48
nb104 1.2878925365643018e-58
nb105 4.708920354094347e-69
nb106 4.747300754706372e-81
nb107 7.17652899715103e-93
mo85 7.996715888538568e-69
mo86 2.1586438639512084e-59
mo87 1.4310679807974842e-46
mo88 1.5672482859691229e-35
mo89 1.0065400137684728e-33
mo90 1.757919067953595e-27
mo91 6.003286102372209e-26
mo92 1.545383515181335e-14
mo93 4.3979679298275175e-15
mo94 4.0818067600107623e-14
mo95 5.357731143325081e-13
mo96 3.932043726181151e-12
mo97 4.8295000856434444e-12
mo98 2.4307931807778638e-11
mo99 1.574083115033711e-12
mo100 1.4819657122784754e-11
mo101 1.9180443914524427e-14
mo102 8.218096882818348e-17
mo103 5.448481747570817e-22
mo104 2.4642682933201145e-25
mo105 7.110086278673634e-36
mo106 1.1689798393562844e-46
mo107 1.4816746714109235e-58
mo108 8.544833396797952e-71
mo109 4.933348157322317e-84
tc88 5.165978458937794e-65
tc89 8.878478017686395e-53
tc90 1.0162794821457154e-46
tc91 1.0912657918309467e-36
tc92 2.631428705660462e-33
tc93 6.090458963183267e-22
tc94 5.49088191998648e-22
tc95 1.3626783004924552e-20
tc96 9.23484922753914e-20
tc97 1.3497980101678105e-18
tc98 1.0356300498149248e-18
tc99 9.295011715866e-13
tc100 1.3834782647182244e-19
tc101 2.2345232046433313e-14
tc102 6.450789087510495e-19
tc103 1.374677990891802e-21
tc104 1.2440299083072748e-21
tc105 1.5620322099490837e-23
tc106 2.7134415590613467e-29
tc107 2.9355866045455307e-33
tc108 1.590429193926503e-40
tc109 5.552668112938726e-51
tc110 1.871681029865078e-62
ru91 8.048681270952379e-65
ru92 1.9547057701302853e-52
ru93 9.202739355782404e-35
ru94 4.602397554959375e-24
ru95 2.5700496959321433e-23
ru96 1.459596468446329e-20
ru97 5.315191102485652e-21
ru98 5.991014943603703e-19
ru99 1.2006008780788874e-16
ru100 4.430410499077537e-12
ru101 2.0376754859788307e-12
ru102 1.0695031364923067e-11
ru103 5.656642167656219e-12
ru104 1.647347942199028e-11
ru105 7.2189268664265e-13
ru106 6.427466101421386e-12
ru107 7.553902951922026e-16
ru108 7.801330128627197e-18
ru109 8.708113707351522e-24
ru110 7.528293686676104e-29
ru111 8.218290260321015e-41
ru112 1.0476987927603282e-52
rh93 2.408424583700587e-71
rh94 1.1389691454503576e-45
rh95 1.99477610437179e-33
rh96 9.22589063967779e-32
rh97 5.694142515870214e-28
rh98 6.972997654867407e-26
rh99 3.34892744363117e-24
rh100 6.3966029901634714e-24
rh101 2.3104960545270504e-19
rh102 1.4482141067895817e-19
rh103 1.0485685534160003e-13
rh104 1.243295909220185e-18
rh105 1.2823542887163327e-12
rh106 4.948999569659865e-17
rh107 1.4417331309756497e-14
rh108 5.14531941243053e-19
rh109 4.163493452895264e-21
rh110 3.47228973164242e-29
rh111 3.438714539950768e-31
rh112 5.662635903016985e-38
rh113 1.8523473735793796e-42
rh114 1.9965655050694828e-48
pd96 2.3964330859019493e-35
pd97 1.8139205606423247e-31
pd98 3.0663565446941284e-25
pd99 4.5884795097611904e-24
pd100 1.95693615853492e-21
pd101 4.3873011413684364e-23
pd102 3.989176817557896e-21
pd103 2.2403123175521076e-21
pd104 5.502746756772021e-13
pd105 4.4190768836635604e-13
pd106 4.608020730589224e-12
pd107 1.546420635615988e-12
pd108 1.0609849800133688e-11
pd109 2.2494552962775537e-12
pd110 9.665034100905852e-12
pd111 6.248681308185768e-14
pd112 2.584819058264227e-13
pd113 3.504913959093049e-18
pd114 3.061029857383474e-20
pd115 7.698448119093268e-26
ag98 5.586312440584169e-43
ag99 9.681778995992224e-36
ag100 4.821364448482663e-34
ag101 8.752489115903757e-30
ag102 7.553098469592381e-28
ag103 3.6072106715685933e-25
ag104 1.5149661002638146e-23
ag105 7.012076211614639e-21
ag106 6.309306438930323e-22
ag107 1.1274006568673172e-18
ag108 7.777658234138708e-22
ag109 1.1330042288861714e-12
ag110 4.051269162047079e-17
ag111 8.806520272762338e-13
ag112 1.395778568238623e-13
ag113 5.434092142710054e-16
ag114 1.0038150791153237e-21
ag115 2.5057255149549745e-24
ag116 1.4281836489193776e-28
cd101 6.319624343175224e-36
cd102 6.394371230893081e-28
cd103 1.7996932623138228e-26
cd104 1.656940583366859e-22
cd105 1.2939943288451334e-23
cd106 4.248523517424302e-21
cd107 3.4834953378386436e-23
cd108 9.121617732478004e-18
cd109 1.8974844051128748e-18
cd110 2.3462000321519593e-12
cd111 7.204021761114824e-13
cd112 5.062783916621642e-12
cd113 2.116172798449223e-12
cd114 1.7162042252510496e-11
cd115 3.313159531480232e-12
cd116 2.480249709399086e-11
cd117 2.6692957612684043e-13
in102 3.397824831796519e-49
in103 7.100076840652819e-40
in104 1.489204068724579e-37
in105 1.1590712404854777e-32
in106 6.764185280684192e-32
in107 6.678123374937645e-28
in108 1.3334110583584238e-25
in109 3.567320085473277e-24
in110 2.0288170508308542e-23
in111 7.48389782113755e-21
in112 3.150852631196977e-22
in113 3.051384139393272e-16
in114 2.837955471485424e-20
in115 4.587003280391372e-13
in116 1.0829872897209067e-18
in117 5.699688388968293e-14
in118 2.698013019179553e-17
