n 1.0419908853810913e-21
h1 4.673682567424097e-16
he4 6.310039978672844e-13
h2 1.5233230869758144e-34
h3 5.646866344371818e-27
he3 4.446953248813647e-24
li6 1.3331689152683537e-37
li7 1.072623420960007e-36
li8 6.759909967184229e-56
li9 6.029317513362303e-65
be7 7.245961825191784e-36
be9 2.5440757432344147e-42
be10 5.087438110223911e-32
be11 3.1902906476789286e-56
be12 2.3820180590270458e-73
b8 1.3931745149533588e-55
b10 1.6027868398821953e-31
b11 4.75741187112202e-20
b12 1.996896286992675e-36
b13 9.71277573905117e-50
b14 8.713873122258659e-73
c10 0.0
c11 4.1207083263339426e-20
c12 1.9152101909806492e-07
c13 7.914357920099551e-16
c14 1.1079506822879447e-14
c15 7.666496918496724e-37
c16 5.387953192798478e-45
c17 4.292701080975844e-68
c18 0.0
n11 0.0
n12 8.511453050630197e-39
n13 7.551177848531551e-22
n14 1.5396204327212337e-12
n15 4.888428369105473e-14
n16 1.9523598376168738e-32
n17 2.432723853339907e-38
n18 8.642824973178827e-56
n19 2.951867900729929e-60
n20 1.5373413009393992e-80
n21 0.0
o13 1.3956799648565015e-54
o14 8.608442609285945e-28
o15 4.4697994365477674e-13
o16 0.020611601560336163
o17 1.3968675256028707e-13
o18 5.973811207094388e-16
o19 1.321437619324158e-29
o20 9.228251548480617e-32
o21 1.668473534909269e-44
o22 3.236408272410981e-50
f16 2.3183130476077847e-29
f17 3.2404799353128543e-20
f18 1.9616054700332475e-17
f19 3.3167869905486834e-17
f20 3.7156237642378506e-25
f21 1.991081564396277e-27
f22 4.335491001871052e-38
f23 8.840682135155153e-42
f24 7.944693250471602e-60
f25 2.771275845691161e-71
f26 0.0
ne16 1.0021238206586694e-46
ne17 1.310866101425979e-45
ne18 6.40420571565305e-30
ne19 1.4796397361180155e-20
ne20 2.084165765716027e-06
ne21 7.784555047133095e-10
ne22 3.8602540648883707e-10
ne23 1.3112175277114213e-18
ne24 4.647908109026181e-23
ne25 2.2823579157617577e-35
ne26 2.5460150107458593e-40
ne27 1.3342548088778136e-61
ne28 2.1620166648458133e-90
ne29 0.0
na19 2.4861588369470007e-50
na20 3.885419066179304e-34
na21 4.757893146259426e-19
na22 1.464681296970804e-11
na23 2.0400014042596773e-08
na24 6.411855579717823e-13
na25 9.837161387819204e-18
na26 1.3752211000765624e-26
na27 2.8510103949148334e-34
na28 2.561322404580291e-50
na29 3.7955680671726005e-60
na30 3.447169571673538e-79
na31 3.5869439736116735e-93
na32 0.0
mg20 9.920171754042365e-64
mg21 2.95064554772631e-45
mg22 2.627814559998117e-23
mg23 2.2770613353928952e-11
mg24 2.8618735523814736e-05
mg25 1.373781517675783e-07
mg26 1.6837699332552323e-07
mg27 3.076075578116124e-14
mg28 1.1392595912097496e-14
mg29 2.375216109225244e-29
mg30 1.1969442462839655e-34
mg31 3.506902220459344e-53
mg32 7.521305842021399e-57
mg33 1.1111517808210392e-75
mg34 1.73985877015864e-90
mg35 0.0
al22 3.2110407629844285e-65
al23 1.8022690111235652e-42
al24 5.892393416250552e-26
al25 2.9539618729377113e-18
al26 1.5128456737653623e-09
al27 7.165263907622755e-07
al28 9.772398454553357e-11
al29 7.324181085885269e-13
al30 1.321677644043156e-22
al31 1.281601124638423e-29
al32 1.2038981933388695e-43
al33 6.472258338302398e-55
al34 1.3088821917855869e-73
al35 1.0430733641503382e-71
al36 2.048068450598216e-91
al37 0.0
al38 0.0
si23 9.877140107818148e-81
si24 4.97125094722491e-54
si25 1.331945448262567e-36
si26 1.2838203697213011e-20
si27 4.8830598920122955e-09
si28 0.013308623863277799
si29 2.1837680404699025e-05
si30 1.221247249042542e-05
si31 7.531657495637531e-12
si32 5.812836401406571e-13
si33 4.709996637717324e-24
si34 5.614900448135009e-29
si35 4.487607766206352e-47
si36 6.551774197514465e-50
si37 4.617146126878882e-69
si38 6.949129238438182e-72
si39 3.8981240237842076e-91
si40 0.0
si41 0.0
p25 2.5532141028342753e-76
p26 2.1789157427890674e-56
p27 6.450655111590928e-38
p28 3.34279340898824e-23
p29 1.066138836596126e-14
p30 4.1856122000688105e-09
p31 1.8641723285892686e-05
p32 1.6979644005806983e-09
p33 7.181259171289263e-10
p34 7.800477569023766e-18
p35 3.36371386812904e-22
p36 9.751808212735134e-38
p37 2.1569279110159298e-41
p38 7.139491271279769e-56
p39 6.484273146347764e-58
p40 6.385734483930707e-74
p41 9.955293163555212e-77
p42 1.2357633061458812e-96
p43 0.0
p44 0.0
s27 8.346457997540912e-75
s28 1.5524019494061425e-51
s29 3.1774994025532718e-34
s30 9.066534601275987e-21
s31 1.495754160824701e-10
s32 0.007097733969729318
s33 2.644782477457422e-05
s34 0.00047973594290137657
s35 1.8258134591783276e-09
s36 1.1177591019260328e-10
s37 1.566371318653768e-22
s38 1.3115743988917305e-21
s39 9.689487939611494e-34
s40 3.401635483526267e-36
s41 2.5238050035189636e-46
s42 1.1864672478672254e-50
s43 5.809161487002133e-69
s44 1.4501879290461575e-73
s45 6.556193199686049e-93
s46 0.0
s47 0.0
cl29 3.2952608665348633e-76
cl30 1.2609158992157788e-55
cl31 1.3223506899533429e-39
cl32 6.07731570053947e-26
cl33 5.023696014764206e-16
cl34 1.0360210640420068e-10
cl35 1.9323586525368314e-05
cl36 1.5309462845080133e-08
cl37 1.5644886226985972e-08
cl38 1.7940629145022435e-16
cl39 2.981039897355119e-18
cl40 3.5230603130372357e-25
cl41 1.501240391223512e-29
cl42 7.095659533380208e-35
cl43 1.817022891289523e-39
cl44 8.459298457319767e-53
cl45 5.0957441705715003e-54
cl46 2.5828583606956124e-64
cl47 4.098983151758545e-79
cl48 1.3554847097033677e-98
cl49 0.0
cl50 0.0
ar31 9.98905252819448e-75
ar32 1.384962475139711e-53
ar33 6.68122471078753e-37
ar34 2.9833052470433847e-23
ar35 2.320590369255022e-14
ar36 0.0006332519093001569
ar37 3.927281146656354e-06
ar38 0.0003971598912914591
ar39 3.6723468774363827e-10
ar40 3.35108219038407e-11
ar41 1.2229736332564605e-16
ar42 4.965610925401815e-15
ar43 1.1835447158032265e-22
ar44 9.752517658623267e-25
ar45 9.659454600333091e-32
ar46 6.699805770714981e-37
ar47 7.500029855247844e-49
ar48 1.1740039269533466e-52
ar49 5.050061187433853e-71
ar50 3.3239267536340207e-82
ar51 0.0
ar52 0.0
k32 5.482341756417347e-100
k33 2.8401723198308057e-78
k34 1.1922169876054918e-55
k35 1.0499116462009452e-42
k36 1.0546593313643412e-29
k37 2.7884788243079615e-18
k38 4.9992307203026545e-11
k39 1.6695070969533322e-05
k40 1.846436850187976e-09
k41 1.438867396617519e-10
k42 6.641178094914998e-13
k43 9.375841221080023e-15
k44 2.624625741474692e-19
k45 2.0436803899644174e-22
k46 1.031455929889793e-28
k47 1.8481317510511974e-32
k48 7.180856585591606e-44
k49 1.340070942901799e-46
k50 6.861663519708809e-64
k51 1.2043455302101249e-67
k52 1.028166672003515e-86
k53 0.0
k54 0.0
k55 0.0
ca35 1.0953330437552679e-72
ca36 3.265777182584513e-56
ca37 1.9870825348666634e-41
ca38 5.83009340539502e-26
ca39 5.403355430368108e-16
ca40 0.0002331683421614332
ca41 5.835622109535028e-07
ca42 7.4534397388182275e-06
ca43 4.297597791228998e-09
ca44 7.567622081628529e-10
ca45 2.9347463726469e-12
ca46 1.9753862984220827e-12
ca47 4.131323595817303e-14
ca48 1.1147117068897066e-12
ca49 6.835414125376533e-21
ca50 2.2485782464898387e-26
ca51 9.564951237739877e-36
ca52 5.076220984516046e-41
ca53 1.863054466421185e-56
ca54 2.4247712574946555e-71
ca55 5.79135201232735e-90
ca56 0.0
ca57 0.0
sc36 6.185916127625915e-98
sc37 3.618308156375985e-81
sc38 1.2137073310633357e-57
sc39 2.3974781310325987e-47
sc40 2.404704863337427e-34
sc41 1.225913832964655e-20
sc42 8.476326987779105e-16
sc43 1.8243639688089463e-10
sc44 3.424731813582375e-10
sc45 9.308294355586433e-10
sc46 2.2478764298789466e-12
sc47 1.1201949908610129e-12
sc48 4.4999829604981966e-13
sc49 5.83149662595406e-14
sc50 3.1428433090154066e-22
sc51 2.3666967678324478e-29
sc52 2.013918401510241e-35
sc53 3.3757176488503623e-43
sc54 5.5283589273852835e-52
sc55 6.025975776348938e-68
sc56 5.084572128752297e-83
sc57 4.834668327468892e-99
sc58 0.0
sc59 0.0
ti39 6.538773455695585e-76
ti40 1.532751279557977e-62
ti41 6.726316380391696e-48
ti42 5.514918961878558e-31
ti43 1.6461367978850654e-22
ti44 4.073135900779251e-08
ti45 6.498960005172232e-09
ti46 1.8592651776151216e-06
ti47 3.0404230221573905e-08
ti48 6.548179091097263e-09
ti49 1.6875134173515796e-11
ti50 4.864636522700883e-11
ti51 1.5546635602656122e-17
ti52 1.403057459853027e-21
ti53 3.438570038213578e-28
ti54 3.4288859088897515e-33
ti55 6.094292697053693e-47
ti56 7.048964224910515e-49
ti57 1.4903691005956428e-66
ti58 3.0504746753009334e-68
ti59 2.1938283382820588e-86
ti60 2.0088752500102862e-95
ti61 0.0
ti62 0.0
v41 3.9562730367394295e-86
v42 1.2765070549975822e-68
v43 2.540991567210167e-50
v44 9.111221994572352e-37
v45 1.4252010576025575e-22
v46 8.616817718152672e-16
v47 2.7942945526949507e-10
v48 3.5959824714345143e-09
v49 5.200990434707629e-09
v50 4.346643181554096e-11
v51 3.8495391148427174e-10
v52 3.821768950576493e-15
v53 3.6027360383675355e-19
v54 1.7092253886703187e-27
v55 1.5366865504687877e-32
v56 6.73108288332359e-41
v57 9.063128314816074e-46
v58 7.141617187396951e-60
v59 1.516471608101433e-62
v60 5.383369488551127e-78
v61 5.988520108370306e-85
v62 0.0
v63 0.0
v64 0.0
v65 0.0
cr43 2.3248864154878573e-85
cr44 4.3408641448957435e-63
cr45 5.152769051988637e-51
cr46 4.4169599888909615e-30
cr47 1.6896759612435315e-21
cr48 2.946359119805505e-09
cr49 6.316185720662087e-09
cr50 1.4956032389264667e-06
cr51 1.0080509356844316e-07
cr52 5.317854143609974e-07
cr53 1.2417374898159953e-10
cr54 1.1299333239908758e-10
cr55 1.482102458159559e-17
cr56 4.0124463198237976e-20
cr57 6.402210066948754e-27
cr58 5.754797219187513e-32
cr59 2.3942129170460402e-45
cr60 8.918783160422846e-46
cr61 3.166532320105924e-60
cr62 3.2797078840395064e-61
cr63 3.9758247254909474e-77
cr64 4.587507446565765e-79
cr65 7.908068515449998e-97
cr66 0.0
cr67 0.0
cr68 0.0
mn45 1.8962818282046306e-85
mn46 5.08857230174374e-69
mn47 2.7404185304181034e-49
mn48 1.3584319174315108e-35
mn49 1.069504680096815e-22
mn50 1.8666332441641843e-16
mn51 3.363734373055182e-10
mn52 4.442688749397575e-09
mn53 1.3061468563226695e-07
mn54 8.708093464707177e-10
mn55 5.857502078621333e-10
mn56 5.39101597254226e-15
mn57 6.705900331711514e-18
mn58 1.9790291023606847e-25
mn59 7.604863483685931e-29
mn60 6.790979528779754e-37
mn61 3.7964038462745495e-42
mn62 7.135689326884182e-55
mn63 7.876084715385442e-55
mn64 3.6176436628738954e-68
mn65 1.1929315564875603e-69
mn66 6.055251988011584e-85
mn67 3.583074618133577e-89
mn68 0.0
mn69 0.0
mn70 0.0
mn71 0.0
fe47 5.890817207841636e-85
fe48 3.326853480101992e-61
fe49 1.4614080224999413e-48
fe50 2.0087482183305718e-32
fe51 5.228958894141453e-23
fe52 1.5021979613826193e-10
fe53 1.1237179433035137e-09
fe54 7.932256119843273e-06
fe55 5.44878918648096e-07
fe56 1.0425865087884585e-05
fe57 3.1241770220775227e-09
fe58 7.735528602856916e-09
fe59 8.365887047391993e-12
fe60 1.5510461749910458e-10
fe61 6.46499566890923e-18
fe62 5.189188503880277e-22
fe63 5.948842097857703e-29
fe64 4.5888641762476106e-33
fe65 1.1925998418142157e-46
fe66 9.871206267289425e-47
fe67 3.332279192163062e-60
fe68 2.5245065246919055e-62
fe69 4.66210804226166e-78
fe70 1.878955324003989e-78
fe71 1.5348870214520517e-94
fe72 5.722184906429523e-98
fe73 0.0
fe74 0.0
co48 0.0
co49 3.6939559751746725e-70
co50 5.034707019742116e-69
co51 1.5877168259594802e-51
co52 1.1713418236494587e-40
co53 2.4419591869119753e-25
co54 9.942245614908902e-18
co55 5.561640615794929e-10
co56 1.2724340226830987e-09
co57 1.617929056932488e-07
co58 8.705739543586325e-10
co59 6.578698666027715e-09
co60 3.179009531587708e-11
co61 3.1280415485445973e-12
co62 1.4014344446420413e-18
co63 1.0657994188262302e-22
co64 1.7355493710187816e-29
co65 6.245910768844352e-34
co66 1.113623881644624e-42
co67 6.212673747944606e-46
co68 4.930682832350492e-59
co69 9.241970079674935e-59
co70 5.056010973297035e-74
co71 2.337380833264838e-74
co72 3.965526781879453e-90
co73 1.5865993375790062e-96
co74 0.0
co75 0.0
co76 0.0
co77 0.0
ni51 4.144721614565418e-85
ni52 5.497059445187781e-65
ni53 9.12882365719555e-53
ni54 1.8298347427717793e-35
ni55 1.3861373420128918e-25
ni56 1.3202597922863975e-10
ni57 6.62801381401843e-10
ni58 9.433665227363915e-07
ni59 4.619845187341914e-08
ni60 9.265563404529876e-06
ni61 4.855580408109522e-09
ni62 3.4813236523966616e-07
ni63 3.344548374094085e-11
ni64 1.1468575364127076e-09
ni65 5.757240566502501e-15
ni66 1.4527468216511228e-12
ni67 3.547615482384465e-21
ni68 8.426483587370176e-26
ni69 9.664615667574948e-33
ni70 5.035945210556598e-37
ni71 1.5419086964389492e-50
ni72 3.268230094497879e-50
ni73 6.184872964421035e-64
ni74 2.836904691362608e-64
ni75 5.21060138158527e-79
ni76 5.184702361685821e-81
ni77 8.856824623822964e-97
ni78 0.0
ni79 0.0
cu52 0.0
cu53 2.9941724991331543e-90
cu54 4.9927289103563465e-74
cu55 2.9720568667792385e-56
cu56 3.585576232797212e-44
cu57 2.6855886588050906e-28
cu58 5.525770531210657e-22
cu59 1.3934090619722582e-16
cu60 1.0683420759826035e-14
cu61 5.2805533052148855e-11
cu62 4.818178462052161e-12
cu63 4.233511321371364e-09
cu64 4.249127685967151e-12
cu65 3.764234947054411e-10
cu66 2.619934591238357e-15
cu67 1.6118068417801223e-12
cu68 5.603756360500675e-20
cu69 4.518022635832871e-22
cu70 1.2608804294452417e-28
cu71 8.057167639238071e-32
cu72 3.9322790783990464e-38
cu73 5.67675823215436e-41
cu74 1.712109678767128e-47
cu75 1.1979602651082228e-51
cu76 1.013228898451492e-58
cu77 2.4112154681213236e-64
cu78 1.460670554191066e-77
cu79 6.421797523786176e-79
cu80 2.3258410941936027e-98
cu81 0.0
cu82 0.0
zn55 9.573682927475754e-93
zn56 9.148962784147406e-73
zn57 3.508020464094043e-60
zn58 1.2829486310304581e-42
zn59 6.771390555384933e-34
zn60 9.96815018432937e-21
zn61 1.0500156458048583e-18
zn62 8.124743431804588e-13
zn63 4.184685424312115e-13
zn64 2.4953229673565833e-09
zn65 1.24050456373143e-11
zn66 1.1499226517170668e-08
zn67 4.17214545774143e-12
zn68 4.705918189042769e-10
zn69 4.869541101572407e-16
zn70 4.534887447061703e-12
zn71 3.2524721259404836e-19
zn72 1.5523316831953422e-15
zn73 1.302615565995527e-23
zn74 3.6199581195813806e-27
zn75 2.8978730371077356e-33
zn76 1.8104394728485583e-37
zn77 7.098672943322934e-45
zn78 8.176915711138651e-50
zn79 7.755207791119889e-63
zn80 2.3682870434616704e-64
zn81 2.9923906037705377e-83
zn82 4.8074003014813527e-91
zn83 0.0
zn84 0.0
ga57 9.809806466959893e-100
ga58 1.3161541818670325e-84
ga59 4.420007186256453e-65
ga60 6.7262896582724e-54
ga61 7.195765926742835e-40
ga62 9.273723365400584e-31
ga63 1.0343092636201082e-24
ga64 6.949913772203913e-22
ga65 3.548372736995985e-17
ga66 1.2389154482408293e-16
ga67 1.9864739657838388e-12
ga68 2.844012448521573e-14
ga69 7.160909785033761e-11
ga70 1.1830069136588833e-14
ga71 1.2294758710918631e-11
ga72 1.7296198165420307e-15
ga73 5.90984817891439e-13
ga74 1.1195610151025472e-19
ga75 4.862564677618762e-22
ga76 1.2092392658672626e-27
ga77 2.597816290062192e-31
ga78 1.4164706044744732e-36
ga79 2.4330481208561e-41
ga80 2.4679651765546606e-53
ga81 1.0341215913460084e-52
ga82 9.74570957530158e-70
ga83 1.4653935867538795e-82
ga84 0.0
ga85 0.0
ga86 0.0
ge59 0.0
ge60 7.410072148453074e-83
ge61 2.4696256607628194e-71
ge62 1.0309930520006915e-53
ge63 7.710130600022134e-45
ge64 4.772209214973731e-28
ge65 8.007209151500052e-27
ge66 7.695242592026352e-19
ge67 1.7507024533905673e-18
ge68 2.4008273548496372e-12
ge69 1.4068334159000632e-13
ge70 2.1410028496657243e-09
ge71 1.3380768475141608e-12
ge72 3.501803041825351e-09
ge73 4.881413168371772e-13
ge74 4.096528139083404e-11
ge75 1.0297793246913253e-15
ge76 1.7275509270095981e-12
ge77 5.819921336050329e-19
ge78 6.637489791521996e-17
ge79 6.215257579702982e-25
ge80 3.795072945783276e-29
ge81 4.840295775835396e-35
ge82 8.618777078861312e-40
ge83 2.4153980626019755e-55
ge84 1.3515486137832025e-56
ge85 1.0811613786695186e-73
ge86 1.693182994109093e-79
ge87 1.344485516890724e-97
ge88 0.0
ge89 0.0
as61 0.0
as62 1.9839195039118273e-95
as63 1.9847801991613717e-76
as64 5.005169283360768e-65
as65 7.911249941790067e-48
as66 4.232920328393273e-40
as67 1.0818020061427578e-31
as68 1.6385529565289122e-28
as69 7.746160738170721e-22
as70 3.2629302907923487e-20
as71 9.165671896973483e-15
as72 5.552567492093481e-16
as73 1.30217744276707e-11
as74 1.3892092985600355e-14
as75 1.7720309337874657e-11
as76 6.00449344269997e-14
as77 3.1767631210919505e-12
as78 1.0750668154237962e-16
as79 1.5430463979600008e-17
as80 7.508137042013206e-24
as81 5.222964954272416e-27
as82 2.2535406551957163e-31
as83 3.8847384032417487e-35
as84 5.962679003446092e-49
as85 1.6009803310254245e-48
as86 5.640006742342806e-63
as87 1.1930272428840197e-66
as88 1.435908878734415e-82
as89 1.1379390720525881e-97
as90 0.0
as91 0.0
se64 7.81336919803875e-94
se65 1.594942584681384e-83
se66 5.426032932611673e-63
se67 4.7379149753998195e-54
se68 4.7210742784106424e-36
se69 6.044941792061683e-34
se70 6.53865878337451e-23
se71 1.6802803253475325e-21
se72 5.159260038553669e-13
se73 1.3158367967281351e-13
se74 4.25560316583351e-09
se75 1.4537648493837897e-11
se76 9.324405723327135e-09
se77 2.177494148860986e-12
se78 8.759520576328886e-11
se79 2.1843431761328978e-13
se80 1.8687043906785584e-11
se81 1.8353577740856219e-16
se82 5.035430806375252e-13
se83 3.9072619618701305e-20
se84 2.0611077271110488e-23
se85 1.7788790449518686e-32
se86 2.397390029812978e-34
se87 1.4116582054396968e-47
se88 3.42438814828705e-48
se89 1.7461800220707142e-63
se90 1.0505429292626143e-72
se91 1.1022431929691884e-90
se92 0.0
se93 0.0
br66 0.0
br67 9.15972056929222e-87
br68 1.969478385968758e-75
br69 1.5181778278372819e-56
br70 5.97087620141828e-47
br71 1.4245160323926033e-35
br72 1.8586845068435737e-32
br73 1.55787158978234e-23
br74 7.60564057060295e-21
br75 2.1777407352740105e-15
br76 1.6566095138619062e-15
br77 6.6589309689968364e-12
br78 1.1259468289940293e-14
br79 8.710005745055714e-12
br80 6.218401056160221e-15
br81 6.955899370000319e-12
br82 8.917570624610747e-14
br83 2.2969018405967466e-13
br84 1.5375054597444609e-18
br85 8.358763805076407e-21
br86 4.554786308907225e-28
br87 8.549636889392354e-31
br88 1.5429761289682374e-39
br89 4.125393470972677e-40
br90 8.064883867339571e-54
br91 2.5119505609375638e-58
br92 7.830311715021714e-75
br93 2.80205393298705e-85
br94 0.0
br95 0.0
kr69 5.571249065266297e-93
kr70 1.1929576138678324e-70
kr71 2.33882581933424e-59
kr72 6.105460595930453e-43
kr73 1.3858331302624741e-36
kr74 6.044916444723905e-25
kr75 1.7382672837754176e-21
kr76 3.6447217265966115e-14
kr77 1.210688704422456e-13
kr78 1.3373553910097385e-09
kr79 1.4167554720571307e-11
kr80 1.0601188692809555e-08
kr81 2.086983346499819e-11
kr82 4.4941344831929376e-10
kr83 9.041895489282441e-13
kr84 3.021206323487372e-11
kr85 3.876766615286671e-13
kr86 7.224946482980817e-12
kr87 3.253165331371536e-19
kr88 3.041579794032433e-19
kr89 4.868179530916863e-25
kr90 4.374487213022147e-29
kr91 3.573543732882007e-41
kr92 2.6713396945999964e-41
kr93 7.535770383913003e-57
kr94 5.8827271432643995e-61
kr95 1.1823938172150099e-77
kr96 4.6780029384169155e-84
kr97 0.0
rb72 1.0546126537909586e-76
rb73 4.829174830354146e-64
rb74 3.223557697366999e-49
rb75 3.41388822127503e-38
rb76 4.7573968552567397e-32
rb77 1.4542338261081635e-24
rb78 1.4357908027942558e-22
rb79 8.666229328181626e-17
rb80 2.524291159829591e-17
rb81 5.609514560039925e-13
rb82 1.2629084877089245e-14
rb83 5.75632776983531e-12
rb84 3.4439166528786763e-14
rb85 1.017418459532505e-11
rb86 2.341319710855613e-13
rb87 4.882928893998541e-12
rb88 3.13110293287953e-19
rb89 2.326568886269501e-21
rb90 5.080261231679829e-25
rb91 5.085027045050253e-28
rb92 5.786789810663664e-38
rb93 3.4325792129665815e-37
rb94 2.747107650623568e-51
rb95 4.06572104436015e-52
rb96 5.264630829265819e-68
rb97 6.291496032589816e-70
rb98 2.5092521244278316e-84
rb99 1.2485499679769802e-95
sr75 6.509201828568046e-64
sr76 6.487897187249305e-45
sr77 2.63118271821278e-37
sr78 5.4333514379096236e-27
sr79 1.0693388774165049e-23
sr80 5.0239396729284506e-17
sr81 7.391309284746301e-16
sr82 2.481704998977616e-11
sr83 1.9428188334283433e-12
sr84 2.120536802674995e-09
sr85 3.142002198881696e-11
sr86 2.246350249443154e-09
sr87 1.9263565332781856e-11
sr88 1.3685682904589816e-09
sr89 6.235665963491547e-15
sr90 2.4360857526182735e-14
sr91 3.921366927592663e-19
sr92 2.602676851151188e-19
sr93 2.0222570633231974e-24
sr94 8.0072983486658535e-28
sr95 6.02225687099804e-41
sr96 3.862673794638386e-40
sr97 3.9027440364767216e-54
sr98 4.3112358229334227e-54
sr99 3.113664529223864e-69
sr100 6.855169366167286e-76
sr101 5.063037978489949e-92
y77 9.625032027678416e-65
y78 1.4607451823246505e-51
y79 1.7581272492024037e-39
y80 5.164113426042334e-35
y81 9.531394614273529e-28
y82 6.59755741591102e-25
y83 2.1208242820388438e-19
y84 9.82020220364651e-20
y85 1.0330087014110898e-14
y86 7.4893786015664e-15
y87 5.3193786970430005e-12
y88 1.8122842485570164e-12
y89 5.65316687302948e-10
y90 4.370358117366254e-15
y91 7.196545225597584e-15
y92 8.173678032114352e-18
y93 9.991764606214437e-17
y94 6.581936166910604e-21
y95 5.595553221663407e-23
y96 9.41238578732383e-29
y97 1.3721313301419728e-31
y98 3.754917742246477e-44
y99 1.5852460921464074e-42
y100 1.0620619252717365e-50
y101 2.037955498732185e-53
y102 2.1492400014064742e-64
y103 1.3399062935125472e-74
zr80 2.1262247063659473e-51
zr81 5.774249598526648e-43
zr82 5.166186702612795e-31
zr83 6.210870306147913e-27
zr84 9.779555727495509e-21
zr85 1.096828370701684e-19
zr86 1.6758300095506215e-14
zr87 7.572746866022119e-14
zr88 1.2471569769183288e-10
zr89 2.950749568054748e-11
zr90 7.227170839434618e-09
zr91 1.7019145580689404e-13
zr92 2.6616345350054926e-13
zr93 2.8583536368866048e-15
zr94 5.79341613377812e-14
zr95 2.7796719280387284e-16
zr96 6.357894564354973e-15
zr97 2.2626580255685528e-20
zr98 2.9067202046780168e-24
zr99 2.3357507780329043e-36
zr100 2.517803801009156e-34
zr101 3.481625730476773e-41
zr102 4.561301564164944e-45
zr103 3.5618841881279433e-56
zr104 1.6069529472606768e-62
zr105 3.5957162055940835e-76
nb83 2.1693470646784537e-44
nb84 4.8777088413897095e-39
nb85 1.6913691486885695e-31
nb86 9.243679203662142e-28
nb87 1.4199656627484744e-22
nb88 1.5514377260501867e-21
nb89 2.325115593172598e-16
nb90 1.7597599095431989e-15
nb91 2.3007581286028087e-12
nb92 6.761285495210032e-16
nb93 1.867723905012204e-16
nb94 1.3808909488474747e-18
nb95 1.2586880980429444e-16
nb96 3.7131934225160974e-19
nb97 1.6478084165114017e-18
nb98 2.8253494693585665e-24
nb99 4.5905955117461486e-27
nb100 1.5163322507044333e-32
nb101 1.3999630057313877e-34
nb102 5.579619565251614e-40
nb103 4.79563481678147e-43
nb104 3.243790486947916e-53
nb105 2.8643814956192993e-55
nb106 2.086873370309146e-68
nb107 5.9676002015521574e-77
mo85 1.805207063308413e-50
mo86 1.450209765193046e-40
mo87 4.6392670702372657e-32
mo88 1.3682214685285662e-25
mo89 9.741512866102938e-23
mo90 1.2856359749413979e-17
mo91 1.1543113844619963e-16
mo92 2.67501022132033e-12
mo93 6.350277615237011e-15
mo94 4.1223771130516636e-14
mo95 1.8506400093925838e-16
mo96 2.6588543129717984e-14
mo97 8.08035350346077e-17
mo98 1.3816478666886454e-14
mo99 1.8115307708196732e-19
mo100 1.3460991290506371e-15
mo101 2.350729332880304e-21
mo102 8.678848586523475e-23
mo103 2.630062865908239e-27
mo104 4.1991773684851496e-30
mo105 2.9889924785439865e-36
mo106 1.6539468864480695e-40
mo107 5.103228060250546e-52
mo108 5.897261852026173e-60
mo109 6.586384577928485e-74
tc88 1.799178762864124e-45
tc89 4.138675148707456e-38
tc90 1.5791924973564488e-33
tc91 1.0508676309731117e-27
tc92 2.94997884455657e-24
tc93 1.3582588019827376e-18
tc94 1.697523622001155e-17
tc95 2.967674726988839e-16
tc96 6.209662037808066e-19
tc97 3.625363841996343e-17
tc98 2.153142524321342e-20
tc99 2.307071254916187e-17
tc100 2.0322173435426855e-22
tc101 2.3556764896289683e-19
tc102 1.1657708354373047e-24
tc103 8.877761353092662e-27
tc104 1.6094496259420429e-28
tc105 4.705759045544642e-30
tc106 5.2678718709812585e-34
tc107 2.4593572080014898e-36
tc108 1.1331475970853935e-46
tc109 3.7465096688671267e-50
tc110 8.350459617543448e-63
ru91 2.0225948185728177e-43
ru92 2.76579079359847e-30
ru93 4.549456379930399e-25
ru94 7.966973514506692e-16
ru95 4.252589440425442e-15
ru96 3.6110562428901616e-13
ru97 2.322035851472815e-15
ru98 1.7723642812233607e-13
ru99 8.664176283862022e-17
ru100 1.975631742888331e-14
ru101 1.0407118246726589e-17
ru102 1.3364822643472664e-14
ru103 1.0474961238045893e-18
ru104 7.265177812817551e-15
ru105 8.675121413484637e-20
ru106 5.019755243566758e-16
ru107 6.053645562692653e-22
ru108 5.644412911580612e-24
ru109 1.4504337468638794e-28
ru110 3.6953444348282173e-31
ru111 1.476748185275214e-42
ru112 2.5010201566353416e-52
rh93 8.421630781427316e-44
rh94 1.1939765351800602e-36
rh95 5.276187835362402e-26
rh96 4.76467945421233e-24
rh97 4.951097801002625e-20
rh98 1.750373731727743e-18
rh99 3.340354059070802e-16
rh100 6.292899527153132e-17
rh101 2.788955202477532e-16
rh102 3.7772152208109645e-20
rh103 7.073989819295079e-17
rh104 3.9232482027450514e-21
rh105 7.862140028356373e-17
rh106 8.019719839516818e-22
rh107 2.7791978990369763e-19
rh108 3.517416075488257e-24
rh109 3.2688462292681937e-26
rh110 4.959005498618339e-30
rh111 1.5713571428009244e-32
rh112 6.434682665475087e-38
rh113 9.473987355519025e-40
rh114 3.4886183571569035e-51
pd96 1.1678533997367841e-26
pd97 7.87500151100888e-23
pd98 6.306742675913039e-17
pd99 9.112551801923643e-16
pd100 2.916576028125061e-13
pd101 4.6030330610593475e-15
pd102 5.694522907361682e-13
pd103 4.73711967882959e-16
pd104 1.6839864518390613e-14
pd105 5.135292140408155e-18
pd106 7.649976492855432e-15
pd107 9.826319188346265e-19
pd108 7.210367383049629e-15
pd109 2.9985930675351853e-19
pd110 2.2607180721228256e-15
pd111 1.0013764206247273e-20
pd112 7.93524649931726e-18
pd113 1.0707301583793511e-23
pd114 5.651526030896365e-26
pd115 7.041073691759707e-32
ag98 2.9538720350011756e-35
ag99 4.122447667892397e-28
ag100 7.419819636166023e-26
ag101 5.175846959996748e-22
ag102 3.6111486938232125e-20
ag103 6.94870051485993e-17
ag104 6.492135168616093e-16
ag105 1.1157784295765107e-15
ag106 1.0229022338103413e-18
ag107 1.722475108743985e-16
ag108 4.0778447431301274e-20
ag109 2.075934386327779e-16
ag110 3.0131949276374968e-21
ag111 5.902040968752901e-17
ag112 1.7368414383085677e-20
ag113 9.06961671465397e-22
ag114 1.1826670341131223e-25
ag115 5.5370390165715295e-28
ag116 3.95666519605324e-32
cd101 6.944652903840064e-27
cd102 2.405064437597789e-19
cd103 5.687355090769951e-18
cd104 3.039459309782484e-14
cd105 1.966969412289346e-15
cd106 6.769540264223963e-13
cd107 1.7401338725687445e-15
cd108 1.0272572920052002e-13
cd109 2.7652618505476982e-17
cd110 1.7834101649864767e-14
cd111 4.43528699818924e-18
cd112 1.3028401512289162e-14
cd113 1.0113887592140556e-18
cd114 1.2342523157530071e-14
cd115 4.195072431649742e-19
cd116 4.511001926270345e-15
cd117 3.2712394446224755e-20
in102 1.7441983809266877e-40
in103 3.2430564277938696e-32
in104 1.1251593696563626e-29
in105 4.214066189579707e-25
in106 5.2367431284619714e-24
in107 1.2118883652546886e-19
in108 7.976918059286322e-18
in109 8.203040138797814e-16
in110 7.81847405897447e-16
in111 5.164381103597757e-16
in112 1.0544640655638809e-19
in113 2.1602572972169695e-17
in114 2.713492528035841e-21
in115 2.3234011060535972e-17
in116 2.8794908950301506e-22
in117 1.3419981047401316e-18
in118 4.8989945836765783e-23
