n 4.075602040061359e-29
h1 1.6648729995536237e-23
he4 3.7663442825211934e-17
h2 1.1509839034230618e-32
h3 3.0612213396018815e-23
he3 2.6066903996960385e-23
li6 1.702567553251968e-39
li7 3.258121836497521e-28
li8 8.641620258491384e-45
li9 1.130243539210681e-65
be7 1.8377365973877181e-32
be9 4.184178055949192e-41
be10 2.677838710376355e-36
be11 8.49350958825037e-66
be12 1.0255060219562253e-88
b8 1.622295899261161e-59
b10 8.834817898255245e-26
b11 1.9168986552471346e-16
b12 2.38319067957882e-38
b13 1.9679651056551402e-60
b14 2.5372042588369317e-86
c10 0.0
c11 6.225151723242512e-24
c12 0.000998020107908824
c13 8.911821231793565e-15
c14 5.688196372003301e-10
c15 1.1440835210648623e-33
c16 4.841085252147247e-55
c17 3.5923457987320737e-82
c18 0.0
n11 0.0
n12 1.9353916868438971e-47
n13 1.4952854468105134e-16
n14 2.8877855095468436e-09
n15 3.2480145098443334e-10
n16 2.1109781752161155e-29
n17 6.120025558897195e-49
n18 2.273524297713871e-70
n19 5.138659674246907e-92
n20 0.0
n21 0.0
o13 1.8288545751955112e-66
o14 2.787650142428995e-25
o15 1.649784535110232e-17
o16 0.04164898734434674
o17 1.87861752912885e-09
o18 8.973860958950254e-11
o19 4.9858007414174875e-26
o20 1.1039378740363922e-36
o21 2.4593253858768956e-55
o22 1.5982464321878605e-73
f16 3.8096526675041623e-44
f17 9.610539350344451e-25
f18 4.375968964488306e-12
f19 3.694241469417256e-10
f20 4.925536696484802e-36
f21 5.949313399535745e-50
f22 1.3943011497249981e-55
f23 1.5569755654300243e-65
f24 3.96196232594443e-86
f25 0.0
f26 0.0
ne16 0.0
ne17 0.0
ne18 1.6799217789864882e-43
ne19 4.194875087246918e-27
ne20 0.011975236220891255
ne21 2.1830844641435864e-05
ne22 2.9800876347653847e-05
ne23 1.5117951527751324e-18
ne24 8.204175679789925e-19
ne25 1.8163929241750224e-38
ne26 1.020464468090579e-58
ne27 4.956927443913812e-81
ne28 0.0
ne29 0.0
na19 1.0526207558719127e-73
na20 1.1160894151135358e-46
na21 1.9732522374121237e-19
na22 8.457153152387694e-08
na23 0.0002608710575357246
na24 2.1047417354725552e-07
na25 1.0533602669163344e-17
na26 2.357834389768147e-36
na27 1.8366583609034676e-55
na28 9.049007604221743e-77
na29 3.8018869643443494e-97
na30 0.0
na31 0.0
na32 0.0
mg20 2.622461978378938e-96
mg21 8.969844504858724e-66
mg22 1.7924516725069357e-34
mg23 9.742868364522642e-22
mg24 0.0018939222017471857
mg25 0.0004471562079015694
mg26 0.00029097633616962255
mg27 5.703368036850831e-11
mg28 4.227436782626859e-11
mg29 3.645443117607472e-30
mg30 1.5222749820421332e-49
mg31 4.367847267542265e-70
mg32 4.83027458634365e-90
mg33 0.0
mg34 0.0
mg35 0.0
al22 4.770742225342931e-97
al23 6.62092532774409e-61
al24 9.963265307883092e-39
al25 2.029739744666958e-18
al26 2.4340443347602476e-08
al27 0.00014575437481929453
al28 5.7959864285626566e-12
al29 4.902074445232445e-14
al30 7.128993456543287e-32
al31 2.28280636648016e-50
al32 5.226221118843648e-71
al33 2.5950194907175795e-91
al34 0.0
al35 0.0
al36 0.0
al37 0.0
al38 0.0
si23 0.0
si24 9.603045189932256e-81
si25 2.6945743181977405e-57
si26 4.943140239466266e-35
si27 1.2731566681988523e-23
si28 0.00013224887566050346
si29 2.2935198582553802e-05
si30 1.0408139138900164e-05
si31 2.2957724120470718e-08
si32 3.4663429127837777e-09
si33 3.2881505468051525e-27
si34 3.483696054881542e-45
si35 8.542721180662483e-65
si36 8.751310683302656e-83
si37 0.0
si38 0.0
si39 0.0
si40 0.0
si41 0.0
p25 0.0
p26 2.4829575810254422e-85
p27 1.1183963208806564e-55
p28 4.5632500752213854e-42
p29 7.581184573647299e-22
p30 1.1166682651734135e-12
p31 4.559774852635774e-06
p32 6.177326451897506e-08
p33 1.2011197184201649e-08
p34 2.4094002992082164e-25
p35 9.067583987023805e-25
p36 1.063982833307979e-42
p37 3.9204010415922204e-59
p38 1.0463348407872888e-77
p39 1.1009536255982873e-96
p40 0.0
p41 0.0
p42 0.0
p43 0.0
p44 0.0
s27 0.0
s28 7.248425535690663e-79
s29 1.3439510292380597e-60
s30 3.6047148583286893e-40
s31 2.643169277345536e-29
s32 8.344556223245179e-06
s33 1.0803520719000135e-07
s34 1.0427223952391109e-06
s35 2.5645290672366818e-08
s36 9.017227527421781e-08
s37 4.160262993887619e-16
s38 2.597679184731437e-17
s39 8.490509690435641e-35
s40 5.886800624127169e-44
s41 4.165135032418428e-61
s42 7.077285659238093e-80
s43 4.964714453952568e-100
s44 0.0
s45 0.0
s46 0.0
s47 0.0
cl29 0.0
cl30 1.3813359420276617e-91
cl31 1.9374557562726882e-65
cl32 2.8880203029400273e-49
cl33 4.03077388747412e-23
cl34 3.0878473323766733e-25
cl35 1.1398750046319587e-07
cl36 5.732562545273722e-09
cl37 9.219563738954236e-07
cl38 2.0187817652415056e-11
cl39 7.315325957078235e-14
cl40 1.0975682884349756e-22
cl41 2.082055634382942e-29
cl42 1.8865864588417437e-44
cl43 2.1514827444386216e-50
cl44 4.270674366683659e-69
cl45 2.6206412354172455e-86
cl46 0.0
cl47 0.0
cl48 0.0
cl49 0.0
cl50 0.0
ar31 0.0
ar32 2.1073754670373448e-89
ar33 1.340763833632147e-69
ar34 2.2754817537196882e-41
ar35 5.887137784494168e-42
ar36 9.338857721942121e-07
ar37 7.922613906903545e-09
ar38 1.184900358902647e-06
ar39 1.220667417666537e-07
ar40 5.364162713847375e-08
ar41 2.0796483845938607e-11
ar42 1.6654943315678856e-11
ar43 1.5727133966315706e-17
ar44 1.6118850824178778e-20
ar45 8.186200655028738e-34
ar46 5.150517455720606e-45
ar47 5.81867620906803e-64
ar48 8.825554951251089e-84
ar49 0.0
ar50 0.0
ar51 0.0
ar52 0.0
k32 0.0
k33 0.0
k34 0.0
k35 2.3316548092794894e-68
k36 1.494510866623286e-62
k37 7.475538103236958e-25
k38 1.0678376496568723e-21
k39 1.575903453368222e-07
k40 1.5599251061328915e-08
k41 3.9261679523094466e-08
k42 1.926945329585536e-09
k43 9.329651601600526e-11
k44 2.5548478765316327e-15
k45 2.7107805339883384e-18
k46 7.102851356604425e-26
k47 1.119583335695007e-37
k48 1.523107285598342e-51
k49 3.7086666410488706e-69
k50 1.6418251748351433e-88
k51 0.0
k52 0.0
k53 0.0
k54 0.0
k55 0.0
ca35 0.0
ca36 6.318425248411163e-90
ca37 4.0821754873385706e-82
ca38 4.499366279620875e-44
ca39 3.742618977984189e-40
ca40 8.164475548299631e-07
ca41 1.6745318201086347e-08
ca42 6.919235043653974e-08
ca43 2.8847739522563905e-08
ca44 6.743709147510275e-08
ca45 1.5352058959388366e-08
ca46 4.8989407154568035e-09
ca47 2.0379408964864412e-10
ca48 2.832928529589611e-09
ca49 2.6674115269225718e-15
ca50 5.145369382756064e-31
ca51 9.498384377909726e-40
ca52 4.455123158481021e-53
ca53 6.214352972137299e-74
ca54 2.7975870662430634e-94
ca55 0.0
ca56 0.0
ca57 0.0
sc36 0.0
sc37 0.0
sc38 0.0
sc39 1.4803672262506998e-76
sc40 1.0328462906406866e-63
sc41 1.5860011281281451e-27
sc42 4.18717684408376e-28
sc43 5.772839995181942e-12
sc44 5.026412575594145e-12
sc45 4.81249758430007e-09
sc46 2.2910868711440637e-09
sc47 6.052868303462931e-10
sc48 7.933457001687009e-11
sc49 1.6756895317444804e-13
sc50 1.320199804314587e-21
sc51 2.9432476590120637e-35
sc52 1.4024783083697975e-43
sc53 1.7327628950380799e-62
sc54 3.5538558156060804e-82
sc55 0.0
sc56 0.0
sc57 0.0
sc58 0.0
sc59 0.0
ti39 0.0
ti40 5.198049650561671e-98
ti41 2.035766357227291e-84
ti42 9.547122780284225e-48
ti43 2.6577620627155295e-47
ti44 4.5574031241907366e-14
ti45 1.984013549758058e-15
ti46 7.124778479868499e-09
ti47 7.578066572260126e-09
ti48 1.0193423076167535e-08
ti49 2.4164837656186894e-08
ti50 4.829936692967072e-08
ti51 8.320131790520693e-14
ti52 5.0425199367588285e-20
ti53 2.6153555009611756e-28
ti54 1.9659050773771937e-33
ti55 9.741900641340778e-53
ti56 2.4860340785648133e-72
ti57 8.326001492499896e-93
ti58 0.0
ti59 0.0
ti60 0.0
ti61 0.0
ti62 0.0
v41 0.0
v42 0.0
v43 4.173998044593243e-74
v44 3.910328638480503e-68
v45 3.2350572187700057e-35
v46 1.9943218495522702e-35
v47 3.296212150599777e-14
v48 1.0280768068295353e-12
v49 1.433828977398039e-10
v50 2.7583082198308756e-10
v51 6.647900545002886e-09
v52 1.7137210926901568e-14
v53 3.4838975657420684e-20
v54 2.8524362935657454e-27
v55 1.6240904119428935e-42
v56 3.4044241381762236e-61
v57 4.90584007822913e-79
v58 8.383675559200736e-98
v59 0.0
v60 0.0
v61 0.0
v62 0.0
v63 0.0
v64 0.0
v65 0.0
cr43 0.0
cr44 1.806601257208794e-95
cr45 4.2449985248693644e-89
cr46 2.209644778100232e-55
cr47 7.1356446913499e-55
cr48 1.3168745067017783e-16
cr49 3.034766499582454e-18
cr50 1.3558046498998436e-10
cr51 6.270272146279312e-11
cr52 1.2815507860637468e-07
cr53 2.943492122912751e-08
cr54 1.4666639587498377e-07
cr55 7.096369402295277e-14
cr56 1.5641097208738227e-16
cr57 2.9432979162781145e-29
cr58 1.388781214088173e-41
cr59 5.421403002985744e-60
cr60 1.6929348066388078e-77
cr61 2.5437628026100565e-95
cr62 0.0
cr63 0.0
cr64 0.0
cr65 0.0
cr66 0.0
cr67 0.0
cr68 0.0
mn45 0.0
mn46 0.0
mn47 1.1687591267359421e-82
mn48 7.321732742684834e-77
mn49 1.121679616595193e-37
mn50 1.0935500305685555e-38
mn51 3.857711926243559e-16
mn52 6.339441530386573e-15
mn53 7.708919422504008e-11
mn54 7.191948690206788e-11
mn55 1.550157205515433e-07
mn56 1.8128014248009692e-11
mn57 2.6080957930316145e-18
mn58 7.330340928878272e-35
mn59 9.885836427725253e-43
mn60 1.2705057918985912e-40
mn61 5.010759956458033e-58
mn62 7.879140201307942e-76
mn63 1.4361837168033476e-93
mn64 0.0
mn65 0.0
mn66 0.0
mn67 0.0
mn68 0.0
mn69 0.0
mn70 0.0
mn71 0.0
fe47 0.0
fe48 0.0
fe49 2.1437013105000866e-99
fe50 9.089454132830164e-64
fe51 7.515491144021896e-60
fe52 8.119039541005484e-20
fe53 3.580945338779634e-22
fe54 7.115684976246321e-08
fe55 3.9286472366673426e-08
fe56 6.515352235372167e-06
fe57 3.2657708429432153e-06
fe58 6.981651490836077e-06
fe59 1.1927626433927778e-06
fe60 4.601968709992098e-07
fe61 1.138834598729253e-12
fe62 7.49670576530104e-20
fe63 1.1750947967922267e-36
fe64 3.8818756314393745e-53
fe65 1.5265220606781237e-71
fe66 2.3059836830796713e-83
fe67 2.6746695479353694e-90
fe68 0.0
fe69 0.0
fe70 0.0
fe71 0.0
fe72 0.0
fe73 0.0
fe74 0.0
co48 0.0
co49 0.0
co50 0.0
co51 2.337280998127403e-90
co52 2.4051294128196125e-82
co53 3.474380995904616e-41
co54 8.659848686055895e-44
co55 1.3589574854659274e-12
co56 8.704497926227734e-13
co57 1.7076731053360498e-09
co58 1.2583092437250198e-09
co59 1.4328232066817075e-06
co60 2.7387141157059097e-07
co61 2.4548800052112582e-09
co62 6.09098533513051e-15
co63 3.506366101698786e-24
co64 3.414611357574847e-42
co65 2.7544984113197755e-58
co66 2.745312867422019e-76
co67 8.825756705464338e-84
co68 6.821934213128197e-99
co69 0.0
co70 0.0
co71 0.0
co72 0.0
co73 0.0
co74 0.0
co75 0.0
co76 0.0
co77 0.0
ni51 0.0
ni52 0.0
ni53 0.0
ni54 2.7825717093798096e-63
ni55 2.1945493899642456e-65
ni56 9.405502474165583e-17
ni57 4.7760989446807755e-18
ni58 1.3127394095039068e-08
ni59 8.828965890142052e-09
ni60 9.428319462296378e-07
ni61 9.752899604691574e-07
ni62 9.948096488318247e-07
ni63 1.1286419337185197e-06
ni64 1.0356253356359792e-06
ni65 3.787756588000431e-09
ni66 1.1424682003981232e-09
ni67 7.54651660797467e-24
ni68 6.3729587588644486e-27
ni69 9.574512932848233e-38
ni70 7.448093866714569e-48
ni71 2.5021004751478267e-62
ni72 9.53371109728003e-74
ni73 1.998505861369939e-87
ni74 4.6470119815620093e-94
ni75 0.0
ni76 0.0
ni77 0.0
ni78 0.0
ni79 0.0
cu52 0.0
cu53 0.0
cu54 0.0
cu55 1.3962705950621788e-93
cu56 3.647879622871793e-89
cu57 2.8469139205715362e-39
cu58 1.0643259820837625e-38
cu59 2.6475698887743567e-20
cu60 1.9785557601024415e-16
cu61 2.347901253987079e-12
cu62 7.391656982334716e-14
cu63 2.2976468892170215e-08
cu64 3.436417904632398e-09
cu65 2.1651980702334025e-07
cu66 4.239303502701052e-12
cu67 1.2924919119670801e-09
cu68 4.86842226974325e-21
cu69 4.81796617175198e-19
cu70 2.0833979739842198e-35
cu71 1.021655130851659e-34
cu72 1.3210875691257136e-46
cu73 9.347235377532252e-56
cu74 5.096120920754603e-70
cu75 2.5083548526650406e-78
cu76 2.7628621094880485e-91
cu77 0.0
cu78 0.0
cu79 0.0
cu80 0.0
cu81 0.0
cu82 0.0
zn55 0.0
zn56 0.0
zn57 0.0
zn58 4.0203051814569255e-62
zn59 4.009289683641398e-61
zn60 9.42008651991246e-26
zn61 1.1654128507723619e-26
zn62 8.349048044607373e-17
zn63 6.191556051326957e-19
zn64 1.5606853192168927e-08
zn65 4.7517761349254695e-09
zn66 1.6341651915038442e-07
zn67 5.585006726155423e-08
zn68 1.7392154382801626e-07
zn69 9.777122638829791e-11
zn70 4.970316039011495e-09
zn71 1.324968411317215e-14
zn72 4.052140251630023e-12
zn73 2.383188322182524e-25
zn74 3.476699470657298e-24
zn75 3.5834180881699716e-39
zn76 1.1568663884422875e-48
zn77 3.212292536418909e-64
zn78 1.860844143965658e-74
zn79 2.931558894165174e-85
zn80 2.634400097542155e-99
zn81 0.0
zn82 0.0
zn83 0.0
zn84 0.0
ga57 0.0
ga58 0.0
ga59 3.404474488195295e-97
ga60 3.777280728941111e-89
ga61 7.195390959919888e-52
ga62 1.289337332158951e-49
ga63 9.512231461241922e-33
ga64 9.85880764186912e-28
ga65 5.504135202878813e-16
ga66 2.902469813267592e-14
ga67 1.1053836581265066e-11
ga68 1.3079149971884773e-13
ga69 3.1394309074894923e-08
ga70 2.3969905696782474e-11
ga71 7.698843200320211e-09
ga72 1.501274723371787e-09
ga73 3.5283313888152286e-10
ga74 8.733286081031366e-16
ga75 1.838945998063752e-19
ga76 6.293395911904576e-28
ga77 1.950458407024805e-36
ga78 1.1046424583762008e-48
ga79 3.1916870344970232e-59
ga80 1.3638657325836521e-70
ga81 2.2923956387269158e-79
ga82 1.968550184551316e-95
ga83 0.0
ga84 0.0
ga85 0.0
ga86 0.0
ge59 0.0
ge60 0.0
ge61 0.0
ge62 5.892885737293561e-74
ge63 1.6404305394246497e-72
ge64 1.4091915882910807e-39
ge65 4.146317485530328e-40
ge66 9.128391315626593e-21
ge67 2.4200151766973003e-21
ge68 6.596011494194362e-16
ge69 9.538726381091294e-16
ge70 2.409412689101546e-08
ge71 7.879620011751224e-09
ge72 2.482935763372064e-08
ge73 1.4686841835079139e-08
ge74 3.0330143674588206e-08
ge75 1.3591520205116067e-10
ge76 1.751554132073047e-09
ge77 6.718941254065651e-13
ge78 1.2167337646044703e-13
ge79 2.9210515942389752e-27
ge80 4.5159670761520856e-30
ge81 2.861385680374285e-43
ge82 5.457456766051728e-53
ge83 2.1860178102789285e-69
ge84 3.6854105043163015e-84
ge85 4.174702134675862e-100
ge86 0.0
ge87 0.0
ge88 0.0
ge89 0.0
as61 0.0
as62 0.0
as63 0.0
as64 0.0
as65 7.254154801973446e-68
as66 3.219565105973202e-64
as67 5.466758623503534e-37
as68 1.2001383188235301e-30
as69 5.819058628320539e-24
as70 1.5764980915660643e-22
as71 2.8314134064501506e-13
as72 1.0071243813518352e-13
as73 2.035640147815549e-12
as74 9.276906926455724e-13
as75 6.291086168315177e-09
as76 2.645103124902644e-09
as77 2.256610136295348e-09
as78 1.430180920492558e-11
as79 1.6792601772313723e-14
as80 4.915398366419263e-28
as81 2.318875849932563e-27
as82 2.6423846533998458e-34
as83 2.9485694491907826e-40
as84 5.210859563197082e-57
as85 2.246290795155328e-68
as86 4.732635520940022e-83
as87 5.301008293660455e-97
as88 0.0
as89 0.0
as90 0.0
as91 0.0
se64 0.0
se65 0.0
se66 1.8710339692799332e-92
se67 1.2397295386224987e-88
se68 1.1093034307756584e-46
se69 1.9150637680096158e-43
se70 5.189408314229185e-30
se71 1.9709700641703782e-30
se72 7.218023469256238e-18
se73 7.763013168537506e-19
se74 1.8190020752821756e-14
se75 5.4001357146835444e-14
se76 3.3629064931765615e-09
se77 4.138985780436169e-09
se78 9.940064435894714e-09
se79 6.3334242689345265e-09
se80 1.6365462269107674e-08
se81 4.34199775228013e-12
se82 6.069779549380674e-10
se83 2.931322722366805e-14
se84 3.7211650970618927e-19
se85 1.9258686065469578e-29
se86 1.5599454541204696e-38
se87 2.98588278669105e-52
se88 2.954835489156546e-69
se89 4.816697941764526e-88
se90 0.0
se91 0.0
se92 0.0
se93 0.0
br66 0.0
br67 0.0
br68 0.0
br69 1.4152607011063303e-77
br70 3.593243645046131e-68
br71 5.881815467650765e-48
br72 4.298316830734644e-41
br73 1.7770413293224698e-28
br74 6.637272640259006e-26
br75 3.400059120091251e-21
br76 1.1954906642208772e-19
br77 4.728587126933397e-14
br78 2.9912056759005395e-17
br79 2.398351218896911e-13
br80 6.694043576637931e-16
br81 3.154313576180276e-09
br82 9.279964610347852e-10
br83 1.3032142389190548e-10
br84 1.2680912235297533e-13
br85 5.884214519334447e-18
br86 4.537344352719959e-25
br87 3.688571634139423e-29
br88 2.525531666817925e-39
br89 3.6578551064774226e-53
br90 3.345909014749167e-67
br91 5.9833355916777005e-84
br92 1.7271625320810645e-99
br93 0.0
br94 0.0
br95 0.0
kr69 0.0
kr70 0.0
kr71 1.0472658895749453e-92
kr72 2.592871308167882e-60
kr73 1.8959480178610127e-52
kr74 5.3733163842350756e-34
kr75 3.829958302285209e-34
kr76 1.99204349180483e-25
kr77 9.4098853617936e-26
kr78 7.391497780343086e-19
kr79 3.0059775453779848e-19
kr80 2.40314520460017e-13
kr81 1.1007928795411575e-13
kr82 2.5109872415208753e-09
kr83 3.3051409937588155e-09
kr84 1.0438945629185588e-08
kr85 5.708120463241054e-09
kr86 7.176179689413233e-09
kr87 7.673117650142384e-13
kr88 1.1448971935004316e-13
kr89 2.459134140919359e-20
kr90 1.453379904824708e-29
kr91 1.1740582110534588e-42
kr92 1.0205442728109141e-59
kr93 5.355800757722908e-74
kr94 4.971431400460254e-92
kr95 0.0
kr96 0.0
kr97 0.0
rb72 0.0
rb73 1.0802945772953176e-92
rb74 1.828005461767844e-77
rb75 8.529997547518384e-53
rb76 1.2419901395068929e-45
rb77 9.954808876917667e-36
rb78 5.765769364260998e-34
rb79 1.1562450382422044e-26
rb80 1.3048743908004354e-32
rb81 1.856320052077837e-19
rb82 2.1190001502902347e-23
rb83 1.587857362413963e-14
rb84 9.953802011235381e-15
rb85 2.0207351948301894e-10
rb86 1.8629292815630746e-10
rb87 2.1867156271746077e-09
rb88 1.6510679541066694e-13
rb89 5.656877400874155e-16
rb90 3.5817156282453634e-20
rb91 3.047322613923445e-26
rb92 2.626480013202842e-42
rb93 4.5746017244147026e-48
rb94 1.0111577108955908e-61
rb95 1.292980405291245e-78
rb96 6.053295875170758e-97
rb97 0.0
rb98 0.0
rb99 0.0
sr75 0.0
sr76 5.837190964275838e-76
sr77 5.612005612457183e-66
sr78 9.267233793201977e-41
sr79 8.851703418380381e-38
sr80 1.2142314167275447e-30
sr81 1.0531945466698696e-29
sr82 1.5467470147693124e-24
sr83 5.239100565937751e-23
sr84 9.801869860165606e-18
sr85 1.0294212827466125e-16
sr86 2.429297609962064e-10
sr87 3.6408687178198795e-10
sr88 6.21129991280144e-09
sr89 9.069103271382969e-10
sr90 2.5522768047906296e-10
sr91 3.370716513834745e-12
sr92 8.666202740317989e-14
sr93 9.720231229435694e-19
sr94 2.0116644957891723e-25
sr95 1.291342337741326e-35
sr96 4.702709969324051e-53
sr97 1.8222334756664727e-71
sr98 1.6946424166356143e-88
sr99 0.0
sr100 0.0
sr101 0.0
y77 0.0
y78 1.318828897826477e-91
y79 9.244237808632989e-63
y80 4.399006123959338e-49
y81 3.3326850626649526e-41
y82 6.415771071395279e-48
y83 1.2317979648343954e-32
y84 2.3816704970620046e-37
y85 1.4287829741973648e-24
y86 4.2736172905596644e-23
y87 2.6149506278909756e-16
y88 6.88576918100748e-16
y89 5.560256545938147e-10
y90 3.1720357438279884e-11
y91 8.899219867198967e-11
y92 3.9536268931132196e-12
y93 7.035556612591941e-12
y94 5.924954467474847e-15
y95 2.5491092179613887e-17
y96 2.5121113530399645e-33
y97 3.157452474251009e-46
y98 1.1949436678392504e-63
y99 4.0551825876494826e-72
y100 3.812743622057103e-87
y101 0.0
y102 0.0
y103 0.0
zr80 3.584944747431532e-89
zr81 1.6565533568176507e-73
zr82 2.3122398969071642e-63
zr83 3.0941030333725776e-43
zr84 8.022088356699222e-35
zr85 4.937021818255904e-34
zr86 8.20268068002173e-29
zr87 3.4506546962776222e-28
zr88 4.851513524048651e-22
zr89 6.150197044587157e-20
zr90 2.7994105908460164e-10
zr91 1.508442749136278e-10
zr92 3.064995839286268e-10
zr93 1.3995368733289515e-10
zr94 2.451315744892207e-10
zr95 7.333225643682488e-11
zr96 1.1801049469736796e-10
zr97 2.0187680626294913e-13
zr98 5.495570797739605e-25
zr99 6.150006575142573e-42
zr100 7.577774906024524e-56
zr101 1.2802028196114014e-69
zr102 9.467426410645908e-86
zr103 0.0
zr104 0.0
zr105 0.0
nb83 3.410877685539645e-89
nb84 5.315054712960675e-59
nb85 1.8098739439301915e-48
nb86 1.4078402817229033e-42
nb87 5.868016633575351e-37
nb88 1.785462140304181e-35
nb89 1.0158156760307806e-29
nb90 1.4379431320787548e-26
nb91 3.4965927325605004e-16
nb92 2.9150280787464724e-16
nb93 1.558790001723548e-15
nb94 1.4760362813069912e-15
nb95 8.923627306675165e-13
nb96 8.239082933212651e-13
nb97 3.9859779348574387e-14
nb98 1.105378499787489e-25
nb99 1.3979780258356219e-31
nb100 1.3788785703316716e-47
nb101 2.2697764437481337e-44
nb102 4.4350769460463666e-60
nb103 9.190171032611591e-68
nb104 2.463903944892426e-84
nb105 0.0
nb106 0.0
nb107 0.0
mo85 5.164184181084838e-86
mo86 2.6192427496511595e-74
mo87 4.634933224572856e-59
mo88 3.5545422141588832e-40
mo89 2.2577401578217643e-38
mo90 7.211354090796993e-32
mo91 3.3207352287976516e-30
mo92 1.553899561507935e-14
mo93 4.421448862409832e-15
mo94 4.102064472072249e-14
mo95 5.438412044326804e-13
mo96 3.956201012865937e-12
mo97 4.887488341832388e-12
mo98 2.434015227026084e-11
mo99 1.4604942228533595e-12
mo100 1.486345169333934e-11
mo101 3.1560858921114733e-15
mo102 1.1532474936591905e-17
mo103 8.147639212236546e-25
mo104 3.0205440512461125e-28
mo105 4.654699615453755e-45
mo106 4.885175071274825e-62
mo107 3.81171697319022e-80
mo108 1.4194629255427018e-98
mo109 0.0
tc88 1.0030467069848387e-85
tc89 1.1775803345558906e-65
tc90 3.4511900831334294e-56
tc91 2.2105451472715743e-41
tc92 7.791426048709393e-38
tc93 5.029151203646468e-22
tc94 5.245754947646707e-22
tc95 1.376306136207936e-20
tc96 9.265833200455776e-20
tc97 1.35900350970913e-18
tc98 1.0438572527160852e-18
tc99 9.664185243871644e-13
tc100 2.860887164649334e-26
tc101 5.564517476618222e-15
tc102 9.051530758655512e-20
tc103 2.832245177835184e-24
tc104 2.1153531722816675e-22
tc105 1.5130520876195878e-24
tc106 2.2919914264333344e-33
tc107 1.1094396078932919e-38
tc108 3.112473065958407e-52
tc109 8.903192063965902e-69
tc110 2.440800219726672e-86
ru91 1.1242502401268599e-82
ru92 2.6224144788453636e-65
ru93 3.1464712602534854e-39
ru94 2.7291022108566193e-28
ru95 1.5566028581337678e-27
ru96 1.2397196631561969e-20
ru97 5.3384691599355796e-21
ru98 6.053170572751666e-19
ru99 1.2398798033276205e-16
ru100 4.4607756787019235e-12
ru101 2.038969080353839e-12
ru102 1.0732191869676779e-11
ru103 5.628580096063452e-12
ru104 1.6536163279664495e-11
ru105 5.755651322537424e-13
ru106 6.442566130126684e-12
ru107 3.109562392745911e-17
ru108 5.838779247916422e-19
ru109 6.821337752995551e-28
ru110 1.240128115065594e-35
ru111 7.167151332839092e-54
ru112 6.157706966661491e-72
rh93 1.8383931576811587e-92
rh94 3.763886407953881e-51
rh95 6.078933040513485e-38
rh96 3.214641848096636e-36
rh97 6.00307511873623e-30
rh98 4.827539177541905e-30
rh99 7.984764416437635e-26
rh100 4.809692210805671e-24
rh101 2.3564193328814424e-19
rh102 1.4557651485042177e-19
rh103 1.1128630023240496e-13
rh104 1.9660312801871707e-22
rh105 1.3206453245648906e-12
rh106 8.024240625682309e-18
rh107 2.94218244533392e-15
rh108 3.828708415606549e-20
rh109 1.5363014837942748e-23
rh110 3.492524725799197e-36
rh111 4.5031636292085305e-39
rh112 3.874936061481899e-52
rh113 5.2392115639700076e-58
rh114 1.0629790749727178e-66
pd96 9.629602548240716e-40
pd97 8.908983646835242e-36
pd98 1.77082148436578e-29
pd99 2.705124909634588e-28
pd100 1.1867697858582124e-25
pd101 2.286831395524784e-27
pd102 8.815081401013737e-23
pd103 2.2626852011440377e-21
pd104 5.569990650810021e-13
pd105 4.628142682241584e-13
pd106 4.617761232554551e-12
pd107 1.5648822669573485e-12
pd108 1.0645129561202602e-11
pd109 2.1535750776022106e-12
pd110 9.69970057581045e-12
pd111 1.2797840089715348e-14
pd112 2.570794898770432e-13
pd113 1.3807275701604517e-20
pd114 6.903020331639578e-22
pd115 2.535961058659427e-30
ag98 5.254826780967558e-48
ag99 2.245622549830449e-40
ag100 1.304667338698474e-38
ag101 3.1778321626150493e-34
ag102 4.467302922057485e-32
ag103 2.1563655761451172e-29
ag104 1.0510307427726216e-27
ag105 7.224110146765551e-21
ag106 1.6237170839828932e-22
ag107 1.2094654424153006e-18
ag108 1.1967636073368983e-23
ag109 1.203551649716629e-12
ag110 4.5703244168618566e-21
ag111 8.745559908505173e-13
ag112 1.1169033547931913e-13
ag113 3.506651079830642e-17
ag114 2.258455727441064e-23
ag115 2.322785642951377e-28
ag116 1.1741748077353559e-33
cd101 1.9515416573144737e-40
cd102 3.280549108371588e-32
cd103 9.845391360252605e-31
cd104 9.875709827226657e-27
cd105 6.98374250512523e-28
cd106 1.9622296030395119e-23
cd107 3.1719708760074913e-24
cd108 9.196561255350933e-18
cd109 1.9056241292881023e-18
cd110 2.326162195327078e-12
cd111 7.30699087369853e-13
cd112 5.101947756470675e-12
cd113 2.131199207501187e-12
cd114 1.7201232439909413e-11
cd115 3.2115382315444955e-12
cd116 2.484470864315174e-11
cd117 1.6640102165542943e-13
in102 4.112959118477982e-55
in103 9.070092848764917e-45
in104 3.0522191468655376e-42
in105 3.882259580362437e-37
in106 2.210771126063966e-36
in107 3.080767760034908e-32
in108 8.173156272779131e-30
in109 6.695286772448108e-27
in110 2.3265725009442076e-26
in111 7.792650621049365e-21
in112 5.371713697050866e-23
in113 3.2718342145514545e-16
in114 4.601463757759368e-23
in115 4.94982684950875e-13
in116 1.937899461489252e-24
in117 4.9670390127873877e-14
in118 7.24858881236069e-18
