n 4.7244032956874175e-15
h1 1.3057064860799955e-09
he4 8.261039650667747e-09
h2 6.740744974369885e-24
h3 3.1137441593204836e-25
he3 3.1612906179711685e-21
li6 2.457755770315697e-28
li7 8.079297308067257e-31
li8 1.2067845530627185e-43
li9 9.239300830289818e-52
be7 2.1560630167967064e-27
be9 2.131131708818363e-29
be10 1.5315062508172172e-27
be11 3.208415666674642e-45
be12 1.3627536019840178e-58
b8 4.4252861460010644e-39
b10 3.172891088144451e-25
b11 4.37879089575584e-20
b12 5.558480883693074e-33
b13 7.290509039677617e-43
b14 7.243461825869472e-60
c10 0.0
c11 7.418813777086451e-18
c12 5.643000593982546e-07
c13 2.3461176096920405e-14
c14 5.1571937461065026e-17
c15 1.8839007906743537e-33
c16 6.821384306742955e-45
c17 1.2224307016127319e-61
c18 0.0
n11 0.0
n12 2.359512744628583e-30
n13 1.2225881559286105e-16
n14 3.1161296725999566e-12
n15 3.7427301403192367e-14
n16 3.6586321589677263e-28
n17 1.005430839668526e-36
n18 4.581624768289471e-50
n19 1.2201330566327753e-59
n20 1.0052011271190803e-74
n21 0.0
o13 7.009095962980094e-41
o14 9.316175293826136e-22
o15 7.54315907460214e-13
o16 0.013943046021489859
o17 1.1504907756129605e-13
o18 3.0830625667304307e-20
o19 4.994510302750568e-31
o20 9.634008609382056e-37
o21 4.478663013191352e-48
o22 1.5129742783125605e-54
f16 2.0425786072485514e-28
f17 2.8325663409071833e-14
f18 2.7668163743999e-17
f19 1.8690706889758963e-18
f20 2.6852167706502468e-24
f21 2.3152465111336054e-27
f22 8.294356416494365e-37
f23 1.5768071687487125e-40
f24 2.1487253288618115e-54
f25 1.4018587473848538e-65
f26 2.2539864203850616e-81
ne16 2.2743977695515178e-46
ne17 8.622554212995668e-38
ne18 2.2640093074812867e-21
ne19 1.4480571924389873e-19
ne20 4.122035025084899e-07
ne21 1.1693588461184464e-12
ne22 6.762362497009759e-14
ne23 1.5096852004219123e-22
ne24 1.4009441314456365e-26
ne25 1.6827555297510757e-37
ne26 1.220444760453463e-46
ne27 2.4687421836397973e-62
ne28 7.585591462769547e-76
ne29 4.42089513573084e-92
na19 1.5327974533079092e-34
na20 1.1904719793844735e-28
na21 1.836625405278703e-15
na22 1.9307425999665224e-12
na23 1.7834602457601173e-10
na24 5.117870405634429e-17
na25 3.119245336974458e-20
na26 6.484174965382978e-29
na27 2.7812802039158852e-36
na28 5.696784882967563e-49
na29 9.803315650639531e-60
na30 3.862425122408938e-74
na31 4.468544392938709e-86
na32 0.0
mg20 5.27215897925264e-44
mg21 2.5622739110969112e-36
mg22 1.3107535796526467e-19
mg23 9.529051867212523e-11
mg24 1.6237944691470653e-05
mg25 9.132248186738179e-10
mg26 8.748461585535562e-10
mg27 1.0552555016940598e-16
mg28 1.5034697461564733e-21
mg29 4.569915248657869e-33
mg30 3.9766861287659393e-41
mg31 4.483202882473762e-55
mg32 5.470846414009171e-64
mg33 4.49743523420088e-78
mg34 3.973159192660487e-90
mg35 0.0
al22 1.915615768907571e-49
al23 4.4834986262926826e-32
al24 1.4806376143241254e-20
al25 4.066884361559377e-14
al26 1.5046848342252834e-10
al27 2.1172949765772689e-07
al28 4.3114094882846064e-13
al29 4.6821803259422894e-15
al30 2.0288689269870354e-23
al31 4.410681512730905e-30
al32 1.931440824709323e-41
al33 3.3122262639972677e-50
al34 2.1771538897101947e-64
al35 9.920600953819696e-74
al36 1.4632921894315058e-88
al37 0.0
al38 0.0
si23 8.703521922681113e-60
si24 2.875749524180053e-40
si25 5.557609744495105e-28
si26 7.767680862138282e-18
si27 5.267565162287416e-08
si28 0.014248859730736852
si29 1.497480674407811e-05
si30 1.1522196492700187e-05
si31 5.732269768561004e-12
si32 2.0126352413085832e-14
si33 1.3475211923874536e-24
si34 2.0591916759911977e-30
si35 4.576324104947916e-44
si36 1.8228101467445178e-52
si37 8.94021679656311e-67
si38 3.766521612438848e-76
si39 1.9568451069598202e-90
si40 0.0
si41 0.0
p25 8.60040839352257e-55
p26 4.268709151490406e-41
p27 3.4751596522924834e-29
p28 1.492469337578143e-17
p29 8.704706415747265e-11
p30 1.3315667187814595e-08
p31 1.6979751571548043e-05
p32 3.775738986515605e-09
p33 3.836685140073425e-10
p34 2.4776210030040933e-17
p35 2.404715702396365e-21
p36 1.9214189998537992e-33
p37 1.936793981461302e-40
p38 7.662076813183029e-52
p39 6.280691779128361e-60
p40 2.813358352871754e-72
p41 4.219026859551883e-82
p42 9.121730215921955e-97
p43 0.0
p44 0.0
s27 1.7608739469876352e-53
s28 1.2245728041530303e-38
s29 2.992155257295164e-25
s30 3.3879045447209374e-16
s31 7.448703983727267e-10
s32 0.00909719528088563
s33 2.5497465793705297e-05
s34 0.00044221002613491277
s35 1.165164307567792e-09
s36 4.07684950754362e-11
s37 2.519506043855298e-21
s38 1.5610944350715394e-26
s39 7.279167316966869e-37
s40 2.7232966037946596e-42
s41 1.1447513990849315e-52
s42 4.007907295828227e-60
s43 8.49542667637457e-74
s44 4.596111414049467e-84
s45 1.4812606692128254e-98
s46 0.0
s47 0.0
cl29 1.4450318169193937e-54
cl30 1.7157804196301308e-39
cl31 1.6654473803165257e-28
cl32 4.285872327779022e-20
cl33 1.53445095392962e-11
cl34 2.659269846343669e-09
cl35 2.576091687169064e-05
cl36 2.036079888701668e-08
cl37 1.0623451819020628e-08
cl38 2.503035141889164e-16
cl39 1.0784239414165838e-20
cl40 8.361609052316965e-29
cl41 1.0085348845842142e-33
cl42 5.5590272485598125e-42
cl43 1.6642560709658686e-47
cl44 3.571344140941041e-58
cl45 2.891702564059974e-66
cl46 3.34583159923773e-77
cl47 3.897965689941283e-89
cl48 0.0
cl49 0.0
cl50 0.0
ar31 2.9440036713149428e-52
ar32 3.31830134084221e-38
ar33 9.390645117353226e-28
ar34 4.1142509023838364e-17
ar35 3.925174578402291e-12
ar36 0.0008759644590537138
ar37 4.511525909254197e-06
ar38 0.00041444835093437486
ar39 4.199898538117367e-10
ar40 6.003095606497185e-12
ar41 1.0379464455656616e-18
ar42 5.636983854717955e-21
ar43 5.919589406059624e-29
ar44 7.432009582124739e-31
ar45 4.437589552449211e-40
ar46 4.121676731133021e-45
ar47 9.176304742416882e-56
ar48 1.3204008628637825e-64
ar49 1.2862766111110137e-78
ar50 4.237517661090989e-90
ar51 0.0
ar52 0.0
k32 9.566890128993166e-69
k33 2.704621831170996e-54
k34 3.2996581443977526e-42
k35 8.12050334241191e-30
k36 2.18126896044376e-22
k37 2.4903801706736003e-13
k38 7.110900771617593e-10
k39 2.5242743437986882e-05
k40 2.1290877872518016e-09
k41 1.5344850087506298e-10
k42 3.6438410420873436e-15
k43 5.56440382122097e-17
k44 2.2538070968237783e-22
k45 3.057685507062359e-26
k46 2.306228942092221e-32
k47 8.835762643700378e-36
k48 9.68121211987468e-43
k49 1.7588566398696742e-50
k50 5.616547483954115e-64
k51 1.9753292246962974e-74
k52 5.6441961722767355e-89
k53 0.0
k54 0.0
k55 0.0
ca35 1.0709756144006783e-53
ca36 3.3341711260963946e-39
ca37 1.7128797947227247e-30
ca38 4.177382483213444e-19
ca39 4.006045609646236e-13
ca40 0.0004111782710010921
ca41 7.51304190436601e-07
ca42 8.122800359099543e-06
ca43 2.807353196044809e-09
ca44 6.693246843903022e-10
ca45 2.8041260145151874e-14
ca46 1.2954584490339702e-15
ca47 2.370088531548112e-20
ca48 1.8956731213353964e-17
ca49 1.7756785228050606e-26
ca50 1.9755631529375254e-34
ca51 6.000749040098294e-45
ca52 5.613382269192138e-56
ca53 4.1008768177831235e-68
ca54 2.2956484990296027e-80
ca55 1.7433133892772952e-94
ca56 0.0
ca57 0.0
sc36 4.773123054579957e-70
sc37 2.971738998021044e-55
sc38 2.8202689885628373e-44
sc39 5.0748299246293796e-33
sc40 3.1633087437219164e-25
sc41 8.86682841621542e-15
sc42 4.4040858870314766e-13
sc43 2.8885844049927188e-09
sc44 3.151813729352088e-10
sc45 1.1485175625952642e-09
sc46 7.745634140456305e-13
sc47 2.6617818526197116e-13
sc48 1.2354174009293466e-16
sc49 2.2585246735575796e-17
sc50 4.797048744724794e-25
sc51 7.826802506802028e-32
sc52 3.0333491724652857e-41
sc53 1.2703562392845006e-50
sc54 4.8923201678826234e-61
sc55 8.226781999964573e-74
sc56 8.271449526653534e-86
sc57 1.2329451605073614e-98
sc58 0.0
sc59 0.0
ti39 1.2881482618411763e-56
ti40 1.6975786344078445e-43
ti41 1.4927671729363503e-34
ti42 2.828504883577054e-22
ti43 7.974040607890049e-18
ti44 7.662910894609181e-08
ti45 1.1664396823640223e-08
ti46 3.935007667613996e-06
ti47 4.576362590110142e-08
ti48 1.0762768213006585e-08
ti49 6.501014867723239e-12
ti50 4.152210764720584e-12
ti51 7.900518263880368e-19
ti52 4.376240081186642e-24
ti53 1.5977523154082953e-32
ti54 1.3058938698639024e-39
ti55 1.1863824284560104e-50
ti56 3.38784769781248e-60
ti57 1.507972276437789e-73
ti58 1.991052561623899e-83
ti59 4.662618280797999e-97
ti60 0.0
ti61 0.0
ti62 0.0
v41 8.53271343014848e-59
v42 3.6411192664587543e-48
v43 6.289811522064609e-35
v44 2.076640322676511e-27
v45 3.246279628260706e-17
v46 2.0248378339291288e-13
v47 4.481648273429531e-09
v48 6.70192754395639e-09
v49 1.0652990872223394e-08
v50 1.0359932311246492e-10
v51 5.908810264711772e-10
v52 4.60884282789629e-15
v53 3.852602924714719e-19
v54 5.607867402664959e-27
v55 1.308845623899513e-32
v56 1.8632690052394605e-42
v57 2.6783522798864164e-50
v58 1.2374906475618089e-61
v59 1.0670659492731044e-71
v60 1.2403317382104011e-83
v61 6.197719700239283e-94
v62 0.0
v63 0.0
v64 0.0
v65 0.0
cr43 1.7963451455741676e-59
cr44 8.023128902288265e-44
cr45 4.045835981630366e-37
cr46 5.401929527597445e-23
cr47 1.3518504696950132e-17
cr48 8.235422136828574e-09
cr49 1.60633751790888e-08
cr50 4.763066904492688e-06
cr51 2.6459836134308335e-07
cr52 1.6402224965332668e-06
cr53 2.600946422143195e-10
cr54 4.9706267171705545e-12
cr55 7.205264615962143e-19
cr56 1.75441549474434e-23
cr57 5.083679109507862e-32
cr58 4.0002183343948563e-38
cr59 9.878491297097717e-49
cr60 6.461215474577773e-55
cr61 2.9183406787114265e-66
cr62 1.867539495089603e-74
cr63 1.0787272989047802e-86
cr64 2.0240885841080556e-96
cr65 0.0
cr66 0.0
cr67 0.0
cr68 0.0
mn45 2.7957731810692853e-58
mn46 5.133446086321965e-49
mn47 1.9556228633470892e-35
mn48 4.478323081366027e-27
mn49 1.1481882981688934e-17
mn50 8.674411207896415e-14
mn51 5.054555551041224e-09
mn52 1.5602565445207596e-08
mn53 4.953393198076907e-07
mn54 2.652669730907363e-09
mn55 8.340654511310613e-10
mn56 4.207775626712852e-15
mn57 1.1769890859924773e-18
mn58 1.0405877549877336e-25
mn59 2.255246394955639e-29
mn60 1.855656796569327e-36
mn61 3.591061659713106e-43
mn62 1.074403667009651e-53
mn63 7.654089920229436e-61
mn64 1.2260608357025487e-71
mn65 1.7722980298373102e-79
mn66 1.6772149736382113e-91
mn67 0.0
mn68 0.0
mn69 0.0
mn70 0.0
mn71 0.0
fe47 8.653637427873154e-60
fe48 6.421858635258178e-44
fe49 6.941989773248922e-36
fe50 1.6978689078277306e-24
fe51 3.4362440579235036e-18
fe52 6.823362694851966e-10
fe53 4.447044542825981e-09
fe54 2.953021176914791e-05
fe55 1.504307107094686e-06
fe56 9.628241148154664e-06
fe57 9.461453526428851e-10
fe58 2.502297559650613e-10
fe59 2.315195522862209e-16
fe60 4.256926820150301e-14
fe61 2.8152349557513955e-22
fe62 3.724847957247212e-27
fe63 1.0542714229129043e-36
fe64 3.0001132150558297e-43
fe65 3.653840798681993e-54
fe66 2.812217747171187e-61
fe67 4.600616646740489e-72
fe68 1.3248851943252597e-81
fe69 8.261204875293054e-94
fe70 0.0
fe71 0.0
fe72 0.0
fe73 0.0
fe74 0.0
co48 8.681467887265402e-75
co49 1.814877352696296e-57
co50 1.913129754265405e-49
co51 6.903387422653356e-37
co52 5.0334297922216e-30
co53 1.2343933707478946e-19
co54 1.1606351506835512e-14
co55 1.3590593481786987e-08
co56 7.64458915392084e-09
co57 2.388699992951085e-07
co58 5.761407330758006e-10
co59 1.3181244131120919e-09
co60 2.2824635210359996e-14
co61 8.858254043622067e-15
co62 2.3853179489340838e-21
co63 6.272627297945726e-24
co64 7.96934374392015e-32
co65 5.804817080148844e-33
co66 3.201846425702619e-42
co67 2.172098000830366e-46
co68 5.590454094836677e-57
co69 4.693655213560981e-64
co70 3.9856000992204106e-76
co71 1.2811718463923195e-83
co72 5.200302178746317e-96
co73 0.0
co74 0.0
co75 0.0
co76 0.0
co77 0.0
ni51 2.5413835727614593e-60
ni52 2.4701165544047117e-46
ni53 2.6902361537701457e-38
ni54 5.892258960533392e-27
ni55 1.120939231559757e-19
ni56 7.664978296791058e-10
ni57 1.9507770829058437e-09
ni58 1.1987254588217633e-06
ni59 3.173826580349286e-08
ni60 3.6108032659845505e-06
ni61 8.109224943417752e-10
ni62 6.84398527023616e-08
ni63 2.004268295429666e-13
ni64 1.4378634854671553e-11
ni65 2.2030786649165753e-18
ni66 9.980719359731166e-16
ni67 9.238372839077806e-24
ni68 8.00180948700143e-29
ni69 1.7155478375932129e-38
ni70 7.787314706990208e-45
ni71 1.028917840841421e-55
ni72 1.6477391707315284e-62
ni73 1.8688395118374267e-73
ni74 9.244958186994295e-80
ni75 2.567085504890497e-91
ni76 0.0
ni77 0.0
ni78 0.0
ni79 0.0
cu52 2.2449161997434615e-76
cu53 8.199690979676823e-63
cu54 2.651386628459917e-52
cu55 1.4508640362332092e-40
cu56 5.93024283819961e-32
cu57 1.7475009507696456e-21
cu58 1.1408710152239525e-17
cu59 2.8339241233495767e-13
cu60 3.2792999324946247e-13
cu61 2.8638739423050676e-10
cu62 2.843595164346128e-12
cu63 1.4507491597894236e-09
cu64 2.382560563123802e-13
cu65 1.6112646523844857e-11
cu66 3.589855120151463e-17
cu67 2.35280781784642e-15
cu68 1.625370545532006e-22
cu69 2.1866746751694816e-25
cu70 4.970565213968993e-34
cu71 2.073843561132786e-34
cu72 1.3869423036602674e-43
cu73 1.1826734699359533e-47
cu74 6.628039285553574e-57
cu75 4.525602806077127e-65
cu76 1.7416857472611015e-74
cu77 1.0578052038296966e-83
cu78 1.8067204965774162e-94
cu79 0.0
cu80 0.0
cu81 0.0
cu82 0.0
zn55 7.962171411706268e-65
zn56 9.03792155833261e-52
zn57 8.7229945201928e-43
zn58 2.2283359657761518e-31
zn59 7.34547557889207e-26
zn60 5.296383618734677e-18
zn61 4.101935564049529e-17
zn62 1.5727284054134393e-12
zn63 5.876788514831152e-13
zn64 8.427487576530626e-10
zn65 1.903051610671477e-12
zn66 2.4546572083541667e-09
zn67 3.866482230856014e-14
zn68 5.08606930525805e-11
zn69 2.011029546651987e-17
zn70 8.65530030032281e-15
zn71 3.8168576520879816e-22
zn72 1.5341218150474986e-19
zn73 5.105582803289362e-28
zn74 2.8091849747644874e-32
zn75 1.1697477443877453e-41
zn76 2.819787347283474e-47
zn77 4.716020832162814e-57
zn78 9.995198545037967e-65
zn79 3.819257519225211e-75
zn80 4.295903337157077e-83
zn81 1.8712753800536987e-97
zn82 0.0
zn83 0.0
zn84 0.0
ga57 4.2775736904071686e-69
ga58 8.776953807013571e-59
ga59 4.6302648086530134e-46
ga60 6.259824577036668e-39
ga61 1.4636985058384089e-30
ga62 2.8107355942430566e-25
ga63 2.2569674620532933e-20
ga64 5.165622800952845e-19
ga65 3.4066394245368595e-15
ga66 2.045669351530861e-16
ga67 2.159965044923004e-12
ga68 1.9947191070974965e-14
ga69 1.1132521681029755e-11
ga70 2.2321397667940826e-16
ga71 5.384465538405028e-14
ga72 1.0691044621126719e-19
ga73 2.998894527723783e-16
ga74 5.237491872082939e-23
ga75 1.1138170684677861e-26
ga76 5.343400884492166e-35
ga77 6.729468593576876e-38
ga78 5.745256873308078e-46
ga79 7.653947353291278e-51
ga80 2.9600340621093154e-61
ga81 1.3465261041205301e-67
ga82 7.189599780003667e-81
ga83 5.1862595504746806e-92
ga84 0.0
ga85 0.0
ga86 0.0
ge59 1.0569483728967692e-71
ge60 4.730853979241834e-58
ge61 9.566573814052949e-51
ge62 4.144094769933993e-40
ge63 5.834660652496345e-35
ge64 2.709804108934325e-25
ge65 6.910228479665715e-24
ge66 3.785708665023981e-18
ge67 7.732577548152568e-18
ge68 1.2065874351499108e-12
ge69 1.194445908077811e-13
ge70 5.637491966495205e-10
ge71 1.3084825174555467e-13
ge72 8.045813096993607e-10
ge73 5.845301640654435e-15
ge74 1.3756465218259163e-12
ge75 3.833034686408269e-18
ge76 6.339737964415545e-15
ge77 7.767831049944624e-22
ge78 1.8385932906811532e-22
ge79 2.8823691602268988e-30
ge80 3.7901081606271027e-35
ge81 2.0646565119847317e-44
ge82 7.008660271358559e-51
ge83 5.534532757862672e-63
ge84 5.407444869567892e-73
ge85 4.7024437876104984e-86
ge86 5.716243661730646e-97
ge87 0.0
ge88 0.0
ge89 0.0
as61 3.6898049444908054e-75
as62 2.145490954128047e-66
as63 1.0673027245848728e-54
as64 3.9518088136443995e-48
as65 4.485884179017204e-38
as66 1.0560496257343617e-32
as67 1.1986523507172053e-26
as68 9.993015603125341e-25
as69 7.389240802451588e-19
as70 1.5564834378638853e-18
as71 5.0510941447769086e-14
as72 1.4410337200037887e-15
as73 8.291421172057189e-12
as74 2.3365202954678914e-15
as75 1.2272439597222508e-12
as76 2.845958381688037e-17
as77 4.1680263218938716e-14
as78 1.654837394746788e-20
as79 3.710182746982261e-21
as80 6.5531861085467045e-28
as81 1.0386865448411298e-29
as82 1.2816522705664734e-37
as83 6.314958605581245e-41
as84 4.381756547173796e-52
as85 1.629549292371212e-61
as86 5.334909806061862e-73
as87 2.423295773442109e-83
as88 1.0062003417409124e-95
as89 0.0
as90 0.0
as91 0.0
se64 1.1618500276722947e-66
se65 1.4672209092493817e-60
se66 1.4307214131907355e-48
se67 2.8957606425410655e-42
se68 5.724608569139409e-32
se69 7.620957497021546e-30
se70 7.974835294535403e-22
se71 2.5351918079609406e-20
se72 3.0988104020205295e-13
se73 1.3892493952709947e-13
se74 1.1935142014992126e-09
se75 1.8389677293812466e-12
se76 2.337817654578847e-09
se77 1.3024978615464489e-13
se78 1.4323032453762877e-11
se79 3.0834142256385246e-16
se80 2.510855617902371e-13
se81 1.3997862224292515e-18
se82 7.776949272133834e-16
se83 3.1392887669820664e-23
se84 2.44314522844666e-27
se85 3.7444167626969526e-37
se86 8.696784387369525e-46
se87 2.7751168523589533e-56
se88 1.7325949891921124e-66
se89 2.575638701148302e-78
se90 1.7151455224890998e-89
se91 0.0
se92 0.0
se93 0.0
br66 2.0041366505524338e-76
br67 1.0343472232752851e-63
br68 3.903633577845622e-56
br69 4.285015095634927e-45
br70 2.0384430144654756e-38
br71 4.70379543511912e-30
br72 8.575862157518864e-28
br73 5.0473909213423116e-20
br74 7.559616463082966e-19
br75 3.4068955714701605e-14
br76 1.3431687004912538e-15
br77 6.532954506149606e-12
br78 3.1590386503742735e-15
br79 2.8422297369713443e-12
br80 6.613316084321508e-16
br81 3.0992799077194863e-13
br82 1.1823513075452136e-17
br83 6.876111436884705e-16
br84 5.654573787472687e-22
br85 1.2452233817970302e-24
br86 6.713621818785314e-34
br87 8.15508566912097e-42
br88 2.1004599584110518e-51
br89 8.505854602930273e-60
br90 9.583452205010222e-71
br91 4.1117127742815514e-81
br92 6.316372408976671e-94
br93 0.0
br94 0.0
br95 0.0
kr69 6.1303017064110385e-68
kr70 7.467018769700018e-55
kr71 5.962032717834325e-47
kr72 7.942775081810083e-37
kr73 2.410764955117682e-32
kr74 2.201696307685162e-23
kr75 1.727082835639194e-20
kr76 2.825176550926313e-14
kr77 9.590997701334507e-14
kr78 3.977749094864992e-10
kr79 2.3864220544800952e-12
kr80 2.634572419270575e-09
kr81 1.1503167367793084e-12
kr82 9.171406531161147e-11
kr83 1.048266460184377e-14
kr84 2.5950922686071145e-12
kr85 2.6124638791639275e-16
kr86 2.9193843583263605e-13
kr87 2.113562462389062e-21
kr88 3.396362441955965e-28
kr89 4.749744937276241e-37
kr90 2.874398981446805e-45
kr91 1.6188374728400426e-55
kr92 4.315995570312593e-65
kr93 7.18527284746192e-77
kr94 3.9495537475366136e-87
kr95 5.426143418329183e-100
kr96 0.0
kr97 0.0
rb72 5.73338268238311e-59
rb73 2.70727919683868e-50
rb74 9.639118666107252e-41
rb75 3.9992731531645325e-32
rb76 9.262653764510144e-28
rb77 3.816753592643652e-21
rb78 4.234896372290185e-20
rb79 3.1608787923472584e-15
rb80 9.088867342847267e-17
rb81 1.012534665029928e-12
rb82 4.099655249148843e-15
rb83 2.7710088735557952e-12
rb84 4.175548180193232e-15
rb85 1.8495361098227795e-12
rb86 4.3094712545351716e-15
rb87 3.3376763355219005e-13
rb88 1.8618335037141517e-20
rb89 1.1840315627401616e-26
rb90 6.184310223118232e-35
rb91 3.326058795493325e-42
rb92 7.031003140529238e-52
rb93 5.373850143597955e-60
rb94 3.746318488025131e-71
rb95 1.3092192652360081e-80
rb96 5.915289971264045e-93
rb97 0.0
rb98 0.0
rb99 0.0
sr75 8.692811477757858e-51
sr76 4.4032493254327317e-38
sr77 9.006727197942252e-33
sr78 4.580722113936506e-25
sr79 1.7429348126117747e-22
sr80 7.451704347937007e-17
sr81 8.623267209376245e-16
sr82 1.2033402306330105e-11
sr83 7.883155987992303e-13
sr84 8.106682178595777e-10
sr85 5.287607164601077e-12
sr86 6.594291412749574e-10
sr87 2.3946558343992584e-12
sr88 2.9720340443689125e-10
sr89 7.893469469417426e-17
sr90 3.127108381564354e-22
sr91 9.790738393797502e-30
sr92 2.8365439541829166e-36
sr93 9.641490586810268e-45
sr94 4.576346469597502e-52
sr95 1.2920033402215343e-62
sr96 3.1789846440771317e-71
sr97 4.6735216271113646e-82
sr98 1.129629527882392e-87
sr99 0.0
sr100 0.0
sr101 0.0
y77 4.501464504106347e-51
y78 3.3418741068851906e-42
y79 2.131889453745631e-33
y80 3.526315244712344e-30
y81 4.8949102255607014e-24
y82 3.7791230939241203e-22
y83 3.078879138141573e-17
y84 4.9786748625107134e-18
y85 6.006123035562024e-14
y86 4.9986913747457325e-15
y87 3.821365198612146e-12
y88 6.230067781731339e-13
y89 1.530460557472389e-10
y90 2.5348023114529063e-16
y91 3.0494152170398627e-21
y92 6.474735622158164e-28
y93 1.2993153587186786e-33
y94 1.340400774066527e-40
y95 4.04072380454146e-47
y96 6.353996340430972e-54
y97 1.23679885428974e-62
y98 1.4209742568097285e-72
y99 7.056319179154234e-81
y100 6.741423155266534e-89
y101 1.6112420693658146e-93
y102 0.0
y103 0.0
zr80 3.069868209842814e-39
zr81 2.454392871982523e-36
zr82 2.6459454886960895e-28
zr83 2.401096145602235e-25
zr84 4.0380897909345203e-20
zr85 2.8905805036867646e-19
zr86 1.5463976032518782e-14
zr87 7.300743590989688e-14
zr88 7.755899615580751e-11
zr89 1.2579457468173519e-11
zr90 2.5882100726428187e-09
zr91 2.4125530415776446e-14
zr92 3.3713582107688868e-18
zr93 4.932800235362323e-24
zr94 2.7085753706068565e-25
zr95 6.2761065781415855e-31
zr96 2.555784142095891e-30
zr97 6.396177900897217e-39
zr98 1.597980312032411e-46
zr99 2.9743424983841322e-56
zr100 4.724976644112122e-59
zr101 1.5778511337568495e-69
zr102 0.0
zr103 0.0
zr104 0.0
zr105 0.0
nb83 5.0438438633008465e-37
nb84 2.633393257410705e-33
nb85 2.831573368176037e-27
nb86 4.484410509808423e-25
nb87 2.904836043088857e-20
nb88 1.822485766806021e-19
nb89 2.7414821411566028e-15
nb90 3.908321131007014e-15
nb91 2.7326624160713292e-12
nb92 1.9405040947479709e-16
nb93 1.7300731535580872e-19
nb94 1.2346317579097215e-24
nb95 1.0944794998042991e-26
nb96 1.6384708208899595e-32
nb97 3.6330140650923618e-34
nb98 5.755686116517858e-42
nb99 2.4265494623168896e-43
nb100 2.7335048580574307e-50
nb101 1.012822453500838e-52
nb102 2.3538403052351062e-60
nb103 6.6996021941217676e-65
nb104 1.5237495345818227e-74
nb105 1.3576970397812848e-81
nb106 3.206467446618618e-92
nb107 0.0
mo85 1.7796035480161418e-39
mo86 2.910017841493838e-33
mo87 1.9867192687758354e-29
mo88 3.2371637522185958e-24
mo89 5.817955805531031e-22
mo90 2.1481787699431317e-17
mo91 1.3740816423286347e-16
mo92 7.696241424243685e-13
mo93 7.568313485167004e-16
mo94 2.906932797583713e-15
mo95 1.0508900723775055e-19
mo96 8.944808672484469e-19
mo97 2.055716143830852e-24
mo98 4.3369441727262934e-24
mo99 3.37432494715291e-30
mo100 9.217587212079811e-28
mo101 1.2964581648524538e-35
mo102 2.125220336189177e-36
mo103 7.201966154745144e-45
mo104 3.974449754286812e-50
mo105 2.783686007330229e-59
mo106 3.5786860202836877e-66
mo107 6.854921767284327e-76
mo108 1.0902792051813912e-83
mo109 7.600118235018031e-95
tc88 3.474296134097399e-38
tc89 2.4527694727963506e-32
tc90 1.9575615729427128e-29
tc91 3.924150796636324e-24
tc92 3.1981873384875596e-22
tc93 1.3352640279311717e-17
tc94 1.4864183170464678e-17
tc95 2.85137392983086e-16
tc96 9.446157679542275e-20
tc97 1.2005162825421512e-18
tc98 9.855066038917333e-24
tc99 1.9893509871975783e-24
tc100 1.2063317355347991e-30
tc101 1.1857731823354855e-29
tc102 4.160483500559333e-37
tc103 4.0284937725192985e-35
tc104 1.2165086301610676e-42
tc105 1.4104914044807326e-41
tc106 8.520819990181171e-50
tc107 2.3638089567185105e-54
tc108 1.3243631571395412e-63
tc109 9.712309674352698e-71
tc110 3.9131657668489824e-81
ru91 7.200666359020904e-34
ru92 4.716914071536654e-28
ru93 1.1948903017798729e-23
ru94 4.562577418948468e-16
ru95 1.7962211869169908e-15
ru96 7.750917376468669e-14
ru97 6.033608551996217e-16
ru98 2.866263886378185e-14
ru99 2.424470836607081e-18
ru100 6.861032297625085e-17
ru101 2.988764673226801e-22
ru102 9.454120472937228e-21
ru103 1.5919535522219635e-25
ru104 6.428590840130508e-23
ru105 1.0610245795746982e-29
ru106 1.9844049150779054e-27
ru107 2.775005340853461e-35
ru108 1.056287404435347e-40
ru109 2.3795507855193425e-49
ru110 6.146838355851644e-56
ru111 1.8857510878099535e-65
ru112 1.1035807879050434e-72
rh93 7.5085270560383466e-37
rh94 2.3832949201483636e-31
rh95 5.893979129223924e-23
rh96 7.613312655924983e-22
rh97 1.153203968187217e-18
rh98 7.074594653743977e-19
rh99 4.512070699507056e-16
rh100 5.098252486026493e-19
rh101 5.647177044607608e-17
rh102 8.2663338023345665e-22
rh103 5.575880067090949e-21
rh104 1.8154502164514874e-26
rh105 2.2951644294521907e-24
rh106 7.921857789905884e-31
rh107 2.8399238943003424e-30
rh108 2.523264777975519e-37
rh109 2.89491050521409e-38
rh110 1.0421900909859015e-45
rh111 1.4475682995951788e-46
rh112 1.4588739829649933e-54
rh113 1.3927412555145971e-59
rh114 3.5241235824732663e-69
pd96 6.747823985443249e-25
pd97 9.24197221786251e-22
pd98 5.006656508582623e-17
pd99 5.815999876754565e-16
pd100 6.60089203255237e-14
pd101 1.2011401018064238e-15
pd102 9.641608854532659e-14
pd103 1.990357963843419e-17
pd104 1.1150025088909855e-15
pd105 1.522489818563199e-20
pd106 2.544906345428594e-19
pd107 1.0450187208128163e-24
pd108 1.8664844789281857e-22
pd109 1.2476943490571946e-27
pd110 4.0113995054881006e-25
pd111 1.622780529320953e-32
pd112 2.5610161195144718e-31
pd113 2.3135328872499294e-39
pd114 6.028437896117788e-45
pd115 9.010725559899752e-54
ag98 4.6332554925698934e-30
ag99 2.0904093532833817e-24
ag100 4.0159077525868163e-23
ag101 3.0941511868520967e-20
ag102 1.8009629306392617e-19
ag103 9.651160342294089e-17
ag104 5.83979392460069e-18
ag105 5.131906160788873e-16
ag106 4.379347529853015e-20
ag107 3.776997763360358e-19
ag108 3.6622432137690206e-24
ag109 6.988329601235823e-23
ag110 3.1875546839162128e-28
ag111 9.857905468440493e-26
ag112 3.719240361844846e-32
ag113 3.0935741046362876e-34
ag114 2.021070057638072e-41
ag115 3.470341237235679e-39
ag116 1.891444721525827e-47
cd101 7.675177536728975e-25
cd102 5.975575159595448e-19
cd103 9.921273880229203e-18
cd104 1.0972989411443746e-14
cd105 1.0645173671858131e-15
cd106 1.3282126036718268e-13
cd107 2.1974671228432912e-16
cd108 1.7458202839679572e-14
cd109 9.588661866412261e-19
cd110 4.39199605288197e-17
cd111 4.525707159390192e-22
cd112 3.085035084639051e-20
cd113 2.08837705313614e-25
cd114 4.313268103901284e-23
cd115 6.590783275788617e-28
cd116 1.6538425412855427e-25
cd117 9.379358643603181e-33
in102 6.571388425468499e-34
in103 2.181306906408799e-27
in104 1.141498659252206e-25
in105 3.815771696324568e-22
in106 3.4016153005192847e-22
in107 1.5113638666884483e-18
in108 3.2457655987038195e-18
in109 4.2021719411038796e-16
in110 6.46335000960244e-19
in111 8.929871443336465e-17
in112 3.872385559965556e-21
in113 3.230560182999632e-20
in114 2.9883177037489213e-25
in115 4.5370259850785715e-24
in116 6.518218941663302e-30
in117 6.193330545351678e-29
in118 2.2284423410958322e-35
