n 4.192511223104349e-16
h1 1.4496426324719325e-10
he4 1.3105406408345612e-09
h2 1.1328860099096846e-25
h3 1.9323552632711845e-26
he3 1.6276098139607056e-22
li6 2.8962094692585177e-30
li7 2.6461831245182135e-32
li8 3.7423361610898765e-46
li9 1.2828341972569482e-54
be7 3.3797218215899837e-29
be9 1.3684405862362569e-31
be10 9.332773194878573e-29
be11 1.6604284217577303e-47
be12 1.3357265389987136e-61
b8 2.858405661775543e-42
b10 9.352258114425228e-27
b11 1.0102155905648502e-20
b12 2.7788773455611472e-34
b13 1.291410586956097e-44
b14 1.159308717823047e-62
c10 0.0
c11 8.030958123431406e-19
c12 2.713984857485313e-07
c13 8.557746610250107e-15
c14 1.9716604926438466e-17
c15 7.825187603970491e-35
c16 7.901805082025248e-47
c17 1.1671445943677513e-64
c18 0.0
n11 0.0
n12 2.8013980036897256e-32
n13 1.0388412124830819e-17
n14 1.2256256237267453e-12
n15 8.811983946414107e-15
n16 1.4792486263302708e-29
n17 1.9902851750333735e-38
n18 1.5900030901755876e-52
n19 1.6463692159907403e-62
n20 1.580605342833793e-78
n21 0.0
o13 1.1497650123220351e-43
o14 2.8037247702358847e-23
o15 5.743558793257744e-13
o16 0.015289521858026782
o17 4.270586308311169e-14
o18 1.3176238207887117e-20
o19 5.481526105608304e-32
o20 6.95601654448191e-36
o21 6.765207168572252e-48
o22 1.4147843279137127e-54
f16 1.4926134239493675e-28
f17 3.7455178977609735e-15
f18 5.92690810673715e-18
f19 1.692101872386836e-19
f20 2.016481510144606e-24
f21 4.302172480966149e-27
f22 6.212607456592491e-37
f23 1.0921808353432997e-40
f24 2.681429755057874e-55
f25 5.0952481479095875e-67
f26 6.7297833614587705e-84
ne16 4.575702711813889e-46
ne17 1.236129098160085e-39
ne18 9.888138529511231e-23
ne19 4.550939626928728e-20
ne20 2.884009130813121e-07
ne21 8.310224309020809e-13
ne22 2.628976135999845e-12
ne23 1.771753556159577e-21
ne24 3.1799491365740183e-27
ne25 1.0762331585594066e-38
ne26 5.440842814217161e-48
ne27 1.1445436248201776e-64
ne28 5.72667722360598e-78
ne29 2.8974483639713614e-95
na19 5.065300345502517e-37
na20 6.804790358341224e-30
na21 2.6092060814621094e-16
na22 1.2652808478225647e-12
na23 8.626575077910775e-11
na24 2.4068941956236303e-17
na25 3.6494114353753575e-19
na26 3.111591398267927e-28
na27 8.941591370554446e-36
na28 3.4212934506596e-49
na29 1.54080328585845e-60
na30 7.396995534964958e-76
na31 1.7842838952478158e-88
na32 0.0
mg20 3.598936425999778e-47
mg21 3.5592110318318314e-38
mg22 1.0324588590106958e-20
mg23 7.705141891044832e-11
mg24 1.878756147667254e-05
mg25 1.5264895385949177e-09
mg26 7.992596252457637e-09
mg27 2.1396386048236377e-16
mg28 2.407923145539796e-21
mg29 1.4653381083803682e-33
mg30 7.522678895387428e-42
mg31 1.0410043404001951e-56
mg32 5.533350031918155e-66
mg33 5.448311035824506e-81
mg34 1.1369875567983712e-93
mg35 0.0
al22 2.1007125674019806e-52
al23 3.2367704305512797e-34
al24 2.094661551552217e-21
al25 9.567238074636277e-15
al26 1.0513997949975967e-10
al27 2.2598881376150486e-07
al28 5.349705458911925e-13
al29 2.3807103099075612e-14
al30 4.7095462842244334e-23
al31 7.807059772406379e-30
al32 8.919577625164265e-42
al33 6.448985201927317e-51
al34 5.922113539166056e-66
al35 1.023613355180507e-75
al36 1.8589612914069624e-91
al37 0.0
al38 0.0
si23 1.1970976462319677e-63
si24 5.171249246395032e-43
si25 2.1639685130198574e-29
si26 1.3533925483617719e-18
si27 4.4195934758774324e-08
si28 0.01405589955089859
si29 1.6244174613992647e-05
si30 9.85232158595777e-06
si31 3.0448288612914695e-12
si32 1.1246979562521793e-14
si33 2.430507387454143e-25
si34 2.8056471616108918e-31
si35 1.020630386021798e-45
si36 2.1266164879765493e-54
si37 1.4036085990315632e-69
si38 2.4737616002535526e-79
si39 1.5869656864527348e-94
si40 0.0
si41 0.0
p25 8.842291851568674e-59
p26 1.4720975191476084e-43
p27 7.001504841328923e-31
p28 2.383151153395183e-18
p29 2.0250008099130523e-11
p30 8.337275392492915e-09
p31 1.3568375781687454e-05
p32 2.1850593696490175e-09
p33 3.6107823375652426e-10
p34 1.2912036157525035e-17
p35 5.410930645976704e-22
p36 9.63220339504381e-35
p37 6.315614403090592e-42
p38 6.014509662431258e-54
p39 2.805463578875323e-62
p40 2.3747071493107133e-75
p41 1.3262559391829096e-85
p42 0.0
p43 0.0
p44 0.0
s27 6.181955976774972e-57
s28 4.875805646716396e-41
s29 1.305172248335714e-26
s30 4.09088996703024e-17
s31 7.879099618702031e-10
s32 0.008696764968532493
s33 2.6023116919514382e-05
s34 0.0004543597056045072
s35 8.521960172195803e-10
s36 3.555504849173519e-11
s37 6.701607550848652e-22
s38 2.6353978869011816e-25
s39 2.843977828993164e-36
s40 6.330320053017908e-42
s41 5.533602359563086e-53
s42 1.8142924678576073e-60
s43 4.035742774291788e-75
s44 8.120988507258e-86
s45 0.0
s46 0.0
s47 0.0
cl29 2.3985457587206167e-58
cl30 5.87586596608668e-42
cl31 1.9873643719915355e-30
cl32 7.234973006014657e-21
cl33 2.9751276706906345e-12
cl34 1.2941452422013644e-09
cl35 1.9481148768439776e-05
cl36 1.5436453430244108e-08
cl37 9.444922933364092e-09
cl38 1.158363906296614e-16
cl39 4.625693419923276e-21
cl40 1.6522331802451683e-29
cl41 3.28286630372065e-34
cl42 1.4068893059608922e-42
cl43 6.717937667064985e-45
cl44 3.6542780058935437e-56
cl45 1.519346095857777e-64
cl46 4.590220627214878e-76
cl47 1.2953177108265984e-88
cl48 0.0
cl49 0.0
cl50 0.0
ar31 9.421292903633692e-56
ar32 7.520868949077491e-41
ar33 4.306548979125756e-29
ar34 3.3693293989733993e-18
ar35 1.261071019210773e-12
ar36 0.0008321984360284961
ar37 4.422524648588783e-06
ar38 0.00041623675447633916
ar39 2.6575946466029876e-10
ar40 4.724176434129518e-12
ar41 4.264918165722412e-19
ar42 1.7875585580057744e-17
ar43 8.24958446807257e-26
ar44 3.427946625095243e-27
ar45 7.913241567691424e-37
ar46 7.417975445475899e-42
ar47 4.93824343880456e-53
ar48 3.2817730596560587e-62
ar49 5.790747383750577e-77
ar50 6.891356708867518e-89
ar51 0.0
ar52 0.0
k32 1.2271072035385226e-73
k33 2.668357636721057e-58
k34 2.551436996169886e-44
k35 6.064416891935477e-32
k36 1.1019985635650029e-23
k37 4.2114356738183794e-14
k38 3.4479026089452777e-10
k39 1.8801722194611234e-05
k40 1.3879781768987677e-09
k41 1.0730928922546069e-10
k42 1.9775827459743647e-15
k43 1.0336483886018522e-16
k44 3.4547854506641144e-22
k45 2.0113575025559303e-24
k46 9.222317510855699e-31
k47 5.429058934051131e-33
k48 6.212583166820199e-41
k49 6.805033565113943e-49
k50 5.149342202944324e-63
k51 7.530944922945093e-74
k52 4.575403213702394e-89
k53 0.0
k54 0.0
k55 0.0
ca35 1.0373945762869386e-56
ca36 4.927326178387312e-42
ca37 2.0786379729587564e-32
ca38 2.8673921093189025e-20
ca39 1.179801097779984e-13
ca40 0.00037603173591764635
ca41 7.264158782673912e-07
ca42 8.077498896386228e-06
ca43 2.753344205963546e-09
ca44 6.25425420836736e-10
ca45 2.5123201066981286e-14
ca46 8.541790551520356e-14
ca47 3.053903944689188e-17
ca48 1.423880738764044e-14
ca49 5.417862964802142e-24
ca50 3.531278581164412e-32
ca51 3.63186803787867e-43
ca52 1.2889752720709775e-54
ca53 2.5470791991881506e-67
ca54 4.801810638933408e-80
ca55 7.60578012803386e-95
ca56 0.0
ca57 0.0
sc36 1.808376411597317e-74
sc37 1.7073098598302028e-59
sc38 2.1871495680321863e-46
sc39 2.504329979720016e-35
sc40 1.0177936338897965e-26
sc41 1.1326681563554779e-15
sc42 1.4460373859020183e-13
sc43 1.3112281452675912e-09
sc44 2.451498686246599e-10
sc45 8.805443017010457e-10
sc46 6.180540764633359e-13
sc47 3.178606194127152e-13
sc48 2.754234276107319e-14
sc49 4.270263329998013e-15
sc50 4.8695222977371793e-23
sc51 5.927575079521773e-30
sc52 9.73846087611733e-40
sc53 1.922223126654902e-49
sc54 2.65867983641293e-60
sc55 1.3079934598734149e-73
sc56 3.9330468628723755e-86
sc57 1.5569146255232797e-99
sc58 0.0
sc59 0.0
ti39 1.104256969162532e-59
ti40 1.352707576414259e-46
ti41 9.368082397837602e-37
ti42 1.1301116350826833e-23
ti43 1.1635110244071783e-18
ti44 6.98605253355185e-08
ti45 1.07220706285596e-08
ti46 3.5373600274840647e-06
ti47 4.5160438585584247e-08
ti48 1.0239657137562957e-08
ti49 6.49679218089599e-12
ti50 9.48967720096681e-12
ti51 1.0612740238769328e-18
ti52 1.9336645497201658e-23
ti53 2.89948882548755e-32
ti54 1.5779761817063393e-39
ti55 3.623164243464175e-51
ti56 4.104957772179534e-61
ti57 2.653149070838926e-75
ti58 1.322284653528608e-85
ti59 0.0
ti60 0.0
ti61 0.0
ti62 0.0
v41 3.1313440166572086e-63
v42 1.6632534329921373e-51
v43 2.258295379135718e-37
v44 5.313732046674316e-29
v45 4.850064666980724e-18
v46 9.1052925613169e-14
v47 2.0022358073513566e-09
v48 5.558736953224374e-09
v49 8.622095941355408e-09
v50 7.345724700109037e-11
v51 6.284434594412355e-10
v52 3.8603243740776934e-15
v53 3.8329476855484105e-19
v54 2.935308551312991e-27
v55 5.603402877337865e-33
v56 2.888298030664782e-43
v57 2.2735133461308347e-51
v58 2.803591695604948e-63
v59 1.0542927668178287e-73
v60 2.8035861400700186e-85
v61 4.931512644317278e-96
v62 0.0
v63 0.0
v64 0.0
v65 0.0
cr43 9.820738791718986e-64
cr44 6.111029252755075e-47
cr45 1.833363234608645e-39
cr46 3.6760544865697875e-24
cr47 2.8689268281683433e-18
cr48 6.740906194012094e-09
cr49 1.3897296243537343e-08
cr50 4.057504615400019e-06
cr51 2.3833643496531566e-07
cr52 1.4079727701651553e-06
cr53 2.156394885111896e-10
cr54 1.3669614478999334e-11
cr55 1.0854684419551359e-18
cr56 2.371123216719006e-22
cr57 2.5121448961910006e-31
cr58 2.0154141467076805e-37
cr59 1.2337589538890049e-48
cr60 4.228956781137984e-54
cr61 5.500491765096875e-66
cr62 2.1281332059048938e-74
cr63 3.118314088885262e-87
cr64 3.213712069040053e-97
cr65 0.0
cr66 0.0
cr67 0.0
cr68 0.0
mn45 1.1196562250659125e-62
mn46 2.3376429970645545e-52
mn47 1.1823096507035527e-37
mn48 1.720365468685168e-28
mn49 1.78272838867679e-18
mn50 2.975783790400982e-14
mn51 2.254906513526103e-09
mn52 1.0851021523741357e-08
mn53 3.565641286181188e-07
mn54 1.9796525037621823e-09
mn55 7.494474071122535e-10
mn56 2.8227619642691584e-15
mn57 2.45312721945317e-18
mn58 1.2620626951417182e-25
mn59 3.6020913473408337e-28
mn60 9.964484785220501e-36
mn61 1.3956592803941167e-42
mn62 1.5697929874066561e-53
mn63 7.119852911162092e-61
mn64 3.9552609342595163e-72
mn65 3.3571104297551772e-80
mn66 8.9126204120504e-93
mn67 0.0
mn68 0.0
mn69 0.0
mn70 0.0
mn71 0.0
fe47 5.1578628434028444e-64
fe48 9.50818864538077e-47
fe49 5.31519104260307e-38
fe50 9.509487891815442e-26
fe51 5.64267510891657e-19
fe52 4.196237607454875e-10
fe53 3.4025061625079276e-09
fe54 2.4355883991501777e-05
fe55 1.303250184422696e-06
fe56 9.701802468323728e-06
fe57 8.586476768876192e-10
fe58 1.2005885446007256e-09
fe59 6.368746864646628e-15
fe60 6.251074724973172e-12
fe61 1.9651980763398006e-20
fe62 2.5522092435016375e-25
fe63 2.6829303702488816e-35
fe64 6.124555360247227e-42
fe65 2.3305839244120693e-53
fe66 1.2827428241856566e-60
fe67 6.731736668399822e-72
fe68 9.703289219091244e-82
fe69 1.5634709472463324e-94
fe70 0.0
fe71 0.0
fe72 0.0
fe73 0.0
fe74 0.0
co48 2.7192973968275194e-80
co49 1.610850857300265e-59
co50 1.1518058828602217e-52
co51 3.470153293735399e-39
co52 1.0092968354174433e-31
co53 1.2285647574763394e-20
co54 3.262674579581197e-15
co55 5.4837104695863606e-09
co56 4.0748332018197716e-09
co57 1.7490750254278963e-07
co58 5.288204467179411e-10
co59 2.140715507936343e-09
co60 1.0678462640998266e-13
co61 2.728180009838631e-13
co62 4.6524344226323774e-20
co63 7.609299513581869e-23
co64 4.385854505333721e-31
co65 3.8958271416902895e-32
co66 6.753850138297873e-42
co67 4.1288350900922246e-46
co68 3.6739732544487375e-57
co69 2.2129395802953674e-64
co70 5.406465257785008e-77
co71 1.182504001151185e-84
co72 1.2729910787597013e-97
co73 0.0
co74 0.0
co75 0.0
co76 0.0
co77 0.0
ni51 1.96783173452113e-64
ni52 2.4827242099811196e-49
ni53 1.1938365988133065e-40
ni54 1.8409419314722515e-28
ni55 1.3750195421388056e-20
ni56 4.0479075598251635e-10
ni57 1.4332677863952245e-09
ni58 1.141190772902471e-06
ni59 3.47605641773743e-08
ni60 4.663714329251078e-06
ni61 9.530409393391217e-10
ni62 1.1790082637075317e-07
ni63 2.3649033457246254e-13
ni64 1.5071736688657667e-10
ni65 2.512349455500807e-17
ni66 8.014631909749069e-14
ni67 3.6999611657450533e-22
ni68 3.0426504154416745e-27
ni69 2.3651156399175193e-37
ni70 1.1157269429749996e-43
ni71 4.78533533518931e-55
ni72 4.725261704257168e-62
ni73 1.6896815822780246e-73
ni74 3.31732292294349e-80
ni75 2.710405122771529e-92
ni76 0.0
ni77 0.0
ni78 0.0
ni79 0.0
cu52 7.377420656592819e-82
cu53 3.200918035318657e-67
cu54 8.0067532206307785e-56
cu55 3.3326853048254872e-43
cu56 7.4394027704807285e-34
cu57 1.0700966992955075e-22
cu58 1.9350208279261076e-18
cu59 7.740321131498378e-14
cu60 1.418717956151325e-13
cu61 1.6421363985998136e-10
cu62 1.8118685603898572e-12
cu63 1.7205422120116882e-09
cu64 6.456501496352012e-13
cu65 8.445969702344308e-11
cu66 2.342503362022658e-16
cu67 1.1407483907794638e-13
cu68 4.538985796832996e-21
cu69 7.893368991799682e-24
cu70 7.036748881191184e-33
cu71 8.138028928860781e-33
cu72 1.920136423034686e-42
cu73 1.3316058616907717e-46
cu74 3.186321579223045e-56
cu75 1.3399355228275483e-64
cu76 2.20911511221294e-74
cu77 6.950986400850163e-84
cu78 4.251675538344359e-95
cu79 0.0
cu80 0.0
cu81 0.0
cu82 0.0
zn55 2.198798820536367e-69
zn56 2.690248297636624e-55
zn57 1.5378124073669112e-45
zn58 2.513101024940075e-33
zn59 2.9433794131441985e-27
zn60 7.060459671132291e-19
zn61 9.410599282930654e-18
zn62 7.03783147132947e-13
zn63 2.700152552727713e-13
zn64 1.1392902089822688e-09
zn65 3.4010496316602512e-12
zn66 4.062990036905856e-09
zn67 4.130301709568177e-14
zn68 1.2481295256490636e-10
zn69 7.207625621127332e-17
zn70 3.533161585841667e-13
zn71 1.0023936072639738e-20
zn72 4.519778979656161e-17
zn73 6.42049396557001e-26
zn74 7.372572670721783e-30
zn75 1.1563926904902025e-39
zn76 3.097499097640728e-45
zn77 1.889432324154738e-55
zn78 2.66646445074182e-63
zn79 3.0809205770322857e-74
zn80 9.663828345319335e-82
zn81 5.470858601835756e-97
zn82 0.0
zn83 0.0
zn84 0.0
ga57 3.714586336832781e-74
ga58 6.853610317459835e-63
ga59 3.0625889732014104e-49
ga60 2.0196985415761723e-41
ga61 1.934169322482155e-32
ga62 1.4423773471586907e-26
ga63 2.209223249170937e-21
ga64 7.667819665554887e-20
ga65 1.5587296570054105e-15
ga66 1.6647371468460211e-16
ga67 1.8173947690474649e-12
ga68 1.7424853901886816e-14
ga69 2.070385466540654e-11
ga70 1.6504231360000505e-15
ga71 1.2264464438161208e-12
ga72 3.983885491041167e-18
ga73 3.041141039714218e-14
ga74 3.2531921684089232e-21
ga75 2.155410624110715e-24
ga76 5.1710849172460714e-33
ga77 8.878571248135103e-36
ga78 4.249054442918145e-44
ga79 5.584870765174776e-49
ga80 7.523876215798967e-60
ga81 2.6697800856384416e-66
ga82 3.422462029273239e-80
ga83 9.140915834001138e-92
ga84 0.0
ga85 0.0
ga86 0.0
ge59 7.070949680921504e-77
ge60 3.3645868531708103e-62
ge61 3.6360696331371885e-54
ge62 1.0257020359405533e-42
ge63 5.671701863993282e-37
ge64 1.2765249704827945e-26
ge65 4.870799996142885e-25
ge66 1.2510241463517157e-18
ge67 1.9721831436212055e-18
ge68 1.1844971318527806e-12
ge69 8.469466485848325e-14
ge70 8.342866974112923e-10
ge71 8.786502880783615e-14
ge72 1.2825808529063433e-09
ge73 6.6501377812739875e-15
ge74 7.41481652956713e-12
ge75 3.129949255526128e-17
ge76 1.6328999900446322e-13
ge77 1.159144112538349e-20
ge78 4.805362420835129e-19
ge79 3.5193898940848336e-27
ge80 4.622494142468856e-32
ge81 9.604761014880652e-42
ge82 2.6919022944999178e-48
ge83 4.944951730671339e-61
ge84 2.2907879590462966e-71
ge85 4.2562492885642364e-85
ge86 2.2303739539832758e-96
ge87 0.0
ge88 0.0
ge89 0.0
as61 7.839648042025903e-81
as62 3.4491073918816455e-71
as63 1.3592667349845478e-58
as64 2.9524027176825074e-51
as65 1.737623536214577e-40
as66 1.3504169636172602e-34
as67 8.008653169881966e-28
as68 7.33571275311231e-26
as69 2.0223774715031645e-19
as70 4.2886056630370016e-19
as71 3.099160700818042e-14
as72 4.3733145986779557e-16
as73 7.421839263486125e-12
as74 3.2956169837226838e-15
as75 4.353500774846088e-12
as76 1.2402525978441943e-16
as77 4.39418119422947e-13
as78 1.2686080508075918e-19
as79 5.914021953130236e-19
as80 6.383510631508195e-26
as81 9.443629483778244e-29
as82 4.731345002235767e-37
as83 2.0651402491096006e-40
as84 4.667918893474949e-52
as85 8.566287096914074e-62
as86 8.526174982091517e-74
as87 1.6225256981727955e-84
as88 1.6772849665437487e-97
as89 0.0
as90 0.0
as91 0.0
se64 1.759433851461014e-71
se65 1.0857701665328954e-64
se66 9.020931807954294e-52
se67 6.818038815884583e-45
se68 1.6229138541292856e-33
se69 2.430066203536223e-31
se70 1.3877433113590192e-22
se71 3.782491477832225e-21
se72 2.4301253650702177e-13
se73 7.180533843812394e-14
se74 1.7199311671828016e-09
se75 1.9800473535629823e-12
se76 3.561739762286702e-09
se77 1.5640184381673074e-13
se78 2.836314163378954e-11
se79 1.0218490071437291e-15
se80 2.646500968490468e-12
se81 2.4542257934760144e-17
se82 3.7022270378938945e-14
se83 7.843808662984276e-22
se84 1.2941476165830319e-25
se85 6.557307648920502e-36
se86 9.064195073869924e-45
se87 8.608904285608173e-56
se88 2.5083592583406584e-66
se89 9.54087365700178e-79
se90 2.448424920678345e-90
se91 0.0
se92 0.0
se93 0.0
br66 6.040735373608204e-82
br67 2.7814405291672455e-68
br68 5.808658340194716e-60
br69 8.910342035151422e-48
br70 1.1825902467193725e-40
br71 1.568489498490186e-31
br72 3.267944908133848e-29
br73 9.507337820862397e-21
br74 1.4333040000763034e-19
br75 1.828006937334499e-14
br76 6.113179861089725e-16
br77 5.083489635016199e-12
br78 2.2413929115416044e-15
br79 3.7110140424373186e-12
br80 1.3816103870350733e-15
br81 1.4875236281614364e-12
br82 9.250321813462885e-17
br83 2.0900380149056495e-14
br84 1.1483396662328924e-20
br85 2.292658714138472e-22
br86 4.682002812014973e-32
br87 3.5527135431665595e-40
br88 3.2547074403796096e-50
br89 7.39688944598063e-59
br90 2.525776745569869e-70
br91 4.454789503987428e-81
br92 1.6040730103702256e-94
br93 0.0
br94 0.0
br95 0.0
kr69 9.798772811904462e-73
kr70 2.7397646815811895e-58
kr71 7.435549465157123e-50
kr72 8.764486462407929e-39
kr73 3.4029906025399853e-34
kr74 2.3467816627215966e-24
kr75 2.3756530976172215e-21
kr76 2.032752951422938e-14
kr77 6.872548560234999e-14
kr78 5.574017239857574e-10
kr79 2.5745035872544316e-12
kr80 4.031916300803035e-09
kr81 1.6505968942678777e-12
kr82 1.5697302127544784e-10
kr83 1.4611024266779018e-14
kr84 7.534628129554391e-12
kr85 5.737717661136544e-16
kr86 1.396271940107037e-12
kr87 4.7194538847154026e-21
kr88 5.4685978224921e-28
kr89 3.2273092996767433e-37
kr90 1.1180378581813879e-45
kr91 2.1746599393933113e-56
kr92 2.616411661424124e-66
kr93 9.137155716011236e-79
kr94 1.9835525094833477e-89
kr95 0.0
kr96 0.0
kr97 0.0
rb72 1.5426445556447963e-61
rb73 1.9242020754113198e-53
rb74 2.5914835422278445e-43
rb75 7.841394524358211e-34
rb76 3.437235367318339e-29
rb77 7.06342068898708e-22
rb78 9.992624061909831e-21
rb79 1.5369953561385337e-15
rb80 4.2848223324979126e-17
rb81 7.038609726698057e-13
rb82 2.969605830651702e-15
rb83 2.71475230641487e-12
rb84 4.5183970477242475e-15
rb85 3.5708899521361878e-12
rb86 1.1830963954089954e-14
rb87 1.1124344937584258e-12
rb88 3.3035515824119214e-20
rb89 1.6050515446158607e-26
rb90 3.9835097881967616e-35
rb91 1.3552485872215084e-42
rb92 1.0399187853333004e-52
rb93 4.4084837416865006e-61
rb94 8.134554128836814e-73
rb95 1.2331212241053907e-82
rb96 1.155739607202331e-95
rb97 0.0
rb98 0.0
rb99 0.0
sr75 3.8390746117063924e-54
sr76 2.8164328408960225e-40
sr77 1.3712371073176958e-34
sr78 4.6606945258079554e-26
sr79 2.1178480517898408e-23
sr80 3.382114226197657e-17
sr81 4.828135642656232e-16
sr82 1.4056786849163537e-11
sr83 7.961210230234145e-13
sr84 1.0498641345583735e-09
sr85 8.008125013067236e-12
sr86 9.439929246086748e-10
sr87 4.355966888471316e-12
sr88 4.873631723738206e-10
sr89 7.618315351630612e-17
sr90 2.0290701366477626e-20
sr91 2.6784837174844517e-28
sr92 1.1635393332590627e-33
sr93 1.2721191219638294e-42
sr94 2.677177416175342e-49
sr95 1.2156087786038123e-60
sr96 1.7901304718459846e-69
sr97 1.7225146880818226e-80
sr98 2.704051782651892e-81
sr99 1.78283640438768e-94
sr100 0.0
sr101 0.0
y77 2.324311795395601e-54
y78 8.020179220909735e-45
y79 4.3620643880495534e-35
y80 1.0389730134725924e-31
y81 5.584796793677827e-25
y82 6.517400625605906e-23
y83 1.1282865636172018e-17
y84 1.8257565626800734e-18
y85 3.124935639685407e-14
y86 3.761202367709743e-15
y87 3.0786035844627433e-12
y88 6.79788094626086e-13
y89 2.256124683284501e-10
y90 2.4412180559615913e-16
y91 2.816053554663636e-21
y92 3.858841829158075e-28
y93 1.3113624610706434e-31
y94 7.524477235424461e-39
y95 8.146966141759282e-42
y96 3.488548016377356e-49
y97 4.298800671194706e-58
y98 1.2657671037197822e-68
y99 8.690589921946708e-76
y100 2.085171107375504e-83
y101 3.3815480236201767e-87
y102 0.0
y103 0.0
zr80 2.1110477274499057e-41
zr81 2.909351933559903e-38
zr82 1.5151272861819963e-29
zr83 2.2290159319024012e-26
zr84 1.0627016307279166e-20
zr85 8.12900115866017e-20
zr86 1.3436190443910676e-14
zr87 6.120344042229181e-14
zr88 8.607286264811117e-11
zr89 1.5827584465756348e-11
zr90 3.437488925109485e-09
zr91 2.4464361898284844e-14
zr92 1.3070886212451717e-15
zr93 1.9527298356543535e-20
zr94 2.179568238924832e-19
zr95 1.057189132777524e-24
zr96 8.109323968097504e-24
zr97 1.0232905682119514e-32
zr98 1.5650449945094014e-40
zr99 8.081309269183728e-51
zr100 1.5336593684232228e-52
zr101 2.058505248142998e-62
zr102 1.4907135151720943e-70
zr103 4.896602483722867e-81
zr104 7.212859389125068e-90
zr105 0.0
nb83 4.924935458289053e-39
nb84 4.8142869198491836e-35
nb85 1.8404316095711166e-28
nb86 3.9323425044713415e-26
nb87 7.777517404265145e-21
nb88 4.970754023942647e-20
nb89 1.147706813302366e-15
nb90 2.271408954983913e-15
nb91 1.794460123912615e-12
nb92 1.1592786314636147e-16
nb93 1.9042445227530547e-18
nb94 1.9958235819480374e-22
nb95 3.610529030773447e-21
nb96 3.3315010662460646e-27
nb97 1.1682127935490054e-27
nb98 9.349778535551328e-36
nb99 2.608183931516744e-38
nb100 7.777124464357775e-46
nb101 1.379962844085224e-47
nb102 9.265389470228186e-56
nb103 3.47489482773506e-60
nb104 2.6417183461696827e-70
nb105 3.172722247371961e-77
nb106 2.0065706585432385e-88
nb107 2.224828528539268e-97
mo85 1.290840376751311e-41
mo86 8.093255982405452e-35
mo87 8.493786460661369e-31
mo88 5.323645525666398e-25
mo89 1.1422478916861919e-22
mo90 1.0863916025970801e-17
mo91 8.95543328376364e-17
mo92 1.1058911462751236e-12
mo93 1.3525962528164569e-15
mo94 1.0833667932049627e-14
mo95 1.638466767798072e-17
mo96 7.592423920856048e-16
mo97 2.1082477068466715e-20
mo98 1.1237501816582465e-18
mo99 1.7049953180217598e-24
mo100 1.1740196857593297e-21
mo101 6.776475685467475e-30
mo102 4.241308657865486e-30
mo103 6.134235617969028e-39
mo104 1.0091327420271418e-43
mo105 3.2834702937422517e-53
mo106 3.1042020045167174e-60
mo107 1.9843185081475285e-70
mo108 1.153959827923698e-78
mo109 1.9063379227506996e-90
tc88 2.4325883303935986e-40
tc89 7.447543341894772e-34
tc90 9.594715430450818e-31
tc91 4.953959977569732e-25
tc92 6.701406222541201e-23
tc93 6.187206520768879e-18
tc94 7.634794779764057e-18
tc95 2.147735044806701e-16
tc96 1.1701098297341037e-19
tc97 4.45159319796164e-18
tc98 2.21486265816616e-22
tc99 3.126054882370385e-20
tc100 2.0346150265212814e-26
tc101 4.99867441002277e-24
tc102 8.049836645874567e-32
tc103 4.355652904421415e-31
tc104 8.382605299657991e-39
tc105 1.4373730398620778e-36
tc106 2.780172900127392e-45
tc107 8.080582791834214e-50
tc108 1.5224277827370452e-59
tc109 6.993303813030312e-67
tc110 8.485519935187747e-78
ru91 1.6150794838960486e-35
ru92 3.2919514960164825e-29
ru93 1.7814081414681443e-24
ru94 3.7642577011625503e-16
ru95 1.820118508315868e-15
ru96 1.2445963468789543e-13
ru97 6.861539402313204e-16
ru98 5.851016841563772e-14
ru99 2.3159521581298127e-17
ru100 2.939815169374386e-15
ru101 3.1436878186323195e-19
ru102 9.247045644297555e-17
ru103 4.349120768942296e-21
ru104 4.349188616447246e-18
ru105 1.9625879942502324e-24
ru106 1.7932235271584243e-21
ru107 1.1609857230142112e-29
ru108 4.941700516547569e-35
ru109 4.3706528322871287e-44
ru110 9.196181264658646e-51
ru111 9.330653129692047e-61
ru112 3.6393591735709225e-68
rh93 8.770687773222871e-39
rh94 7.959734278782603e-33
rh95 1.2571065682857451e-23
rh96 2.271107180393748e-22
rh97 4.2173991718030374e-19
rh98 2.4930891997421307e-19
rh99 3.0739104784342715e-16
rh100 4.2836202250699167e-19
rh101 8.826569864053337e-17
rh102 6.946714373420376e-21
rh103 3.43382587454452e-18
rh104 1.1895445401691992e-22
rh105 8.821320143393134e-20
rh106 2.0749209792875103e-26
rh107 2.1386939650565285e-24
rh108 1.0232803806656842e-31
rh109 1.3838258380240499e-33
rh110 1.7053997422805117e-41
rh111 3.6721771765763923e-41
rh112 9.010503473698941e-50
rh113 8.26097811639819e-55
rh114 6.93448552944502e-65
pd96 7.080019680858781e-26
pd97 2.0568825054415326e-22
pd98 3.5587834922541246e-17
pd99 4.683587784672515e-16
pd100 1.0145672734001524e-13
pd101 1.2497334129881653e-15
pd102 1.8438794697257271e-13
pd103 3.594066949367123e-17
pd104 4.650152742229717e-15
pd105 1.0421170555178001e-18
pd106 3.205625823189738e-16
pd107 1.6024894222594563e-20
pd108 9.78506387511459e-18
pd109 1.6013764361565232e-22
pd110 1.2667514840329115e-19
pd111 2.7836276270012375e-27
pd112 5.849193627469892e-25
pd113 2.330191849033031e-33
pd114 7.752703748555199e-39
pd115 4.315211840878795e-48
ag98 2.2207293689199392e-31
ag99 3.4049727432890904e-25
ag100 9.01812053355156e-24
ag101 1.2956571968196679e-20
ag102 4.696517237418295e-20
ag103 5.469618114656351e-17
ag104 3.2340790422733887e-18
ag105 5.039834820210007e-16
ag106 1.094823465499109e-19
ag107 1.3774897036341433e-17
ag108 2.3845081555006376e-21
ag109 9.0780894268089e-19
ag110 1.5404062256357306e-23
ag111 1.3595688290715846e-20
ag112 2.9715481549611515e-27
ag113 2.5808396812298885e-28
ag114 4.27313701858353e-36
ag115 2.789302331928722e-34
ag116 5.73105747380671e-43
cd101 6.977780868895413e-26
cd102 2.209650677912607e-19
cd103 4.650462016846123e-18
cd104 1.2421484179140506e-14
cd105 9.038489536715583e-16
cd106 2.3153652021707146e-13
cd107 2.508224350666459e-16
cd108 3.7091596288771053e-14
cd109 1.1799522481361374e-17
cd110 2.8709131008350193e-15
cd111 5.923479642843463e-19
cd112 2.163533952492539e-16
cd113 1.000787090678499e-20
cd114 6.09029694017425e-18
cd115 1.4591564241440985e-22
cd116 9.562208267585356e-20
cd117 2.453537582701987e-27
in102 1.1012936218895114e-35
in103 1.6028106552066021e-28
in104 1.2618096098170995e-26
in105 1.0615857766763148e-22
in106 7.464032617213605e-23
in107 4.881925511262795e-19
in108 1.141626224079012e-18
in109 3.081736968953357e-16
in110 4.787353692481135e-19
in111 1.4138932360704565e-16
in112 6.801483823338699e-21
in113 8.314841140573856e-19
in114 1.0607143279402636e-22
in115 3.5096051354076105e-20
in116 8.795667541698707e-26
in117 2.5690922730575454e-23
in118 3.7730737342249535e-30
